-2.372950000000000000e+05 -8.961300000000000000e+04
-2.657680000000000000e+05 -2.830300000000000000e+04
-2.749750000000000000e+05 3.832700000000000000e+04
-2.569020000000000000e+05 1.089800000000000000e+05
-2.081060000000000000e+05 1.724390000000000000e+05
-1.386810000000000000e+05 2.128120000000000000e+05
-5.946900000000000000e+04 2.302700000000000000e+05
1.408300000000000000e+04 2.207920000000000000e+05
8.013400000000000000e+04 1.983200000000000000e+05
1.270190000000000000e+05 1.628230000000000000e+05
1.580140000000000000e+05 1.207450000000000000e+05
1.764620000000000000e+05 7.617700000000000000e+04
1.808950000000000000e+05 3.266700000000000000e+04
1.720970000000000000e+05 -6.308000000000000000e+03
1.536500000000000000e+05 -3.825900000000000000e+04
1.300870000000000000e+05 -6.229900000000000000e+04
9.793200000000000000e+04 -7.464300000000000000e+04
7.324400000000000000e+04 -7.624500000000000000e+04
5.258100000000000000e+04 -7.515400000000000000e+04
3.819100000000000000e+04 -7.031200000000000000e+04
3.126900000000000000e+04 -6.502700000000000000e+04
2.877900000000000000e+04 -6.226500000000000000e+04
2.519900000000000000e+04 -6.465100000000000000e+04
1.998200000000000000e+04 -7.024400000000000000e+04
1.070600000000000000e+04 -8.217900000000000000e+04
-6.206000000000000000e+03 -9.063600000000000000e+04
-3.021200000000000000e+04 -1.005920000000000000e+05
-6.090100000000000000e+04 -9.885300000000000000e+04
-9.281800000000000000e+04 -8.773600000000000000e+04
-1.233020000000000000e+05 -6.840300000000000000e+04
-1.483990000000000000e+05 -3.812300000000000000e+04
-1.592770000000000000e+05 -2.114000000000000000e+03
-1.571970000000000000e+05 3.488300000000000000e+04
-1.446820000000000000e+05 7.154000000000000000e+04
-1.184260000000000000e+05 9.898900000000000000e+04
-7.740500000000000000e+04 1.162100000000000000e+05
-4.773900000000000000e+04 1.420230000000000000e+05
4.398000000000000000e+03 1.422280000000000000e+05
5.019400000000000000e+04 1.310760000000000000e+05
9.418100000000000000e+04 1.102080000000000000e+05
1.229950000000000000e+05 8.272400000000000000e+04
1.393280000000000000e+05 4.634100000000000000e+04
1.396020000000000000e+05 9.820000000000000000e+03
1.293030000000000000e+05 -2.127800000000000000e+04
1.081950000000000000e+05 -4.436200000000000000e+04
8.494100000000000000e+04 -5.711600000000000000e+04
5.997900000000000000e+04 -6.431000000000000000e+04
4.054300000000000000e+04 -6.431100000000000000e+04
2.274300000000000000e+04 -6.008300000000000000e+04
1.098000000000000000e+04 -5.650300000000000000e+04
4.603000000000000000e+03 -4.886300000000000000e+04
1.057000000000000000e+03 -4.354400000000000000e+04
-9.890000000000000000e+02 -4.160100000000000000e+04
-5.081000000000000000e+03 -4.030500000000000000e+04
-7.331000000000000000e+03 -4.183900000000000000e+04
-1.377600000000000000e+04 -4.664700000000000000e+04
-2.165300000000000000e+04 -5.138700000000000000e+04
-3.420200000000000000e+04 -5.271700000000000000e+04
-4.753500000000000000e+04 -4.886400000000000000e+04
-6.287900000000000000e+04 -4.051000000000000000e+04
-7.883700000000000000e+04 -2.959800000000000000e+04
-9.114700000000000000e+04 -1.101400000000000000e+04
-9.435200000000000000e+04 8.560000000000000000e+03
-9.360200000000000000e+04 3.171200000000000000e+04
-8.269100000000000000e+04 5.189900000000000000e+04
-6.165100000000000000e+04 6.680000000000000000e+04
-3.570200000000000000e+04 7.757500000000000000e+04
-4.876000000000000000e+03 8.350900000000000000e+04
2.086900000000000000e+04 7.900700000000000000e+04
-5.824200000000000000e+04 5.974200000000000000e+04
-3.512200000000000000e+04 7.003900000000000000e+04
-1.077600000000000000e+04 7.143700000000000000e+04
1.271900000000000000e+04 6.864100000000000000e+04
3.624700000000000000e+04 6.472000000000000000e+04
5.169300000000000000e+04 5.285300000000000000e+04
6.079800000000000000e+04 3.979400000000000000e+04
6.529900000000000000e+04 2.516500000000000000e+04
6.212900000000000000e+04 1.193500000000000000e+04
5.592200000000000000e+04 1.568000000000000000e+03
4.883000000000000000e+04 -7.127000000000000000e+03
4.194100000000000000e+04 -9.376000000000000000e+03
3.069000000000000000e+04 -1.401500000000000000e+04
2.615400000000000000e+04 -1.589000000000000000e+04
2.151600000000000000e+04 -1.370800000000000000e+04
1.988000000000000000e+04 -1.442400000000000000e+04
1.953800000000000000e+04 -1.520800000000000000e+04
1.701500000000000000e+04 -2.001700000000000000e+04
1.643600000000000000e+04 -2.485800000000000000e+04
1.466300000000000000e+04 -3.171300000000000000e+04
9.138000000000000000e+03 -3.972500000000000000e+04
1.194000000000000000e+03 -4.351000000000000000e+04
-8.968000000000000000e+03 -4.790900000000000000e+04
-2.342500000000000000e+04 -4.910200000000000000e+04
-3.679300000000000000e+04 -4.432900000000000000e+04
-4.947800000000000000e+04 -3.890700000000000000e+04
-6.246900000000000000e+04 -2.710900000000000000e+04
-6.908500000000000000e+04 -1.582100000000000000e+04
-7.331300000000000000e+04 -3.750000000000000000e+02
-7.344900000000000000e+04 1.551500000000000000e+04
-6.519800000000000000e+04 3.218900000000000000e+04
-5.496700000000000000e+04 4.497700000000000000e+04
-3.774700000000000000e+04 5.469400000000000000e+04
-2.018600000000000000e+04 5.776400000000000000e+04
-2.148000000000000000e+03 5.749200000000000000e+04
1.346900000000000000e+04 5.377500000000000000e+04
2.697200000000000000e+04 4.490800000000000000e+04
3.583800000000000000e+04 3.600900000000000000e+04
3.863400000000000000e+04 2.584700000000000000e+04
4.010100000000000000e+04 1.664100000000000000e+04
3.774700000000000000e+04 7.059000000000000000e+03
3.311100000000000000e+04 -4.090000000000000000e+02
2.820000000000000000e+04 -2.625000000000000000e+03
2.448300000000000000e+04 -7.570000000000000000e+03
1.926600000000000000e+04 -9.241000000000000000e+03
1.551500000000000000e+04 -9.786000000000000000e+03
1.442500000000000000e+04 -1.033200000000000000e+04
1.217300000000000000e+04 -1.241200000000000000e+04
1.306000000000000000e+04 -1.425300000000000000e+04
1.234500000000000000e+04 -1.469700000000000000e+04
1.210500000000000000e+04 -1.964200000000000000e+04
8.968000000000000000e+03 -2.543800000000000000e+04
5.320000000000000000e+03 -3.143900000000000000e+04
-1.398000000000000000e+03 -3.675800000000000000e+04
-1.299300000000000000e+04 -3.928200000000000000e+04
-2.417700000000000000e+04 -4.126000000000000000e+04
-3.788400000000000000e+04 -3.539500000000000000e+04
-5.114800000000000000e+04 -2.574400000000000000e+04
-5.998100000000000000e+04 -1.346900000000000000e+04
-6.455000000000000000e+04 1.534000000000000000e+03
-6.308400000000000000e+04 1.776600000000000000e+04
-5.633200000000000000e+04 3.045000000000000000e+04
-4.780700000000000000e+04 4.402200000000000000e+04
-3.283700000000000000e+04 5.520700000000000000e+04
-1.776600000000000000e+04 5.646900000000000000e+04
-2.730000000000000000e+02 5.929900000000000000e+04
1.783300000000000000e+04 5.319500000000000000e+04
3.201900000000000000e+04 4.620400000000000000e+04
4.269200000000000000e+04 3.665700000000000000e+04
4.773900000000000000e+04 2.605200000000000000e+04
4.681700000000000000e+04 1.544700000000000000e+04
4.323700000000000000e+04 7.945000000000000000e+03
4.085100000000000000e+04 1.501000000000000000e+03
3.560000000000000000e+04 -3.001000000000000000e+03
3.178000000000000000e+04 -5.865000000000000000e+03
2.843800000000000000e+04 -3.956000000000000000e+03
2.407300000000000000e+04 -5.252000000000000000e+03
2.318700000000000000e+04 -4.467000000000000000e+03
2.018700000000000000e+04 -3.614000000000000000e+03
1.991400000000000000e+04 -2.285000000000000000e+03
2.025500000000000000e+04 -6.480000000000000000e+02
2.482500000000000000e+04 -4.671000000000000000e+03
2.871100000000000000e+04 -4.229000000000000000e+03
3.430300000000000000e+04 -1.333300000000000000e+04
4.460100000000000000e+04 -1.895900000000000000e+04
6.185500000000000000e+04 -3.665700000000000000e+04
8.814600000000000000e+04 -6.911900000000000000e+04
6.240200000000000000e+04 -1.597540000000000000e+05
-1.100030000000000000e+05 -2.655630000000000000e+05
-2.393750000000000000e+05 -1.782350000000000000e+05
-2.972410000000000000e+05 -2.270900000000000000e+04
-2.613010000000000000e+05 1.466940000000000000e+05
-1.327470000000000000e+05 2.688020000000000000e+05
5.524000000000000000e+04 2.728600000000000000e+05
2.017980000000000000e+05 5.967400000000000000e+04
1.248360000000000000e+05 1.374200000000000000e+04
9.401100000000000000e+04 -1.172900000000000000e+04
6.986900000000000000e+04 -2.124400000000000000e+04
5.125000000000000000e+04 -2.922200000000000000e+04
3.587200000000000000e+04 -3.253100000000000000e+04
2.097100000000000000e+04 -3.229100000000000000e+04
8.593000000000000000e+03 -2.942800000000000000e+04
4.160000000000000000e+03 -3.120100000000000000e+04
-2.114000000000000000e+03 -2.438100000000000000e+04
-6.206000000000000000e+03 -1.919800000000000000e+04
-6.854000000000000000e+03 -1.602700000000000000e+04
-7.570000000000000000e+03 -1.360500000000000000e+04
-6.274000000000000000e+03 -1.152600000000000000e+04
-6.273000000000000000e+03 -7.638000000000000000e+03
-5.524000000000000000e+03 -1.084300000000000000e+04
-4.978000000000000000e+03 -8.457000000000000000e+03
-7.910000000000000000e+03 -8.388000000000000000e+03
-7.808000000000000000e+03 -1.111600000000000000e+04
-7.502000000000000000e+03 -1.128700000000000000e+04
-8.354000000000000000e+03 -8.491000000000000000e+03
-1.138900000000000000e+04 -6.718000000000000000e+03
-1.203700000000000000e+04 -4.467000000000000000e+03
-1.401500000000000000e+04 -8.870000000000000000e+02
-1.555000000000000000e+04 -5.460000000000000000e+02
-1.456000000000000000e+04 3.852000000000000000e+03
-1.398000000000000000e+04 7.297000000000000000e+03
-1.152600000000000000e+04 1.207100000000000000e+04
-1.084300000000000000e+04 1.469700000000000000e+04
-9.445000000000000000e+03 1.479900000000000000e+04
-4.739000000000000000e+03 1.575400000000000000e+04
4.430000000000000000e+02 1.578900000000000000e+04
5.524000000000000000e+03 1.394700000000000000e+04
8.524000000000000000e+03 1.326500000000000000e+04
1.282100000000000000e+04 9.685000000000000000e+03
1.312800000000000000e+04 7.570000000000000000e+03
1.220800000000000000e+04 3.001000000000000000e+03
1.159400000000000000e+04 6.900000000000000000e+01
1.104800000000000000e+04 -3.615000000000000000e+03
1.012800000000000000e+04 -2.626000000000000000e+03
5.251000000000000000e+03 -7.024000000000000000e+03
4.399000000000000000e+03 -6.138000000000000000e+03
3.069000000000000000e+03 -7.433000000000000000e+03
-7.500000000000000000e+02 -5.524000000000000000e+03
-1.020000000000000000e+02 -5.831000000000000000e+03
-8.190000000000000000e+02 -7.024000000000000000e+03
-4.430000000000000000e+02 -4.774000000000000000e+03
0.000000000000000000e+00 -6.990000000000000000e+03
-1.433000000000000000e+03 -5.456000000000000000e+03
6.800000000000000000e+01 -6.650000000000000000e+03
-9.210000000000000000e+02 -8.184000000000000000e+03
-2.932000000000000000e+03 -6.444000000000000000e+03
-3.546000000000000000e+03 -8.457000000000000000e+03
-6.035000000000000000e+03 -8.594000000000000000e+03
-6.650000000000000000e+03 -5.797000000000000000e+03
-8.967000000000000000e+03 -6.206000000000000000e+03
-1.084300000000000000e+04 -3.682000000000000000e+03
-1.145700000000000000e+04 -2.216000000000000000e+03
-1.104800000000000000e+04 1.194000000000000000e+03
-1.074100000000000000e+04 3.751000000000000000e+03
-9.514000000000000000e+03 7.945000000000000000e+03
-9.820000000000000000e+03 1.040000000000000000e+04
-7.365000000000000000e+03 1.101400000000000000e+04
-5.558000000000000000e+03 1.445900000000000000e+04
-1.330000000000000000e+03 1.309500000000000000e+04
1.126000000000000000e+03 1.418500000000000000e+04
5.422000000000000000e+03 1.415200000000000000e+04
7.877000000000000000e+03 1.029800000000000000e+04
9.037000000000000000e+03 8.150000000000000000e+03
9.105000000000000000e+03 4.706000000000000000e+03
1.026400000000000000e+04 1.807000000000000000e+03
8.491000000000000000e+03 -1.637000000000000000e+03
6.990000000000000000e+03 -3.683000000000000000e+03
4.978000000000000000e+03 -4.910000000000000000e+03
4.024000000000000000e+03 -3.990000000000000000e+03
1.432000000000000000e+03 -6.479000000000000000e+03
3.035000000000000000e+03 -5.354000000000000000e+03
2.625000000000000000e+03 -4.910000000000000000e+03
2.115000000000000000e+03 -6.547000000000000000e+03
2.353000000000000000e+03 -5.899000000000000000e+03
1.739000000000000000e+03 -5.251000000000000000e+03
2.592000000000000000e+03 -7.468000000000000000e+03
1.671000000000000000e+03 -6.513000000000000000e+03
-1.944000000000000000e+03 -8.730000000000000000e+03
-1.705000000000000000e+03 -8.116000000000000000e+03
-3.512000000000000000e+03 -9.684000000000000000e+03
-9.104000000000000000e+03 -1.029900000000000000e+04
