-7.808000000000000000e+03 -6.854000000000000000e+03
-9.854000000000000000e+03 -4.195000000000000000e+03
-1.108200000000000000e+04 -2.933000000000000000e+03
-1.234400000000000000e+04 1.370000000000000000e+02
-1.445800000000000000e+04 2.694000000000000000e+03
-1.466300000000000000e+04 6.853000000000000000e+03
-1.694700000000000000e+04 1.026300000000000000e+04
-1.357100000000000000e+04 1.391200000000000000e+04
-9.752000000000000000e+03 1.558400000000000000e+04
-8.047000000000000000e+03 1.848200000000000000e+04
-3.137000000000000000e+03 1.994800000000000000e+04
3.546000000000000000e+03 1.889100000000000000e+04
5.797000000000000000e+03 1.851600000000000000e+04
1.169500000000000000e+04 1.718600000000000000e+04
1.520800000000000000e+04 1.360500000000000000e+04
1.749200000000000000e+04 9.411000000000000000e+03
1.619700000000000000e+04 3.103000000000000000e+03
1.415100000000000000e+04 -8.520000000000000000e+02
1.493600000000000000e+04 -5.457000000000000000e+03
1.121800000000000000e+04 -8.389000000000000000e+03
7.570000000000000000e+03 -9.208000000000000000e+03
5.115000000000000000e+03 -9.411000000000000000e+03
2.728000000000000000e+03 -1.094600000000000000e+04
1.739000000000000000e+03 -7.092000000000000000e+03
2.250000000000000000e+03 -7.775000000000000000e+03
2.148000000000000000e+03 -7.706000000000000000e+03
0.000000000000000000e+00 -8.594000000000000000e+03
-1.329000000000000000e+03 -7.331000000000000000e+03
-8.860000000000000000e+02 -9.172000000000000000e+03
5.800000000000000000e+02 -7.161000000000000000e+03
-2.933000000000000000e+03 -6.342000000000000000e+03
-5.899000000000000000e+03 -4.296000000000000000e+03
-4.807000000000000000e+03 -4.910000000000000000e+03
-7.774000000000000000e+03 -2.694000000000000000e+03
-9.990000000000000000e+03 -1.194000000000000000e+03
-1.128700000000000000e+04 1.739000000000000000e+03
-1.128700000000000000e+04 2.592000000000000000e+03
-1.360600000000000000e+04 7.979000000000000000e+03
-1.176400000000000000e+04 1.173000000000000000e+04
-1.029800000000000000e+04 1.565100000000000000e+04
-6.104000000000000000e+03 1.943600000000000000e+04
-9.550000000000000000e+02 1.827700000000000000e+04
5.864000000000000000e+03 1.837900000000000000e+04
6.547000000000000000e+03 1.510600000000000000e+04
1.084300000000000000e+04 1.227500000000000000e+04
1.387800000000000000e+04 9.241000000000000000e+03
1.694700000000000000e+04 5.626000000000000000e+03
1.452600000000000000e+04 1.126000000000000000e+03
1.370800000000000000e+04 -2.864000000000000000e+03
1.101400000000000000e+04 -6.036000000000000000e+03
8.286000000000000000e+03 -9.310000000000000000e+03
7.127000000000000000e+03 -1.142300000000000000e+04
1.739000000000000000e+03 -1.418500000000000000e+04
-2.050000000000000000e+02 -1.295800000000000000e+04
-2.114000000000000000e+03 -1.196900000000000000e+04
-1.023000000000000000e+03 -1.203700000000000000e+04
-7.500000000000000000e+02 -9.309000000000000000e+03
-1.432000000000000000e+03 -1.029800000000000000e+04
-2.523000000000000000e+03 -6.377000000000000000e+03
-1.432000000000000000e+03 -7.706000000000000000e+03
-1.978000000000000000e+03 -5.251000000000000000e+03
-2.762000000000000000e+03 -3.649000000000000000e+03
-5.319000000000000000e+03 -4.296000000000000000e+03
-5.968000000000000000e+03 -4.364000000000000000e+03
-8.218000000000000000e+03 -3.750000000000000000e+02
-1.050300000000000000e+04 2.967000000000000000e+03
-1.295800000000000000e+04 5.012000000000000000e+03
-1.343600000000000000e+04 8.900000000000000000e+03
-1.091300000000000000e+04 1.101400000000000000e+04
-1.193500000000000000e+04 1.381100000000000000e+04
-1.207100000000000000e+04 1.681000000000000000e+04
-7.877000000000000000e+03 1.510600000000000000e+04
-2.081000000000000000e+03 1.878800000000000000e+04
1.535000000000000000e+03 1.705000000000000000e+04
6.137000000000000000e+03 1.589000000000000000e+04
1.234400000000000000e+04 9.922000000000000000e+03
1.466300000000000000e+04 8.389000000000000000e+03
1.691400000000000000e+04 8.520000000000000000e+02
1.510600000000000000e+04 -4.331000000000000000e+03
1.449200000000000000e+04 -5.524000000000000000e+03
1.111700000000000000e+04 -9.003000000000000000e+03
7.911000000000000000e+03 -1.244600000000000000e+04
5.933000000000000000e+03 -1.162800000000000000e+04
1.330000000000000000e+03 -1.265100000000000000e+04
8.860000000000000000e+02 -1.210600000000000000e+04
-1.432000000000000000e+03 -1.162900000000000000e+04
-2.966000000000000000e+03 -1.029800000000000000e+04
-1.705000000000000000e+03 -6.546000000000000000e+03
-3.921000000000000000e+03 -6.342000000000000000e+03
-2.693000000000000000e+03 -6.240000000000000000e+03
-2.216000000000000000e+03 -5.081000000000000000e+03
-1.534000000000000000e+03 -4.500000000000000000e+03
-2.625000000000000000e+03 -5.081000000000000000e+03
-3.512000000000000000e+03 -6.036000000000000000e+03
-5.353000000000000000e+03 -4.944000000000000000e+03
-7.195000000000000000e+03 -3.682000000000000000e+03
-8.047000000000000000e+03 -9.880000000000000000e+02
-1.094600000000000000e+04 1.808000000000000000e+03
-1.053700000000000000e+04 5.422000000000000000e+03
-8.525000000000000000e+03 7.229000000000000000e+03
-6.343000000000000000e+03 1.067300000000000000e+04
-5.149000000000000000e+03 1.217300000000000000e+04
-1.030000000000000000e+02 1.111600000000000000e+04
2.830000000000000000e+03 1.036700000000000000e+04
7.775000000000000000e+03 1.108300000000000000e+04
1.166200000000000000e+04 7.706000000000000000e+03
1.524300000000000000e+04 5.319000000000000000e+03
2.230100000000000000e+04 2.045000000000000000e+03
2.485800000000000000e+04 1.159000000000000000e+03
2.530100000000000000e+04 1.159000000000000000e+03
2.209600000000000000e+04 1.534000000000000000e+03
1.711800000000000000e+04 5.110000000000000000e+02
1.026400000000000000e+04 -4.770000000000000000e+02
3.000000000000000000e+03 -2.353000000000000000e+03
-2.728000000000000000e+03 -2.251000000000000000e+03
-6.343000000000000000e+03 -6.800000000000000000e+01
-1.101400000000000000e+04 -2.387000000000000000e+03
-1.138900000000000000e+04 -1.262000000000000000e+03
-1.248000000000000000e+04 -2.830000000000000000e+03
-1.023000000000000000e+04 -4.057000000000000000e+03
-9.002000000000000000e+03 -9.540000000000000000e+02
-7.195000000000000000e+03 -2.251000000000000000e+03
-5.762000000000000000e+03 -2.046000000000000000e+03
-6.615000000000000000e+03 -2.455000000000000000e+03
-4.705000000000000000e+03 -7.840000000000000000e+02
-6.309000000000000000e+03 -1.057000000000000000e+03
-5.967000000000000000e+03 -1.364000000000000000e+03
-5.661000000000000000e+03 3.750000000000000000e+02
-5.013000000000000000e+03 3.853000000000000000e+03
-7.093000000000000000e+03 3.307000000000000000e+03
-6.138000000000000000e+03 6.956000000000000000e+03
-3.240000000000000000e+03 9.991000000000000000e+03
-1.466000000000000000e+03 1.220700000000000000e+04
4.466000000000000000e+03 1.595800000000000000e+04
6.376000000000000000e+03 1.575400000000000000e+04
8.866000000000000000e+03 1.363900000000000000e+04
1.152600000000000000e+04 1.353700000000000000e+04
1.193500000000000000e+04 8.763000000000000000e+03
1.227600000000000000e+04 4.331000000000000000e+03
1.333300000000000000e+04 2.694000000000000000e+03
1.183300000000000000e+04 -2.353000000000000000e+03
9.104000000000000000e+03 -6.410000000000000000e+03
9.513000000000000000e+03 -6.206000000000000000e+03
4.535000000000000000e+03 -9.241000000000000000e+03
0.000000000000000000e+00 -8.797000000000000000e+03
-2.456000000000000000e+03 -9.991000000000000000e+03
-6.888000000000000000e+03 -9.581000000000000000e+03
-6.751000000000000000e+03 -1.060500000000000000e+04
-6.002000000000000000e+03 -7.979000000000000000e+03
-5.421000000000000000e+03 -6.069000000000000000e+03
-4.842000000000000000e+03 -5.353000000000000000e+03
-4.501000000000000000e+03 -5.183000000000000000e+03
-2.899000000000000000e+03 -5.388000000000000000e+03
-3.240000000000000000e+03 -4.092000000000000000e+03
-1.365000000000000000e+03 -3.887000000000000000e+03
-2.899000000000000000e+03 -4.194000000000000000e+03
-1.364000000000000000e+03 -3.479000000000000000e+03
-1.978000000000000000e+03 -2.251000000000000000e+03
-2.932000000000000000e+03 -1.091000000000000000e+03
-4.194000000000000000e+03 -1.360000000000000000e+02
-3.034000000000000000e+03 2.182000000000000000e+03
-4.058000000000000000e+03 3.103000000000000000e+03
-1.500000000000000000e+03 4.808000000000000000e+03
-1.091000000000000000e+03 6.479000000000000000e+03
-1.020000000000000000e+02 8.218000000000000000e+03
-3.400000000000000000e+01 6.888000000000000000e+03
2.625000000000000000e+03 9.173000000000000000e+03
5.013000000000000000e+03 8.934000000000000000e+03
7.024000000000000000e+03 8.149000000000000000e+03
7.331000000000000000e+03 5.387000000000000000e+03
8.287000000000000000e+03 5.490000000000000000e+03
7.400000000000000000e+03 1.030000000000000000e+02
6.923000000000000000e+03 -7.510000000000000000e+02
4.705000000000000000e+03 -9.210000000000000000e+02
2.148000000000000000e+03 -5.251000000000000000e+03
-2.730000000000000000e+02 -5.252000000000000000e+03
-2.046000000000000000e+03 -6.411000000000000000e+03
-4.672000000000000000e+03 -7.639000000000000000e+03
-5.252000000000000000e+03 -6.377000000000000000e+03
-9.377000000000000000e+03 -7.741000000000000000e+03
-7.468000000000000000e+03 -6.377000000000000000e+03
-9.445000000000000000e+03 -5.524000000000000000e+03
-9.035000000000000000e+03 -5.184000000000000000e+03
-7.399000000000000000e+03 -5.320000000000000000e+03
-6.240000000000000000e+03 -4.637000000000000000e+03
-5.933000000000000000e+03 -5.217000000000000000e+03
-4.535000000000000000e+03 -3.786000000000000000e+03
-4.945000000000000000e+03 -4.740000000000000000e+03
-4.399000000000000000e+03 -6.036000000000000000e+03
-1.501000000000000000e+03 -4.160000000000000000e+03
-2.115000000000000000e+03 -3.683000000000000000e+03
-3.819000000000000000e+03 -2.046000000000000000e+03
-2.797000000000000000e+03 -1.944000000000000000e+03
-2.046000000000000000e+03 -9.540000000000000000e+02
-1.944000000000000000e+03 1.023000000000000000e+03
2.285000000000000000e+03 2.933000000000000000e+03
2.694000000000000000e+03 1.603000000000000000e+03
4.672000000000000000e+03 8.870000000000000000e+02
7.911000000000000000e+03 1.125000000000000000e+03
5.490000000000000000e+03 2.012000000000000000e+03
8.082000000000000000e+03 8.860000000000000000e+02
1.070700000000000000e+04 8.180000000000000000e+02
1.227600000000000000e+04 2.730000000000000000e+02
1.377600000000000000e+04 1.228000000000000000e+03
1.248100000000000000e+04 7.850000000000000000e+02
9.650000000000000000e+03 1.739000000000000000e+03
6.888000000000000000e+03 1.296000000000000000e+03
5.081000000000000000e+03 1.944000000000000000e+03
-5.450000000000000000e+02 5.120000000000000000e+02
-3.444000000000000000e+03 3.206000000000000000e+03
-7.092000000000000000e+03 3.785000000000000000e+03
-1.091100000000000000e+04 3.580000000000000000e+03
-1.439000000000000000e+04 3.990000000000000000e+03
-1.589000000000000000e+04 2.728000000000000000e+03
-1.868600000000000000e+04 -1.370000000000000000e+02
-2.243700000000000000e+04 -3.512000000000000000e+03
-2.008400000000000000e+04 -5.899000000000000000e+03
-1.902800000000000000e+04 -9.343000000000000000e+03
-1.718500000000000000e+04 -1.312800000000000000e+04
-1.459500000000000000e+04 -1.483300000000000000e+04
-1.101300000000000000e+04 -1.824300000000000000e+04
-6.888000000000000000e+03 -1.882300000000000000e+04
-4.706000000000000000e+03 -1.786800000000000000e+04
1.467000000000000000e+03 -1.667400000000000000e+04
7.604000000000000000e+03 -1.510600000000000000e+04
1.104800000000000000e+04 -1.026300000000000000e+04
1.606100000000000000e+04 -5.934000000000000000e+03
1.694700000000000000e+04 -1.534000000000000000e+03
1.950500000000000000e+04 2.898000000000000000e+03
2.076600000000000000e+04 5.251000000000000000e+03
2.383500000000000000e+04 1.016100000000000000e+04
2.581400000000000000e+04 1.275300000000000000e+04
2.417600000000000000e+04 1.619700000000000000e+04
2.387000000000000000e+04 2.049400000000000000e+04
1.834600000000000000e+04 2.598300000000000000e+04
1.278700000000000000e+04 2.959800000000000000e+04
7.160000000000000000e+02 3.362100000000000000e+04
-1.081000000000000000e+04 2.973400000000000000e+04
-2.059500000000000000e+04 2.547200000000000000e+04
-2.697100000000000000e+04 1.943600000000000000e+04
-3.181400000000000000e+04 9.718000000000000000e+03
-3.461000000000000000e+04 5.490000000000000000e+03
-3.573500000000000000e+04 1.910000000000000000e+03
-3.791800000000000000e+04 -3.820000000000000000e+03
-3.924800000000000000e+04 -7.911000000000000000e+03
-4.231600000000000000e+04 -1.329800000000000000e+04
-4.071400000000000000e+04 -2.185700000000000000e+04
-3.706600000000000000e+04 -3.092700000000000000e+04
-2.642600000000000000e+04 -4.258900000000000000e+04
-1.149100000000000000e+04 -4.729600000000000000e+04
