-1.176400000000000000e+04 2.217000000000000000e+03
-1.251400000000000000e+04 4.330000000000000000e+03
-8.798000000000000000e+03 6.615000000000000000e+03
-7.979000000000000000e+03 7.501000000000000000e+03
-6.614000000000000000e+03 5.831000000000000000e+03
-7.467000000000000000e+03 7.365000000000000000e+03
-5.762000000000000000e+03 7.707000000000000000e+03
-5.251000000000000000e+03 8.763000000000000000e+03
-5.013000000000000000e+03 8.797000000000000000e+03
-6.308000000000000000e+03 9.412000000000000000e+03
-2.864000000000000000e+03 1.220700000000000000e+04
-3.513000000000000000e+03 1.384400000000000000e+04
-2.011000000000000000e+03 1.514000000000000000e+04
1.636000000000000000e+03 1.612900000000000000e+04
5.080000000000000000e+03 1.551500000000000000e+04
5.216000000000000000e+03 1.404900000000000000e+04
9.479000000000000000e+03 1.271900000000000000e+04
1.445800000000000000e+04 9.411000000000000000e+03
1.711800000000000000e+04 5.524000000000000000e+03
1.718500000000000000e+04 4.440000000000000000e+02
1.824300000000000000e+04 -3.410000000000000000e+03
1.684400000000000000e+04 -8.422000000000000000e+03
1.288900000000000000e+04 -1.299200000000000000e+04
8.388000000000000000e+03 -1.653800000000000000e+04
2.387000000000000000e+03 -1.780000000000000000e+04
3.500000000000000000e+01 -1.745800000000000000e+04
-5.592000000000000000e+03 -1.548200000000000000e+04
-6.411000000000000000e+03 -1.353700000000000000e+04
-9.412000000000000000e+03 -1.152600000000000000e+04
-1.094600000000000000e+04 -8.831000000000000000e+03
-1.411800000000000000e+04 -3.410000000000000000e+03
-1.050200000000000000e+04 -4.100000000000000000e+02
-1.053600000000000000e+04 2.625000000000000000e+03
-6.991000000000000000e+03 6.172000000000000000e+03
-5.490000000000000000e+03 6.854000000000000000e+03
-5.660000000000000000e+03 8.627000000000000000e+03
-2.933000000000000000e+03 8.900000000000000000e+03
-1.364000000000000000e+03 9.889000000000000000e+03
-2.728000000000000000e+03 9.411000000000000000e+03
-3.103000000000000000e+03 7.604000000000000000e+03
-8.530000000000000000e+02 6.070000000000000000e+03
-3.785000000000000000e+03 1.033200000000000000e+04
-1.534000000000000000e+03 7.775000000000000000e+03
-6.480000000000000000e+02 1.081000000000000000e+04
1.092000000000000000e+03 1.081000000000000000e+04
3.921000000000000000e+03 1.340000000000000000e+04
4.739000000000000000e+03 1.261600000000000000e+04
8.115000000000000000e+03 1.074100000000000000e+04
8.866000000000000000e+03 5.285000000000000000e+03
1.285500000000000000e+04 4.774000000000000000e+03
1.350300000000000000e+04 2.730000000000000000e+02
1.548100000000000000e+04 -6.104000000000000000e+03
1.462900000000000000e+04 -1.053700000000000000e+04
1.384400000000000000e+04 -1.306000000000000000e+04
9.003000000000000000e+03 -1.885700000000000000e+04
4.978000000000000000e+03 -1.964100000000000000e+04
-1.295000000000000000e+03 -1.940200000000000000e+04
-6.922000000000000000e+03 -1.977700000000000000e+04
-9.650000000000000000e+03 -1.633300000000000000e+04
-1.149200000000000000e+04 -1.203800000000000000e+04
-1.364000000000000000e+04 -6.786000000000000000e+03
-1.183300000000000000e+04 -1.466000000000000000e+03
-9.548000000000000000e+03 1.841000000000000000e+03
-7.263000000000000000e+03 4.739000000000000000e+03
-5.354000000000000000e+03 8.525000000000000000e+03
-4.467000000000000000e+03 1.152500000000000000e+04
-2.796000000000000000e+03 1.295800000000000000e+04
-3.035000000000000000e+03 1.329900000000000000e+04
-1.432000000000000000e+03 1.135600000000000000e+04
-3.547000000000000000e+03 9.343000000000000000e+03
-2.796000000000000000e+03 1.009400000000000000e+04
-4.638000000000000000e+03 7.024000000000000000e+03
-4.058000000000000000e+03 6.376000000000000000e+03
-4.569000000000000000e+03 7.195000000000000000e+03
-1.876000000000000000e+03 7.433000000000000000e+03
-6.820000000000000000e+02 6.478000000000000000e+03
4.023000000000000000e+03 8.968000000000000000e+03
6.103000000000000000e+03 7.605000000000000000e+03
7.092000000000000000e+03 6.138000000000000000e+03
1.108200000000000000e+04 4.740000000000000000e+03
1.374100000000000000e+04 -4.780000000000000000e+02
1.510600000000000000e+04 -4.194000000000000000e+03
1.466300000000000000e+04 -8.525000000000000000e+03
1.483300000000000000e+04 -1.121900000000000000e+04
1.203700000000000000e+04 -1.346900000000000000e+04
8.116000000000000000e+03 -1.619700000000000000e+04
3.819000000000000000e+03 -1.500400000000000000e+04
-1.568000000000000000e+03 -1.677800000000000000e+04
-5.660000000000000000e+03 -1.633300000000000000e+04
-8.388000000000000000e+03 -1.251400000000000000e+04
-1.087700000000000000e+04 -9.070000000000000000e+03
-1.363900000000000000e+04 -6.104000000000000000e+03
-1.142300000000000000e+04 -1.193000000000000000e+03
-1.108200000000000000e+04 5.800000000000000000e+02
-8.900000000000000000e+03 5.865000000000000000e+03
-7.433000000000000000e+03 6.650000000000000000e+03
-4.910000000000000000e+03 8.934000000000000000e+03
-4.398000000000000000e+03 9.650000000000000000e+03
-8.530000000000000000e+02 9.890000000000000000e+03
-1.193000000000000000e+03 8.286000000000000000e+03
-7.840000000000000000e+02 5.422000000000000000e+03
1.295000000000000000e+03 3.546000000000000000e+03
-1.057000000000000000e+03 4.091000000000000000e+03
2.694000000000000000e+03 1.637000000000000000e+03
5.320000000000000000e+03 1.978000000000000000e+03
5.627000000000000000e+03 1.637000000000000000e+03
9.685000000000000000e+03 2.558000000000000000e+03
1.299200000000000000e+04 4.774000000000000000e+03
1.814100000000000000e+04 4.467000000000000000e+03
1.861800000000000000e+04 6.445000000000000000e+03
1.756100000000000000e+04 7.706000000000000000e+03
1.418500000000000000e+04 7.195000000000000000e+03
1.381000000000000000e+04 8.014000000000000000e+03
1.084400000000000000e+04 3.240000000000000000e+03
4.944000000000000000e+03 -1.637000000000000000e+03
4.910000000000000000e+03 -4.433000000000000000e+03
-9.550000000000000000e+02 -9.172000000000000000e+03
-4.638000000000000000e+03 -9.923000000000000000e+03
-8.149000000000000000e+03 -9.616000000000000000e+03
-1.244600000000000000e+04 -7.842000000000000000e+03
-1.592500000000000000e+04 -7.263000000000000000e+03
-1.715200000000000000e+04 -4.194000000000000000e+03
-1.633300000000000000e+04 -3.137000000000000000e+03
-1.377600000000000000e+04 -3.400000000000000000e+02
-1.231000000000000000e+04 3.751000000000000000e+03
-8.729000000000000000e+03 6.922000000000000000e+03
-6.922000000000000000e+03 6.206000000000000000e+03
-3.444000000000000000e+03 1.046800000000000000e+04
-3.750000000000000000e+02 1.033100000000000000e+04
2.217000000000000000e+03 1.254800000000000000e+04
4.331000000000000000e+03 1.033200000000000000e+04
5.319000000000000000e+03 9.854000000000000000e+03
2.659000000000000000e+03 7.195000000000000000e+03
3.410000000000000000e+03 8.047000000000000000e+03
3.785000000000000000e+03 7.775000000000000000e+03
3.205000000000000000e+03 6.752000000000000000e+03
3.546000000000000000e+03 6.036000000000000000e+03
3.648000000000000000e+03 5.661000000000000000e+03
6.615000000000000000e+03 6.445000000000000000e+03
8.354000000000000000e+03 4.194000000000000000e+03
8.150000000000000000e+03 3.785000000000000000e+03
9.991000000000000000e+03 2.390000000000000000e+02
8.082000000000000000e+03 -1.364000000000000000e+03
8.389000000000000000e+03 -3.784000000000000000e+03
6.752000000000000000e+03 -6.240000000000000000e+03
5.183000000000000000e+03 -6.990000000000000000e+03
3.103000000000000000e+03 -9.684000000000000000e+03
1.023000000000000000e+03 -1.057100000000000000e+04
-3.034000000000000000e+03 -1.138900000000000000e+04
-6.274000000000000000e+03 -1.302500000000000000e+04
-7.229000000000000000e+03 -1.210500000000000000e+04
-8.764000000000000000e+03 -9.684000000000000000e+03
-8.798000000000000000e+03 -9.309000000000000000e+03
-9.412000000000000000e+03 -7.127000000000000000e+03
-8.866000000000000000e+03 -3.444000000000000000e+03
-7.400000000000000000e+03 -1.262000000000000000e+03
-5.899000000000000000e+03 1.876000000000000000e+03
-2.182000000000000000e+03 3.342000000000000000e+03
-2.284000000000000000e+03 3.479000000000000000e+03
-2.591000000000000000e+03 4.809000000000000000e+03
1.398000000000000000e+03 5.081000000000000000e+03
1.125000000000000000e+03 5.217000000000000000e+03
1.433000000000000000e+03 5.558000000000000000e+03
1.398000000000000000e+03 4.604000000000000000e+03
6.140000000000000000e+02 5.218000000000000000e+03
1.020000000000000000e+02 4.126000000000000000e+03
-9.200000000000000000e+02 5.388000000000000000e+03
-2.285000000000000000e+03 5.422000000000000000e+03
3.750000000000000000e+02 4.774000000000000000e+03
5.450000000000000000e+02 4.024000000000000000e+03
3.308000000000000000e+03 5.182000000000000000e+03
3.853000000000000000e+03 3.649000000000000000e+03
5.115000000000000000e+03 3.683000000000000000e+03
4.808000000000000000e+03 2.285000000000000000e+03
6.479000000000000000e+03 1.671000000000000000e+03
4.262000000000000000e+03 -1.705000000000000000e+03
4.706000000000000000e+03 -2.660000000000000000e+03
1.706000000000000000e+03 -4.467000000000000000e+03
-1.671000000000000000e+03 -6.922000000000000000e+03
-5.422000000000000000e+03 -9.241000000000000000e+03
-7.501000000000000000e+03 -1.053700000000000000e+04
-7.263000000000000000e+03 -9.820000000000000000e+03
-9.991000000000000000e+03 -9.616000000000000000e+03
-1.016100000000000000e+04 -8.013000000000000000e+03
-1.138900000000000000e+04 -8.286000000000000000e+03
-1.115100000000000000e+04 -7.332000000000000000e+03
-1.023000000000000000e+04 -5.967000000000000000e+03
-7.672000000000000000e+03 -3.513000000000000000e+03
-5.967000000000000000e+03 -1.807000000000000000e+03
-2.728000000000000000e+03 -1.057000000000000000e+03
-1.842000000000000000e+03 2.040000000000000000e+02
1.875000000000000000e+03 2.380000000000000000e+02
-6.130000000000000000e+02 1.705000000000000000e+03
3.649000000000000000e+03 -1.330000000000000000e+03
3.104000000000000000e+03 -9.210000000000000000e+02
4.468000000000000000e+03 1.058000000000000000e+03
2.455000000000000000e+03 -0.000000000000000000e+00
2.797000000000000000e+03 -9.210000000000000000e+02
4.433000000000000000e+03 4.430000000000000000e+02
3.853000000000000000e+03 1.710000000000000000e+02
5.115000000000000000e+03 3.400000000000000000e+01
6.650000000000000000e+03 6.800000000000000000e+01
7.638000000000000000e+03 1.364000000000000000e+03
6.718000000000000000e+03 9.550000000000000000e+02
9.923000000000000000e+03 1.295000000000000000e+03
1.002500000000000000e+04 1.057000000000000000e+03
1.115000000000000000e+04 2.523000000000000000e+03
1.111600000000000000e+04 2.285000000000000000e+03
9.854000000000000000e+03 4.672000000000000000e+03
7.434000000000000000e+03 3.989000000000000000e+03
1.603000000000000000e+03 4.024000000000000000e+03
-3.103000000000000000e+03 7.161000000000000000e+03
-9.548000000000000000e+03 7.195000000000000000e+03
-1.960700000000000000e+04 4.399000000000000000e+03
-2.441600000000000000e+04 7.840000000000000000e+02
-2.734700000000000000e+04 -2.797000000000000000e+03
-3.007500000000000000e+04 -7.775000000000000000e+03
-2.946100000000000000e+04 -1.128700000000000000e+04
-2.550600000000000000e+04 -1.855000000000000000e+04
-1.786800000000000000e+04 -1.786800000000000000e+04
-1.009300000000000000e+04 -2.151700000000000000e+04
-2.898000000000000000e+03 -2.260800000000000000e+04
5.729000000000000000e+03 -1.895900000000000000e+04
1.306000000000000000e+04 -1.619700000000000000e+04
1.739100000000000000e+04 -8.798000000000000000e+03
1.831200000000000000e+04 -5.865000000000000000e+03
1.650500000000000000e+04 -7.500000000000000000e+02
1.885700000000000000e+04 2.523000000000000000e+03
1.466200000000000000e+04 2.695000000000000000e+03
1.507200000000000000e+04 3.921000000000000000e+03
1.578700000000000000e+04 8.388000000000000000e+03
1.370800000000000000e+04 8.695000000000000000e+03
1.370700000000000000e+04 9.276000000000000000e+03
1.640200000000000000e+04 1.336700000000000000e+04
1.861900000000000000e+04 1.756000000000000000e+04
1.786800000000000000e+04 2.056200000000000000e+04
1.456000000000000000e+04 2.359700000000000000e+04
9.241000000000000000e+03 2.854100000000000000e+04
2.831000000000000000e+03 3.147400000000000000e+04
-4.331000000000000000e+03 3.256400000000000000e+04
-1.653800000000000000e+04 3.369000000000000000e+04
-2.796100000000000000e+04 2.997300000000000000e+04
-4.286200000000000000e+04 2.635900000000000000e+04
-5.626400000000000000e+04 1.643600000000000000e+04
-6.751600000000000000e+04 1.262000000000000000e+03
-7.392700000000000000e+04 -1.947000000000000000e+04
-6.864200000000000000e+04 -4.139600000000000000e+04
-5.524100000000000000e+04 -5.575100000000000000e+04
-3.464500000000000000e+04 -7.106200000000000000e+04
-1.159300000000000000e+04 -7.130100000000000000e+04
