-7.242600000000000000e+04 -1.551170000000000000e+05
-1.010010000000000000e+05 -8.937400000000000000e+04
-1.211540000000000000e+05 -6.154900000000000000e+04
-1.627540000000000000e+05 -1.827700000000000000e+04
-1.719610000000000000e+05 9.735300000000000000e+04
-6.662900000000000000e+04 2.035030000000000000e+05
6.482300000000000000e+04 1.848510000000000000e+05
1.225860000000000000e+05 1.179140000000000000e+05
1.620380000000000000e+05 6.165100000000000000e+04
1.902720000000000000e+05 -3.566700000000000000e+04
1.346230000000000000e+05 -1.507180000000000000e+05
2.144800000000000000e+04 -2.131870000000000000e+05
-1.179490000000000000e+05 -1.882270000000000000e+05
-1.996490000000000000e+05 -5.875300000000000000e+04
-1.550820000000000000e+05 5.909300000000000000e+04
-1.037290000000000000e+05 1.036960000000000000e+05
-5.039900000000000000e+04 1.433860000000000000e+05
3.614500000000000000e+04 1.701540000000000000e+05
1.373860000000000000e+05 1.214950000000000000e+05
1.586280000000000000e+05 1.203700000000000000e+04
1.236430000000000000e+05 -4.064500000000000000e+04
1.131060000000000000e+05 -7.941700000000000000e+04
7.508600000000000000e+04 -1.586280000000000000e+05
-5.203600000000000000e+04 -2.058900000000000000e+05
-1.759510000000000000e+05 -1.296440000000000000e+05
-2.114480000000000000e+05 8.150000000000000000e+03
-1.518770000000000000e+05 1.338730000000000000e+05
-2.867700000000000000e+04 1.775880000000000000e+05
5.773000000000000000e+04 1.333620000000000000e+05
9.227200000000000000e+04 8.555400000000000000e+04
1.128000000000000000e+05 4.109000000000000000e+04
1.168580000000000000e+05 -1.046900000000000000e+04
9.459100000000000000e+04 -5.534300000000000000e+04
6.332300000000000000e+04 -8.596300000000000000e+04
2.185800000000000000e+04 -1.152890000000000000e+05
-4.559000000000000000e+04 -1.388510000000000000e+05
-1.457050000000000000e+05 -1.110950000000000000e+05
-1.902730000000000000e+05 9.547000000000000000e+03
-1.096280000000000000e+05 1.244610000000000000e+05
-5.490000000000000000e+03 1.418180000000000000e+05
5.865100000000000000e+04 1.031840000000000000e+05
8.211000000000000000e+04 6.339100000000000000e+04
9.667100000000000000e+04 3.952100000000000000e+04
1.093220000000000000e+05 -2.353000000000000000e+03
9.537500000000000000e+04 -6.966400000000000000e+04
3.239400000000000000e+04 -1.380330000000000000e+05
-7.474500000000000000e+04 -1.408630000000000000e+05
-1.429430000000000000e+05 -6.639100000000000000e+04
-1.475130000000000000e+05 2.445000000000000000e+04
-9.793200000000000000e+04 1.107530000000000000e+05
9.786000000000000000e+03 1.536510000000000000e+05
1.002510000000000000e+05 9.899000000000000000e+04
9.929700000000000000e+04 2.380100000000000000e+04
7.348400000000000000e+04 -3.751000000000000000e+03
7.474500000000000000e+04 -7.229000000000000000e+03
8.899900000000000000e+04 -5.077400000000000000e+04
5.002300000000000000e+04 -1.289960000000000000e+05
-4.354400000000000000e+04 -1.598560000000000000e+05
-1.409320000000000000e+05 -1.078890000000000000e+05
-1.824630000000000000e+05 1.241300000000000000e+04
-1.176410000000000000e+05 1.238480000000000000e+05
-4.705000000000000000e+03 1.423290000000000000e+05
6.608500000000000000e+04 1.039340000000000000e+05
8.790800000000000000e+04 4.944400000000000000e+04
7.607500000000000000e+04 6.991000000000000000e+03
5.824100000000000000e+04 -9.650000000000000000e+03
4.940900000000000000e+04 -1.353700000000000000e+04
5.510400000000000000e+04 -2.182300000000000000e+04
5.033000000000000000e+04 -5.663900000000000000e+04
1.292300000000000000e+04 -9.708000000000000000e+04
9.036000000000000000e+03 -2.455000000000000000e+03
1.568600000000000000e+04 -1.227600000000000000e+04
-5.558000000000000000e+03 -1.766400000000000000e+04
-1.838000000000000000e+04 -1.421900000000000000e+04
-2.564300000000000000e+04 6.923000000000000000e+03
-1.081000000000000000e+04 1.268500000000000000e+04
-1.501000000000000000e+03 1.558400000000000000e+04
-1.670000000000000000e+03 1.377600000000000000e+04
4.910000000000000000e+03 1.340100000000000000e+04
1.162700000000000000e+04 1.391200000000000000e+04
2.291400000000000000e+04 8.457000000000000000e+03
3.580400000000000000e+04 -2.148000000000000000e+03
3.437200000000000000e+04 -2.843800000000000000e+04
9.241000000000000000e+03 -5.336500000000000000e+04
-4.801200000000000000e+04 -4.934100000000000000e+04
-7.259600000000000000e+04 -8.150000000000000000e+03
-6.083300000000000000e+04 3.362200000000000000e+04
-2.369800000000000000e+04 6.015100000000000000e+04
1.698100000000000000e+04 5.285400000000000000e+04
3.665600000000000000e+04 3.215500000000000000e+04
4.129400000000000000e+04 1.681100000000000000e+04
4.886400000000000000e+04 7.127000000000000000e+03
5.803600000000000000e+04 -1.364000000000000000e+04
7.590400000000000000e+04 4.057000000000000000e+03
7.191400000000000000e+04 -4.398700000000000000e+04
3.791800000000000000e+04 -7.887100000000000000e+04
-2.349400000000000000e+04 -9.595400000000000000e+04
-1.009680000000000000e+05 -6.216200000000000000e+04
-1.183580000000000000e+05 1.953800000000000000e+04
-7.188000000000000000e+04 6.615200000000000000e+04
