-6.444000000000000000e+03 -3.035000000000000000e+03
-5.625000000000000000e+03 -2.250000000000000000e+03
-8.320000000000000000e+03 -4.808000000000000000e+03
-7.979000000000000000e+03 -3.922000000000000000e+03
-9.786000000000000000e+03 -1.501000000000000000e+03
-9.411000000000000000e+03 -2.762000000000000000e+03
-1.193400000000000000e+04 8.530000000000000000e+02
-1.244600000000000000e+04 1.261000000000000000e+03
-1.285500000000000000e+04 2.728000000000000000e+03
-1.346900000000000000e+04 5.081000000000000000e+03
-1.476400000000000000e+04 6.308000000000000000e+03
-1.486700000000000000e+04 4.399000000000000000e+03
-1.534400000000000000e+04 7.740000000000000000e+03
-1.541200000000000000e+04 9.786000000000000000e+03
-1.609400000000000000e+04 1.285600000000000000e+04
-1.275300000000000000e+04 1.333200000000000000e+04
-1.244600000000000000e+04 1.575400000000000000e+04
-9.070000000000000000e+03 1.803900000000000000e+04
-8.627000000000000000e+03 1.653800000000000000e+04
-6.001000000000000000e+03 1.848200000000000000e+04
-3.648000000000000000e+03 2.059600000000000000e+04
-1.807000000000000000e+03 2.063000000000000000e+04
-1.360000000000000000e+02 2.063000000000000000e+04
4.467000000000000000e+03 2.035700000000000000e+04
6.581000000000000000e+03 1.991400000000000000e+04
8.627000000000000000e+03 1.851600000000000000e+04
9.787000000000000000e+03 1.619700000000000000e+04
1.411700000000000000e+04 1.623100000000000000e+04
1.316200000000000000e+04 1.534400000000000000e+04
1.493500000000000000e+04 1.101400000000000000e+04
1.831100000000000000e+04 1.050200000000000000e+04
1.623100000000000000e+04 6.956000000000000000e+03
1.766300000000000000e+04 7.160000000000000000e+03
1.725400000000000000e+04 2.796000000000000000e+03
1.776600000000000000e+04 -1.569000000000000000e+03
1.531000000000000000e+04 -2.148000000000000000e+03
1.514000000000000000e+04 -3.853000000000000000e+03
1.128700000000000000e+04 -4.808000000000000000e+03
1.135400000000000000e+04 -7.535000000000000000e+03
1.040000000000000000e+04 -7.366000000000000000e+03
7.877000000000000000e+03 -9.548000000000000000e+03
6.171000000000000000e+03 -8.968000000000000000e+03
5.421000000000000000e+03 -9.548000000000000000e+03
2.045000000000000000e+03 -1.026400000000000000e+04
2.455000000000000000e+03 -1.149100000000000000e+04
5.450000000000000000e+02 -1.070800000000000000e+04
1.023000000000000000e+03 -9.923000000000000000e+03
-8.870000000000000000e+02 -1.074100000000000000e+04
4.090000000000000000e+02 -1.033300000000000000e+04
-5.460000000000000000e+02 -9.070000000000000000e+03
-2.693000000000000000e+03 -9.070000000000000000e+03
-1.710000000000000000e+02 -8.968000000000000000e+03
-6.820000000000000000e+02 -7.638000000000000000e+03
-2.455000000000000000e+03 -5.660000000000000000e+03
-1.944000000000000000e+03 -5.695000000000000000e+03
-1.295000000000000000e+03 -4.910000000000000000e+03
2.380000000000000000e+02 -4.706000000000000000e+03
0.000000000000000000e+00 -5.627000000000000000e+03
-1.091000000000000000e+03 -5.558000000000000000e+03
-1.363000000000000000e+03 -6.650000000000000000e+03
-4.770000000000000000e+02 -4.501000000000000000e+03
-1.671000000000000000e+03 -4.262000000000000000e+03
-1.194000000000000000e+03 -5.320000000000000000e+03
-3.683000000000000000e+03 -2.967000000000000000e+03
-5.149000000000000000e+03 -2.932000000000000000e+03
-5.422000000000000000e+03 -3.819000000000000000e+03
-7.774000000000000000e+03 -3.479000000000000000e+03
-8.899000000000000000e+03 -7.160000000000000000e+02
-8.730000000000000000e+03 -3.239000000000000000e+03
-1.026400000000000000e+04 8.870000000000000000e+02
-1.166200000000000000e+04 1.261000000000000000e+03
-1.176400000000000000e+04 1.500000000000000000e+03
-1.231000000000000000e+04 2.284000000000000000e+03
-1.408200000000000000e+04 5.865000000000000000e+03
-1.244700000000000000e+04 7.740000000000000000e+03
-1.275300000000000000e+04 8.184000000000000000e+03
-1.275300000000000000e+04 1.005900000000000000e+04
-1.179800000000000000e+04 1.033200000000000000e+04
-9.240000000000000000e+03 1.299100000000000000e+04
-8.491000000000000000e+03 1.483300000000000000e+04
-8.217000000000000000e+03 1.323000000000000000e+04
-4.603000000000000000e+03 1.735700000000000000e+04
-4.569000000000000000e+03 1.766300000000000000e+04
-3.740000000000000000e+02 1.718600000000000000e+04
3.852000000000000000e+03 1.834500000000000000e+04
3.955000000000000000e+03 1.831100000000000000e+04
6.001000000000000000e+03 1.807200000000000000e+04
8.627000000000000000e+03 1.595900000000000000e+04
9.616000000000000000e+03 1.687900000000000000e+04
1.207100000000000000e+04 1.452600000000000000e+04
1.462800000000000000e+04 1.309400000000000000e+04
1.633300000000000000e+04 9.547000000000000000e+03
1.558400000000000000e+04 8.934000000000000000e+03
1.456000000000000000e+04 6.513000000000000000e+03
1.500400000000000000e+04 3.614000000000000000e+03
1.558300000000000000e+04 1.466000000000000000e+03
1.398000000000000000e+04 -3.001000000000000000e+03
1.370800000000000000e+04 6.900000000000000000e+01
1.305900000000000000e+04 -4.808000000000000000e+03
1.033300000000000000e+04 -8.286000000000000000e+03
1.016200000000000000e+04 -8.184000000000000000e+03
8.525000000000000000e+03 -1.152500000000000000e+04
4.126000000000000000e+03 -1.173000000000000000e+04
5.046000000000000000e+03 -1.452600000000000000e+04
1.876000000000000000e+03 -1.415100000000000000e+04
2.387000000000000000e+03 -1.367500000000000000e+04
3.400000000000000000e+01 -1.404900000000000000e+04
-1.467000000000000000e+03 -1.415100000000000000e+04
-1.875000000000000000e+03 -1.418500000000000000e+04
-6.810000000000000000e+02 -1.360600000000000000e+04
-1.773000000000000000e+03 -1.411700000000000000e+04
-1.841000000000000000e+03 -1.190100000000000000e+04
-3.103000000000000000e+03 -1.026400000000000000e+04
-2.523000000000000000e+03 -1.115100000000000000e+04
-1.023000000000000000e+03 -9.991000000000000000e+03
-2.830000000000000000e+03 -8.252000000000000000e+03
1.710000000000000000e+02 -7.707000000000000000e+03
-1.466000000000000000e+03 -7.400000000000000000e+03
4.090000000000000000e+02 -5.899000000000000000e+03
-3.750000000000000000e+02 -5.899000000000000000e+03
-8.190000000000000000e+02 -4.262000000000000000e+03
-9.550000000000000000e+02 -2.727000000000000000e+03
-6.820000000000000000e+02 -3.308000000000000000e+03
-2.761000000000000000e+03 -4.331000000000000000e+03
-3.273000000000000000e+03 -3.308000000000000000e+03
-3.921000000000000000e+03 -1.467000000000000000e+03
-4.705000000000000000e+03 -1.364000000000000000e+03
-6.445000000000000000e+03 -1.227000000000000000e+03
-6.888000000000000000e+03 5.790000000000000000e+02
-8.048000000000000000e+03 1.467000000000000000e+03
-9.752000000000000000e+03 1.398000000000000000e+03
-1.080900000000000000e+04 1.671000000000000000e+03
-1.237700000000000000e+04 4.126000000000000000e+03
-1.251400000000000000e+04 5.149000000000000000e+03
-1.517400000000000000e+04 7.808000000000000000e+03
-1.367400000000000000e+04 5.489000000000000000e+03
-1.609500000000000000e+04 8.183000000000000000e+03
-1.200300000000000000e+04 9.446000000000000000e+03
-1.159400000000000000e+04 1.220800000000000000e+04
-1.152500000000000000e+04 1.237800000000000000e+04
-1.101400000000000000e+04 1.473100000000000000e+04
-1.070700000000000000e+04 1.500400000000000000e+04
-8.115000000000000000e+03 1.606100000000000000e+04
-4.637000000000000000e+03 1.510600000000000000e+04
-3.921000000000000000e+03 1.531000000000000000e+04
-2.011000000000000000e+03 1.814100000000000000e+04
1.671000000000000000e+03 1.612900000000000000e+04
1.978000000000000000e+03 1.524300000000000000e+04
4.466000000000000000e+03 1.575300000000000000e+04
7.331000000000000000e+03 1.425400000000000000e+04
8.696000000000000000e+03 1.292400000000000000e+04
1.111600000000000000e+04 1.152600000000000000e+04
9.923000000000000000e+03 7.842000000000000000e+03
1.350300000000000000e+04 7.911000000000000000e+03
1.483400000000000000e+04 5.933000000000000000e+03
1.452600000000000000e+04 1.159000000000000000e+03
1.616300000000000000e+04 1.020000000000000000e+02
1.329900000000000000e+04 -2.762000000000000000e+03
1.507200000000000000e+04 -4.877000000000000000e+03
1.466300000000000000e+04 -8.422000000000000000e+03
1.391200000000000000e+04 -8.627000000000000000e+03
1.067400000000000000e+04 -9.685000000000000000e+03
1.043500000000000000e+04 -1.227600000000000000e+04
8.490000000000000000e+03 -1.401500000000000000e+04
5.525000000000000000e+03 -1.428700000000000000e+04
6.172000000000000000e+03 -1.326500000000000000e+04
3.649000000000000000e+03 -1.449300000000000000e+04
1.978000000000000000e+03 -1.544700000000000000e+04
1.364000000000000000e+03 -1.299200000000000000e+04
3.060000000000000000e+02 -1.152600000000000000e+04
7.840000000000000000e+02 -1.278700000000000000e+04
-5.120000000000000000e+02 -1.067300000000000000e+04
1.020000000000000000e+02 -1.091200000000000000e+04
-7.500000000000000000e+02 -1.036600000000000000e+04
-3.000000000000000000e+03 -8.047000000000000000e+03
-2.591000000000000000e+03 -6.717000000000000000e+03
-2.012000000000000000e+03 -5.864000000000000000e+03
-3.750000000000000000e+03 -5.183000000000000000e+03
-2.216000000000000000e+03 -5.865000000000000000e+03
-4.808000000000000000e+03 -4.160000000000000000e+03
-3.512000000000000000e+03 -3.716000000000000000e+03
-3.409000000000000000e+03 -4.262000000000000000e+03
-3.819000000000000000e+03 -1.227000000000000000e+03
-3.171000000000000000e+03 -2.080000000000000000e+03
-5.319000000000000000e+03 -3.614000000000000000e+03
-3.000000000000000000e+03 -1.295000000000000000e+03
-4.706000000000000000e+03 -1.125000000000000000e+03
-4.910000000000000000e+03 -3.410000000000000000e+03
-4.978000000000000000e+03 -1.330000000000000000e+03
-6.649000000000000000e+03 -2.625000000000000000e+03
-6.683000000000000000e+03 -2.762000000000000000e+03
-8.013000000000000000e+03 -1.670000000000000000e+03
-8.763000000000000000e+03 -3.750000000000000000e+02
-9.821000000000000000e+03 -1.637000000000000000e+03
-8.797000000000000000e+03 -2.390000000000000000e+02
-1.077500000000000000e+04 2.182000000000000000e+03
-1.115000000000000000e+04 2.626000000000000000e+03
-1.029800000000000000e+04 3.614000000000000000e+03
-9.275000000000000000e+03 4.637000000000000000e+03
-6.820000000000000000e+03 6.036000000000000000e+03
-8.695000000000000000e+03 7.536000000000000000e+03
-6.342000000000000000e+03 8.934000000000000000e+03
-5.148000000000000000e+03 9.275000000000000000e+03
-2.932000000000000000e+03 1.145800000000000000e+04
-2.251000000000000000e+03 1.128700000000000000e+04
-1.841000000000000000e+03 1.200300000000000000e+04
2.898000000000000000e+03 9.344000000000000000e+03
4.603000000000000000e+03 1.149100000000000000e+04
7.876000000000000000e+03 1.057100000000000000e+04
9.411000000000000000e+03 1.135500000000000000e+04
1.019600000000000000e+04 6.718000000000000000e+03
1.323100000000000000e+04 8.320000000000000000e+03
1.684500000000000000e+04 8.218000000000000000e+03
1.831200000000000000e+04 5.762000000000000000e+03
2.052800000000000000e+04 2.591000000000000000e+03
2.489300000000000000e+04 2.796000000000000000e+03
2.591500000000000000e+04 2.422000000000000000e+03
2.639300000000000000e+04 2.626000000000000000e+03
2.482400000000000000e+04 1.944000000000000000e+03
2.472200000000000000e+04 2.625000000000000000e+03
2.465300000000000000e+04 2.050000000000000000e+02
2.093700000000000000e+04 7.500000000000000000e+02
1.916300000000000000e+04 1.569000000000000000e+03
1.466300000000000000e+04 -1.432000000000000000e+03
1.053700000000000000e+04 4.090000000000000000e+02
6.308000000000000000e+03 -1.092000000000000000e+03
3.069000000000000000e+03 -1.637000000000000000e+03
6.140000000000000000e+02 -2.523000000000000000e+03
-1.227000000000000000e+03 -2.319000000000000000e+03
-5.353000000000000000e+03 -3.819000000000000000e+03
-8.935000000000000000e+03 -4.365000000000000000e+03
-9.991000000000000000e+03 -4.399000000000000000e+03
-1.016200000000000000e+04 -6.137000000000000000e+03
-1.282100000000000000e+04 -3.682000000000000000e+03
-1.070700000000000000e+04 -5.319000000000000000e+03
-1.227500000000000000e+04 -5.558000000000000000e+03
-1.166200000000000000e+04 -4.296000000000000000e+03
-1.203700000000000000e+04 -2.728000000000000000e+03
-1.019500000000000000e+04 -3.751000000000000000e+03
-9.241000000000000000e+03 -2.318000000000000000e+03
-6.103000000000000000e+03 -6.470000000000000000e+02
-7.229000000000000000e+03 9.550000000000000000e+02
-6.103000000000000000e+03 -1.603000000000000000e+03
-7.911000000000000000e+03 1.398000000000000000e+03
-5.728000000000000000e+03 1.467000000000000000e+03
-4.468000000000000000e+03 2.380000000000000000e+02
-5.967000000000000000e+03 1.466000000000000000e+03
-4.399000000000000000e+03 1.091000000000000000e+03
-4.637000000000000000e+03 2.080000000000000000e+03
-4.979000000000000000e+03 3.750000000000000000e+02
-5.387000000000000000e+03 2.251000000000000000e+03
-5.694000000000000000e+03 5.800000000000000000e+02
-7.161000000000000000e+03 3.069000000000000000e+03
-6.820000000000000000e+03 2.046000000000000000e+03
-5.047000000000000000e+03 6.820000000000000000e+02
-5.729000000000000000e+03 3.205000000000000000e+03
-7.366000000000000000e+03 2.626000000000000000e+03
-8.184000000000000000e+03 4.091000000000000000e+03
-7.775000000000000000e+03 3.580000000000000000e+03
-7.876000000000000000e+03 3.716000000000000000e+03
-7.501000000000000000e+03 6.445000000000000000e+03
-4.808000000000000000e+03 8.559000000000000000e+03
-5.490000000000000000e+03 8.661000000000000000e+03
-2.728000000000000000e+03 9.820000000000000000e+03
-2.148000000000000000e+03 1.077500000000000000e+04
-2.148000000000000000e+03 1.128700000000000000e+04
1.910000000000000000e+03 1.285600000000000000e+04
3.614000000000000000e+03 1.411700000000000000e+04
3.819000000000000000e+03 1.186600000000000000e+04
5.763000000000000000e+03 1.275300000000000000e+04
7.707000000000000000e+03 1.190000000000000000e+04
9.787000000000000000e+03 1.503800000000000000e+04
1.224200000000000000e+04 1.040000000000000000e+04
1.244600000000000000e+04 1.173000000000000000e+04
1.459400000000000000e+04 1.023000000000000000e+04
1.517500000000000000e+04 9.036000000000000000e+03
1.476500000000000000e+04 6.343000000000000000e+03
1.537900000000000000e+04 6.343000000000000000e+03
1.295800000000000000e+04 6.275000000000000000e+03
1.248000000000000000e+04 2.865000000000000000e+03
1.268500000000000000e+04 -5.800000000000000000e+02
1.166200000000000000e+04 -9.890000000000000000e+02
1.022900000000000000e+04 -1.125000000000000000e+03
8.388000000000000000e+03 -3.307000000000000000e+03
8.013000000000000000e+03 -5.660000000000000000e+03
6.001000000000000000e+03 -8.081000000000000000e+03
4.433000000000000000e+03 -7.604000000000000000e+03
1.807000000000000000e+03 -9.480000000000000000e+03
1.058000000000000000e+03 -1.097900000000000000e+04
-1.569000000000000000e+03 -1.115000000000000000e+04
-3.819000000000000000e+03 -1.132100000000000000e+04
-2.796000000000000000e+03 -1.196900000000000000e+04
-5.490000000000000000e+03 -8.968000000000000000e+03
-5.626000000000000000e+03 -1.094600000000000000e+04
-5.591000000000000000e+03 -1.248000000000000000e+04
-7.433000000000000000e+03 -1.094500000000000000e+04
-5.421000000000000000e+03 -8.218000000000000000e+03
-5.081000000000000000e+03 -8.968000000000000000e+03
-6.547000000000000000e+03 -8.047000000000000000e+03
-5.183000000000000000e+03 -8.593000000000000000e+03
-6.070000000000000000e+03 -6.819000000000000000e+03
-5.285000000000000000e+03 -5.592000000000000000e+03
-3.717000000000000000e+03 -6.513000000000000000e+03
-1.740000000000000000e+03 -5.729000000000000000e+03
-2.046000000000000000e+03 -4.365000000000000000e+03
-4.058000000000000000e+03 -2.114000000000000000e+03
-2.557000000000000000e+03 -2.421000000000000000e+03
-2.387000000000000000e+03 -1.364000000000000000e+03
-2.864000000000000000e+03 -3.989000000000000000e+03
-1.330000000000000000e+03 -3.035000000000000000e+03
-1.977000000000000000e+03 -4.100000000000000000e+02
-1.910000000000000000e+03 -1.739000000000000000e+03
-2.865000000000000000e+03 -1.534000000000000000e+03
-2.831000000000000000e+03 -8.520000000000000000e+02
-2.796000000000000000e+03 -9.200000000000000000e+02
-2.352000000000000000e+03 -1.944000000000000000e+03
-3.853000000000000000e+03 4.440000000000000000e+02
-4.978000000000000000e+03 1.194000000000000000e+03
-5.728000000000000000e+03 4.430000000000000000e+02
-5.558000000000000000e+03 2.040000000000000000e+02
-5.627000000000000000e+03 6.140000000000000000e+02
-5.455000000000000000e+03 2.115000000000000000e+03
-4.774000000000000000e+03 2.319000000000000000e+03
-4.638000000000000000e+03 1.842000000000000000e+03
-3.205000000000000000e+03 3.751000000000000000e+03
-9.210000000000000000e+02 5.285000000000000000e+03
-3.035000000000000000e+03 2.660000000000000000e+03
-3.375000000000000000e+03 5.729000000000000000e+03
-2.148000000000000000e+03 6.035000000000000000e+03
-7.500000000000000000e+02 4.842000000000000000e+03
1.363000000000000000e+03 8.388000000000000000e+03
2.728000000000000000e+03 6.922000000000000000e+03
1.636000000000000000e+03 8.456000000000000000e+03
3.785000000000000000e+03 1.002500000000000000e+04
5.763000000000000000e+03 1.016100000000000000e+04
6.786000000000000000e+03 9.275000000000000000e+03
7.570000000000000000e+03 4.842000000000000000e+03
6.718000000000000000e+03 6.615000000000000000e+03
6.104000000000000000e+03 6.069000000000000000e+03
9.003000000000000000e+03 7.365000000000000000e+03
6.548000000000000000e+03 4.944000000000000000e+03
8.797000000000000000e+03 4.705000000000000000e+03
8.661000000000000000e+03 2.831000000000000000e+03
8.184000000000000000e+03 2.115000000000000000e+03
8.354000000000000000e+03 3.103000000000000000e+03
7.059000000000000000e+03 9.550000000000000000e+02
4.774000000000000000e+03 2.050000000000000000e+02
3.614000000000000000e+03 -2.319000000000000000e+03
3.069000000000000000e+03 -4.569000000000000000e+03
1.636000000000000000e+03 -3.513000000000000000e+03
6.130000000000000000e+02 -5.831000000000000000e+03
-1.370000000000000000e+02 -5.865000000000000000e+03
-2.796000000000000000e+03 -7.536000000000000000e+03
-4.501000000000000000e+03 -6.479000000000000000e+03
-5.797000000000000000e+03 -8.320000000000000000e+03
-5.831000000000000000e+03 -7.331000000000000000e+03
-7.263000000000000000e+03 -7.945000000000000000e+03
-5.762000000000000000e+03 -9.309000000000000000e+03
-8.900000000000000000e+03 -9.002000000000000000e+03
-7.740000000000000000e+03 -7.639000000000000000e+03
-9.343000000000000000e+03 -8.661000000000000000e+03
-8.218000000000000000e+03 -6.172000000000000000e+03
-8.728000000000000000e+03 -6.410000000000000000e+03
-8.592000000000000000e+03 -6.206000000000000000e+03
-8.422000000000000000e+03 -7.059000000000000000e+03
-7.501000000000000000e+03 -6.820000000000000000e+03
-7.195000000000000000e+03 -6.036000000000000000e+03
-4.945000000000000000e+03 -5.524000000000000000e+03
-4.978000000000000000e+03 -6.138000000000000000e+03
-4.501000000000000000e+03 -6.104000000000000000e+03
-5.149000000000000000e+03 -2.558000000000000000e+03
-4.467000000000000000e+03 -4.740000000000000000e+03
-3.785000000000000000e+03 -5.729000000000000000e+03
-2.865000000000000000e+03 -3.955000000000000000e+03
-5.115000000000000000e+03 -3.444000000000000000e+03
-6.342000000000000000e+03 -4.262000000000000000e+03
-5.286000000000000000e+03 -4.467000000000000000e+03
-4.399000000000000000e+03 -3.581000000000000000e+03
-5.797000000000000000e+03 -3.990000000000000000e+03
-4.399000000000000000e+03 -2.626000000000000000e+03
-5.286000000000000000e+03 -2.182000000000000000e+03
-4.433000000000000000e+03 -3.171000000000000000e+03
-3.785000000000000000e+03 -2.182000000000000000e+03
-4.637000000000000000e+03 -2.660000000000000000e+03
-1.398000000000000000e+03 -6.820000000000000000e+02
-1.943000000000000000e+03 -5.800000000000000000e+02
-5.354000000000000000e+03 -1.364000000000000000e+03
-3.069000000000000000e+03 -1.023000000000000000e+03
-2.114000000000000000e+03 1.534000000000000000e+03
-1.671000000000000000e+03 6.800000000000000000e+01
-5.790000000000000000e+02 1.057000000000000000e+03
-1.057000000000000000e+03 -5.110000000000000000e+02
1.057000000000000000e+03 2.080000000000000000e+03
1.842000000000000000e+03 -4.770000000000000000e+02
2.626000000000000000e+03 1.637000000000000000e+03
5.592000000000000000e+03 1.977000000000000000e+03
5.149000000000000000e+03 6.480000000000000000e+02
7.434000000000000000e+03 -9.550000000000000000e+02
5.081000000000000000e+03 1.330000000000000000e+03
7.775000000000000000e+03 1.773000000000000000e+03
9.855000000000000000e+03 1.370000000000000000e+02
1.115100000000000000e+04 3.400000000000000000e+01
1.462900000000000000e+04 2.523000000000000000e+03
1.115000000000000000e+04 8.870000000000000000e+02
1.387900000000000000e+04 3.410000000000000000e+02
1.333200000000000000e+04 -5.120000000000000000e+02
1.524200000000000000e+04 3.308000000000000000e+03
1.514000000000000000e+04 2.728000000000000000e+03
1.289000000000000000e+04 2.694000000000000000e+03
1.387900000000000000e+04 3.683000000000000000e+03
1.265000000000000000e+04 3.069000000000000000e+03
1.176400000000000000e+04 2.966000000000000000e+03
1.057100000000000000e+04 2.216000000000000000e+03
6.990000000000000000e+03 4.809000000000000000e+03
6.002000000000000000e+03 3.990000000000000000e+03
4.501000000000000000e+03 3.887000000000000000e+03
1.296000000000000000e+03 4.876000000000000000e+03
-3.000000000000000000e+03 6.070000000000000000e+03
-5.729000000000000000e+03 5.047000000000000000e+03
-5.898000000000000000e+03 6.445000000000000000e+03
-1.050200000000000000e+04 4.365000000000000000e+03
-1.469600000000000000e+04 3.478000000000000000e+03
-1.374100000000000000e+04 3.376000000000000000e+03
-1.561800000000000000e+04 2.149000000000000000e+03
-1.762900000000000000e+04 1.978000000000000000e+03
-2.039100000000000000e+04 -4.780000000000000000e+02
-1.960700000000000000e+04 -6.480000000000000000e+02
-2.069800000000000000e+04 -2.182000000000000000e+03
-2.148200000000000000e+04 -3.035000000000000000e+03
-2.025500000000000000e+04 -3.376000000000000000e+03
-1.837900000000000000e+04 -6.343000000000000000e+03
-1.892500000000000000e+04 -8.593000000000000000e+03
-1.572000000000000000e+04 -6.956000000000000000e+03
-1.432100000000000000e+04 -8.661000000000000000e+03
-1.285500000000000000e+04 -1.070700000000000000e+04
-1.251400000000000000e+04 -9.274000000000000000e+03
-9.275000000000000000e+03 -1.101300000000000000e+04
-1.142300000000000000e+04 -1.070700000000000000e+04
-9.548000000000000000e+03 -1.060400000000000000e+04
-8.456000000000000000e+03 -1.149100000000000000e+04
-8.832000000000000000e+03 -1.132100000000000000e+04
-8.389000000000000000e+03 -9.377000000000000000e+03
-7.501000000000000000e+03 -1.166100000000000000e+04
-6.717000000000000000e+03 -1.012700000000000000e+04
-6.206000000000000000e+03 -1.200300000000000000e+04
-6.513000000000000000e+03 -1.169600000000000000e+04
-3.614000000000000000e+03 -1.217400000000000000e+04
-3.819000000000000000e+03 -1.329900000000000000e+04
-1.227000000000000000e+03 -1.363900000000000000e+04
-6.820000000000000000e+02 -1.336600000000000000e+04
-3.070000000000000000e+02 -1.418600000000000000e+04
5.115000000000000000e+03 -1.346900000000000000e+04
8.355000000000000000e+03 -1.271900000000000000e+04
1.060500000000000000e+04 -1.203700000000000000e+04
1.169600000000000000e+04 -1.142200000000000000e+04
1.643600000000000000e+04 -1.074100000000000000e+04
2.080000000000000000e+04 -6.649000000000000000e+03
2.325600000000000000e+04 -8.491000000000000000e+03
2.874500000000000000e+04 -4.671000000000000000e+03
2.888200000000000000e+04 -1.057000000000000000e+03
3.157500000000000000e+04 1.057000000000000000e+03
3.440600000000000000e+04 5.319000000000000000e+03
3.699800000000000000e+04 9.002000000000000000e+03
3.658900000000000000e+04 1.217300000000000000e+04
3.713400000000000000e+04 1.742400000000000000e+04
3.440600000000000000e+04 2.189100000000000000e+04
3.519000000000000000e+04 2.502900000000000000e+04
3.225800000000000000e+04 2.878000000000000000e+04
2.857500000000000000e+04 3.362200000000000000e+04
2.642800000000000000e+04 3.754300000000000000e+04
1.906100000000000000e+04 4.160100000000000000e+04
1.132100000000000000e+04 4.091900000000000000e+04
5.456000000000000000e+03 4.303300000000000000e+04
-3.308000000000000000e+03 4.531800000000000000e+04
-1.179800000000000000e+04 4.426100000000000000e+04
-1.885700000000000000e+04 3.989600000000000000e+04
-2.509600000000000000e+04 3.740700000000000000e+04
-3.447400000000000000e+04 3.276900000000000000e+04
-3.877000000000000000e+04 2.789400000000000000e+04
-4.320300000000000000e+04 2.247100000000000000e+04
-4.756700000000000000e+04 1.534400000000000000e+04
-4.780700000000000000e+04 1.029800000000000000e+04
-4.883000000000000000e+04 3.955000000000000000e+03
-4.957900000000000000e+04 -1.535000000000000000e+03
-5.019400000000000000e+04 -4.774000000000000000e+03
-4.777200000000000000e+04 -9.649000000000000000e+03
-4.589700000000000000e+04 -1.599300000000000000e+04
-4.484000000000000000e+04 -2.100600000000000000e+04
-4.010000000000000000e+04 -2.349400000000000000e+04
-3.883900000000000000e+04 -2.635800000000000000e+04
-3.502000000000000000e+04 -2.837000000000000000e+04
-3.143900000000000000e+04 -3.147300000000000000e+04
-2.830200000000000000e+04 -3.403100000000000000e+04
-2.284600000000000000e+04 -3.430300000000000000e+04
-1.667500000000000000e+04 -3.604300000000000000e+04
-1.237700000000000000e+04 -3.723600000000000000e+04
-8.013000000000000000e+03 -3.795200000000000000e+04
-4.398000000000000000e+03 -3.505400000000000000e+04
-1.710000000000000000e+02 -3.498500000000000000e+04
1.194000000000000000e+03 -3.484900000000000000e+04
