-1.085030000000000000e+05 -1.389880000000000000e+05
-1.196870000000000000e+05 -1.093890000000000000e+05
-1.236770000000000000e+05 -8.425900000000000000e+04
-1.289280000000000000e+05 -6.547000000000000000e+04
-1.340430000000000000e+05 -4.958000000000000000e+04
-1.426360000000000000e+05 -3.048500000000000000e+04
-1.451260000000000000e+05 -6.206000000000000000e+03
-1.473420000000000000e+05 2.008400000000000000e+04
-1.416470000000000000e+05 4.995600000000000000e+04
-1.283830000000000000e+05 7.812100000000000000e+04
-1.088100000000000000e+05 1.006950000000000000e+05
-8.882800000000000000e+04 1.183580000000000000e+05
-6.693600000000000000e+04 1.353400000000000000e+05
-4.501100000000000000e+04 1.493880000000000000e+05
-2.121000000000000000e+04 1.616980000000000000e+05
7.502000000000000000e+03 1.755750000000000000e+05
4.374900000000000000e+04 1.851230000000000000e+05
8.951100000000000000e+04 1.829410000000000000e+05
1.437610000000000000e+05 1.696080000000000000e+05
1.970920000000000000e+05 1.346920000000000000e+05
2.348750000000000000e+05 7.334700000000000000e+04
2.491620000000000000e+05 2.251000000000000000e+03
2.367500000000000000e+05 -7.331300000000000000e+04
2.037770000000000000e+05 -1.372480000000000000e+05
1.526620000000000000e+05 -1.891130000000000000e+05
8.940700000000000000e+04 -2.222920000000000000e+05
2.271100000000000000e+04 -2.308510000000000000e+05
-4.119200000000000000e+04 -2.252580000000000000e+05
-9.892100000000000000e+04 -1.970240000000000000e+05
-1.404200000000000000e+05 -1.509560000000000000e+05
-1.646300000000000000e+05 -9.943300000000000000e+04
-1.642550000000000000e+05 -4.409000000000000000e+04
-1.502060000000000000e+05 -9.550000000000000000e+02
-1.249720000000000000e+05 2.741600000000000000e+04
-1.036270000000000000e+05 4.235100000000000000e+04
-8.678100000000000000e+04 4.640900000000000000e+04
-7.931400000000000000e+04 4.818200000000000000e+04
-7.590400000000000000e+04 5.551300000000000000e+04
-7.396100000000000000e+04 6.264000000000000000e+04
-6.915200000000000000e+04 7.911000000000000000e+04
-6.110600000000000000e+04 9.772800000000000000e+04
-4.299900000000000000e+04 1.160050000000000000e+05
-2.018700000000000000e+04 1.345880000000000000e+05
1.329900000000000000e+04 1.461480000000000000e+05
4.975000000000000000e+04 1.491840000000000000e+05
8.572500000000000000e+04 1.428750000000000000e+05
1.225170000000000000e+05 1.265750000000000000e+05
1.528660000000000000e+05 9.735300000000000000e+04
1.768720000000000000e+05 6.325500000000000000e+04
1.906470000000000000e+05 1.565200000000000000e+04
1.954890000000000000e+05 -3.253100000000000000e+04
1.826350000000000000e+05 -8.538400000000000000e+04
1.542640000000000000e+05 -1.366690000000000000e+05
1.122890000000000000e+05 -1.756780000000000000e+05
5.636600000000000000e+04 -2.016950000000000000e+05
-4.978000000000000000e+03 -2.065380000000000000e+05
-6.062800000000000000e+04 -1.933080000000000000e+05
-1.042410000000000000e+05 -1.628560000000000000e+05
-1.370780000000000000e+05 -1.210520000000000000e+05
-1.521830000000000000e+05 -7.880200000000000000e+04
-1.522860000000000000e+05 -3.512200000000000000e+04
-1.410680000000000000e+05 5.800000000000000000e+02
-1.219040000000000000e+05 2.918900000000000000e+04
-1.030470000000000000e+05 4.654500000000000000e+04
-8.572400000000000000e+04 5.680900000000000000e+04
-7.089200000000000000e+04 5.790100000000000000e+04
-6.591300000000000000e+04 6.042400000000000000e+04
-6.666400000000000000e+04 6.645900000000000000e+04
-6.233300000000000000e+04 7.730300000000000000e+04
-5.582000000000000000e+04 9.622700000000000000e+04
-3.917900000000000000e+04 1.155620000000000000e+05
-1.367400000000000000e+04 1.328160000000000000e+05
1.735700000000000000e+04 1.456030000000000000e+05
5.370600000000000000e+04 1.473760000000000000e+05
9.172600000000000000e+04 1.377940000000000000e+05
1.273260000000000000e+05 1.164490000000000000e+05
1.559010000000000000e+05 8.586200000000000000e+04
1.759170000000000000e+05 4.610200000000000000e+04
1.825670000000000000e+05 -9.890000000000000000e+02
1.759170000000000000e+05 -4.923800000000000000e+04
1.550830000000000000e+05 -9.329500000000000000e+04
1.219030000000000000e+05 -1.314170000000000000e+05
8.071200000000000000e+04 -1.577430000000000000e+05
3.355300000000000000e+04 -1.679380000000000000e+05
-1.360500000000000000e+04 -1.646640000000000000e+05
-5.459300000000000000e+04 -1.482280000000000000e+05
-8.364400000000000000e+04 -1.257230000000000000e+05
-1.044450000000000000e+05 -9.701200000000000000e+04
-1.149820000000000000e+05 -6.690300000000000000e+04
-1.175390000000000000e+05 -3.948600000000000000e+04
-1.158340000000000000e+05 -1.633300000000000000e+04
-1.066960000000000000e+05 2.183000000000000000e+03
-9.438600000000000000e+04 1.541300000000000000e+04
-7.948500000000000000e+04 2.359700000000000000e+04
-7.078900000000000000e+04 3.000600000000000000e+04
-6.195700000000000000e+04 3.553100000000000000e+04
-5.694600000000000000e+04 3.999800000000000000e+04
-5.677500000000000000e+04 5.067100000000000000e+04
-5.940000000000000000e+04 6.417400000000000000e+04
-5.452400000000000000e+04 8.108800000000000000e+04
-4.279500000000000000e+04 1.047520000000000000e+05
-1.814100000000000000e+04 1.333950000000000000e+05
2.288000000000000000e+04 1.543310000000000000e+05
7.188100000000000000e+04 1.596170000000000000e+05
1.221090000000000000e+05 1.461830000000000000e+05
1.660630000000000000e+05 1.121180000000000000e+05
1.917730000000000000e+05 6.229900000000000000e+04
1.985590000000000000e+05 3.750000000000000000e+02
1.867600000000000000e+05 -5.796900000000000000e+04
1.535480000000000000e+05 -1.125610000000000000e+05
1.072410000000000000e+05 -1.559350000000000000e+05
5.142100000000000000e+04 -1.849530000000000000e+05
-1.036600000000000000e+04 -1.918750000000000000e+05
-6.478800000000000000e+04 -1.818840000000000000e+05
-1.142310000000000000e+05 -1.492850000000000000e+05
-1.428410000000000000e+05 -1.014110000000000000e+05
-1.517410000000000000e+05 -4.784000000000000000e+04
-1.426370000000000000e+05 -1.364000000000000000e+03
-1.222110000000000000e+05 2.912100000000000000e+04
-9.407900000000000000e+04 4.552300000000000000e+04
-7.075600000000000000e+04 5.360300000000000000e+04
-5.353500000000000000e+04 5.680900000000000000e+04
-3.853100000000000000e+04 5.299000000000000000e+04
-3.055200000000000000e+04 5.554800000000000000e+04
-2.250600000000000000e+04 5.885500000000000000e+04
-1.609500000000000000e+04 6.209500000000000000e+04
-9.070000000000000000e+03 7.072100000000000000e+04
-1.710000000000000000e+02 8.102000000000000000e+04
1.309500000000000000e+04 9.087400000000000000e+04
3.205300000000000000e+04 9.748900000000000000e+04
5.067100000000000000e+04 9.820600000000000000e+04
7.365400000000000000e+04 9.622800000000000000e+04
9.735300000000000000e+04 8.592900000000000000e+04
1.251100000000000000e+05 6.993700000000000000e+04
1.481600000000000000e+05 4.644300000000000000e+04
1.643580000000000000e+05 5.626000000000000000e+03
1.687560000000000000e+05 -4.344100000000000000e+04
1.546400000000000000e+05 -9.898900000000000000e+04
1.196190000000000000e+05 -1.500360000000000000e+05
6.594700000000000000e+04 -1.883980000000000000e+05
2.932000000000000000e+03 -2.054470000000000000e+05
-5.650200000000000000e+04 -1.993760000000000000e+05
-1.064570000000000000e+05 -1.770080000000000000e+05
-1.453650000000000000e+05 -1.377940000000000000e+05
-1.705640000000000000e+05 -8.981700000000000000e+04
-1.771790000000000000e+05 -3.672500000000000000e+04
-1.700860000000000000e+05 1.582200000000000000e+04
-1.485700000000000000e+05 6.028700000000000000e+04
-1.154250000000000000e+05 9.312400000000000000e+04
-7.617700000000000000e+04 1.069340000000000000e+05
-3.768000000000000000e+04 1.070020000000000000e+05
-1.016200000000000000e+04 9.520400000000000000e+04
5.592000000000000000e+03 8.200800000000000000e+04
1.462900000000000000e+04 6.867500000000000000e+04
1.554900000000000000e+04 6.339000000000000000e+04
2.045900000000000000e+04 5.861600000000000000e+04
2.250500000000000000e+04 5.677400000000000000e+04
2.359700000000000000e+04 6.148100000000000000e+04
3.208800000000000000e+04 6.414100000000000000e+04
4.020300000000000000e+04 6.270900000000000000e+04
4.825000000000000000e+04 6.417400000000000000e+04
6.253800000000000000e+04 5.906000000000000000e+04
7.784800000000000000e+04 4.998900000000000000e+04
9.053300000000000000e+04 3.536100000000000000e+04
1.006950000000000000e+05 1.609500000000000000e+04
1.040360000000000000e+05 -7.058000000000000000e+03
1.032180000000000000e+05 -2.704100000000000000e+04
9.820500000000000000e+04 -4.971600000000000000e+04
8.487200000000000000e+04 -7.345000000000000000e+04
6.710700000000000000e+04 -9.104500000000000000e+04
4.269200000000000000e+04 -1.107870000000000000e+05
1.541300000000000000e+04 -1.200970000000000000e+05
-2.093700000000000000e+04 -1.182550000000000000e+05
-4.988700000000000000e+04 -1.066620000000000000e+05
-7.208500000000000000e+04 -8.357700000000000000e+04
4.979000000000000000e+03 -9.855000000000000000e+03
8.627000000000000000e+03 -1.650300000000000000e+04
8.491000000000000000e+03 -1.452600000000000000e+04
-7.840000000000000000e+02 -1.428800000000000000e+04
-6.580000000000000000e+03 -1.462900000000000000e+04
-1.169600000000000000e+04 -1.080900000000000000e+04
-1.452700000000000000e+04 -1.111600000000000000e+04
-1.319700000000000000e+04 -1.173000000000000000e+04
-9.377000000000000000e+03 -1.500000000000000000e+03
-1.606100000000000000e+04 6.130000000000000000e+02
-1.203700000000000000e+04 3.376000000000000000e+03
-1.340100000000000000e+04 4.876000000000000000e+03
-1.214000000000000000e+04 1.943000000000000000e+03
-9.480000000000000000e+03 1.330000000000000000e+03
-7.775000000000000000e+03 5.831000000000000000e+03
-1.101400000000000000e+04 8.218000000000000000e+03
-1.067300000000000000e+04 1.046900000000000000e+04
-1.074100000000000000e+04 1.531100000000000000e+04
-1.104900000000000000e+04 1.851600000000000000e+04
-6.512000000000000000e+03 2.110700000000000000e+04
2.489000000000000000e+03 2.707400000000000000e+04
1.138900000000000000e+04 2.755200000000000000e+04
2.151600000000000000e+04 2.458600000000000000e+04
3.024600000000000000e+04 2.161900000000000000e+04
3.508800000000000000e+04 1.442400000000000000e+04
4.088500000000000000e+04 3.205000000000000000e+03
4.409000000000000000e+04 -6.615000000000000000e+03
4.320300000000000000e+04 -1.585600000000000000e+04
3.757700000000000000e+04 -2.860900000000000000e+04
3.406500000000000000e+04 -3.764500000000000000e+04
1.667400000000000000e+04 -4.576100000000000000e+04
3.137000000000000000e+03 -4.893200000000000000e+04
-1.172900000000000000e+04 -4.848900000000000000e+04
-2.792600000000000000e+04 -4.180500000000000000e+04
-4.194200000000000000e+04 -3.283800000000000000e+04
-5.077300000000000000e+04 -2.100500000000000000e+04
-5.121700000000000000e+04 -9.786000000000000000e+03
-4.988700000000000000e+04 1.602000000000000000e+03
-4.678400000000000000e+04 1.244600000000000000e+04
-4.078300000000000000e+04 1.981200000000000000e+04
-3.362200000000000000e+04 2.226700000000000000e+04
-2.250600000000000000e+04 2.598400000000000000e+04
-2.028900000000000000e+04 2.574400000000000000e+04
-1.913000000000000000e+04 2.724600000000000000e+04
-1.987900000000000000e+04 3.058700000000000000e+04
-1.507200000000000000e+04 3.617900000000000000e+04
-9.854000000000000000e+03 4.351100000000000000e+04
1.022000000000000000e+03 4.739800000000000000e+04
1.364000000000000000e+04 5.350100000000000000e+04
2.748400000000000000e+04 5.336500000000000000e+04
4.647700000000000000e+04 4.814800000000000000e+04
6.315200000000000000e+04 4.023600000000000000e+04
7.853000000000000000e+04 2.646100000000000000e+04
8.913500000000000000e+04 6.411000000000000000e+03
9.162400000000000000e+04 -1.769800000000000000e+04
8.821500000000000000e+04 -3.819100000000000000e+04
1.010360000000000000e+05 1.053600000000000000e+04
1.027070000000000000e+05 -1.384400000000000000e+04
9.534100000000000000e+04 -3.907700000000000000e+04
7.781500000000000000e+04 -6.519700000000000000e+04
5.687700000000000000e+04 -7.955200000000000000e+04
2.908700000000000000e+04 -8.671400000000000000e+04
3.171000000000000000e+03 -8.862400000000000000e+04
-2.158500000000000000e+04 -8.207600000000000000e+04
-4.242000000000000000e+04 -7.034700000000000000e+04
-5.646800000000000000e+04 -5.582100000000000000e+04
-6.809500000000000000e+04 -3.941800000000000000e+04
-6.990200000000000000e+04 -2.564300000000000000e+04
-7.119800000000000000e+04 -6.547000000000000000e+03
-6.782300000000000000e+04 4.739000000000000000e+03
-6.052600000000000000e+04 1.565200000000000000e+04
-5.356900000000000000e+04 2.253900000000000000e+04
-4.773900000000000000e+04 2.478900000000000000e+04
-4.126000000000000000e+04 2.649500000000000000e+04
-3.993000000000000000e+04 2.738100000000000000e+04
