1.475470000000000000e+05 -9.228220000000000000e+05
-8.721500000000000000e+05 -5.666920000000000000e+05
-1.060070000000000000e+06 -2.284000000000000000e+03
-9.431790000000000000e+05 5.086550000000000000e+05
-6.000400000000000000e+05 9.065230000000000000e+05
-3.471300000000000000e+04 1.077666000000000000e+06
5.666230000000000000e+05 6.875380000000000000e+05
3.541190000000000000e+05 4.057700000000000000e+04
-3.103000000000000000e+04 1.079910000000000000e+05
-6.792600000000000000e+04 3.387060000000000000e+05
7.304000000000000000e+04 4.867300000000000000e+05
2.814530000000000000e+05 5.407420000000000000e+05
5.111090000000000000e+05 4.985620000000000000e+05
7.328570000000000000e+05 3.538460000000000000e+05
9.042720000000000000e+05 8.391700000000000000e+04
9.321650000000000000e+05 -3.000030000000000000e+05
7.253890000000000000e+05 -6.996090000000000000e+05
3.246560000000000000e+05 -9.315510000000000000e+05
-8.657700000000000000e+04 -8.966340000000000000e+05
-3.567100000000000000e+05 -6.878790000000000000e+05
-4.571320000000000000e+05 -4.411380000000000000e+05
-4.426400000000000000e+05 -2.299980000000000000e+05
-3.518000000000000000e+05 -7.829200000000000000e+04
-2.095390000000000000e+05 -1.094600000000000000e+04
-5.360300000000000000e+04 -8.275800000000000000e+04
-4.057800000000000000e+04 -3.637350000000000000e+05
-4.454360000000000000e+05 -5.695220000000000000e+05
-8.171490000000000000e+05 -2.553000000000000000e+05
-8.209680000000000000e+05 1.309070000000000000e+05
-6.829700000000000000e+05 3.932290000000000000e+05
-5.145200000000000000e+05 5.679530000000000000e+05
-3.301130000000000000e+05 6.909490000000000000e+05
-1.263380000000000000e+05 7.667500000000000000e+05
8.794200000000000000e+04 7.997580000000000000e+05
3.111880000000000000e+05 7.745250000000000000e+05
5.333430000000000000e+05 6.765250000000000000e+05
7.252530000000000000e+05 4.788190000000000000e+05
8.222970000000000000e+05 1.860780000000000000e+05
7.414150000000000000e+05 -1.593450000000000000e+05
4.299200000000000000e+05 -3.608360000000000000e+05
2.019340000000000000e+05 -1.950130000000000000e+05
3.363190000000000000e+05 -6.724400000000000000e+04
4.471060000000000000e+05 -1.966150000000000000e+05
4.191450000000000000e+05 -3.848080000000000000e+05
3.011960000000000000e+05 -5.428220000000000000e+05
1.338720000000000000e+05 -6.461770000000000000e+05
-5.807100000000000000e+04 -6.998820000000000000e+05
-2.643020000000000000e+05 -6.950410000000000000e+05
-4.669860000000000000e+05 -6.247280000000000000e+05
-6.388110000000000000e+05 -4.813080000000000000e+05
-7.480990000000000000e+05 -2.626990000000000000e+05
-7.545090000000000000e+05 6.172000000000000000e+03
-6.423230000000000000e+05 2.572770000000000000e+05
-4.435260000000000000e+05 4.238510000000000000e+05
-2.174150000000000000e+05 4.756470000000000000e+05
-3.222400000000000000e+04 4.056760000000000000e+05
1.981100000000000000e+04 2.515140000000000000e+05
-6.997100000000000000e+04 1.952170000000000000e+05
-8.531600000000000000e+04 2.885110000000000000e+05
1.023000000000000000e+03 3.451500000000000000e+05
9.939900000000000000e+04 3.474010000000000000e+05
1.820550000000000000e+05 3.202910000000000000e+05
2.422740000000000000e+05 2.781790000000000000e+05
2.968320000000000000e+05 2.254630000000000000e+05
3.441950000000000000e+05 1.647320000000000000e+05
3.849430000000000000e+05 8.995400000000000000e+04
4.122580000000000000e+05 -5.422000000000000000e+03
4.178840000000000000e+05 -1.342140000000000000e+05
3.650300000000000000e+05 -2.912400000000000000e+05
2.049010000000000000e+05 -4.342510000000000000e+05
-2.751800000000000000e+04 -4.406620000000000000e+05
-1.633000000000000000e+05 -2.862620000000000000e+05
-1.355770000000000000e+05 -1.437280000000000000e+05
-5.353600000000000000e+04 -1.043090000000000000e+05
-6.104000000000000000e+03 -1.390220000000000000e+05
-1.752700000000000000e+04 -2.081070000000000000e+05
-8.998700000000000000e+04 -2.617440000000000000e+05
-1.882950000000000000e+05 -2.616080000000000000e+05
-2.814200000000000000e+05 -2.052080000000000000e+05
-3.348520000000000000e+05 -1.105500000000000000e+05
-3.444000000000000000e+05 -2.387000000000000000e+03
-3.158930000000000000e+05 1.011380000000000000e+05
-2.550260000000000000e+05 1.919100000000000000e+05
-1.701540000000000000e+05 2.492640000000000000e+05
-7.416500000000000000e+04 2.750420000000000000e+05
2.397200000000000000e+04 2.582660000000000000e+05
1.062870000000000000e+05 2.068450000000000000e+05
1.449550000000000000e+05 1.120840000000000000e+05
1.017850000000000000e+05 2.748400000000000000e+04
4.654600000000000000e+04 1.391200000000000000e+04
2.588200000000000000e+04 2.980300000000000000e+04
2.516500000000000000e+04 3.692900000000000000e+04
2.646100000000000000e+04 3.791800000000000000e+04
2.625700000000000000e+04 3.976000000000000000e+04
2.803000000000000000e+04 4.020300000000000000e+04
3.038300000000000000e+04 4.074800000000000000e+04
3.662200000000000000e+04 4.422700000000000000e+04
4.361300000000000000e+04 4.845500000000000000e+04
5.796800000000000000e+04 4.954600000000000000e+04
8.044000000000000000e+04 4.900100000000000000e+04
1.077530000000000000e+05 2.973500000000000000e+04
1.150510000000000000e+05 -9.991000000000000000e+03
9.131800000000000000e+04 -4.623800000000000000e+04
5.714900000000000000e+04 -5.312700000000000000e+04
3.290700000000000000e+04 -4.023700000000000000e+04
2.397200000000000000e+04 -2.397200000000000000e+04
2.775700000000000000e+04 -6.138000000000000000e+03
4.657900000000000000e+04 1.118400000000000000e+04
8.173500000000000000e+04 1.374200000000000000e+04
1.311100000000000000e+05 -7.468000000000000000e+03
1.725410000000000000e+05 -7.798500000000000000e+04
1.627890000000000000e+05 -1.904430000000000000e+05
7.242600000000000000e+04 -2.889550000000000000e+05
-5.994600000000000000e+04 -3.238390000000000000e+05
-1.881920000000000000e+05 -2.923660000000000000e+05
-2.864660000000000000e+05 -2.149940000000000000e+05
-3.453210000000000000e+05 -1.045480000000000000e+05
-3.576990000000000000e+05 1.957300000000000000e+04
-3.181100000000000000e+05 1.368400000000000000e+05
-2.335440000000000000e+05 2.231090000000000000e+05
-1.236770000000000000e+05 2.598010000000000000e+05
-3.099600000000000000e+04 2.321120000000000000e+05
1.364000000000000000e+03 1.693700000000000000e+05
-2.390400000000000000e+04 1.487400000000000000e+05
-2.837000000000000000e+04 1.761550000000000000e+05
4.297000000000000000e+03 2.079360000000000000e+05
5.401200000000000000e+04 2.231440000000000000e+05
1.092870000000000000e+05 2.222570000000000000e+05
1.665060000000000000e+05 2.048330000000000000e+05
2.242350000000000000e+05 1.761900000000000000e+05
2.827160000000000000e+05 1.258940000000000000e+05
3.358080000000000000e+05 3.048400000000000000e+04
3.608020000000000000e+05 -6.454900000000000000e+04
3.220320000000000000e+05 -2.064690000000000000e+05
1.921140000000000000e+05 -3.127560000000000000e+05
3.403000000000000000e+04 -3.183490000000000000e+05
-6.178700000000000000e+04 -2.396820000000000000e+05
-8.347400000000000000e+04 -1.562080000000000000e+05
-5.711600000000000000e+04 -1.048550000000000000e+05
-1.749300000000000000e+04 -9.060100000000000000e+04
2.063000000000000000e+04 -1.201990000000000000e+05
2.775700000000000000e+04 -1.882610000000000000e+05
-2.366500000000000000e+04 -2.810440000000000000e+05
-1.627550000000000000e+05 -3.496170000000000000e+05
-3.479120000000000000e+05 -3.155860000000000000e+05
-4.725440000000000000e+05 -1.729170000000000000e+05
-5.071200000000000000e+05 -1.534000000000000000e+03
-4.695440000000000000e+05 1.547760000000000000e+05
-3.931620000000000000e+05 2.825780000000000000e+05
-2.901830000000000000e+05 3.803410000000000000e+05
-1.629930000000000000e+05 4.477200000000000000e+05
-2.045900000000000000e+04 4.714530000000000000e+05
1.197560000000000000e+05 4.387180000000000000e+05
2.174840000000000000e+05 3.504360000000000000e+05
2.438770000000000000e+05 2.446600000000000000e+05
2.076630000000000000e+05 1.843400000000000000e+05
1.858060000000000000e+05 2.168360000000000000e+05
2.688710000000000000e+05 2.681550000000000000e+05
4.102450000000000000e+05 2.253950000000000000e+05
4.982890000000000000e+05 8.541800000000000000e+04
5.024500000000000000e+05 -7.372200000000000000e+04
4.543010000000000000e+05 -2.126420000000000000e+05
3.722250000000000000e+05 -3.261580000000000000e+05
2.725880000000000000e+05 -4.180880000000000000e+05
1.501380000000000000e+05 -4.839340000000000000e+05
8.252000000000000000e+03 -5.231130000000000000e+05
-1.555940000000000000e+05 -5.214090000000000000e+05
-3.261230000000000000e+05 -4.507550000000000000e+05
-4.520170000000000000e+05 -2.962870000000000000e+05
-4.621780000000000000e+05 -9.892100000000000000e+04
-3.621320000000000000e+05 3.986100000000000000e+04
-2.517180000000000000e+05 6.697000000000000000e+04
-2.029230000000000000e+05 2.267600000000000000e+04
-2.292140000000000000e+05 -1.895900000000000000e+04
-3.041970000000000000e+05 -1.507200000000000000e+04
-3.810570000000000000e+05 6.427600000000000000e+04
-3.927860000000000000e+05 2.022750000000000000e+05
-3.247930000000000000e+05 3.410590000000000000e+05
-1.971940000000000000e+05 4.373880000000000000e+05
-4.913700000000000000e+04 4.780680000000000000e+05
9.155600000000000000e+04 4.703960000000000000e+05
2.207580000000000000e+05 4.264770000000000000e+05
3.284420000000000000e+05 3.502990000000000000e+05
4.151900000000000000e+05 2.446600000000000000e+05
4.613260000000000000e+05 1.096970000000000000e+05
4.547440000000000000e+05 -4.320300000000000000e+04
3.727030000000000000e+05 -1.682790000000000000e+05
2.543790000000000000e+05 -2.183710000000000000e+05
1.767020000000000000e+05 -1.908180000000000000e+05
1.826340000000000000e+05 -1.572990000000000000e+05
2.375000000000000000e+05 -1.849190000000000000e+05
2.629370000000000000e+05 -2.949910000000000000e+05
1.979790000000000000e+05 -4.480270000000000000e+05
2.547200000000000000e+04 -5.644410000000000000e+05
-1.959670000000000000e+05 -5.760690000000000000e+05
-3.847740000000000000e+05 -4.817180000000000000e+05
-5.029950000000000000e+05 -3.298740000000000000e+05
-5.555750000000000000e+05 -1.670850000000000000e+05
-5.574160000000000000e+05 -6.991000000000000000e+03
-5.196010000000000000e+05 1.373510000000000000e+05
-4.503800000000000000e+05 2.633130000000000000e+05
-3.517310000000000000e+05 3.707930000000000000e+05
-2.177560000000000000e+05 4.434920000000000000e+05
-6.622000000000000000e+04 4.547790000000000000e+05
5.002300000000000000e+04 3.902630000000000000e+05
7.767800000000000000e+04 3.154840000000000000e+05
7.293700000000000000e+04 3.091420000000000000e+05
1.196530000000000000e+05 3.468890000000000000e+05
2.226330000000000000e+05 3.564030000000000000e+05
3.323980000000000000e+05 3.130970000000000000e+05
4.201690000000000000e+05 2.159830000000000000e+05
4.654180000000000000e+05 9.592100000000000000e+04
4.683500000000000000e+05 -2.601800000000000000e+04
4.380360000000000000e+05 -1.397720000000000000e+05
3.817050000000000000e+05 -2.396830000000000000e+05
3.058000000000000000e+05 -3.214860000000000000e+05
2.134260000000000000e+05 -3.886610000000000000e+05
1.002510000000000000e+05 -4.304670000000000000e+05
-3.092700000000000000e+04 -4.325130000000000000e+05
-1.517750000000000000e+05 -3.636320000000000000e+05
-2.018660000000000000e+05 -2.526060000000000000e+05
-1.705290000000000000e+05 -1.672220000000000000e+05
-1.263720000000000000e+05 -1.477850000000000000e+05
-1.155960000000000000e+05 -1.747580000000000000e+05
-1.425000000000000000e+05 -2.101520000000000000e+05
-2.091300000000000000e+05 -2.310890000000000000e+05
-3.039590000000000000e+05 -2.212010000000000000e+05
-4.077900000000000000e+05 -1.531390000000000000e+05
-4.836260000000000000e+05 -2.598400000000000000e+04
-4.899690000000000000e+05 1.425340000000000000e+05
-4.148490000000000000e+05 3.026290000000000000e+05
-2.847950000000000000e+05 4.103130000000000000e+05
-1.403520000000000000e+05 4.527660000000000000e+05
-1.230900000000000000e+04 4.444810000000000000e+05
9.305700000000000000e+04 4.069030000000000000e+05
1.684500000000000000e+05 3.480490000000000000e+05
2.079700000000000000e+05 2.847610000000000000e+05
2.297590000000000000e+05 2.215410000000000000e+05
2.257690000000000000e+05 1.850890000000000000e+05
2.426830000000000000e+05 1.877840000000000000e+05
3.104030000000000000e+05 1.831120000000000000e+05
3.928210000000000000e+05 1.175050000000000000e+05
4.407300000000000000e+05 8.933000000000000000e+03
4.420590000000000000e+05 -1.240520000000000000e+05
3.915590000000000000e+05 -2.482760000000000000e+05
3.041290000000000000e+05 -3.540500000000000000e+05
1.916370000000000000e+05 -4.251800000000000000e+05
6.506100000000000000e+04 -4.642590000000000000e+05
-6.216200000000000000e+04 -4.640870000000000000e+05
-1.792590000000000000e+05 -4.313530000000000000e+05
