-1.790540000000000000e+05 -6.952800000000000000e+04
-2.032990000000000000e+05 -3.539500000000000000e+04
-2.190520000000000000e+05 7.126000000000000000e+03
-2.203480000000000000e+05 5.984300000000000000e+04
-2.038780000000000000e+05 1.136860000000000000e+05
-1.639130000000000000e+05 1.644940000000000000e+05
-1.037290000000000000e+05 1.999560000000000000e+05
-3.669100000000000000e+04 2.138690000000000000e+05
3.229200000000000000e+04 2.045270000000000000e+05
8.770300000000000000e+04 1.829420000000000000e+05
1.311450000000000000e+05 1.517400000000000000e+05
1.636760000000000000e+05 1.144020000000000000e+05
1.806220000000000000e+05 7.307400000000000000e+04
1.919770000000000000e+05 3.512200000000000000e+04
1.928980000000000000e+05 -8.081000000000000000e+03
1.804860000000000000e+05 -4.770500000000000000e+04
1.551840000000000000e+05 -8.255400000000000000e+04
1.215290000000000000e+05 -1.077530000000000000e+05
8.050800000000000000e+04 -1.183570000000000000e+05
4.180500000000000000e+04 -1.180510000000000000e+05
1.128700000000000000e+04 -1.075140000000000000e+05
-7.741000000000000000e+03 -9.217000000000000000e+04
-2.114100000000000000e+04 -8.173500000000000000e+04
-2.608600000000000000e+04 -7.126700000000000000e+04
-3.058700000000000000e+04 -6.448100000000000000e+04
-3.648700000000000000e+04 -6.158200000000000000e+04
-4.545500000000000000e+04 -6.209400000000000000e+04
-5.745700000000000000e+04 -5.837700000000000000e+04
-7.460900000000000000e+04 -5.411500000000000000e+04
-9.135100000000000000e+04 -4.466900000000000000e+04
-1.080940000000000000e+05 -2.704000000000000000e+04
-1.217000000000000000e+05 -6.069000000000000000e+03
-1.244270000000000000e+05 1.895900000000000000e+04
-1.221090000000000000e+05 4.470400000000000000e+04
-1.089800000000000000e+05 6.894800000000000000e+04
-8.459900000000000000e+04 8.272400000000000000e+04
-6.809600000000000000e+04 1.146070000000000000e+05
-2.840400000000000000e+04 1.233700000000000000e+05
1.353800000000000000e+04 1.284170000000000000e+05
5.752500000000000000e+04 1.238480000000000000e+05
9.779600000000000000e+04 1.053660000000000000e+05
1.292700000000000000e+05 7.825800000000000000e+04
1.453640000000000000e+05 4.190800000000000000e+04
1.460130000000000000e+05 5.763000000000000000e+03
1.346920000000000000e+05 -2.734700000000000000e+04
1.182900000000000000e+05 -5.247800000000000000e+04
9.247700000000000000e+04 -7.160800000000000000e+04
6.570900000000000000e+04 -8.142800000000000000e+04
3.993000000000000000e+04 -8.592900000000000000e+04
1.537900000000000000e+04 -8.466700000000000000e+04
-4.432000000000000000e+03 -7.535800000000000000e+04
-2.039100000000000000e+04 -6.369700000000000000e+04
-2.922300000000000000e+04 -5.203500000000000000e+04
-3.437200000000000000e+04 -4.088500000000000000e+04
-3.713400000000000000e+04 -3.259900000000000000e+04
-3.369000000000000000e+04 -2.775700000000000000e+04
-3.403100000000000000e+04 -2.646100000000000000e+04
-3.375800000000000000e+04 -2.543800000000000000e+04
-3.805400000000000000e+04 -2.639300000000000000e+04
-4.576100000000000000e+04 -2.571100000000000000e+04
-5.363700000000000000e+04 -1.950400000000000000e+04
-6.393600000000000000e+04 -1.166200000000000000e+04
-7.017500000000000000e+04 8.520000000000000000e+02
-7.491600000000000000e+04 1.640200000000000000e+04
-7.481300000000000000e+04 2.966700000000000000e+04
-6.216200000000000000e+04 4.719300000000000000e+04
-4.542000000000000000e+04 6.045800000000000000e+04
-2.260800000000000000e+04 7.027900000000000000e+04
2.149000000000000000e+03 7.641600000000000000e+04
-6.840300000000000000e+04 4.259000000000000000e+04
-5.070600000000000000e+04 5.663900000000000000e+04
-2.987100000000000000e+04 6.703900000000000000e+04
-5.558000000000000000e+03 7.488200000000000000e+04
1.606100000000000000e+04 7.331300000000000000e+04
4.129300000000000000e+04 6.748200000000000000e+04
5.742300000000000000e+04 5.871800000000000000e+04
6.850500000000000000e+04 4.446500000000000000e+04
7.723400000000000000e+04 2.635900000000000000e+04
7.556400000000000000e+04 8.082000000000000000e+03
6.986900000000000000e+04 -7.331000000000000000e+03
5.868500000000000000e+04 -1.735600000000000000e+04
4.511300000000000000e+04 -2.813100000000000000e+04
3.307600000000000000e+04 -2.987100000000000000e+04
2.076700000000000000e+04 -3.062100000000000000e+04
1.118500000000000000e+04 -2.932500000000000000e+04
4.808000000000000000e+03 -2.789300000000000000e+04
-2.730000000000000000e+02 -2.557400000000000000e+04
-3.410000000000000000e+02 -2.690300000000000000e+04
-1.363000000000000000e+03 -2.513000000000000000e+04
-7.840000000000000000e+02 -2.557400000000000000e+04
-4.228000000000000000e+03 -3.051800000000000000e+04
-9.206000000000000000e+03 -3.369000000000000000e+04
-1.602700000000000000e+04 -3.525800000000000000e+04
-2.253900000000000000e+04 -3.590600000000000000e+04
-3.512200000000000000e+04 -3.566800000000000000e+04
-4.610200000000000000e+04 -3.147300000000000000e+04
-5.718300000000000000e+04 -2.025500000000000000e+04
-6.383300000000000000e+04 -1.033100000000000000e+04
-6.741400000000000000e+04 3.547000000000000000e+03
-6.744800000000000000e+04 1.797000000000000000e+04
-5.950300000000000000e+04 3.239400000000000000e+04
-4.777300000000000000e+04 4.477300000000000000e+04
-3.256500000000000000e+04 5.466100000000000000e+04
-1.510600000000000000e+04 5.824200000000000000e+04
3.853000000000000000e+03 5.905900000000000000e+04
1.647000000000000000e+04 5.432000000000000000e+04
3.167800000000000000e+04 4.784100000000000000e+04
4.166900000000000000e+04 3.795200000000000000e+04
4.664800000000000000e+04 2.768900000000000000e+04
4.814800000000000000e+04 1.745900000000000000e+04
4.746700000000000000e+04 3.751000000000000000e+03
4.327300000000000000e+04 -6.069000000000000000e+03
3.577000000000000000e+04 -1.466300000000000000e+04
2.918900000000000000e+04 -1.936800000000000000e+04
1.930000000000000000e+04 -2.148200000000000000e+04
1.050300000000000000e+04 -2.192600000000000000e+04
7.775000000000000000e+03 -2.182300000000000000e+04
-7.840000000000000000e+02 -2.028900000000000000e+04
-8.530000000000000000e+02 -1.991300000000000000e+04
-1.057000000000000000e+03 -1.814100000000000000e+04
-4.500000000000000000e+03 -1.878800000000000000e+04
-2.762000000000000000e+03 -1.913000000000000000e+04
-7.536000000000000000e+03 -2.288000000000000000e+04
-9.547000000000000000e+03 -2.509600000000000000e+04
-1.520800000000000000e+04 -2.762000000000000000e+04
-2.451700000000000000e+04 -2.813200000000000000e+04
-3.836100000000000000e+04 -2.492600000000000000e+04
-4.552300000000000000e+04 -1.701600000000000000e+04
-5.326300000000000000e+04 -4.228000000000000000e+03
-5.742200000000000000e+04 6.820000000000000000e+03
-5.547900000000000000e+04 1.933400000000000000e+04
-5.026200000000000000e+04 3.256500000000000000e+04
-4.095300000000000000e+04 4.286200000000000000e+04
-2.826900000000000000e+04 5.360400000000000000e+04
-1.145800000000000000e+04 5.704800000000000000e+04
6.683000000000000000e+03 5.892300000000000000e+04
2.291500000000000000e+04 5.558200000000000000e+04
3.863400000000000000e+04 4.828400000000000000e+04
4.821600000000000000e+04 3.423500000000000000e+04
5.295500000000000000e+04 2.499500000000000000e+04
5.196700000000000000e+04 1.449200000000000000e+04
5.131900000000000000e+04 3.922000000000000000e+03
4.432800000000000000e+04 -3.138000000000000000e+03
3.870200000000000000e+04 -8.218000000000000000e+03
3.283700000000000000e+04 -1.183200000000000000e+04
2.611900000000000000e+04 -1.316300000000000000e+04
2.349400000000000000e+04 -1.060400000000000000e+04
2.253900000000000000e+04 -1.057100000000000000e+04
1.619700000000000000e+04 -6.445000000000000000e+03
1.548100000000000000e+04 -6.956000000000000000e+03
1.602700000000000000e+04 -9.070000000000000000e+03
1.868600000000000000e+04 -1.019500000000000000e+04
2.322100000000000000e+04 -1.364000000000000000e+04
2.905300000000000000e+04 -1.940300000000000000e+04
4.463500000000000000e+04 -3.055300000000000000e+04
7.017700000000000000e+04 -5.268300000000000000e+04
4.259000000000000000e+04 -1.558670000000000000e+05
-7.733700000000000000e+04 -2.085830000000000000e+05
-1.780650000000000000e+05 -1.600610000000000000e+05
-2.436030000000000000e+05 -5.131900000000000000e+04
-2.427850000000000000e+05 9.326000000000000000e+04
-1.574350000000000000e+05 2.237240000000000000e+05
1.394600000000000000e+04 2.632450000000000000e+05
1.535480000000000000e+05 8.364400000000000000e+04
1.124930000000000000e+05 3.430300000000000000e+04
9.142000000000000000e+04 9.139000000000000000e+03
7.420000000000000000e+04 -9.650000000000000000e+03
5.994700000000000000e+04 -2.022100000000000000e+04
4.344200000000000000e+04 -2.666600000000000000e+04
3.232600000000000000e+04 -3.256500000000000000e+04
1.899300000000000000e+04 -3.014300000000000000e+04
1.053700000000000000e+04 -3.536100000000000000e+04
2.626000000000000000e+03 -3.290500000000000000e+04
-3.103000000000000000e+03 -2.826800000000000000e+04
-8.968000000000000000e+03 -2.421000000000000000e+04
-1.200200000000000000e+04 -1.810600000000000000e+04
-1.367400000000000000e+04 -1.428800000000000000e+04
-1.295700000000000000e+04 -1.077600000000000000e+04
-1.258300000000000000e+04 -9.957000000000000000e+03
-1.029800000000000000e+04 -7.842000000000000000e+03
-9.173000000000000000e+03 -5.115000000000000000e+03
-8.763000000000000000e+03 -3.478000000000000000e+03
-8.660000000000000000e+03 -5.866000000000000000e+03
-8.354000000000000000e+03 -3.240000000000000000e+03
-6.785000000000000000e+03 -4.842000000000000000e+03
-9.479000000000000000e+03 -2.216000000000000000e+03
-9.855000000000000000e+03 -1.774000000000000000e+03
-1.033200000000000000e+04 -4.430000000000000000e+02
-1.125300000000000000e+04 1.500000000000000000e+03
-1.108200000000000000e+04 4.467000000000000000e+03
-1.155900000000000000e+04 5.149000000000000000e+03
-1.067300000000000000e+04 9.479000000000000000e+03
-9.479000000000000000e+03 1.002500000000000000e+04
-7.093000000000000000e+03 1.415200000000000000e+04
-4.705000000000000000e+03 1.473100000000000000e+04
-1.024000000000000000e+03 1.541300000000000000e+04
4.263000000000000000e+03 1.568600000000000000e+04
9.139000000000000000e+03 1.411700000000000000e+04
1.193500000000000000e+04 1.036600000000000000e+04
1.340100000000000000e+04 5.285000000000000000e+03
1.422000000000000000e+04 3.103000000000000000e+03
1.309400000000000000e+04 -3.410000000000000000e+02
1.285600000000000000e+04 -4.263000000000000000e+03
1.002600000000000000e+04 -4.228000000000000000e+03
8.559000000000000000e+03 -6.616000000000000000e+03
4.774000000000000000e+03 -7.809000000000000000e+03
2.796000000000000000e+03 -9.412000000000000000e+03
2.050000000000000000e+02 -9.617000000000000000e+03
-2.592000000000000000e+03 -8.593000000000000000e+03
-3.035000000000000000e+03 -8.116000000000000000e+03
-5.592000000000000000e+03 -8.389000000000000000e+03
-4.535000000000000000e+03 -6.649000000000000000e+03
-4.194000000000000000e+03 -6.070000000000000000e+03
-5.114000000000000000e+03 -4.774000000000000000e+03
-4.603000000000000000e+03 -4.058000000000000000e+03
-3.375000000000000000e+03 -3.751000000000000000e+03
-5.149000000000000000e+03 -2.352000000000000000e+03
-6.615000000000000000e+03 -2.284000000000000000e+03
-6.444000000000000000e+03 -2.524000000000000000e+03
-7.160000000000000000e+03 -2.148000000000000000e+03
-7.160000000000000000e+03 -3.035000000000000000e+03
-7.365000000000000000e+03 3.760000000000000000e+02
-9.889000000000000000e+03 1.365000000000000000e+03
-1.111600000000000000e+04 4.125000000000000000e+03
-1.179800000000000000e+04 6.410000000000000000e+03
-8.491000000000000000e+03 9.275000000000000000e+03
-7.126000000000000000e+03 1.036600000000000000e+04
-5.591000000000000000e+03 1.282100000000000000e+04
-2.318000000000000000e+03 1.244500000000000000e+04
1.364000000000000000e+03 1.568600000000000000e+04
4.910000000000000000e+03 1.329800000000000000e+04
8.763000000000000000e+03 1.299200000000000000e+04
1.121800000000000000e+04 7.774000000000000000e+03
1.336700000000000000e+04 5.353000000000000000e+03
1.210500000000000000e+04 1.740000000000000000e+03
1.104800000000000000e+04 -1.296000000000000000e+03
9.412000000000000000e+03 -5.525000000000000000e+03
6.274000000000000000e+03 -8.048000000000000000e+03
4.978000000000000000e+03 -6.684000000000000000e+03
3.205000000000000000e+03 -8.729000000000000000e+03
3.300000000000000000e+01 -9.173000000000000000e+03
4.090000000000000000e+02 -7.911000000000000000e+03
-1.875000000000000000e+03 -6.513000000000000000e+03
-8.180000000000000000e+02 -7.195000000000000000e+03
-2.080000000000000000e+03 -7.638000000000000000e+03
-2.967000000000000000e+03 -4.672000000000000000e+03
-2.182000000000000000e+03 -5.422000000000000000e+03
-5.183000000000000000e+03 -6.650000000000000000e+03
-3.956000000000000000e+03 -6.002000000000000000e+03
-6.240000000000000000e+03 -4.638000000000000000e+03
