1.170960000000000000e+05 -9.356090000000000000e+05
-3.247590000000000000e+05 -9.362230000000000000e+05
-5.896060000000000000e+05 -8.308230000000000000e+05
-7.702620000000000000e+05 -6.920400000000000000e+05
-8.963610000000000000e+05 -5.430610000000000000e+05
-9.776870000000000000e+05 -3.898200000000000000e+05
-1.029075000000000000e+06 -2.456490000000000000e+05
-1.056797000000000000e+06 -1.075150000000000000e+05
-1.059524000000000000e+06 3.007500000000000000e+04
-1.049910000000000000e+06 1.690630000000000000e+05
-1.022937000000000000e+06 3.024580000000000000e+05
-9.808930000000000000e+05 4.240900000000000000e+05
-9.259590000000000000e+05 5.418330000000000000e+05
-8.570450000000000000e+05 6.517350000000000000e+05
-7.718320000000000000e+05 7.553960000000000000e+05
-6.765250000000000000e+05 8.452120000000000000e+05
-5.688400000000000000e+05 9.262660000000000000e+05
-4.479600000000000000e+05 9.938160000000000000e+05
-3.107110000000000000e+05 1.046465000000000000e+06
-1.579120000000000000e+05 1.079064000000000000e+06
3.171000000000000000e+03 1.083292000000000000e+06
1.738710000000000000e+05 1.053114000000000000e+06
3.430700000000000000e+05 9.759820000000000000e+05
4.924240000000000000e+05 8.492700000000000000e+05
5.968690000000000000e+05 6.760470000000000000e+05
6.302520000000000000e+05 4.749650000000000000e+05
5.901170000000000000e+05 2.816920000000000000e+05
4.919470000000000000e+05 1.253140000000000000e+05
3.607000000000000000e+05 2.809800000000000000e+04
2.275770000000000000e+05 -2.524000000000000000e+03
1.164820000000000000e+05 8.558000000000000000e+03
2.983700000000000000e+04 4.975100000000000000e+04
-2.724500000000000000e+04 1.076500000000000000e+05
-6.062800000000000000e+04 1.704270000000000000e+05
-7.246000000000000000e+04 2.319410000000000000e+05
-7.014100000000000000e+04 2.907960000000000000e+05
-5.104700000000000000e+04 3.427300000000000000e+05
-2.571100000000000000e+04 3.914220000000000000e+05
7.808000000000000000e+03 4.281810000000000000e+05
4.753400000000000000e+04 4.606440000000000000e+05
9.332800000000000000e+04 4.872060000000000000e+05
1.422610000000000000e+05 5.073250000000000000e+05
1.921140000000000000e+05 5.208630000000000000e+05
2.459560000000000000e+05 5.295910000000000000e+05
3.036180000000000000e+05 5.310580000000000000e+05
3.594030000000000000e+05 5.287050000000000000e+05
4.169630000000000000e+05 5.202140000000000000e+05
4.733290000000000000e+05 5.046310000000000000e+05
5.342640000000000000e+05 4.829790000000000000e+05
5.874920000000000000e+05 4.574730000000000000e+05
6.451190000000000000e+05 4.227260000000000000e+05
6.956540000000000000e+05 3.788060000000000000e+05
7.481320000000000000e+05 3.284070000000000000e+05
7.962460000000000000e+05 2.704400000000000000e+05
8.391430000000000000e+05 2.028880000000000000e+05
8.757300000000000000e+05 1.309400000000000000e+05
9.064210000000000000e+05 4.944400000000000000e+04
9.262650000000000000e+05 -3.900900000000000000e+04
9.357110000000000000e+05 -1.334980000000000000e+05
9.345180000000000000e+05 -2.309880000000000000e+05
9.183880000000000000e+05 -3.348530000000000000e+05
8.868820000000000000e+05 -4.394340000000000000e+05
8.365860000000000000e+05 -5.406400000000000000e+05
7.739110000000000000e+05 -6.391520000000000000e+05
6.979380000000000000e+05 -7.263780000000000000e+05
6.059050000000000000e+05 -8.051120000000000000e+05
5.040170000000000000e+05 -8.679230000000000000e+05
3.963330000000000000e+05 -9.124560000000000000e+05
2.859880000000000000e+05 -9.423600000000000000e+05
1.754400000000000000e+05 -9.507830000000000000e+05
7.041500000000000000e+04 -9.453270000000000000e+05
-3.028000000000000000e+04 -9.243900000000000000e+05
-1.219720000000000000e+05 -8.914500000000000000e+05
-2.005360000000000000e+05 -8.459620000000000000e+05
-2.681210000000000000e+05 -7.948830000000000000e+05
-3.319200000000000000e+05 -7.358560000000000000e+05
-3.792150000000000000e+05 -6.751270000000000000e+05
-4.159740000000000000e+05 -6.133050000000000000e+05
-4.424010000000000000e+05 -5.515860000000000000e+05
-4.613600000000000000e+05 -4.893890000000000000e+05
-4.711470000000000000e+05 -4.273290000000000000e+05
-4.712480000000000000e+05 -3.714410000000000000e+05
-4.700890000000000000e+05 -3.159610000000000000e+05
-4.606440000000000000e+05 -2.635510000000000000e+05
-4.464590000000000000e+05 -2.171430000000000000e+05
-4.302280000000000000e+05 -1.729840000000000000e+05
-4.072110000000000000e+05 -1.336340000000000000e+05
-3.827950000000000000e+05 -1.010350000000000000e+05
-3.523450000000000000e+05 -6.789000000000000000e+04
-3.227130000000000000e+05 -4.443100000000000000e+04
-2.875230000000000000e+05 -2.751700000000000000e+04
-2.478650000000000000e+05 -1.408300000000000000e+04
-2.111750000000000000e+05 -6.274000000000000000e+03
-1.709050000000000000e+05 -9.617000000000000000e+03
-1.287580000000000000e+05 -2.376800000000000000e+04
-9.257900000000000000e+04 -4.865900000000000000e+04
-5.592300000000000000e+04 -8.095100000000000000e+04
-3.062100000000000000e+04 -1.315540000000000000e+05
-1.715200000000000000e+04 -1.969210000000000000e+05
-2.093700000000000000e+04 -2.728600000000000000e+05
-5.500100000000000000e+04 -3.562670000000000000e+05
-1.168570000000000000e+05 -4.415820000000000000e+05
-2.122330000000000000e+05 -5.084170000000000000e+05
-3.313400000000000000e+05 -5.488920000000000000e+05
-4.628950000000000000e+05 -5.479380000000000000e+05
-5.881740000000000000e+05 -5.123720000000000000e+05
-6.925510000000000000e+05 -4.379680000000000000e+05
-7.733660000000000000e+05 -3.433770000000000000e+05
-8.216160000000000000e+05 -2.396140000000000000e+05
-8.456570000000000000e+05 -1.317930000000000000e+05
-8.510430000000000000e+05 -2.929100000000000000e+04
-8.398930000000000000e+05 6.485600000000000000e+04
-8.173190000000000000e+05 1.497970000000000000e+05
-7.893250000000000000e+05 2.256340000000000000e+05
-7.558390000000000000e+05 2.930470000000000000e+05
-7.165220000000000000e+05 3.564020000000000000e+05
-6.763540000000000000e+05 4.111660000000000000e+05
-6.358100000000000000e+05 4.632690000000000000e+05
-5.902190000000000000e+05 5.078030000000000000e+05
-5.469490000000000000e+05 5.491300000000000000e+05
-5.012900000000000000e+05 5.855820000000000000e+05
-4.554600000000000000e+05 6.185560000000000000e+05
-4.064950000000000000e+05 6.485300000000000000e+05
-3.593010000000000000e+05 6.796960000000000000e+05
-3.095170000000000000e+05 7.052020000000000000e+05
-2.610280000000000000e+05 7.308450000000000000e+05
-2.079350000000000000e+05 7.454380000000000000e+05
-1.564800000000000000e+05 7.648410000000000000e+05
-1.031160000000000000e+05 7.774230000000000000e+05
-5.254700000000000000e+04 7.894610000000000000e+05
2.353000000000000000e+03 7.967240000000000000e+05
5.691100000000000000e+04 8.008160000000000000e+05
1.136170000000000000e+05 8.035090000000000000e+05
1.688240000000000000e+05 7.993150000000000000e+05
2.231770000000000000e+05 7.956320000000000000e+05
2.818970000000000000e+05 7.834590000000000000e+05
3.379560000000000000e+05 7.698530000000000000e+05
3.943890000000000000e+05 7.519520000000000000e+05
4.482320000000000000e+05 7.275370000000000000e+05
5.043580000000000000e+05 6.979730000000000000e+05
5.555750000000000000e+05 6.622370000000000000e+05
6.078840000000000000e+05 6.219320000000000000e+05
6.551790000000000000e+05 5.750110000000000000e+05
6.973250000000000000e+05 5.225000000000000000e+05
7.380050000000000000e+05 4.593130000000000000e+05
7.717640000000000000e+05 3.919340000000000000e+05
7.982920000000000000e+05 3.236670000000000000e+05
8.165350000000000000e+05 2.465700000000000000e+05
8.231510000000000000e+05 1.645270000000000000e+05
8.200470000000000000e+05 7.928000000000000000e+04
8.074650000000000000e+05 -5.798000000000000000e+03
7.770830000000000000e+05 -9.172700000000000000e+04
7.311170000000000000e+05 -1.724730000000000000e+05
6.734890000000000000e+05 -2.452740000000000000e+05
5.986430000000000000e+05 -3.033450000000000000e+05
5.140420000000000000e+05 -3.446390000000000000e+05
4.294090000000000000e+05 -3.608700000000000000e+05
3.448770000000000000e+05 -3.517320000000000000e+05
2.781460000000000000e+05 -3.179390000000000000e+05
2.311920000000000000e+05 -2.660750000000000000e+05
2.148580000000000000e+05 -2.098450000000000000e+05
2.235870000000000000e+05 -1.561060000000000000e+05
2.523330000000000000e+05 -1.187670000000000000e+05
2.902500000000000000e+05 -9.970500000000000000e+04
3.295330000000000000e+05 -9.619300000000000000e+04
3.669050000000000000e+05 -1.124590000000000000e+05
3.956170000000000000e+05 -1.400790000000000000e+05
4.171330000000000000e+05 -1.748940000000000000e+05
4.306020000000000000e+05 -2.178250000000000000e+05
4.352400000000000000e+05 -2.615730000000000000e+05
4.258290000000000000e+05 -3.079830000000000000e+05
4.148820000000000000e+05 -3.540500000000000000e+05
3.951730000000000000e+05 -3.959920000000000000e+05
3.707920000000000000e+05 -4.360920000000000000e+05
3.466850000000000000e+05 -4.776930000000000000e+05
3.084600000000000000e+05 -5.107350000000000000e+05
2.720760000000000000e+05 -5.387990000000000000e+05
2.358630000000000000e+05 -5.701700000000000000e+05
1.961710000000000000e+05 -5.949600000000000000e+05
1.543320000000000000e+05 -6.183180000000000000e+05
1.118440000000000000e+05 -6.380270000000000000e+05
6.652700000000000000e+04 -6.541220000000000000e+05
1.936800000000000000e+04 -6.655790000000000000e+05
-2.533600000000000000e+04 -6.748530000000000000e+05
-7.379000000000000000e+04 -6.796950000000000000e+05
-1.228250000000000000e+05 -6.831400000000000000e+05
-1.696770000000000000e+05 -6.831740000000000000e+05
-2.219850000000000000e+05 -6.792180000000000000e+05
-2.727590000000000000e+05 -6.708300000000000000e+05
-3.194740000000000000e+05 -6.615210000000000000e+05
-3.673150000000000000e+05 -6.445740000000000000e+05
-4.147120000000000000e+05 -6.263990000000000000e+05
-4.597920000000000000e+05 -6.013020000000000000e+05
-5.061660000000000000e+05 -5.740910000000000000e+05
-5.452440000000000000e+05 -5.435380000000000000e+05
-5.845940000000000000e+05 -5.057570000000000000e+05
-6.225460000000000000e+05 -4.641210000000000000e+05
-6.555540000000000000e+05 -4.203390000000000000e+05
-6.848450000000000000e+05 -3.715090000000000000e+05
-7.086460000000000000e+05 -3.167120000000000000e+05
-7.281850000000000000e+05 -2.587440000000000000e+05
-7.386530000000000000e+05 -1.984570000000000000e+05
-7.446200000000000000e+05 -1.359530000000000000e+05
-7.475870000000000000e+05 -7.157400000000000000e+04
-7.381070000000000000e+05 -6.649000000000000000e+03
-7.229000000000000000e+05 5.807100000000000000e+04
-7.015540000000000000e+05 1.212220000000000000e+05
-6.731490000000000000e+05 1.825660000000000000e+05
-6.350260000000000000e+05 2.389320000000000000e+05
-5.941410000000000000e+05 2.917850000000000000e+05
-5.487220000000000000e+05 3.356370000000000000e+05
-4.974030000000000000e+05 3.755330000000000000e+05
-4.465270000000000000e+05 4.087120000000000000e+05
-3.892060000000000000e+05 4.300220000000000000e+05
-3.354660000000000000e+05 4.501410000000000000e+05
-2.788620000000000000e+05 4.589730000000000000e+05
-2.264170000000000000e+05 4.610190000000000000e+05
-1.730520000000000000e+05 4.543700000000000000e+05
-1.268140000000000000e+05 4.418220000000000000e+05
-8.442900000000000000e+04 4.209530000000000000e+05
-4.685200000000000000e+04 3.957870000000000000e+05
-1.892500000000000000e+04 3.633930000000000000e+05
-4.430000000000000000e+02 3.272480000000000000e+05
1.046800000000000000e+04 2.911370000000000000e+05
4.910000000000000000e+03 2.548220000000000000e+05
-2.933000000000000000e+03 2.247120000000000000e+05
-2.458600000000000000e+04 2.027870000000000000e+05
-4.886500000000000000e+04 1.943640000000000000e+05
-7.283600000000000000e+04 1.954220000000000000e+05
-9.189600000000000000e+04 2.080040000000000000e+05
-1.037300000000000000e+05 2.320780000000000000e+05
-1.071730000000000000e+05 2.575160000000000000e+05
-9.899000000000000000e+04 2.832610000000000000e+05
-8.572500000000000000e+04 3.075730000000000000e+05
-6.799300000000000000e+04 3.259190000000000000e+05
-4.224900000000000000e+04 3.442980000000000000e+05
-1.889100000000000000e+04 3.543240000000000000e+05
7.024000000000000000e+03 3.629160000000000000e+05
3.536100000000000000e+04 3.692920000000000000e+05
6.284500000000000000e+04 3.690880000000000000e+05
8.630400000000000000e+04 3.671100000000000000e+05
1.103780000000000000e+05 3.640750000000000000e+05
1.344180000000000000e+05 3.584830000000000000e+05
1.547080000000000000e+05 3.508110000000000000e+05
1.754740000000000000e+05 3.441270000000000000e+05
1.970920000000000000e+05 3.330450000000000000e+05
2.150960000000000000e+05 3.217930000000000000e+05
2.314980000000000000e+05 3.118690000000000000e+05
2.496730000000000000e+05 2.985370000000000000e+05
2.655620000000000000e+05 2.876250000000000000e+05
2.784180000000000000e+05 2.731670000000000000e+05
2.933540000000000000e+05 2.583340000000000000e+05
3.076410000000000000e+05 2.471850000000000000e+05
3.217920000000000000e+05 2.282930000000000000e+05
3.342390000000000000e+05 2.128800000000000000e+05
3.449120000000000000e+05 1.961380000000000000e+05
3.575280000000000000e+05 1.805890000000000000e+05
3.676210000000000000e+05 1.612540000000000000e+05
3.797610000000000000e+05 1.438290000000000000e+05
3.887290000000000000e+05 1.216310000000000000e+05
3.970490000000000000e+05 1.010690000000000000e+05
4.070400000000000000e+05 7.853000000000000000e+04
4.134850000000000000e+05 5.575200000000000000e+04
4.206110000000000000e+05 2.823400000000000000e+04
4.256240000000000000e+05 1.670000000000000000e+03
4.297490000000000000e+05 -2.707500000000000000e+04
4.321370000000000000e+05 -5.650200000000000000e+04
4.330920000000000000e+05 -8.961300000000000000e+04
4.324780000000000000e+05 -1.239500000000000000e+05
4.247040000000000000e+05 -1.609820000000000000e+05
4.163150000000000000e+05 -1.962060000000000000e+05
4.017550000000000000e+05 -2.355900000000000000e+05
3.818400000000000000e+05 -2.744630000000000000e+05
3.578340000000000000e+05 -3.132000000000000000e+05
3.251000000000000000e+05 -3.503670000000000000e+05
2.877270000000000000e+05 -3.848410000000000000e+05
2.438760000000000000e+05 -4.160760000000000000e+05
1.926940000000000000e+05 -4.372860000000000000e+05
1.427040000000000000e+05 -4.535510000000000000e+05
8.596300000000000000e+04 -4.586320000000000000e+05
3.157600000000000000e+04 -4.525960000000000000e+05
-2.230100000000000000e+04 -4.333990000000000000e+05
-6.455000000000000000e+04 -4.061870000000000000e+05
-1.030130000000000000e+05 -3.752940000000000000e+05
-1.269170000000000000e+05 -3.383650000000000000e+05
-1.421240000000000000e+05 -2.979230000000000000e+05
-1.483310000000000000e+05 -2.593230000000000000e+05
-1.451590000000000000e+05 -2.250870000000000000e+05
-1.386810000000000000e+05 -1.935800000000000000e+05
-1.240520000000000000e+05 -1.684830000000000000e+05
-1.065930000000000000e+05 -1.529000000000000000e+05
-8.910100000000000000e+04 -1.399430000000000000e+05
-7.136900000000000000e+04 -1.360890000000000000e+05
-5.435400000000000000e+04 -1.334630000000000000e+05
-4.160100000000000000e+04 -1.378280000000000000e+05
-2.895000000000000000e+04 -1.472400000000000000e+05
-1.947000000000000000e+04 -1.566170000000000000e+05
-1.646900000000000000e+04 -1.722690000000000000e+05
-1.442400000000000000e+04 -1.888060000000000000e+05
-1.933400000000000000e+04 -2.052420000000000000e+05
-2.649400000000000000e+04 -2.245420000000000000e+05
-3.757600000000000000e+04 -2.400910000000000000e+05
-5.210300000000000000e+04 -2.555720000000000000e+05
-7.188100000000000000e+04 -2.693820000000000000e+05
-9.462500000000000000e+04 -2.791010000000000000e+05
-1.199600000000000000e+05 -2.870120000000000000e+05
-1.446140000000000000e+05 -2.910350000000000000e+05
-1.719280000000000000e+05 -2.920240000000000000e+05
-1.965130000000000000e+05 -2.882050000000000000e+05
-2.260770000000000000e+05 -2.793050000000000000e+05
-2.513100000000000000e+05 -2.699280000000000000e+05
-2.761340000000000000e+05 -2.546180000000000000e+05
-2.988100000000000000e+05 -2.360680000000000000e+05
-3.168820000000000000e+05 -2.152340000000000000e+05
-3.371030000000000000e+05 -1.800430000000000000e+05
-3.502990000000000000e+05 -1.685520000000000000e+05
-3.617230000000000000e+05 -1.428410000000000000e+05
-3.726680000000000000e+05 -1.160730000000000000e+05
-3.783290000000000000e+05 -8.688400000000000000e+04
-3.831020000000000000e+05 -5.779800000000000000e+04
-3.841940000000000000e+05 -2.792700000000000000e+04
-3.838860000000000000e+05 5.800000000000000000e+02
-3.799990000000000000e+05 2.779000000000000000e+04
-3.742370000000000000e+05 5.728600000000000000e+04
-3.657120000000000000e+05 8.593000000000000000e+04
-3.534360000000000000e+05 1.134820000000000000e+05
-3.430360000000000000e+05 1.390550000000000000e+05
-3.275890000000000000e+05 1.658240000000000000e+05
-3.116310000000000000e+05 1.885000000000000000e+05
-2.937970000000000000e+05 2.111750000000000000e+05
-2.749060000000000000e+05 2.353860000000000000e+05
-2.520600000000000000e+05 2.531170000000000000e+05
-2.290090000000000000e+05 2.687010000000000000e+05
-2.006720000000000000e+05 2.852040000000000000e+05
-1.768040000000000000e+05 3.005830000000000000e+05
-1.503760000000000000e+05 3.100960000000000000e+05
-1.219720000000000000e+05 3.181440000000000000e+05
-9.274900000000000000e+04 3.259860000000000000e+05
-6.410600000000000000e+04 3.282710000000000000e+05
-3.621300000000000000e+04 3.285440000000000000e+05
-7.297000000000000000e+03 3.262590000000000000e+05
2.294900000000000000e+04 3.197810000000000000e+05
5.166100000000000000e+04 3.114260000000000000e+05
7.904200000000000000e+04 3.004120000000000000e+05
1.039680000000000000e+05 2.820330000000000000e+05
1.272240000000000000e+05 2.624260000000000000e+05
1.478540000000000000e+05 2.381140000000000000e+05
1.631640000000000000e+05 2.125060000000000000e+05
1.731210000000000000e+05 1.818160000000000000e+05
1.784750000000000000e+05 1.440000000000000000e+05
1.729840000000000000e+05 1.184600000000000000e+05
1.646980000000000000e+05 9.032800000000000000e+04
1.501730000000000000e+05 6.557200000000000000e+04
1.317250000000000000e+05 4.848800000000000000e+04
1.140270000000000000e+05 3.621300000000000000e+04
9.486400000000000000e+04 2.895000000000000000e+04
8.122400000000000000e+04 2.598300000000000000e+04
6.850500000000000000e+04 2.680100000000000000e+04
5.858200000000000000e+04 3.184900000000000000e+04
5.237600000000000000e+04 3.532700000000000000e+04
5.039900000000000000e+04 3.900900000000000000e+04
4.415800000000000000e+04 4.333900000000000000e+04
4.446500000000000000e+04 4.426000000000000000e+04
4.603400000000000000e+04 4.743100000000000000e+04
4.501100000000000000e+04 4.917100000000000000e+04
4.600000000000000000e+04 4.958000000000000000e+04
5.009100000000000000e+04 5.121600000000000000e+04
4.978400000000000000e+04 5.063700000000000000e+04
5.138700000000000000e+04 4.937600000000000000e+04
5.442200000000000000e+04 5.094400000000000000e+04
5.561500000000000000e+04 4.930700000000000000e+04
5.755900000000000000e+04 4.627300000000000000e+04
5.810500000000000000e+04 4.596600000000000000e+04
6.032100000000000000e+04 4.698800000000000000e+04
6.097000000000000000e+04 4.371400000000000000e+04
6.502700000000000000e+04 4.149800000000000000e+04
6.417400000000000000e+04 4.126000000000000000e+04
6.720900000000000000e+04 3.931600000000000000e+04
6.761900000000000000e+04 3.767900000000000000e+04
7.048300000000000000e+04 3.825900000000000000e+04
6.946000000000000000e+04 3.689500000000000000e+04
7.222100000000000000e+04 3.447400000000000000e+04
7.471000000000000000e+04 3.348500000000000000e+04
7.815500000000000000e+04 3.201900000000000000e+04
7.709800000000000000e+04 2.925700000000000000e+04
7.583600000000000000e+04 2.792700000000000000e+04
7.907500000000000000e+04 2.775700000000000000e+04
7.914400000000000000e+04 2.373200000000000000e+04
8.262100000000000000e+04 2.332300000000000000e+04
8.507700000000000000e+04 2.035600000000000000e+04
8.596400000000000000e+04 1.909600000000000000e+04
9.077100000000000000e+04 1.514000000000000000e+04
9.036200000000000000e+04 1.415100000000000000e+04
9.295400000000000000e+04 1.108200000000000000e+04
9.431800000000000000e+04 5.797000000000000000e+03
9.731900000000000000e+04 4.024000000000000000e+03
9.667100000000000000e+04 -1.876000000000000000e+03
9.905700000000000000e+04 -5.080000000000000000e+03
1.013080000000000000e+05 -1.196900000000000000e+04
1.012060000000000000e+05 -1.855000000000000000e+04
1.007960000000000000e+05 -2.342700000000000000e+04
9.786400000000000000e+04 -3.106500000000000000e+04
9.632900000000000000e+04 -3.866800000000000000e+04
9.319200000000000000e+04 -4.712600000000000000e+04
8.787300000000000000e+04 -5.394500000000000000e+04
8.043900000000000000e+04 -5.964000000000000000e+04
7.293700000000000000e+04 -6.581100000000000000e+04
6.376500000000000000e+04 -6.765200000000000000e+04
5.725200000000000000e+04 -7.038100000000000000e+04
4.750000000000000000e+04 -7.051600000000000000e+04
3.958900000000000000e+04 -7.068700000000000000e+04
3.365600000000000000e+04 -6.918600000000000000e+04
2.601700000000000000e+04 -6.366300000000000000e+04
1.936800000000000000e+04 -6.056000000000000000e+04
1.643500000000000000e+04 -5.588900000000000000e+04
1.435600000000000000e+04 -5.254700000000000000e+04
9.411000000000000000e+03 -4.746500000000000000e+04
8.798000000000000000e+03 -4.255600000000000000e+04
7.501000000000000000e+03 -3.890700000000000000e+04
6.956000000000000000e+03 -3.423500000000000000e+04
7.127000000000000000e+03 -3.096200000000000000e+04
8.251000000000000000e+03 -2.608600000000000000e+04
8.695000000000000000e+03 -2.117600000000000000e+04
1.353700000000000000e+04 -1.896000000000000000e+04
1.500400000000000000e+04 -1.589000000000000000e+04
1.711700000000000000e+04 -1.268500000000000000e+04
2.206200000000000000e+04 -1.080900000000000000e+04
2.652900000000000000e+04 -8.764000000000000000e+03
3.055300000000000000e+04 -6.718000000000000000e+03
3.525800000000000000e+04 -5.081000000000000000e+03
4.173700000000000000e+04 -6.888000000000000000e+03
4.749900000000000000e+04 -4.672000000000000000e+03
5.486500000000000000e+04 -8.730000000000000000e+03
6.403800000000000000e+04 -1.097900000000000000e+04
7.044800000000000000e+04 -1.616300000000000000e+04
7.679100000000000000e+04 -2.035700000000000000e+04
8.610000000000000000e+04 -2.724500000000000000e+04
9.131600000000000000e+04 -3.614500000000000000e+04
9.878500000000000000e+04 -4.589700000000000000e+04
1.055710000000000000e+05 -5.991200000000000000e+04
1.081960000000000000e+05 -7.409700000000000000e+04
1.114020000000000000e+05 -9.114600000000000000e+04
1.115030000000000000e+05 -1.104810000000000000e+05
1.040700000000000000e+05 -1.309400000000000000e+05
9.735300000000000000e+04 -1.498310000000000000e+05
8.814600000000000000e+04 -1.690620000000000000e+05
7.201700000000000000e+04 -1.872380000000000000e+05
5.582000000000000000e+04 -2.023090000000000000e+05
3.696400000000000000e+04 -2.174500000000000000e+05
1.162800000000000000e+04 -2.343620000000000000e+05
-1.231000000000000000e+04 -2.383520000000000000e+05
-3.689500000000000000e+04 -2.424780000000000000e+05
-6.475400000000000000e+04 -2.446940000000000000e+05
-8.893000000000000000e+04 -2.441830000000000000e+05
-1.125270000000000000e+05 -2.374660000000000000e+05
-1.337020000000000000e+05 -2.300320000000000000e+05
-1.603340000000000000e+05 -2.226330000000000000e+05
-1.839300000000000000e+05 -2.088230000000000000e+05
-2.026860000000000000e+05 -1.941260000000000000e+05
-2.206210000000000000e+05 -1.777920000000000000e+05
-2.354880000000000000e+05 -1.604700000000000000e+05
-2.519580000000000000e+05 -1.422610000000000000e+05
-2.629370000000000000e+05 -1.204030000000000000e+05
-2.719390000000000000e+05 -9.939900000000000000e+04
-2.833640000000000000e+05 -7.645000000000000000e+04
-2.868410000000000000e+05 -5.155800000000000000e+04
-2.939000000000000000e+05 -3.126900000000000000e+04
-2.979230000000000000e+05 -3.581000000000000000e+03
-2.965930000000000000e+05 1.971000000000000000e+04
-2.943770000000000000e+05 4.214600000000000000e+04
-2.868750000000000000e+05 6.662900000000000000e+04
-2.805320000000000000e+05 9.360200000000000000e+04
-2.689390000000000000e+05 1.142650000000000000e+05
-2.578230000000000000e+05 1.387150000000000000e+05
-2.428540000000000000e+05 1.568220000000000000e+05
-2.278500000000000000e+05 1.755080000000000000e+05
-2.071860000000000000e+05 1.919440000000000000e+05
-1.862490000000000000e+05 2.066740000000000000e+05
-1.664720000000000000e+05 2.173810000000000000e+05
-1.437610000000000000e+05 2.274750000000000000e+05
-1.210860000000000000e+05 2.333400000000000000e+05
-9.800100000000000000e+04 2.351810000000000000e+05
-7.610900000000000000e+04 2.351130000000000000e+05
-5.483100000000000000e+04 2.324190000000000000e+05
-3.437100000000000000e+04 2.265540000000000000e+05
-1.912900000000000000e+04 2.144830000000000000e+05
-5.217000000000000000e+03 2.032300000000000000e+05
4.297000000000000000e+03 1.919090000000000000e+05
1.009300000000000000e+04 1.786110000000000000e+05
1.370800000000000000e+04 1.673240000000000000e+05
1.183300000000000000e+04 1.582870000000000000e+05
1.019600000000000000e+04 1.500360000000000000e+05
6.650000000000000000e+03 1.457050000000000000e+05
5.353000000000000000e+03 1.472740000000000000e+05
2.727000000000000000e+03 1.477860000000000000e+05
1.091000000000000000e+03 1.508880000000000000e+05
2.898000000000000000e+03 1.548780000000000000e+05
8.218000000000000000e+03 1.592770000000000000e+05
9.548000000000000000e+03 1.657550000000000000e+05
1.694800000000000000e+04 1.710060000000000000e+05
2.533500000000000000e+04 1.751670000000000000e+05
3.379300000000000000e+04 1.780990000000000000e+05
4.214600000000000000e+04 1.823620000000000000e+05
5.363800000000000000e+04 1.850900000000000000e+05
6.134500000000000000e+04 1.835560000000000000e+05
7.365400000000000000e+04 1.845440000000000000e+05
8.425900000000000000e+04 1.863170000000000000e+05
9.639800000000000000e+04 1.856690000000000000e+05
1.063540000000000000e+05 1.832490000000000000e+05
1.182210000000000000e+05 1.783380000000000000e+05
1.270190000000000000e+05 1.763940000000000000e+05
1.401470000000000000e+05 1.713820000000000000e+05
1.526950000000000000e+05 1.665060000000000000e+05
1.647320000000000000e+05 1.606400000000000000e+05
1.760870000000000000e+05 1.551170000000000000e+05
1.879200000000000000e+05 1.477510000000000000e+05
1.992070000000000000e+05 1.394650000000000000e+05
2.095380000000000000e+05 1.312130000000000000e+05
2.216780000000000000e+05 1.215970000000000000e+05
2.336460000000000000e+05 1.084010000000000000e+05
2.436380000000000000e+05 9.742100000000000000e+04
2.540380000000000000e+05 8.214400000000000000e+04
2.637560000000000000e+05 6.690200000000000000e+04
2.725540000000000000e+05 5.421700000000000000e+04
2.850000000000000000e+05 1.957300000000000000e+04
2.879320000000000000e+05 1.329900000000000000e+04
2.983320000000000000e+05 -8.150000000000000000e+03
2.998670000000000000e+05 -2.970000000000000000e+04
3.024240000000000000e+05 -5.476400000000000000e+04
3.012310000000000000e+05 -8.299700000000000000e+04
2.993210000000000000e+05 -1.112650000000000000e+05
2.913760000000000000e+05 -1.370090000000000000e+05
2.782820000000000000e+05 -1.671540000000000000e+05
2.624260000000000000e+05 -1.960700000000000000e+05
2.414560000000000000e+05 -2.223600000000000000e+05
2.152680000000000000e+05 -2.442170000000000000e+05
1.846460000000000000e+05 -2.645060000000000000e+05
1.524570000000000000e+05 -2.818970000000000000e+05
1.186650000000000000e+05 -2.917510000000000000e+05
8.630500000000000000e+04 -2.940010000000000000e+05
5.169400000000000000e+04 -2.899440000000000000e+05
2.028900000000000000e+04 -2.839770000000000000e+05
-6.239000000000000000e+03 -2.702010000000000000e+05
-2.840500000000000000e+04 -2.546850000000000000e+05
-4.804600000000000000e+04 -2.381480000000000000e+05
-6.182100000000000000e+04 -2.177220000000000000e+05
-7.194900000000000000e+04 -1.989340000000000000e+05
-7.651800000000000000e+04 -1.798380000000000000e+05
-8.078000000000000000e+04 -1.618680000000000000e+05
-8.009800000000000000e+04 -1.472050000000000000e+05
-7.866600000000000000e+04 -1.346910000000000000e+05
-7.416500000000000000e+04 -1.219040000000000000e+05
-6.683500000000000000e+04 -1.100710000000000000e+05
-6.301500000000000000e+04 -1.032520000000000000e+05
-5.244400000000000000e+04 -9.779600000000000000e+04
-4.524900000000000000e+04 -9.445400000000000000e+04
-3.662200000000000000e+04 -9.080600000000000000e+04
-3.075800000000000000e+04 -9.097600000000000000e+04
-1.960700000000000000e+04 -9.384100000000000000e+04
-1.479900000000000000e+04 -9.950100000000000000e+04
-8.490000000000000000e+03 -1.033200000000000000e+05
-2.421000000000000000e+03 -1.124580000000000000e+05
3.400000000000000000e+01 -1.233360000000000000e+05
2.012000000000000000e+03 -1.356120000000000000e+05
3.410000000000000000e+03 -1.489450000000000000e+05
0.000000000000000000e+00 -1.649370000000000000e+05
-4.330000000000000000e+03 -1.831460000000000000e+05
-1.439000000000000000e+04 -2.006390000000000000e+05
-2.806300000000000000e+04 -2.200750000000000000e+05
-4.497700000000000000e+04 -2.349080000000000000e+05
-6.666300000000000000e+04 -2.536280000000000000e+05
-9.138500000000000000e+04 -2.685980000000000000e+05
-1.207450000000000000e+05 -2.804650000000000000e+05
-1.553900000000000000e+05 -2.885810000000000000e+05
-1.920800000000000000e+05 -2.921940000000000000e+05
-2.301680000000000000e+05 -2.913080000000000000e+05
-2.703030000000000000e+05 -2.809080000000000000e+05
-3.098910000000000000e+05 -2.664500000000000000e+05
-3.434450000000000000e+05 -2.449340000000000000e+05
-3.767260000000000000e+05 -2.186090000000000000e+05
-4.034940000000000000e+05 -1.890110000000000000e+05
-4.271240000000000000e+05 -1.534800000000000000e+05
-4.436620000000000000e+05 -1.162440000000000000e+05
-4.541310000000000000e+05 -7.488100000000000000e+04
-4.606430000000000000e+05 -3.478100000000000000e+04
-4.615650000000000000e+05 2.727000000000000000e+03
-4.598600000000000000e+05 4.105600000000000000e+04
-4.534830000000000000e+05 7.914400000000000000e+04
-4.449580000000000000e+05 1.154250000000000000e+05
-4.310110000000000000e+05 1.483310000000000000e+05
-4.159050000000000000e+05 1.812360000000000000e+05
-3.974250000000000000e+05 2.121300000000000000e+05
-3.790450000000000000e+05 2.405340000000000000e+05
-3.564710000000000000e+05 2.685980000000000000e+05
-3.358750000000000000e+05 2.926710000000000000e+05
-3.108130000000000000e+05 3.180750000000000000e+05
-2.867050000000000000e+05 3.380910000000000000e+05
-2.587780000000000000e+05 3.584490000000000000e+05
-2.319750000000000000e+05 3.764870000000000000e+05
-2.023440000000000000e+05 3.928890000000000000e+05
-1.727800000000000000e+05 4.050620000000000000e+05
-1.404540000000000000e+05 4.187700000000000000e+05
-1.116400000000000000e+05 4.279090000000000000e+05
-7.910900000000000000e+04 4.352060000000000000e+05
-4.525000000000000000e+04 4.373540000000000000e+05
-1.336700000000000000e+04 4.406620000000000000e+05
1.844700000000000000e+04 4.387870000000000000e+05
5.234200000000000000e+04 4.311480000000000000e+05
8.139400000000000000e+04 4.241580000000000000e+05
1.104460000000000000e+05 4.140300000000000000e+05
1.382710000000000000e+05 4.001860000000000000e+05
1.636070000000000000e+05 3.826930000000000000e+05
1.868630000000000000e+05 3.619270000000000000e+05
2.051740000000000000e+05 3.404100000000000000e+05
2.188810000000000000e+05 3.184510000000000000e+05
2.336800000000000000e+05 2.955370000000000000e+05
2.388980000000000000e+05 2.740880000000000000e+05
2.417960000000000000e+05 2.525370000000000000e+05
2.456840000000000000e+05 2.309870000000000000e+05
2.423420000000000000e+05 2.152660000000000000e+05
2.364080000000000000e+05 2.000590000000000000e+05
2.280540000000000000e+05 1.903750000000000000e+05
2.250880000000000000e+05 1.825310000000000000e+05
2.183700000000000000e+05 1.842710000000000000e+05
2.185750000000000000e+05 1.850550000000000000e+05
2.199730000000000000e+05 1.933070000000000000e+05
2.262130000000000000e+05 2.019680000000000000e+05
2.382160000000000000e+05 2.111080000000000000e+05
2.576520000000000000e+05 2.183350000000000000e+05
2.774980000000000000e+05 2.310890000000000000e+05
3.074700000000000000e+05 2.196650000000000000e+05
3.375110000000000000e+05 2.138010000000000000e+05
3.657130000000000000e+05 1.986950000000000000e+05
3.937420000000000000e+05 1.786450000000000000e+05
4.172350000000000000e+05 1.520820000000000000e+05
4.388200000000000000e+05 1.199600000000000000e+05
4.555970000000000000e+05 8.787300000000000000e+04
4.665090000000000000e+05 5.251300000000000000e+04
4.735670000000000000e+05 1.585600000000000000e+04
4.748630000000000000e+05 -1.988000000000000000e+04
4.730210000000000000e+05 -5.715000000000000000e+04
4.690320000000000000e+05 -9.302300000000000000e+04
4.603030000000000000e+05 -1.256550000000000000e+05
4.503110000000000000e+05 -1.610500000000000000e+05
4.332960000000000000e+05 -1.921140000000000000e+05
4.181220000000000000e+05 -2.222570000000000000e+05
4.015500000000000000e+05 -2.502190000000000000e+05
3.792490000000000000e+05 -2.764070000000000000e+05
3.584490000000000000e+05 -3.036520000000000000e+05
3.359780000000000000e+05 -3.259870000000000000e+05
3.125180000000000000e+05 -3.495150000000000000e+05
2.865000000000000000e+05 -3.709970000000000000e+05
2.604480000000000000e+05 -3.914910000000000000e+05
2.334070000000000000e+05 -4.101430000000000000e+05
2.057530000000000000e+05 -4.273980000000000000e+05
1.759170000000000000e+05 -4.436290000000000000e+05
1.462850000000000000e+05 -4.573710000000000000e+05
1.145720000000000000e+05 -4.673610000000000000e+05
8.303100000000000000e+04 -4.792960000000000000e+05
4.896600000000000000e+04 -4.885030000000000000e+05
1.500300000000000000e+04 -4.952200000000000000e+05
-2.202800000000000000e+04 -5.004370000000000000e+05
-5.984400000000000000e+04 -5.020060000000000000e+05
-9.800100000000000000e+04 -5.029600000000000000e+05
-1.351690000000000000e+05 -4.957670000000000000e+05
-1.770090000000000000e+05 -4.893550000000000000e+05
-2.179960000000000000e+05 -4.771480000000000000e+05
-2.539020000000000000e+05 -4.617690000000000000e+05
-2.929110000000000000e+05 -4.419580000000000000e+05
-3.292940000000000000e+05 -4.177130000000000000e+05
-3.626770000000000000e+05 -3.865120000000000000e+05
-3.936390000000000000e+05 -3.524480000000000000e+05
-4.172350000000000000e+05 -3.095850000000000000e+05
-4.359900000000000000e+05 -2.703720000000000000e+05
-4.499370000000000000e+05 -2.248150000000000000e+05
-4.565170000000000000e+05 -1.784410000000000000e+05
-4.540280000000000000e+05 -1.310430000000000000e+05
-4.473800000000000000e+05 -8.971500000000000000e+04
-4.316930000000000000e+05 -4.732900000000000000e+04
-4.087790000000000000e+05 -1.241200000000000000e+04
-3.849440000000000000e+05 1.684500000000000000e+04
-3.608360000000000000e+05 4.245300000000000000e+04
-3.318520000000000000e+05 6.110500000000000000e+04
-3.062430000000000000e+05 7.157400000000000000e+04
-2.806350000000000000e+05 7.839300000000000000e+04
-2.574140000000000000e+05 7.713100000000000000e+04
-2.415230000000000000e+05 7.631300000000000000e+04
-2.256340000000000000e+05 6.816400000000000000e+04
-2.136650000000000000e+05 6.073000000000000000e+04
-2.058230000000000000e+05 5.179600000000000000e+04
-2.030260000000000000e+05 4.061200000000000000e+04
-2.036060000000000000e+05 3.034900000000000000e+04
-2.080040000000000000e+05 2.465300000000000000e+04
-2.178920000000000000e+05 1.612900000000000000e+04
-2.294860000000000000e+05 1.128700000000000000e+04
-2.414550000000000000e+05 8.865000000000000000e+03
-2.578230000000000000e+05 1.121900000000000000e+04
-2.716670000000000000e+05 1.558300000000000000e+04
-2.902850000000000000e+05 2.666600000000000000e+04
-3.052880000000000000e+05 3.921400000000000000e+04
-3.226110000000000000e+05 5.755900000000000000e+04
-3.335230000000000000e+05 7.897300000000000000e+04
-3.433770000000000000e+05 1.030810000000000000e+05
-3.490720000000000000e+05 1.308720000000000000e+05
-3.509810000000000000e+05 1.635390000000000000e+05
-3.494130000000000000e+05 1.959000000000000000e+05
-3.418770000000000000e+05 2.297940000000000000e+05
-3.314760000000000000e+05 2.618810000000000000e+05
-3.142230000000000000e+05 2.949560000000000000e+05
-2.908990000000000000e+05 3.238380000000000000e+05
-2.662450000000000000e+05 3.522430000000000000e+05
-2.410460000000000000e+05 3.775440000000000000e+05
-2.077310000000000000e+05 3.987190000000000000e+05
-1.763600000000000000e+05 4.163830000000000000e+05
-1.413750000000000000e+05 4.322400000000000000e+05
-1.086400000000000000e+05 4.430140000000000000e+05
-7.181300000000000000e+04 4.515730000000000000e+05
-3.447500000000000000e+04 4.567220000000000000e+05
1.534000000000000000e+03 4.593480000000000000e+05
3.433800000000000000e+04 4.565170000000000000e+05
6.741300000000000000e+04 4.543360000000000000e+05
1.012740000000000000e+05 4.484020000000000000e+05
1.345210000000000000e+05 4.387860000000000000e+05
1.645960000000000000e+05 4.291370000000000000e+05
1.944660000000000000e+05 4.136890000000000000e+05
2.235190000000000000e+05 4.000840000000000000e+05
2.520930000000000000e+05 3.857280000000000000e+05
2.778050000000000000e+05 3.658820000000000000e+05
2.998320000000000000e+05 3.463090000000000000e+05
3.249980000000000000e+05 3.246900000000000000e+05
3.454230000000000000e+05 3.016060000000000000e+05
3.650640000000000000e+05 2.765430000000000000e+05
3.825230000000000000e+05 2.513770000000000000e+05
3.989240000000000000e+05 2.230070000000000000e+05
4.119170000000000000e+05 1.960350000000000000e+05
4.257600000000000000e+05 1.652100000000000000e+05
4.364670000000000000e+05 1.334290000000000000e+05
4.407970000000000000e+05 9.895500000000000000e+04
4.462200000000000000e+05 6.843700000000000000e+04
4.455720000000000000e+05 3.334900000000000000e+04
4.425370000000000000e+05 1.773000000000000000e+03
4.374560000000000000e+05 -3.191700000000000000e+04
4.249760000000000000e+05 -6.472000000000000000e+04
4.135870000000000000e+05 -9.766000000000000000e+04
3.957530000000000000e+05 -1.233360000000000000e+05
3.781920000000000000e+05 -1.517060000000000000e+05
3.523450000000000000e+05 -1.751330000000000000e+05
3.280320000000000000e+05 -1.929330000000000000e+05
3.015380000000000000e+05 -2.082080000000000000e+05
2.763050000000000000e+05 -2.188480000000000000e+05
2.522300000000000000e+05 -2.238940000000000000e+05
2.305770000000000000e+05 -2.259740000000000000e+05
2.099820000000000000e+05 -2.236560000000000000e+05
1.961710000000000000e+05 -2.198360000000000000e+05
1.840320000000000000e+05 -2.132210000000000000e+05
1.775200000000000000e+05 -2.067080000000000000e+05
1.763270000000000000e+05 -1.999570000000000000e+05
1.786780000000000000e+05 -1.965470000000000000e+05
1.825660000000000000e+05 -1.959670000000000000e+05
1.884650000000000000e+05 -1.972970000000000000e+05
1.968870000000000000e+05 -2.017300000000000000e+05
2.066740000000000000e+05 -2.136310000000000000e+05
2.131870000000000000e+05 -2.311580000000000000e+05
2.187450000000000000e+05 -2.504240000000000000e+05
2.225640000000000000e+05 -2.747360000000000000e+05
2.197340000000000000e+05 -3.049140000000000000e+05
2.133570000000000000e+05 -3.345460000000000000e+05
2.018660000000000000e+05 -3.693610000000000000e+05
1.823960000000000000e+05 -4.044150000000000000e+05
1.546730000000000000e+05 -4.388200000000000000e+05
1.286220000000000000e+05 -4.709070000000000000e+05
8.831700000000000000e+04 -4.990730000000000000e+05
4.545400000000000000e+04 -5.244090000000000000e+05
-2.114000000000000000e+03 -5.437780000000000000e+05
-5.312700000000000000e+04 -5.553020000000000000e+05
-1.041380000000000000e+05 -5.607920000000000000e+05
-1.561740000000000000e+05 -5.606900000000000000e+05
-2.113450000000000000e+05 -5.524050000000000000e+05
-2.614030000000000000e+05 -5.375370000000000000e+05
-3.090390000000000000e+05 -5.173850000000000000e+05
-3.515600000000000000e+05 -4.913330000000000000e+05
-3.929570000000000000e+05 -4.610530000000000000e+05
-4.287960000000000000e+05 -4.282160000000000000e+05
-4.597230000000000000e+05 -3.900250000000000000e+05
-4.859110000000000000e+05 -3.522430000000000000e+05
-5.093030000000000000e+05 -3.122450000000000000e+05
-5.272730000000000000e+05 -2.737810000000000000e+05
-5.406750000000000000e+05 -2.320780000000000000e+05
-5.516200000000000000e+05 -1.889080000000000000e+05
-5.577240000000000000e+05 -1.478880000000000000e+05
-5.603830000000000000e+05 -1.092540000000000000e+05
-5.644410000000000000e+05 -6.860700000000000000e+04
-5.599730000000000000e+05 -3.062100000000000000e+04
-5.561210000000000000e+05 9.343000000000000000e+03
-5.505280000000000000e+05 4.773900000000000000e+04
-5.440840000000000000e+05 8.565600000000000000e+04
-5.317740000000000000e+05 1.206760000000000000e+05
-5.162930000000000000e+05 1.531380000000000000e+05
-5.014950000000000000e+05 1.880570000000000000e+05
-4.846160000000000000e+05 2.200410000000000000e+05
-4.661340000000000000e+05 2.519570000000000000e+05
-4.456060000000000000e+05 2.813510000000000000e+05
-4.207480000000000000e+05 3.120410000000000000e+05
-3.974920000000000000e+05 3.374770000000000000e+05
-3.692240000000000000e+05 3.631200000000000000e+05
-3.421840000000000000e+05 3.859330000000000000e+05
-3.098920000000000000e+05 4.056760000000000000e+05
-2.759290000000000000e+05 4.269190000000000000e+05
-2.415580000000000000e+05 4.437980000000000000e+05
-2.047990000000000000e+05 4.585300000000000000e+05
-1.679720000000000000e+05 4.670890000000000000e+05
-1.274280000000000000e+05 4.716920000000000000e+05
-9.101000000000000000e+04 4.745220000000000000e+05
-5.326200000000000000e+04 4.713160000000000000e+05
-1.534500000000000000e+04 4.654180000000000000e+05
1.718600000000000000e+04 4.499360000000000000e+05
4.490900000000000000e+04 4.347970000000000000e+05
7.331300000000000000e+04 4.186000000000000000e+05
9.268100000000000000e+04 3.947640000000000000e+05
1.077530000000000000e+05 3.722930000000000000e+05
1.173350000000000000e+05 3.519700000000000000e+05
1.227220000000000000e+05 3.330800000000000000e+05
1.241200000000000000e+05 3.172920000000000000e+05
1.251430000000000000e+05 3.087670000000000000e+05
1.258250000000000000e+05 3.036860000000000000e+05
1.265750000000000000e+05 2.987070000000000000e+05
1.295760000000000000e+05 3.024920000000000000e+05
1.363280000000000000e+05 3.046740000000000000e+05
1.439660000000000000e+05 3.070620000000000000e+05
1.568210000000000000e+05 3.124830000000000000e+05
1.742110000000000000e+05 3.160640000000000000e+05
1.933070000000000000e+05 3.188270000000000000e+05
2.134600000000000000e+05 3.187920000000000000e+05
2.386250000000000000e+05 3.141200000000000000e+05
2.627320000000000000e+05 3.076070000000000000e+05
2.861590000000000000e+05 2.993220000000000000e+05
3.091420000000000000e+05 2.865680000000000000e+05
3.335560000000000000e+05 2.732690000000000000e+05
3.540510000000000000e+05 2.523670000000000000e+05
3.742370000000000000e+05 2.323840000000000000e+05
3.922080000000000000e+05 2.096410000000000000e+05
4.057110000000000000e+05 1.847140000000000000e+05
4.211230000000000000e+05 1.588680000000000000e+05
4.297500000000000000e+05 1.300200000000000000e+05
4.407980000000000000e+05 1.003190000000000000e+05
4.448560000000000000e+05 7.382400000000000000e+04
4.465270000000000000e+05 4.412400000000000000e+04
4.499030000000000000e+05 1.275300000000000000e+04
4.474810000000000000e+05 -1.466200000000000000e+04
4.444810000000000000e+05 -4.204400000000000000e+04
4.386840000000000000e+05 -6.966400000000000000e+04
4.313190000000000000e+05 -9.684100000000000000e+04
4.205090000000000000e+05 -1.240180000000000000e+05
4.109270000000000000e+05 -1.491150000000000000e+05
3.976970000000000000e+05 -1.727110000000000000e+05
3.872280000000000000e+05 -1.968200000000000000e+05
3.736570000000000000e+05 -2.172790000000000000e+05
3.566070000000000000e+05 -2.370230000000000000e+05
3.407860000000000000e+05 -2.580270000000000000e+05
3.221340000000000000e+05 -2.771570000000000000e+05
3.032770000000000000e+05 -2.957750000000000000e+05
2.863980000000000000e+05 -3.123470000000000000e+05
2.654610000000000000e+05 -3.289190000000000000e+05
2.444900000000000000e+05 -3.425250000000000000e+05
2.234510000000000000e+05 -3.558580000000000000e+05
2.012520000000000000e+05 -3.692590000000000000e+05
1.776550000000000000e+05 -3.824210000000000000e+05
1.530370000000000000e+05 -3.905700000000000000e+05
1.280410000000000000e+05 -3.990270000000000000e+05
1.005580000000000000e+05 -4.072790000000000000e+05
7.286900000000000000e+04 -4.102800000000000000e+05
4.559000000000000000e+04 -4.149850000000000000e+05
1.793600000000000000e+04 -4.141670000000000000e+05
-1.370700000000000000e+04 -4.123940000000000000e+05
-4.207800000000000000e+04 -4.069040000000000000e+05
-6.908500000000000000e+04 -4.003910000000000000e+05
-9.789800000000000000e+04 -3.859670000000000000e+05
-1.229610000000000000e+05 -3.721910000000000000e+05
-1.457060000000000000e+05 -3.539140000000000000e+05
-1.654140000000000000e+05 -3.322610000000000000e+05
-1.807930000000000000e+05 -3.098580000000000000e+05
-1.925570000000000000e+05 -2.857490000000000000e+05
-2.006730000000000000e+05 -2.608920000000000000e+05
-2.033320000000000000e+05 -2.377380000000000000e+05
-2.007070000000000000e+05 -2.143130000000000000e+05
-1.961720000000000000e+05 -1.973990000000000000e+05
-1.899650000000000000e+05 -1.782360000000000000e+05
-1.786110000000000000e+05 -1.660280000000000000e+05
-1.682450000000000000e+05 -1.591410000000000000e+05
-1.610830000000000000e+05 -1.551160000000000000e+05
-1.535140000000000000e+05 -1.523210000000000000e+05
-1.457730000000000000e+05 -1.543320000000000000e+05
-1.417160000000000000e+05 -1.547070000000000000e+05
-1.418520000000000000e+05 -1.606750000000000000e+05
-1.418170000000000000e+05 -1.665740000000000000e+05
-1.460800000000000000e+05 -1.748930000000000000e+05
-1.496260000000000000e+05 -1.812370000000000000e+05
-1.570260000000000000e+05 -1.882260000000000000e+05
-1.705640000000000000e+05 -1.957620000000000000e+05
-1.802140000000000000e+05 -2.014580000000000000e+05
-1.967510000000000000e+05 -2.047310000000000000e+05
-2.123690000000000000e+05 -2.074920000000000000e+05
-2.324870000000000000e+05 -2.098790000000000000e+05
-2.521280000000000000e+05 -2.090610000000000000e+05
-2.746680000000000000e+05 -2.049350000000000000e+05
-2.974800000000000000e+05 -2.005030000000000000e+05
-3.200530000000000000e+05 -1.922500000000000000e+05
-3.442640000000000000e+05 -1.807240000000000000e+05
-3.691220000000000000e+05 -1.637780000000000000e+05
-3.911500000000000000e+05 -1.450920000000000000e+05
-4.135180000000000000e+05 -1.224840000000000000e+05
-4.342520000000000000e+05 -9.561400000000000000e+04
-4.536870000000000000e+05 -6.587900000000000000e+04
-4.651110000000000000e+05 -3.089400000000000000e+04
-4.786820000000000000e+05 5.149000000000000000e+03
-4.874800000000000000e+05 4.173700000000000000e+04
-4.900360000000000000e+05 8.316700000000000000e+04
-4.877860000000000000e+05 1.267120000000000000e+05
-4.786140000000000000e+05 1.672900000000000000e+05
-4.652810000000000000e+05 2.097090000000000000e+05
-4.478220000000000000e+05 2.492980000000000000e+05
-4.273290000000000000e+05 2.876250000000000000e+05
-4.017540000000000000e+05 3.230540000000000000e+05
-3.720200000000000000e+05 3.546300000000000000e+05
-3.397280000000000000e+05 3.841250000000000000e+05
-3.060390000000000000e+05 4.074830000000000000e+05
-2.700300000000000000e+05 4.303640000000000000e+05
-2.337140000000000000e+05 4.444470000000000000e+05
-1.957280000000000000e+05 4.554940000000000000e+05
-1.586290000000000000e+05 4.652130000000000000e+05
-1.278710000000000000e+05 4.739420000000000000e+05
-8.749800000000000000e+04 4.731240000000000000e+05
-5.309200000000000000e+04 4.741810000000000000e+05
-2.250500000000000000e+04 4.730900000000000000e+05
1.036600000000000000e+04 4.658610000000000000e+05
3.958900000000000000e+04 4.596210000000000000e+05
6.738000000000000000e+04 4.508230000000000000e+05
9.312500000000000000e+04 4.379340000000000000e+05
1.191080000000000000e+05 4.266130000000000000e+05
1.431820000000000000e+05 4.136890000000000000e+05
1.630960000000000000e+05 3.967760000000000000e+05
1.839650000000000000e+05 3.819770000000000000e+05
2.017640000000000000e+05 3.658480000000000000e+05
2.186090000000000000e+05 3.478100000000000000e+05
2.358980000000000000e+05 3.299080000000000000e+05
2.445580000000000000e+05 3.108810000000000000e+05
2.534920000000000000e+05 2.938310000000000000e+05
2.636530000000000000e+05 2.753500000000000000e+05
2.691770000000000000e+05 2.583340000000000000e+05
2.757590000000000000e+05 2.396480000000000000e+05
2.760320000000000000e+05 2.232460000000000000e+05
2.790660000000000000e+05 2.089930000000000000e+05
2.806010000000000000e+05 1.953870000000000000e+05
2.784190000000000000e+05 1.866580000000000000e+05
2.787600000000000000e+05 1.739730000000000000e+05
2.809070000000000000e+05 1.689610000000000000e+05
2.818620000000000000e+05 1.601290000000000000e+05
2.870800000000000000e+05 1.576400000000000000e+05
2.917850000000000000e+05 1.532070000000000000e+05
3.008550000000000000e+05 1.485690000000000000e+05
3.143240000000000000e+05 1.460120000000000000e+05
3.271460000000000000e+05 1.384420000000000000e+05
3.407520000000000000e+05 1.289970000000000000e+05
3.576650000000000000e+05 1.178120000000000000e+05
3.736910000000000000e+05 1.000470000000000000e+05
3.887630000000000000e+05 8.122400000000000000e+04
4.006630000000000000e+05 5.957100000000000000e+04
4.129390000000000000e+05 3.515600000000000000e+04
4.218050000000000000e+05 9.377000000000000000e+03
4.261700000000000000e+05 -2.042600000000000000e+04
4.308410000000000000e+05 -5.172800000000000000e+04
4.309430000000000000e+05 -8.115600000000000000e+04
4.273980000000000000e+05 -1.129020000000000000e+05
4.191120000000000000e+05 -1.443750000000000000e+05
4.100410000000000000e+05 -1.717570000000000000e+05
3.985500000000000000e+05 -2.041510000000000000e+05
3.849440000000000000e+05 -2.333400000000000000e+05
3.685760000000000000e+05 -2.609250000000000000e+05
3.474350000000000000e+05 -2.872510000000000000e+05
3.277600000000000000e+05 -3.136430000000000000e+05
3.036180000000000000e+05 -3.373760000000000000e+05
2.808390000000000000e+05 -3.573580000000000000e+05
2.552650000000000000e+05 -3.761470000000000000e+05
2.262470000000000000e+05 -3.934350000000000000e+05
1.984230000000000000e+05 -4.082680000000000000e+05
1.689270000000000000e+05 -4.205430000000000000e+05
1.407260000000000000e+05 -4.306710000000000000e+05
1.112990000000000000e+05 -4.396040000000000000e+05
8.197500000000000000e+04 -4.466630000000000000e+05
5.179700000000000000e+04 -4.515390000000000000e+05
2.199400000000000000e+04 -4.548120000000000000e+05
-7.331000000000000000e+03 -4.547450000000000000e+05
-3.556500000000000000e+04 -4.525280000000000000e+05
-6.322000000000000000e+04 -4.485390000000000000e+05
-9.360200000000000000e+04 -4.430150000000000000e+05
-1.174380000000000000e+05 -4.368770000000000000e+05
-1.449550000000000000e+05 -4.280790000000000000e+05
-1.716210000000000000e+05 -4.170650000000000000e+05
-1.961040000000000000e+05 -4.041420000000000000e+05
-2.193260000000000000e+05 -3.918660000000000000e+05
