-3.464500000000000000e+04 8.620200000000000000e+04
-2.646000000000000000e+04 8.620300000000000000e+04
-2.236900000000000000e+04 8.787300000000000000e+04
-1.496900000000000000e+04 8.596400000000000000e+04
-1.019600000000000000e+04 8.678200000000000000e+04
-1.193000000000000000e+03 8.572500000000000000e+04
1.125000000000000000e+03 8.521300000000000000e+04
6.751000000000000000e+03 8.518000000000000000e+04
1.234400000000000000e+04 8.316800000000000000e+04
1.773100000000000000e+04 8.252000000000000000e+04
2.189200000000000000e+04 8.180400000000000000e+04
2.646100000000000000e+04 7.907500000000000000e+04
3.184800000000000000e+04 7.607500000000000000e+04
3.604300000000000000e+04 7.672300000000000000e+04
3.795200000000000000e+04 7.307400000000000000e+04
4.098700000000000000e+04 6.721000000000000000e+04
4.395400000000000000e+04 6.768700000000000000e+04
4.736300000000000000e+04 6.383400000000000000e+04
4.818200000000000000e+04 5.998100000000000000e+04
5.091000000000000000e+04 5.677500000000000000e+04
5.312600000000000000e+04 5.309200000000000000e+04
5.718400000000000000e+04 4.968300000000000000e+04
5.735400000000000000e+04 4.524900000000000000e+04
6.004900000000000000e+04 4.306700000000000000e+04
6.202600000000000000e+04 3.877000000000000000e+04
6.107200000000000000e+04 3.699800000000000000e+04
6.437900000000000000e+04 3.597500000000000000e+04
6.294700000000000000e+04 2.946200000000000000e+04
6.461700000000000000e+04 2.809800000000000000e+04
6.277500000000000000e+04 2.479000000000000000e+04
6.223100000000000000e+04 2.131200000000000000e+04
6.461700000000000000e+04 1.998300000000000000e+04
6.410600000000000000e+04 1.677700000000000000e+04
6.349300000000000000e+04 1.807200000000000000e+04
6.257200000000000000e+04 1.401500000000000000e+04
6.253700000000000000e+04 9.855000000000000000e+03
6.270800000000000000e+04 1.006000000000000000e+04
6.420800000000000000e+04 8.798000000000000000e+03
6.253700000000000000e+04 5.252000000000000000e+03
6.441200000000000000e+04 4.058000000000000000e+03
6.594700000000000000e+04 2.899000000000000000e+03
6.632200000000000000e+04 2.796000000000000000e+03
6.751600000000000000e+04 -0.000000000000000000e+00
6.816300000000000000e+04 -8.520000000000000000e+02
7.010800000000000000e+04 -2.080000000000000000e+03
7.096000000000000000e+04 -2.796000000000000000e+03
7.239300000000000000e+04 -5.012000000000000000e+03
7.529000000000000000e+04 -2.455000000000000000e+03
7.501800000000000000e+04 -2.830000000000000000e+03
7.730200000000000000e+04 -5.149000000000000000e+03
7.457500000000000000e+04 -7.775000000000000000e+03
7.692700000000000000e+04 -7.058000000000000000e+03
7.740500000000000000e+04 -9.786000000000000000e+03
7.627900000000000000e+04 -1.295700000000000000e+04
7.798400000000000000e+04 -1.578900000000000000e+04
7.808600000000000000e+04 -1.878900000000000000e+04
7.590400000000000000e+04 -2.301700000000000000e+04
7.713100000000000000e+04 -2.864300000000000000e+04
7.535800000000000000e+04 -3.365500000000000000e+04
7.436900000000000000e+04 -3.870300000000000000e+04
7.662100000000000000e+04 -4.541900000000000000e+04
7.631300000000000000e+04 -5.114900000000000000e+04
7.607400000000000000e+04 -5.861600000000000000e+04
8.057600000000000000e+04 -6.710600000000000000e+04
7.259600000000000000e+04 -6.952800000000000000e+04
7.096000000000000000e+04 -7.740400000000000000e+04
6.813000000000000000e+04 -8.296300000000000000e+04
6.328700000000000000e+04 -8.804300000000000000e+04
6.015000000000000000e+04 -9.506800000000000000e+04
5.374000000000000000e+04 -9.963800000000000000e+04
4.804600000000000000e+04 -1.024340000000000000e+05
3.965700000000000000e+04 -1.065930000000000000e+05
3.406600000000000000e+04 -1.103110000000000000e+05
2.673400000000000000e+04 -1.142320000000000000e+05
2.080000000000000000e+04 -1.156980000000000000e+05
1.005900000000000000e+04 -1.180500000000000000e+05
3.750000000000000000e+03 -1.198570000000000000e+05
-5.251000000000000000e+03 -1.219380000000000000e+05
-1.347000000000000000e+04 -1.212220000000000000e+05
-1.998200000000000000e+04 -1.210520000000000000e+05
-2.847300000000000000e+04 -1.179490000000000000e+05
-3.590600000000000000e+04 -1.174030000000000000e+05
-4.218100000000000000e+04 -1.157650000000000000e+05
-5.159200000000000000e+04 -1.117070000000000000e+05
-5.725300000000000000e+04 -1.096970000000000000e+05
-6.649300000000000000e+04 -1.069010000000000000e+05
-7.443800000000000000e+04 -1.009670000000000000e+05
-8.057600000000000000e+04 -9.564800000000000000e+04
-8.681600000000000000e+04 -9.213600000000000000e+04
-9.595400000000000000e+04 -8.896500000000000000e+04
-1.137880000000000000e+05 -8.664600000000000000e+04
-1.404880000000000000e+05 -8.974900000000000000e+04
-1.504450000000000000e+05 -6.761800000000000000e+04
-1.372490000000000000e+05 -5.510400000000000000e+04
-1.419200000000000000e+05 -5.387700000000000000e+04
-1.486720000000000000e+05 -5.152300000000000000e+04
-1.564120000000000000e+05 -4.627200000000000000e+04
-1.618680000000000000e+05 -3.958900000000000000e+04
-1.660620000000000000e+05 -3.116600000000000000e+04
-1.703240000000000000e+05 -2.431200000000000000e+04
-1.766330000000000000e+05 -1.800400000000000000e+04
-1.790540000000000000e+05 -9.581000000000000000e+03
-1.823950000000000000e+05 -6.820000000000000000e+02
-1.846460000000000000e+05 1.023000000000000000e+04
-1.818160000000000000e+05 2.080000000000000000e+04
-1.934430000000000000e+05 2.731400000000000000e+04
-1.846120000000000000e+05 4.859100000000000000e+04
-1.761900000000000000e+05 5.766100000000000000e+04
-1.720640000000000000e+05 6.686700000000000000e+04
-1.670180000000000000e+05 7.941600000000000000e+04
-1.589700000000000000e+05 8.923800000000000000e+04
-1.554920000000000000e+05 1.007280000000000000e+05
-1.456030000000000000e+05 1.104130000000000000e+05
-1.399420000000000000e+05 1.168230000000000000e+05
-1.252120000000000000e+05 1.309400000000000000e+05
-1.021950000000000000e+05 1.416140000000000000e+05
-9.312500000000000000e+04 1.466940000000000000e+05
-7.822300000000000000e+04 1.497620000000000000e+05
-6.625500000000000000e+04 1.548440000000000000e+05
-4.715900000000000000e+04 1.516380000000000000e+05
-2.370000000000000000e+04 1.510240000000000000e+05
-1.988000000000000000e+04 1.581510000000000000e+05
-8.082000000000000000e+03 1.573330000000000000e+05
4.297000000000000000e+03 1.592760000000000000e+05
1.895900000000000000e+04 1.559690000000000000e+05
3.147300000000000000e+04 1.538890000000000000e+05
4.200900000000000000e+04 1.487740000000000000e+05
4.344200000000000000e+04 1.492520000000000000e+05
5.916100000000000000e+04 1.427730000000000000e+05
6.608300000000000000e+04 1.381350000000000000e+05
7.174500000000000000e+04 1.347940000000000000e+05
7.617700000000000000e+04 1.299180000000000000e+05
7.839400000000000000e+04 1.238130000000000000e+05
8.275800000000000000e+04 1.167210000000000000e+05
8.330400000000000000e+04 1.116740000000000000e+05
8.357700000000000000e+04 1.044110000000000000e+05
8.357700000000000000e+04 9.786500000000000000e+04
8.882800000000000000e+04 8.804400000000000000e+04
8.678200000000000000e+04 7.975700000000000000e+04
8.818000000000000000e+04 6.997100000000000000e+04
9.145400000000000000e+04 6.301500000000000000e+04
9.377200000000000000e+04 5.527400000000000000e+04
9.650000000000000000e+04 4.954600000000000000e+04
9.704600000000000000e+04 4.313600000000000000e+04
1.015470000000000000e+05 3.791800000000000000e+04
1.074120000000000000e+05 3.242800000000000000e+04
1.087410000000000000e+05 3.321300000000000000e+04
1.141290000000000000e+05 2.980300000000000000e+04
1.180170000000000000e+05 2.741500000000000000e+04
2.654260000000000000e+05 -1.437280000000000000e+05
1.180160000000000000e+05 2.557400000000000000e+04
1.134470000000000000e+05 2.465400000000000000e+04
1.135160000000000000e+05 2.015300000000000000e+04
1.185960000000000000e+05 1.718600000000000000e+04
1.195170000000000000e+05 1.984600000000000000e+04
1.209160000000000000e+05 1.872000000000000000e+04
1.218360000000000000e+05 1.616300000000000000e+04
1.226200000000000000e+05 1.503700000000000000e+04
1.262680000000000000e+05 1.442400000000000000e+04
1.289630000000000000e+05 1.428700000000000000e+04
1.324740000000000000e+05 1.231000000000000000e+04
1.361580000000000000e+05 1.186600000000000000e+04
1.387150000000000000e+05 1.227500000000000000e+04
1.419880000000000000e+05 9.786000000000000000e+03
1.468310000000000000e+05 1.128700000000000000e+04
1.481950000000000000e+05 1.135500000000000000e+04
1.502060000000000000e+05 1.391200000000000000e+04
1.518090000000000000e+05 1.660700000000000000e+04
1.482290000000000000e+05 1.722000000000000000e+04
1.466260000000000000e+05 1.404900000000000000e+04
1.409990000000000000e+05 9.855000000000000000e+03
1.392260000000000000e+05 5.115000000000000000e+03
1.364650000000000000e+05 -3.853000000000000000e+03
1.314520000000000000e+05 -1.261600000000000000e+04
1.334640000000000000e+05 -2.025600000000000000e+04
1.304980000000000000e+05 -3.140500000000000000e+04
1.307700000000000000e+05 -4.238500000000000000e+04
1.314520000000000000e+05 -5.350100000000000000e+04
1.302580000000000000e+05 -6.454900000000000000e+04
1.293720000000000000e+05 -7.781400000000000000e+04
1.327480000000000000e+05 -9.213600000000000000e+04
1.347600000000000000e+05 -1.069690000000000000e+05
1.406250000000000000e+05 -1.192790000000000000e+05
1.459780000000000000e+05 -1.329860000000000000e+05
1.526960000000000000e+05 -1.398740000000000000e+05
1.600270000000000000e+05 -1.490810000000000000e+05
1.581850000000000000e+05 -1.544010000000000000e+05
1.548780000000000000e+05 -1.645280000000000000e+05
1.486380000000000000e+05 -1.705290000000000000e+05
1.401460000000000000e+05 -1.783040000000000000e+05
1.276670000000000000e+05 -1.896590000000000000e+05
1.104470000000000000e+05 -2.027190000000000000e+05
9.783000000000000000e+04 -2.160180000000000000e+05
8.221200000000000000e+04 -2.947520000000000000e+05
6.939200000000000000e+04 -3.044020000000000000e+05
5.118300000000000000e+04 -3.129610000000000000e+05
3.662200000000000000e+04 -3.203940000000000000e+05
1.762900000000000000e+04 -3.227480000000000000e+05
-3.581000000000000000e+03 -3.273850000000000000e+05
-2.574500000000000000e+04 -3.298050000000000000e+05
-5.012600000000000000e+04 -3.240080000000000000e+05
-7.795000000000000000e+04 -3.211780000000000000e+05
-1.083670000000000000e+05 -3.167120000000000000e+05
-1.418860000000000000e+05 -3.115630000000000000e+05
-1.754060000000000000e+05 -3.003780000000000000e+05
-2.113800000000000000e+05 -2.914440000000000000e+05
-2.469450000000000000e+05 -2.809760000000000000e+05
-2.808390000000000000e+05 -2.665860000000000000e+05
-3.160300000000000000e+05 -2.540040000000000000e+05
-3.491390000000000000e+05 -2.397500000000000000e+05
-3.789760000000000000e+05 -2.248840000000000000e+05
-4.067330000000000000e+05 -2.088900000000000000e+05
-4.292380000000000000e+05 -1.914660000000000000e+05
-4.492540000000000000e+05 -1.786110000000000000e+05
-4.598260000000000000e+05 -1.605040000000000000e+05
-4.670890000000000000e+05 -1.426370000000000000e+05
-4.678720000000000000e+05 -1.227560000000000000e+05
-4.642580000000000000e+05 -9.789900000000000000e+04
-4.564830000000000000e+05 -7.068800000000000000e+04
-4.499030000000000000e+05 -4.456700000000000000e+04
-4.379000000000000000e+05 -1.346900000000000000e+04
-4.262040000000000000e+05 1.906200000000000000e+04
-4.151550000000000000e+05 5.162600000000000000e+04
-4.053350000000000000e+05 8.593000000000000000e+04
-3.909460000000000000e+05 1.183580000000000000e+05
-3.801360000000000000e+05 1.499330000000000000e+05
-3.695310000000000000e+05 1.841350000000000000e+05
-3.572550000000000000e+05 2.143130000000000000e+05
-3.466170000000000000e+05 2.457520000000000000e+05
-3.323630000000000000e+05 2.725190000000000000e+05
-3.190980000000000000e+05 3.019130000000000000e+05
-3.070950000000000000e+05 3.254410000000000000e+05
-2.934900000000000000e+05 3.464800000000000000e+05
-2.754520000000000000e+05 3.673830000000000000e+05
-2.554700000000000000e+05 3.861710000000000000e+05
-2.326570000000000000e+05 4.030850000000000000e+05
-2.064690000000000000e+05 4.185310000000000000e+05
-1.806910000000000000e+05 4.346260000000000000e+05
-1.550820000000000000e+05 4.478910000000000000e+05
-1.273940000000000000e+05 4.637810000000000000e+05
-9.602300000000000000e+04 4.737040000000000000e+05
-6.884600000000000000e+04 4.781020000000000000e+05
-3.679300000000000000e+04 4.845480000000000000e+05
-9.889000000000000000e+03 4.870370000000000000e+05
2.179000000000000000e+04 4.853990000000000000e+05
4.886400000000000000e+04 4.785810000000000000e+05
8.163300000000000000e+04 4.678040000000000000e+05
1.105140000000000000e+05 4.525960000000000000e+05
1.385100000000000000e+05 4.334320000000000000e+05
1.685170000000000000e+05 4.097340000000000000e+05
1.972630000000000000e+05 3.838870000000000000e+05
2.268610000000000000e+05 3.552440000000000000e+05
2.515140000000000000e+05 3.245200000000000000e+05
2.771230000000000000e+05 2.943090000000000000e+05
2.982980000000000000e+05 2.572090000000000000e+05
3.171900000000000000e+05 2.247120000000000000e+05
3.349210000000000000e+05 1.897950000000000000e+05
3.510150000000000000e+05 1.564800000000000000e+05
3.604260000000000000e+05 1.244960000000000000e+05
3.713720000000000000e+05 9.442000000000000000e+04
3.758050000000000000e+05 6.707300000000000000e+04
3.781580000000000000e+05 3.952000000000000000e+04
3.758390000000000000e+05 1.715200000000000000e+04
3.720200000000000000e+05 -2.730000000000000000e+02
3.620300000000000000e+05 -1.916300000000000000e+04
3.500260000000000000e+05 -3.287100000000000000e+04
3.378190000000000000e+05 -4.695400000000000000e+04
3.229860000000000000e+05 -5.882100000000000000e+04
3.040600000000000000e+05 -6.710700000000000000e+04
2.904890000000000000e+05 -7.563200000000000000e+04
2.737130000000000000e+05 -8.095100000000000000e+04
2.589480000000000000e+05 -8.558900000000000000e+04
2.432960000000000000e+05 -8.964700000000000000e+04
2.288380000000000000e+05 -9.254500000000000000e+04
2.166310000000000000e+05 -9.431800000000000000e+04
2.056170000000000000e+05 -9.783000000000000000e+04
1.980470000000000000e+05 -9.632900000000000000e+04
1.893520000000000000e+05 -9.786400000000000000e+04
1.823620000000000000e+05 -9.653400000000000000e+04
1.755760000000000000e+05 -9.626200000000000000e+04
1.735980000000000000e+05 -9.561400000000000000e+04
1.707340000000000000e+05 -9.455600000000000000e+04
1.660960000000000000e+05 -9.397600000000000000e+04
1.634370000000000000e+05 -9.309000000000000000e+04
1.572310000000000000e+05 -9.588600000000000000e+04
1.544000000000000000e+05 -1.013420000000000000e+05
1.508200000000000000e+05 -1.076160000000000000e+05
1.489790000000000000e+05 -1.148800000000000000e+05
1.460460000000000000e+05 -1.261320000000000000e+05
1.457740000000000000e+05 -1.388860000000000000e+05
1.447160000000000000e+05 -1.534120000000000000e+05
1.462850000000000000e+05 -1.683810000000000000e+05
1.483990000000000000e+05 -1.853280000000000000e+05
1.542300000000000000e+05 -2.000250000000000000e+05
1.561050000000000000e+05 -2.149600000000000000e+05
1.579460000000000000e+05 -2.304420000000000000e+05
1.596860000000000000e+05 -2.428540000000000000e+05
1.610160000000000000e+05 -2.557770000000000000e+05
1.586280000000000000e+05 -2.677110000000000000e+05
1.561400000000000000e+05 -2.774980000000000000e+05
1.510930000000000000e+05 -2.877280000000000000e+05
1.433180000000000000e+05 -2.979230000000000000e+05
1.344520000000000000e+05 -3.035840000000000000e+05
1.206430000000000000e+05 -3.101990000000000000e+05
1.063550000000000000e+05 -3.174620000000000000e+05
8.841900000000000000e+04 -3.237370000000000000e+05
6.799400000000000000e+04 -3.277940000000000000e+05
4.528300000000000000e+04 -3.328740000000000000e+05
2.318800000000000000e+04 -3.360460000000000000e+05
-1.360000000000000000e+02 -3.388080000000000000e+05
-2.540400000000000000e+04 -3.402400000000000000e+05
-5.227300000000000000e+04 -3.418770000000000000e+05
-7.617700000000000000e+04 -3.405810000000000000e+05
-1.040360000000000000e+05 -3.380240000000000000e+05
-1.280080000000000000e+05 -3.352280000000000000e+05
-1.544340000000000000e+05 -3.315790000000000000e+05
-1.785760000000000000e+05 -3.229180000000000000e+05
-2.034690000000000000e+05 -3.154840000000000000e+05
-2.298620000000000000e+05 -3.061070000000000000e+05
-2.539360000000000000e+05 -2.918880000000000000e+05
-2.788620000000000000e+05 -2.778730000000000000e+05
-3.021180000000000000e+05 -2.618800000000000000e+05
-3.282720000000000000e+05 -2.439100000000000000e+05
-3.518670000000000000e+05 -2.250190000000000000e+05
-3.757370000000000000e+05 -2.026850000000000000e+05
-3.999470000000000000e+05 -1.824980000000000000e+05
-4.232710000000000000e+05 -1.591400000000000000e+05
-4.454700000000000000e+05 -1.362600000000000000e+05
-4.677360000000000000e+05 -1.135160000000000000e+05
-4.844790000000000000e+05 -8.954400000000000000e+04
-4.989710000000000000e+05 -6.393500000000000000e+04
-5.124400000000000000e+05 -3.457600000000000000e+04
-5.197710000000000000e+05 -4.228000000000000000e+03
-5.273080000000000000e+05 2.646100000000000000e+04
-5.258060000000000000e+05 6.410600000000000000e+04
-5.219190000000000000e+05 9.963700000000000000e+04
-5.163270000000000000e+05 1.403850000000000000e+05
-5.068480000000000000e+05 1.819530000000000000e+05
-4.949140000000000000e+05 2.276790000000000000e+05
-4.803200000000000000e+05 2.727230000000000000e+05
-4.625880000000000000e+05 3.185530000000000000e+05
-4.425370000000000000e+05 3.667690000000000000e+05
-4.182240000000000000e+05 4.047220000000000000e+05
-3.928880000000000000e+05 4.435260000000000000e+05
-3.629150000000000000e+05 4.801150000000000000e+05
-3.316130000000000000e+05 5.120650000000000000e+05
-2.964910000000000000e+05 5.381170000000000000e+05
-2.577200000000000000e+05 5.602130000000000000e+05
-2.176880000000000000e+05 5.762050000000000000e+05
-1.751320000000000000e+05 5.866730000000000000e+05
-1.309740000000000000e+05 5.905260000000000000e+05
-8.487300000000000000e+04 5.905610000000000000e+05
-3.914600000000000000e+04 5.859240000000000000e+05
6.309000000000000000e+03 5.770580000000000000e+05
5.254700000000000000e+04 5.631800000000000000e+05
9.619300000000000000e+04 5.466080000000000000e+05
1.391920000000000000e+05 5.268990000000000000e+05
1.800770000000000000e+05 5.050060000000000000e+05
2.172110000000000000e+05 4.763980000000000000e+05
2.541740000000000000e+05 4.510960000000000000e+05
2.866370000000000000e+05 4.218730000000000000e+05
3.182130000000000000e+05 3.892410000000000000e+05
3.463100000000000000e+05 3.568120000000000000e+05
3.699060000000000000e+05 3.233950000000000000e+05
3.906050000000000000e+05 2.895350000000000000e+05
4.084720000000000000e+05 2.514800000000000000e+05
4.256930000000000000e+05 2.132890000000000000e+05
4.405940000000000000e+05 1.777580000000000000e+05
4.511990000000000000e+05 1.406920000000000000e+05
4.612230000000000000e+05 1.009670000000000000e+05
4.632360000000000000e+05 6.301500000000000000e+04
4.706350000000000000e+05 2.424500000000000000e+04
4.761930000000000000e+05 -1.254900000000000000e+04
4.759890000000000000e+05 -4.719300000000000000e+04
4.765000000000000000e+05 -8.296300000000000000e+04
4.722720000000000000e+05 -1.159370000000000000e+05
4.665770000000000000e+05 -1.469670000000000000e+05
4.618720000000000000e+05 -1.750640000000000000e+05
4.527320000000000000e+05 -1.986270000000000000e+05
4.405590000000000000e+05 -2.211330000000000000e+05
4.238510000000000000e+05 -2.414890000000000000e+05
4.046880000000000000e+05 -2.573800000000000000e+05
3.846710000000000000e+05 -2.727240000000000000e+05
3.599840000000000000e+05 -2.856130000000000000e+05
3.336250000000000000e+05 -2.960130000000000000e+05
3.048110000000000000e+05 -3.079490000000000000e+05
2.744640000000000000e+05 -3.107110000000000000e+05
2.443880000000000000e+05 -3.183150000000000000e+05
2.135960000000000000e+05 -3.210770000000000000e+05
1.826350000000000000e+05 -3.252710000000000000e+05
1.545030000000000000e+05 -3.264980000000000000e+05
1.271210000000000000e+05 -3.253390000000000000e+05
1.010360000000000000e+05 -3.241800000000000000e+05
7.709800000000000000e+04 -3.187580000000000000e+05
5.547900000000000000e+04 -3.135740000000000000e+05
3.519000000000000000e+04 -3.065170000000000000e+05
1.762900000000000000e+04 -3.003110000000000000e+05
1.569000000000000000e+03 -2.873190000000000000e+05
-1.063800000000000000e+04 -2.779750000000000000e+05
-2.049400000000000000e+04 -2.683250000000000000e+05
-3.225800000000000000e+04 -2.580950000000000000e+05
-4.173700000000000000e+04 -2.472520000000000000e+05
-4.712500000000000000e+04 -2.380460000000000000e+05
-5.131900000000000000e+04 -2.309530000000000000e+05
-5.677500000000000000e+04 -2.259060000000000000e+05
-6.277600000000000000e+04 -2.195290000000000000e+05
-6.437900000000000000e+04 -2.150280000000000000e+05
-6.755100000000000000e+04 -2.153690000000000000e+05
-6.963000000000000000e+04 -2.125740000000000000e+05
-7.443800000000000000e+04 -2.109020000000000000e+05
-7.703000000000000000e+04 -2.142440000000000000e+05
-8.061000000000000000e+04 -2.133240000000000000e+05
-8.708900000000000000e+04 -2.161190000000000000e+05
-9.039700000000000000e+04 -2.184050000000000000e+05
-9.694400000000000000e+04 -2.224620000000000000e+05
-1.025020000000000000e+05 -2.201780000000000000e+05
-1.104810000000000000e+05 -2.220190000000000000e+05
-1.182220000000000000e+05 -2.237580000000000000e+05
-1.279060000000000000e+05 -2.221550000000000000e+05
-1.387490000000000000e+05 -2.189160000000000000e+05
-1.512290000000000000e+05 -2.159150000000000000e+05
-1.637780000000000000e+05 -2.084140000000000000e+05
-1.799750000000000000e+05 -2.022760000000000000e+05
-1.963080000000000000e+05 -1.953190000000000000e+05
-2.149940000000000000e+05 -1.826010000000000000e+05
-2.341920000000000000e+05 -1.733590000000000000e+05
-2.537300000000000000e+05 -1.607430000000000000e+05
-2.738490000000000000e+05 -1.467970000000000000e+05
-2.945820000000000000e+05 -1.318610000000000000e+05
-3.153130000000000000e+05 -1.170280000000000000e+05
-3.342380000000000000e+05 -1.029450000000000000e+05
-3.519360000000000000e+05 -8.466800000000000000e+04
-3.686110000000000000e+05 -6.761900000000000000e+04
-3.835110000000000000e+05 -4.852300000000000000e+04
-3.961280000000000000e+05 -2.908700000000000000e+04
-4.080630000000000000e+05 -7.298000000000000000e+03
-4.182590000000000000e+05 1.428700000000000000e+04
-4.257600000000000000e+05 4.010000000000000000e+04
-4.280100000000000000e+05 6.420800000000000000e+04
-4.332620000000000000e+05 8.940800000000000000e+04
-4.307380000000000000e+05 1.140270000000000000e+05
-4.298860000000000000e+05 1.417150000000000000e+05
-4.276700000000000000e+05 1.684150000000000000e+05
-4.210210000000000000e+05 1.957970000000000000e+05
-4.134850000000000000e+05 2.209610000000000000e+05
-4.040740000000000000e+05 2.486840000000000000e+05
-3.908770000000000000e+05 2.695530000000000000e+05
-3.753960000000000000e+05 2.928420000000000000e+05
-3.588570000000000000e+05 3.164390000000000000e+05
-3.411610000000000000e+05 3.348870000000000000e+05
-3.224060000000000000e+05 3.554480000000000000e+05
-3.004810000000000000e+05 3.719520000000000000e+05
-2.753500000000000000e+05 3.893430000000000000e+05
-2.496390000000000000e+05 4.050620000000000000e+05
-2.229050000000000000e+05 4.162470000000000000e+05
-1.955580000000000000e+05 4.290680000000000000e+05
-1.672220000000000000e+05 4.358540000000000000e+05
-1.340770000000000000e+05 4.473450000000000000e+05
-1.042410000000000000e+05 4.535510000000000000e+05
-7.259600000000000000e+04 4.587680000000000000e+05
-3.897500000000000000e+04 4.645990000000000000e+05
-6.445000000000000000e+03 4.696800000000000000e+05
2.577900000000000000e+04 4.688270000000000000e+05
5.697900000000000000e+04 4.662020000000000000e+05
8.991900000000000000e+04 4.664740000000000000e+05
1.195850000000000000e+05 4.604390000000000000e+05
1.527980000000000000e+05 4.535510000000000000e+05
1.823280000000000000e+05 4.440030000000000000e+05
2.146190000000000000e+05 4.303630000000000000e+05
2.435690000000000000e+05 4.170650000000000000e+05
2.729970000000000000e+05 3.992310000000000000e+05
2.987420000000000000e+05 3.813640000000000000e+05
3.272480000000000000e+05 3.568460000000000000e+05
3.567100000000000000e+05 3.346140000000000000e+05
3.795560000000000000e+05 3.072670000000000000e+05
4.033580000000000000e+05 2.798500000000000000e+05
4.292050000000000000e+05 2.484450000000000000e+05
4.491520000000000000e+05 2.171080000000000000e+05
4.673950000000000000e+05 1.841020000000000000e+05
4.835920000000000000e+05 1.498660000000000000e+05
4.974360000000000000e+05 1.167900000000000000e+05
5.085190000000000000e+05 8.115500000000000000e+04
5.166680000000000000e+05 4.613600000000000000e+04
5.188850000000000000e+05 1.074100000000000000e+04
5.192590000000000000e+05 -2.506300000000000000e+04
5.162250000000000000e+05 -5.728600000000000000e+04
5.098830000000000000e+05 -8.937400000000000000e+04
5.003010000000000000e+05 -1.224500000000000000e+05
4.874110000000000000e+05 -1.520820000000000000e+05
4.734300000000000000e+05 -1.809970000000000000e+05
4.545400000000000000e+05 -2.054130000000000000e+05
4.382410000000000000e+05 -2.298610000000000000e+05
4.174400000000000000e+05 -2.511050000000000000e+05
3.965030000000000000e+05 -2.692800000000000000e+05
3.737250000000000000e+05 -2.873860000000000000e+05
3.512870000000000000e+05 -3.023560000000000000e+05
3.286130000000000000e+05 -3.151770000000000000e+05
3.066180000000000000e+05 -3.230210000000000000e+05
2.854430000000000000e+05 -3.329770000000000000e+05
2.621870000000000000e+05 -3.391150000000000000e+05
2.385230000000000000e+05 -3.441620000000000000e+05
2.166310000000000000e+05 -3.464120000000000000e+05
1.935800000000000000e+05 -3.476390000000000000e+05
1.700860000000000000e+05 -3.480480000000000000e+05
1.497630000000000000e+05 -3.459350000000000000e+05
1.256890000000000000e+05 -3.458670000000000000e+05
1.056380000000000000e+05 -3.416720000000000000e+05
8.350800000000000000e+04 -3.383640000000000000e+05
6.386700000000000000e+04 -3.340340000000000000e+05
4.187400000000000000e+04 -3.285790000000000000e+05
2.151600000000000000e+04 -3.213150000000000000e+05
4.194000000000000000e+03 -3.136770000000000000e+05
-1.258300000000000000e+04 -3.050500000000000000e+05
-2.912100000000000000e+04 -2.981960000000000000e+05
-4.371500000000000000e+04 -2.904900000000000000e+05
-5.776400000000000000e+04 -2.820330000000000000e+05
-7.061900000000000000e+04 -2.723150000000000000e+05
-8.330400000000000000e+04 -2.636200000000000000e+05
-9.087400000000000000e+04 -2.564250000000000000e+05
-9.926200000000000000e+04 -2.466720000000000000e+05
-1.068660000000000000e+05 -2.372260000000000000e+05
-1.140280000000000000e+05 -2.295540000000000000e+05
-1.186980000000000000e+05 -2.209950000000000000e+05
-1.211540000000000000e+05 -2.113800000000000000e+05
-1.285200000000000000e+05 -2.022070000000000000e+05
-1.284180000000000000e+05 -1.960010000000000000e+05
-1.318950000000000000e+05 -1.892830000000000000e+05
-1.331910000000000000e+05 -1.828400000000000000e+05
-1.345550000000000000e+05 -1.765640000000000000e+05
-1.356800000000000000e+05 -1.729160000000000000e+05
-1.387150000000000000e+05 -1.713470000000000000e+05
-1.388510000000000000e+05 -1.685170000000000000e+05
-1.432840000000000000e+05 -1.661990000000000000e+05
-1.433870000000000000e+05 -1.677680000000000000e+05
-1.479560000000000000e+05 -1.681770000000000000e+05
-1.510580000000000000e+05 -1.674950000000000000e+05
-1.577420000000000000e+05 -1.675290000000000000e+05
-1.649710000000000000e+05 -1.676990000000000000e+05
-1.694380000000000000e+05 -1.703920000000000000e+05
-1.791230000000000000e+05 -1.701880000000000000e+05
-1.890450000000000000e+05 -1.687910000000000000e+05
-2.000930000000000000e+05 -1.686200000000000000e+05
-2.135960000000000000e+05 -1.677670000000000000e+05
-2.259740000000000000e+05 -1.623450000000000000e+05
-2.416600000000000000e+05 -1.577080000000000000e+05
-2.568680000000000000e+05 -1.517740000000000000e+05
-2.725540000000000000e+05 -1.426710000000000000e+05
-2.899780000000000000e+05 -1.334290000000000000e+05
-3.082890000000000000e+05 -1.208120000000000000e+05
-3.268390000000000000e+05 -1.091170000000000000e+05
-3.435130000000000000e+05 -8.968000000000000000e+04
-3.606310000000000000e+05 -7.038000000000000000e+04
-3.759420000000000000e+05 -5.196700000000000000e+04
-3.906380000000000000e+05 -3.317900000000000000e+04
-4.047210000000000000e+05 -6.445000000000000000e+03
-4.179520000000000000e+05 1.899400000000000000e+04
-4.264770000000000000e+05 4.412400000000000000e+04
-4.335020000000000000e+05 7.143800000000000000e+04
-4.384120000000000000e+05 1.002850000000000000e+05
-4.439350000000000000e+05 1.309400000000000000e+05
-4.418890000000000000e+05 1.598210000000000000e+05
-4.402520000000000000e+05 1.910910000000000000e+05
-4.337400000000000000e+05 2.239630000000000000e+05
-4.248400000000000000e+05 2.546180000000000000e+05
-4.127010000000000000e+05 2.846580000000000000e+05
-3.967770000000000000e+05 3.205990000000000000e+05
-3.793180000000000000e+05 3.480820000000000000e+05
-3.576640000000000000e+05 3.743400000000000000e+05
-3.349540000000000000e+05 4.057440000000000000e+05
-3.077090000000000000e+05 4.288980000000000000e+05
-2.774300000000000000e+05 4.547100000000000000e+05
-2.443540000000000000e+05 4.739430000000000000e+05
-2.123680000000000000e+05 4.932080000000000000e+05
-1.745530000000000000e+05 5.082120000000000000e+05
-1.379650000000000000e+05 5.192940000000000000e+05
-1.004220000000000000e+05 5.294210000000000000e+05
-6.055900000000000000e+04 5.364800000000000000e+05
-1.882300000000000000e+04 5.374350000000000000e+05
2.410800000000000000e+04 5.383560000000000000e+05
6.656200000000000000e+04 5.331380000000000000e+05
1.071400000000000000e+05 5.280580000000000000e+05
1.481610000000000000e+05 5.157820000000000000e+05
1.884310000000000000e+05 5.038470000000000000e+05
2.261780000000000000e+05 4.861160000000000000e+05
2.636880000000000000e+05 4.690660000000000000e+05
2.995600000000000000e+05 4.488110000000000000e+05
3.313060000000000000e+05 4.246350000000000000e+05
3.608360000000000000e+05 4.000840000000000000e+05
3.921730000000000000e+05 3.731790000000000000e+05
4.172010000000000000e+05 3.472310000000000000e+05
4.402520000000000000e+05 3.161660000000000000e+05
4.591770000000000000e+05 2.855450000000000000e+05
4.780340000000000000e+05 2.551290000000000000e+05
4.950490000000000000e+05 2.243370000000000000e+05
5.062000000000000000e+05 1.914650000000000000e+05
5.176920000000000000e+05 1.571970000000000000e+05
5.240340000000000000e+05 1.224160000000000000e+05
5.299330000000000000e+05 8.763400000000000000e+04
5.329680000000000000e+05 5.357000000000000000e+04
5.333770000000000000e+05 1.602600000000000000e+04
5.325590000000000000e+05 -1.670900000000000000e+04
5.298650000000000000e+05 -5.244400000000000000e+04
5.262170000000000000e+05 -8.678200000000000000e+04
5.172140000000000000e+05 -1.190740000000000000e+05
5.070860000000000000e+05 -1.531050000000000000e+05
4.953570000000000000e+05 -1.829080000000000000e+05
4.821260000000000000e+05 -2.128460000000000000e+05
4.647700000000000000e+05 -2.430580000000000000e+05
4.484370000000000000e+05 -2.689740000000000000e+05
4.251810000000000000e+05 -2.941040000000000000e+05
4.025730000000000000e+05 -3.173260000000000000e+05
3.782270000000000000e+05 -3.384670000000000000e+05
3.525840000000000000e+05 -3.594040000000000000e+05
3.259520000000000000e+05 -3.750560000000000000e+05
2.960140000000000000e+05 -3.901610000000000000e+05
2.638590000000000000e+05 -4.047210000000000000e+05
2.345330000000000000e+05 -4.147120000000000000e+05
2.039810000000000000e+05 -4.226580000000000000e+05
1.726430000000000000e+05 -4.302620000000000000e+05
1.411700000000000000e+05 -4.319320000000000000e+05
1.105150000000000000e+05 -4.323760000000000000e+05
8.217800000000000000e+04 -4.304660000000000000e+05
5.305800000000000000e+04 -4.276360000000000000e+05
2.714300000000000000e+04 -4.216000000000000000e+05
-1.534000000000000000e+03 -4.125990000000000000e+05
-2.574500000000000000e+04 -4.018570000000000000e+05
-4.988700000000000000e+04 -3.887630000000000000e+05
-7.314300000000000000e+04 -3.736570000000000000e+05
-9.503400000000000000e+04 -3.568800000000000000e+05
-1.141290000000000000e+05 -3.401040000000000000e+05
-1.326450000000000000e+05 -3.231560000000000000e+05
-1.498650000000000000e+05 -3.021180000000000000e+05
-1.667440000000000000e+05 -2.836360000000000000e+05
-1.802470000000000000e+05 -2.657340000000000000e+05
-1.946710000000000000e+05 -2.460240000000000000e+05
-2.057530000000000000e+05 -2.313280000000000000e+05
-2.163920000000000000e+05 -2.132890000000000000e+05
-2.261450000000000000e+05 -2.013550000000000000e+05
-2.325890000000000000e+05 -1.884990000000000000e+05
-2.368860000000000000e+05 -1.812020000000000000e+05
-2.393750000000000000e+05 -1.706650000000000000e+05
-2.411480000000000000e+05 -1.611510000000000000e+05
-2.391700000000000000e+05 -1.535820000000000000e+05
-2.365780000000000000e+05 -1.441710000000000000e+05
-2.335440000000000000e+05 -1.326460000000000000e+05
-2.330670000000000000e+05 -1.218020000000000000e+05
-2.296910000000000000e+05 -1.084340000000000000e+05
-2.271670000000000000e+05 -9.817200000000000000e+04
-2.256330000000000000e+05 -8.616800000000000000e+04
-2.234510000000000000e+05 -7.866600000000000000e+04
-2.241670000000000000e+05 -6.881100000000000000e+04
-2.225290000000000000e+05 -6.315200000000000000e+04
-2.218830000000000000e+05 -5.292200000000000000e+04
-2.203480000000000000e+05 -5.080800000000000000e+04
-2.210630000000000000e+05 -4.811400000000000000e+04
-2.232120000000000000e+05 -4.361300000000000000e+04
-2.230080000000000000e+05 -4.023700000000000000e+04
-2.241670000000000000e+05 -3.747500000000000000e+04
-2.290090000000000000e+05 -3.304200000000000000e+04
-2.297250000000000000e+05 -3.137200000000000000e+04
-2.349420000000000000e+05 -2.578000000000000000e+04
-2.379770000000000000e+05 -2.329000000000000000e+04
-2.430240000000000000e+05 -1.691300000000000000e+04
-2.498780000000000000e+05 -1.271900000000000000e+04
-2.583350000000000000e+05 -7.843000000000000000e+03
-2.644040000000000000e+05 3.760000000000000000e+02
-2.729630000000000000e+05 7.058000000000000000e+03
-2.824420000000000000e+05 1.445800000000000000e+04
-2.908650000000000000e+05 2.311900000000000000e+04
-3.008220000000000000e+05 3.341700000000000000e+04
-3.103690000000000000e+05 4.582900000000000000e+04
-3.196450000000000000e+05 5.834400000000000000e+04
-3.290560000000000000e+05 7.266500000000000000e+04
-3.364210000000000000e+05 8.800900000000000000e+04
-3.449120000000000000e+05 1.072750000000000000e+05
-3.476730000000000000e+05 1.254840000000000000e+05
-3.533000000000000000e+05 1.462850000000000000e+05
-3.532320000000000000e+05 1.710400000000000000e+05
-3.555510000000000000e+05 1.933080000000000000e+05
-3.511520000000000000e+05 2.205870000000000000e+05
-3.475370000000000000e+05 2.470130000000000000e+05
-3.393870000000000000e+05 2.721780000000000000e+05
-3.272830000000000000e+05 2.994920000000000000e+05
-3.131310000000000000e+05 3.298740000000000000e+05
-2.970360000000000000e+05 3.583460000000000000e+05
-2.749400000000000000e+05 3.841260000000000000e+05
-2.535600000000000000e+05 4.105180000000000000e+05
-2.248140000000000000e+05 4.370810000000000000e+05
-1.925910000000000000e+05 4.604740000000000000e+05
-1.609480000000000000e+05 4.829100000000000000e+05
-1.259280000000000000e+05 4.996190000000000000e+05
-8.565700000000000000e+04 5.170100000000000000e+05
-4.586300000000000000e+04 5.319110000000000000e+05
-1.978000000000000000e+03 5.413900000000000000e+05
4.129400000000000000e+04 5.467100000000000000e+05
8.657800000000000000e+04 5.501190000000000000e+05
1.347590000000000000e+05 5.500860000000000000e+05
1.831120000000000000e+05 5.460960000000000000e+05
2.284300000000000000e+05 5.368890000000000000e+05
2.763040000000000000e+05 5.244770000000000000e+05
3.251680000000000000e+05 5.071200000000000000e+05
3.704520000000000000e+05 4.855360000000000000e+05
4.144730000000000000e+05 4.604050000000000000e+05
4.560410000000000000e+05 4.336040000000000000e+05
4.965160000000000000e+05 4.014480000000000000e+05
5.310920000000000000e+05 3.655760000000000000e+05
5.673400000000000000e+05 3.294650000000000000e+05
5.946520000000000000e+05 2.880350000000000000e+05
6.220000000000000000e+05 2.453090000000000000e+05
6.452890000000000000e+05 2.017290000000000000e+05
6.605660000000000000e+05 1.553900000000000000e+05
6.716830000000000000e+05 1.078890000000000000e+05
6.786390000000000000e+05 5.960500000000000000e+04
6.822530000000000000e+05 1.336600000000000000e+04
6.792180000000000000e+05 -3.542900000000000000e+04
6.716480000000000000e+05 -7.897400000000000000e+04
6.589290000000000000e+05 -1.254500000000000000e+05
6.424250000000000000e+05 -1.690290000000000000e+05
6.233290000000000000e+05 -2.104930000000000000e+05
5.988130000000000000e+05 -2.472180000000000000e+05
5.713300000000000000e+05 -2.831930000000000000e+05
5.400950000000000000e+05 -3.192690000000000000e+05
5.082800000000000000e+05 -3.471970000000000000e+05
4.723390000000000000e+05 -3.757710000000000000e+05
4.365360000000000000e+05 -3.965040000000000000e+05
3.962990000000000000e+05 -4.194520000000000000e+05
3.575960000000000000e+05 -4.369450000000000000e+05
3.171210000000000000e+05 -4.511990000000000000e+05
2.777700000000000000e+05 -4.627920000000000000e+05
2.348060000000000000e+05 -4.730220000000000000e+05
1.923860000000000000e+05 -4.788530000000000000e+05
1.535480000000000000e+05 -4.790580000000000000e+05
1.110270000000000000e+05 -4.788530000000000000e+05
7.092600000000000000e+04 -4.777620000000000000e+05
3.181400000000000000e+04 -4.727150000000000000e+05
-5.899000000000000000e+03 -4.669510000000000000e+05
-4.218000000000000000e+04 -4.606440000000000000e+05
-7.948600000000000000e+04 -4.484710000000000000e+05
-1.151520000000000000e+05 -4.359560000000000000e+05
-1.469330000000000000e+05 -4.217710000000000000e+05
-1.764960000000000000e+05 -4.057450000000000000e+05
-2.041850000000000000e+05 -3.893090000000000000e+05
-2.309870000000000000e+05 -3.689860000000000000e+05
-2.551630000000000000e+05 -3.500260000000000000e+05
-2.762360000000000000e+05 -3.293620000000000000e+05
-2.933210000000000000e+05 -3.080840000000000000e+05
-3.118360000000000000e+05 -2.861940000000000000e+05
-3.258160000000000000e+05 -2.649150000000000000e+05
-3.374440000000000000e+05 -2.409440000000000000e+05
-3.445710000000000000e+05 -2.185070000000000000e+05
-3.501290000000000000e+05 -1.957970000000000000e+05
-3.536410000000000000e+05 -1.737350000000000000e+05
-3.543570000000000000e+05 -1.521160000000000000e+05
-3.533010000000000000e+05 -1.322700000000000000e+05
-3.507080000000000000e+05 -1.140270000000000000e+05
-3.467530000000000000e+05 -9.493200000000000000e+04
-3.393880000000000000e+05 -7.512000000000000000e+04
-3.335910000000000000e+05 -5.953600000000000000e+04
-3.275890000000000000e+05 -4.586300000000000000e+04
-3.192360000000000000e+05 -3.106400000000000000e+04
-3.105740000000000000e+05 -2.090300000000000000e+04
-3.024590000000000000e+05 -9.480000000000000000e+03
-2.928760000000000000e+05 -1.091000000000000000e+03
-2.827160000000000000e+05 9.855000000000000000e+03
-2.729290000000000000e+05 1.623100000000000000e+04
-2.648140000000000000e+05 2.172100000000000000e+04
-2.547540000000000000e+05 2.802900000000000000e+04
-2.472520000000000000e+05 3.072300000000000000e+04
-2.351470000000000000e+05 3.825900000000000000e+04
-2.282930000000000000e+05 4.074800000000000000e+04
-2.204850000000000000e+05 4.415800000000000000e+04
-2.148240000000000000e+05 4.640900000000000000e+04
-2.087880000000000000e+05 4.971700000000000000e+04
-2.023440000000000000e+05 5.152400000000000000e+04
-1.972970000000000000e+05 5.575200000000000000e+04
-1.935130000000000000e+05 5.680900000000000000e+04
-1.917050000000000000e+05 5.742300000000000000e+04
-1.880900000000000000e+05 6.059400000000000000e+04
-1.867610000000000000e+05 6.250400000000000000e+04
-1.851230000000000000e+05 6.550500000000000000e+04
-1.818160000000000000e+05 6.693700000000000000e+04
-1.823960000000000000e+05 7.004000000000000000e+04
-1.816110000000000000e+05 7.409700000000000000e+04
-1.811340000000000000e+05 7.590400000000000000e+04
-1.816120000000000000e+05 7.866600000000000000e+04
-1.795660000000000000e+05 7.934900000000000000e+04
-1.803500000000000000e+05 8.388300000000000000e+04
-1.794290000000000000e+05 8.899900000000000000e+04
-1.790200000000000000e+05 9.370400000000000000e+04
-1.778950000000000000e+05 9.755700000000000000e+04
-1.766340000000000000e+05 1.036950000000000000e+05
-1.755420000000000000e+05 1.108900000000000000e+05
-1.736320000000000000e+05 1.166190000000000000e+05
-1.728820000000000000e+05 1.235750000000000000e+05
-1.711770000000000000e+05 1.312130000000000000e+05
-1.684150000000000000e+05 1.413070000000000000e+05
-1.639140000000000000e+05 1.476140000000000000e+05
-1.616980000000000000e+05 1.580490000000000000e+05
-1.581860000000000000e+05 1.676650000000000000e+05
-1.515700000000000000e+05 1.772120000000000000e+05
-1.459440000000000000e+05 1.841680000000000000e+05
-1.382370000000000000e+05 1.950470000000000000e+05
-1.307360000000000000e+05 2.054120000000000000e+05
-1.205060000000000000e+05 2.154030000000000000e+05
-1.118450000000000000e+05 2.260090000000000000e+05
-9.858000000000000000e+04 2.365450000000000000e+05
-8.436000000000000000e+04 2.454790000000000000e+05
-6.935800000000000000e+04 2.558440000000000000e+05
-5.176300000000000000e+04 2.660410000000000000e+05
-3.669100000000000000e+04 2.730310000000000000e+05
-1.657200000000000000e+04 2.827830000000000000e+05
3.888000000000000000e+03 2.899100000000000000e+05
2.625600000000000000e+04 2.973780000000000000e+05
4.828500000000000000e+04 3.029020000000000000e+05
7.512000000000000000e+04 3.074370000000000000e+05
1.009670000000000000e+05 3.103010000000000000e+05
1.282120000000000000e+05 3.105400000000000000e+05
1.569920000000000000e+05 3.118020000000000000e+05
1.863510000000000000e+05 3.096870000000000000e+05
2.131870000000000000e+05 3.053230000000000000e+05
2.429210000000000000e+05 2.987760000000000000e+05
2.750430000000000000e+05 2.901140000000000000e+05
3.007540000000000000e+05 2.782140000000000000e+05
3.300450000000000000e+05 2.659380000000000000e+05
3.574600000000000000e+05 2.506280000000000000e+05
3.808860000000000000e+05 2.319420000000000000e+05
4.046530000000000000e+05 2.124370000000000000e+05
4.257940000000000000e+05 1.904770000000000000e+05
4.447190000000000000e+05 1.647330000000000000e+05
4.616330000000000000e+05 1.404540000000000000e+05
4.763970000000000000e+05 1.114360000000000000e+05
4.888430000000000000e+05 8.466800000000000000e+04
4.959020000000000000e+05 5.336500000000000000e+04
5.027220000000000000e+05 2.404000000000000000e+04
5.053810000000000000e+05 -7.127000000000000000e+03
5.040860000000000000e+05 -4.102100000000000000e+04
5.027220000000000000e+05 -7.007400000000000000e+04
4.961410000000000000e+05 -1.043430000000000000e+05
4.867640000000000000e+05 -1.365660000000000000e+05
4.767050000000000000e+05 -1.673580000000000000e+05
4.577120000000000000e+05 -2.000930000000000000e+05
4.354790000000000000e+05 -2.316340000000000000e+05
4.150530000000000000e+05 -2.604480000000000000e+05
3.906390000000000000e+05 -2.890230000000000000e+05
3.645860000000000000e+05 -3.145630000000000000e+05
3.351260000000000000e+05 -3.396260000000000000e+05
3.057670000000000000e+05 -3.619960000000000000e+05
2.734060000000000000e+05 -3.844670000000000000e+05
2.411820000000000000e+05 -3.963670000000000000e+05
2.072880000000000000e+05 -4.077560000000000000e+05
1.704950000000000000e+05 -4.154970000000000000e+05
1.379990000000000000e+05 -4.199980000000000000e+05
1.016830000000000000e+05 -4.213280000000000000e+05
6.478900000000000000e+04 -4.196910000000000000e+05
2.809700000000000000e+04 -4.147470000000000000e+05
-6.172000000000000000e+03 -4.083360000000000000e+05
-4.064600000000000000e+04 -4.004930000000000000e+05
-7.730200000000000000e+04 -3.912180000000000000e+05
-1.085710000000000000e+05 -3.761460000000000000e+05
-1.417150000000000000e+05 -3.589940000000000000e+05
-1.697110000000000000e+05 -3.400700000000000000e+05
-1.978770000000000000e+05 -3.231560000000000000e+05
-2.206890000000000000e+05 -3.024920000000000000e+05
-2.407390000000000000e+05 -2.781120000000000000e+05
-2.607210000000000000e+05 -2.566640000000000000e+05
-2.783840000000000000e+05 -2.340560000000000000e+05
-2.889210000000000000e+05 -2.074590000000000000e+05
-3.040610000000000000e+05 -1.828050000000000000e+05
-3.115970000000000000e+05 -1.589350000000000000e+05
-3.167460000000000000e+05 -1.362940000000000000e+05
-3.199850000000000000e+05 -1.126290000000000000e+05
-3.217590000000000000e+05 -9.172700000000000000e+04
-3.229180000000000000e+05 -6.976600000000000000e+04
-3.215880000000000000e+05 -5.084200000000000000e+04
-3.175640000000000000e+05 -3.515600000000000000e+04
-3.145630000000000000e+05 -1.810700000000000000e+04
-3.071300000000000000e+05 -4.058000000000000000e+03
-2.988780000000000000e+05 9.753000000000000000e+03
-2.902510000000000000e+05 2.247100000000000000e+04
-2.824770000000000000e+05 3.075800000000000000e+04
-2.710190000000000000e+05 3.945300000000000000e+04
-2.581640000000000000e+05 4.862500000000000000e+04
-2.448990000000000000e+05 5.234200000000000000e+04
-2.313960000000000000e+05 5.967400000000000000e+04
-2.193250000000000000e+05 6.144600000000000000e+04
-2.040830000000000000e+05 6.315200000000000000e+04
-1.868630000000000000e+05 6.686800000000000000e+04
-1.737010000000000000e+05 6.922100000000000000e+04
-1.583560000000000000e+05 7.113000000000000000e+04
-1.440000000000000000e+05 6.935800000000000000e+04
-1.291330000000000000e+05 7.171000000000000000e+04
-1.149470000000000000e+05 7.385900000000000000e+04
-1.032520000000000000e+05 7.399500000000000000e+04
-9.165800000000000000e+04 7.512000000000000000e+04
-8.166700000000000000e+04 7.716600000000000000e+04
-7.286900000000000000e+04 7.730200000000000000e+04
-6.396900000000000000e+04 7.836000000000000000e+04
-5.786600000000000000e+04 8.282600000000000000e+04
-5.288700000000000000e+04 8.289500000000000000e+04
-5.091000000000000000e+04 8.395200000000000000e+04
-4.739700000000000000e+04 8.412200000000000000e+04
-4.692000000000000000e+04 8.906600000000000000e+04
-4.357800000000000000e+04 9.060200000000000000e+04
-4.484000000000000000e+04 9.482900000000000000e+04
-4.402200000000000000e+04 9.530700000000000000e+04
-4.299800000000000000e+04 1.030130000000000000e+05
-4.552200000000000000e+04 1.107540000000000000e+05
-4.371400000000000000e+04 1.055030000000000000e+05
-4.415800000000000000e+04 1.080260000000000000e+05
-4.354500000000000000e+04 1.048200000000000000e+05
-4.023600000000000000e+04 1.075140000000000000e+05
-3.952100000000000000e+04 1.090480000000000000e+05
-3.839500000000000000e+04 1.104810000000000000e+05
-3.808900000000000000e+04 1.119470000000000000e+05
-3.560000000000000000e+04 1.167210000000000000e+05
-3.300700000000000000e+04 1.171300000000000000e+05
-3.191600000000000000e+04 1.194150000000000000e+05
-2.867700000000000000e+04 1.245980000000000000e+05
-2.622100000000000000e+04 1.258590000000000000e+05
-2.339200000000000000e+04 1.324740000000000000e+05
-2.322200000000000000e+04 1.348620000000000000e+05
-1.752700000000000000e+04 1.383740000000000000e+05
-1.575400000000000000e+04 1.419200000000000000e+05
-1.081000000000000000e+04 1.443750000000000000e+05
-4.501000000000000000e+03 1.486720000000000000e+05
1.030000000000000000e+02 1.512970000000000000e+05
8.525000000000000000e+03 1.557640000000000000e+05
1.411700000000000000e+04 1.570600000000000000e+05
2.277800000000000000e+04 1.582190000000000000e+05
3.007500000000000000e+04 1.633340000000000000e+05
4.112300000000000000e+04 1.653810000000000000e+05
5.189800000000000000e+04 1.659260000000000000e+05
6.052600000000000000e+04 1.657890000000000000e+05
7.235800000000000000e+04 1.664720000000000000e+05
8.405400000000000000e+04 1.648690000000000000e+05
9.656900000000000000e+04 1.654150000000000000e+05
1.096960000000000000e+05 1.669150000000000000e+05
1.209150000000000000e+05 1.634020000000000000e+05
1.336340000000000000e+05 1.592080000000000000e+05
1.488760000000000000e+05 1.556620000000000000e+05
1.610150000000000000e+05 1.509910000000000000e+05
1.736660000000000000e+05 1.448190000000000000e+05
1.876120000000000000e+05 1.386810000000000000e+05
2.014570000000000000e+05 1.301560000000000000e+05
2.143800000000000000e+05 1.243940000000000000e+05
2.258720000000000000e+05 1.117770000000000000e+05
2.387610000000000000e+05 1.022630000000000000e+05
2.500820000000000000e+05 8.913500000000000000e+04
2.596300000000000000e+05 7.730300000000000000e+04
2.687680000000000000e+05 6.141300000000000000e+04
2.775320000000000000e+05 4.569300000000000000e+04
2.852720000000000000e+05 3.382700000000000000e+04
2.914100000000000000e+05 1.554900000000000000e+04
2.958430000000000000e+05 -3.853000000000000000e+03
2.993200000000000000e+05 -1.994800000000000000e+04
2.997990000000000000e+05 -3.911100000000000000e+04
2.997980000000000000e+05 -5.929800000000000000e+04
2.973430000000000000e+05 -7.887100000000000000e+04
2.938320000000000000e+05 -9.939800000000000000e+04
2.874200000000000000e+05 -1.186310000000000000e+05
2.787250000000000000e+05 -1.381010000000000000e+05
2.691430000000000000e+05 -1.566500000000000000e+05
2.567660000000000000e+05 -1.743140000000000000e+05
2.423070000000000000e+05 -1.926250000000000000e+05
2.263840000000000000e+05 -2.085830000000000000e+05
2.083800000000000000e+05 -2.247120000000000000e+05
1.907840000000000000e+05 -2.396470000000000000e+05
1.697450000000000000e+05 -2.503890000000000000e+05
1.481260000000000000e+05 -2.620850000000000000e+05
1.250750000000000000e+05 -2.722460000000000000e+05
1.006940000000000000e+05 -2.803270000000000000e+05
7.778000000000000000e+04 -2.859890000000000000e+05
5.367200000000000000e+04 -2.925020000000000000e+05
3.208700000000000000e+04 -2.916830000000000000e+05
4.876000000000000000e+03 -2.948880000000000000e+05
-1.786800000000000000e+04 -2.917510000000000000e+05
-4.194200000000000000e+04 -2.923990000000000000e+05
-6.478800000000000000e+04 -2.834990000000000000e+05
-8.763500000000000000e+04 -2.797140000000000000e+05
-1.108220000000000000e+05 -2.699270000000000000e+05
-1.315890000000000000e+05 -2.612330000000000000e+05
-1.509560000000000000e+05 -2.519240000000000000e+05
-1.679030000000000000e+05 -2.383860000000000000e+05
-1.871690000000000000e+05 -2.242010000000000000e+05
-2.028560000000000000e+05 -2.105610000000000000e+05
-2.190860000000000000e+05 -1.958640000000000000e+05
-2.329650000000000000e+05 -1.791570000000000000e+05
-2.440460000000000000e+05 -1.622780000000000000e+05
-2.539700000000000000e+05 -1.449890000000000000e+05
-2.632780000000000000e+05 -1.257570000000000000e+05
-2.693820000000000000e+05 -1.059800000000000000e+05
-2.766800000000000000e+05 -8.828200000000000000e+04
-2.781110000000000000e+05 -6.860700000000000000e+04
-2.799190000000000000e+05 -5.196700000000000000e+04
-2.816240000000000000e+05 -3.212100000000000000e+04
-2.794080000000000000e+05 -1.497000000000000000e+04
-2.749750000000000000e+05 4.876000000000000000e+03
-2.698940000000000000e+05 2.189200000000000000e+04
-2.621880000000000000e+05 3.665600000000000000e+04
-2.538670000000000000e+05 5.131900000000000000e+04
