-8.610000000000000000e+04 -1.408290000000000000e+05
-9.094200000000000000e+04 -1.344870000000000000e+05
-9.823800000000000000e+04 -1.253140000000000000e+05
-1.028090000000000000e+05 -1.193130000000000000e+05
-1.095260000000000000e+05 -1.088780000000000000e+05
-1.130720000000000000e+05 -9.980800000000000000e+04
-1.155950000000000000e+05 -9.063500000000000000e+04
-1.160040000000000000e+05 -8.337200000000000000e+04
-1.172660000000000000e+05 -7.784800000000000000e+04
-1.179480000000000000e+05 -6.894900000000000000e+04
-1.183230000000000000e+05 -6.308300000000000000e+04
-1.176070000000000000e+05 -5.571800000000000000e+04
-1.169930000000000000e+05 -4.999000000000000000e+04
-1.140270000000000000e+05 -4.484100000000000000e+04
-1.141290000000000000e+05 -3.969100000000000000e+04
-1.120150000000000000e+05 -3.624800000000000000e+04
-1.109250000000000000e+05 -3.236000000000000000e+04
-1.087760000000000000e+05 -2.891600000000000000e+04
-1.058090000000000000e+05 -2.744900000000000000e+04
-1.068330000000000000e+05 -2.455100000000000000e+04
-1.066280000000000000e+05 -2.172100000000000000e+04
-1.052640000000000000e+05 -1.858300000000000000e+04
-1.065590000000000000e+05 -1.817500000000000000e+04
-1.067990000000000000e+05 -1.510700000000000000e+04
-1.075480000000000000e+05 -1.340100000000000000e+04
-1.110610000000000000e+05 -1.005900000000000000e+04
-1.096960000000000000e+05 -8.968000000000000000e+03
-1.103790000000000000e+05 -7.059000000000000000e+03
-1.122530000000000000e+05 -4.944000000000000000e+03
-1.145380000000000000e+05 7.500000000000000000e+02
-1.152200000000000000e+05 3.205000000000000000e+03
-1.160050000000000000e+05 8.524000000000000000e+03
-1.193460000000000000e+05 1.275300000000000000e+04
-1.196540000000000000e+05 1.578800000000000000e+04
-1.246660000000000000e+05 2.260700000000000000e+04
-1.242560000000000000e+05 2.802900000000000000e+04
-1.268140000000000000e+05 3.461100000000000000e+04
-1.279390000000000000e+05 4.279400000000000000e+04
-1.276320000000000000e+05 5.104600000000000000e+04
-1.272570000000000000e+05 5.916100000000000000e+04
-1.269500000000000000e+05 6.942500000000000000e+04
-1.260290000000000000e+05 7.750700000000000000e+04
-1.230630000000000000e+05 8.732800000000000000e+04
-1.191080000000000000e+05 9.616000000000000000e+04
-1.161410000000000000e+05 1.071380000000000000e+05
-1.113670000000000000e+05 1.150500000000000000e+05
-1.056730000000000000e+05 1.258590000000000000e+05
-9.728400000000000000e+04 1.339070000000000000e+05
-8.821400000000000000e+04 1.455350000000000000e+05
-8.183800000000000000e+04 1.509220000000000000e+05
-7.188000000000000000e+04 1.585600000000000000e+05
-5.946800000000000000e+04 1.648010000000000000e+05
-5.029600000000000000e+04 1.696080000000000000e+05
-3.815700000000000000e+04 1.747230000000000000e+05
-2.690400000000000000e+04 1.785430000000000000e+05
-1.626500000000000000e+04 1.801460000000000000e+05
-4.023000000000000000e+03 1.807930000000000000e+05
1.033300000000000000e+04 1.790880000000000000e+05
2.090300000000000000e+04 1.805550000000000000e+05
3.157600000000000000e+04 1.773830000000000000e+05
4.296500000000000000e+04 1.767700000000000000e+05
5.305800000000000000e+04 1.705300000000000000e+05
6.482300000000000000e+04 1.653460000000000000e+05
7.096000000000000000e+04 1.619020000000000000e+05
8.350800000000000000e+04 1.548780000000000000e+05
8.876000000000000000e+04 1.494560000000000000e+05
9.748900000000000000e+04 1.421240000000000000e+05
1.032860000000000000e+05 1.353390000000000000e+05
1.116740000000000000e+05 1.301220000000000000e+05
1.152210000000000000e+05 1.211540000000000000e+05
1.208470000000000000e+05 1.155620000000000000e+05
1.274620000000000000e+05 1.052300000000000000e+05
1.309400000000000000e+05 1.002170000000000000e+05
1.347260000000000000e+05 9.169300000000000000e+04
1.388170000000000000e+05 8.681600000000000000e+04
1.409650000000000000e+05 7.617700000000000000e+04
1.456720000000000000e+05 6.986900000000000000e+04
1.458420000000000000e+05 6.434500000000000000e+04
1.503770000000000000e+05 5.435400000000000000e+04
1.512640000000000000e+05 4.825000000000000000e+04
1.535150000000000000e+05 3.890600000000000000e+04
1.547420000000000000e+05 3.184800000000000000e+04
1.554580000000000000e+05 2.253900000000000000e+04
1.572650000000000000e+05 1.623100000000000000e+04
1.589360000000000000e+05 6.990000000000000000e+03
1.570600000000000000e+05 1.602000000000000000e+03
1.575710000000000000e+05 -8.934000000000000000e+03
1.577760000000000000e+05 -1.892500000000000000e+04
1.564470000000000000e+05 -2.700600000000000000e+04
1.545020000000000000e+05 -3.433800000000000000e+04
1.540260000000000000e+05 -4.409000000000000000e+04
1.529340000000000000e+05 -5.339900000000000000e+04
1.479900000000000000e+05 -6.093500000000000000e+04
1.424660000000000000e+05 -7.130100000000000000e+04
1.405570000000000000e+05 -7.962200000000000000e+04
1.346580000000000000e+05 -8.804400000000000000e+04
1.307020000000000000e+05 -9.428400000000000000e+04
1.256210000000000000e+05 -1.044450000000000000e+05
1.196200000000000000e+05 -1.114360000000000000e+05
1.083670000000000000e+05 -1.211880000000000000e+05
1.056730000000000000e+05 -1.276660000000000000e+05
9.690900000000000000e+04 -1.344870000000000000e+05
9.008900000000000000e+04 -1.413750000000000000e+05
7.941700000000000000e+04 -1.471030000000000000e+05
7.194900000000000000e+04 -1.508880000000000000e+05
6.472000000000000000e+04 -1.545710000000000000e+05
5.295600000000000000e+04 -1.586970000000000000e+05
4.582900000000000000e+04 -1.634710000000000000e+05
3.532700000000000000e+04 -1.679380000000000000e+05
2.458600000000000000e+04 -1.675290000000000000e+05
1.575400000000000000e+04 -1.696770000000000000e+05
5.456000000000000000e+03 -1.726780000000000000e+05
-5.626000000000000000e+03 -1.714840000000000000e+05
-1.381000000000000000e+04 -1.716550000000000000e+05
-2.530200000000000000e+04 -1.696090000000000000e+05
-3.502000000000000000e+04 -1.703590000000000000e+05
-4.620400000000000000e+04 -1.679040000000000000e+05
-5.626300000000000000e+04 -1.652440000000000000e+05
-6.424200000000000000e+04 -1.627890000000000000e+05
-7.576800000000000000e+04 -1.566170000000000000e+05
-8.596400000000000000e+04 -1.545720000000000000e+05
-9.731800000000000000e+04 -1.473770000000000000e+05
-1.045810000000000000e+05 -1.435910000000000000e+05
-1.149820000000000000e+05 -1.361910000000000000e+05
-1.220750000000000000e+05 -1.252800000000000000e+05
-1.303940000000000000e+05 -1.179490000000000000e+05
-1.388510000000000000e+05 -1.107530000000000000e+05
-1.461830000000000000e+05 -1.009670000000000000e+05
-1.519110000000000000e+05 -9.217000000000000000e+04
-1.576400000000000000e+05 -8.006400000000000000e+04
-1.619010000000000000e+05 -6.782300000000000000e+04
-1.668120000000000000e+05 -5.704800000000000000e+04
-1.682780000000000000e+05 -4.351100000000000000e+04
-1.668810000000000000e+05 -3.277000000000000000e+04
-1.693360000000000000e+05 -1.848200000000000000e+04
-1.669490000000000000e+05 -6.172000000000000000e+03
-1.660620000000000000e+05 4.501000000000000000e+03
-1.604360000000000000e+05 1.612900000000000000e+04
-1.572640000000000000e+05 2.540400000000000000e+04
-1.526950000000000000e+05 3.512200000000000000e+04
-1.467620000000000000e+05 4.351000000000000000e+04
-1.407610000000000000e+05 5.466000000000000000e+04
-1.329860000000000000e+05 6.100300000000000000e+04
-1.273590000000000000e+05 6.553800000000000000e+04
-1.206760000000000000e+05 7.106300000000000000e+04
-1.140950000000000000e+05 7.685900000000000000e+04
-1.065940000000000000e+05 7.941700000000000000e+04
-1.002170000000000000e+05 8.200800000000000000e+04
-9.397700000000000000e+04 8.398600000000000000e+04
-8.995300000000000000e+04 8.773700000000000000e+04
-8.361100000000000000e+04 8.800900000000000000e+04
-7.859800000000000000e+04 9.193100000000000000e+04
-7.259700000000000000e+04 9.227200000000000000e+04
-6.922100000000000000e+04 9.322700000000000000e+04
-6.461800000000000000e+04 9.571600000000000000e+04
-6.366200000000000000e+04 9.653400000000000000e+04
-5.824100000000000000e+04 9.766000000000000000e+04
-5.275100000000000000e+04 9.974000000000000000e+04
-5.077400000000000000e+04 1.013090000000000000e+05
-4.777200000000000000e+04 1.024680000000000000e+05
-4.576100000000000000e+04 1.061500000000000000e+05
-4.003200000000000000e+04 1.079570000000000000e+05
-3.740700000000000000e+04 1.102760000000000000e+05
-3.161000000000000000e+04 1.109580000000000000e+05
-2.970000000000000000e+04 1.145050000000000000e+05
-2.325500000000000000e+04 1.166180000000000000e+05
-2.090200000000000000e+04 1.195180000000000000e+05
-1.568500000000000000e+04 1.217680000000000000e+05
-9.820000000000000000e+03 1.243930000000000000e+05
-2.864000000000000000e+03 1.262350000000000000e+05
2.730000000000000000e+02 1.299520000000000000e+05
6.274000000000000000e+03 1.334630000000000000e+05
1.514000000000000000e+04 1.340090000000000000e+05
2.254000000000000000e+04 1.367040000000000000e+05
2.700700000000000000e+04 1.393630000000000000e+05
3.529300000000000000e+04 1.390560000000000000e+05
4.231700000000000000e+04 1.388850000000000000e+05
5.357000000000000000e+04 1.398060000000000000e+05
6.158400000000000000e+04 1.387150000000000000e+05
7.007300000000000000e+04 1.368400000000000000e+05
7.730300000000000000e+04 1.360210000000000000e+05
8.777100000000000000e+04 1.339750000000000000e+05
9.684200000000000000e+04 1.301900000000000000e+05
1.057070000000000000e+05 1.235740000000000000e+05
1.156300000000000000e+05 1.202670000000000000e+05
1.235750000000000000e+05 1.133110000000000000e+05
1.317250000000000000e+05 1.079910000000000000e+05
1.390560000000000000e+05 9.960300000000000000e+04
1.464560000000000000e+05 8.998800000000000000e+04
1.551510000000000000e+05 8.091700000000000000e+04
1.572310000000000000e+05 6.925500000000000000e+04
1.623120000000000000e+05 6.025200000000000000e+04
1.631640000000000000e+05 4.821700000000000000e+04
1.663700000000000000e+05 3.611100000000000000e+04
1.682110000000000000e+05 2.622200000000000000e+04
1.687560000000000000e+05 1.299200000000000000e+04
1.658920000000000000e+05 2.728000000000000000e+03
1.650400000000000000e+05 -7.638000000000000000e+03
1.622090000000000000e+05 -1.708300000000000000e+04
1.576060000000000000e+05 -2.663100000000000000e+04
1.532750000000000000e+05 -3.648600000000000000e+04
1.511270000000000000e+05 -4.313500000000000000e+04
1.457390000000000000e+05 -5.288700000000000000e+04
1.411360000000000000e+05 -5.902600000000000000e+04
1.336010000000000000e+05 -6.451500000000000000e+04
1.310080000000000000e+05 -7.191400000000000000e+04
1.243250000000000000e+05 -7.883600000000000000e+04
1.179150000000000000e+05 -8.129300000000000000e+04
1.117760000000000000e+05 -8.569100000000000000e+04
1.076510000000000000e+05 -8.957900000000000000e+04
1.031830000000000000e+05 -9.315900000000000000e+04
9.957000000000000000e+04 -9.690900000000000000e+04
9.595500000000000000e+04 -1.019900000000000000e+05
8.920300000000000000e+04 -1.039680000000000000e+05
8.596300000000000000e+04 -1.084000000000000000e+05
7.979200000000000000e+04 -1.111970000000000000e+05
7.597300000000000000e+04 -1.140270000000000000e+05
7.123200000000000000e+04 -1.185970000000000000e+05
6.601600000000000000e+04 -1.205060000000000000e+05
6.277700000000000000e+04 -1.261320000000000000e+05
5.796800000000000000e+04 -1.306330000000000000e+05
5.459200000000000000e+04 -1.349990000000000000e+05
4.920500000000000000e+04 -1.383400000000000000e+05
4.306700000000000000e+04 -1.426020000000000000e+05
3.628100000000000000e+04 -1.485690000000000000e+05
2.840500000000000000e+04 -1.528660000000000000e+05
2.199400000000000000e+04 -1.583900000000000000e+05
1.312900000000000000e+04 -1.633680000000000000e+05
2.830000000000000000e+03 -1.651760000000000000e+05
-6.172000000000000000e+03 -1.696760000000000000e+05
-1.537800000000000000e+04 -1.726090000000000000e+05
-2.622100000000000000e+04 -1.725750000000000000e+05
-3.812200000000000000e+04 -1.737350000000000000e+05
-5.094300000000000000e+04 -1.744510000000000000e+05
-6.062800000000000000e+04 -1.734950000000000000e+05
-7.232300000000000000e+04 -1.718590000000000000e+05
-8.558800000000000000e+04 -1.674940000000000000e+05
-9.653400000000000000e+04 -1.619360000000000000e+05
-1.064570000000000000e+05 -1.578780000000000000e+05
-1.187330000000000000e+05 -1.523550000000000000e+05
-1.279050000000000000e+05 -1.440340000000000000e+05
-1.399080000000000000e+05 -1.357820000000000000e+05
-1.457040000000000000e+05 -1.267460000000000000e+05
-1.550480000000000000e+05 -1.188010000000000000e+05
-1.621070000000000000e+05 -1.065600000000000000e+05
-1.688920000000000000e+05 -9.411300000000000000e+04
-1.733260000000000000e+05 -8.490700000000000000e+04
-1.775540000000000000e+05 -7.177800000000000000e+04
-1.821230000000000000e+05 -5.902500000000000000e+04
-1.866240000000000000e+05 -4.845400000000000000e+04
-1.866920000000000000e+05 -3.641700000000000000e+04
-1.883970000000000000e+05 -2.349400000000000000e+04
-1.881920000000000000e+05 -1.193400000000000000e+04
-1.884310000000000000e+05 7.500000000000000000e+02
-1.861800000000000000e+05 1.271900000000000000e+04
-1.860780000000000000e+05 2.496100000000000000e+04
-1.817470000000000000e+05 3.491800000000000000e+04
-1.802470000000000000e+05 4.801200000000000000e+04
-1.755420000000000000e+05 5.984400000000000000e+04
-1.705630000000000000e+05 6.942600000000000000e+04
-1.656870000000000000e+05 8.030400000000000000e+04
-1.586280000000000000e+05 8.985100000000000000e+04
-1.520140000000000000e+05 1.002170000000000000e+05
-1.462160000000000000e+05 1.106850000000000000e+05
-1.388170000000000000e+05 1.192110000000000000e+05
-1.309060000000000000e+05 1.289630000000000000e+05
-1.204370000000000000e+05 1.353060000000000000e+05
-1.118780000000000000e+05 1.406240000000000000e+05
-1.005240000000000000e+05 1.484670000000000000e+05
-9.315900000000000000e+04 1.544000000000000000e+05
-8.214400000000000000e+04 1.580150000000000000e+05
-7.092600000000000000e+04 1.623790000000000000e+05
-6.001400000000000000e+04 1.643570000000000000e+05
-4.797700000000000000e+04 1.663010000000000000e+05
-3.761100000000000000e+04 1.681420000000000000e+05
-2.823300000000000000e+04 1.672220000000000000e+05
-1.776600000000000000e+04 1.640500000000000000e+05
-8.422000000000000000e+03 1.646650000000000000e+05
3.649000000000000000e+03 1.620730000000000000e+05
9.650000000000000000e+03 1.599240000000000000e+05
2.063000000000000000e+04 1.563450000000000000e+05
2.659800000000000000e+04 1.534460000000000000e+05
3.580400000000000000e+04 1.500360000000000000e+05
4.088500000000000000e+04 1.460810000000000000e+05
4.777300000000000000e+04 1.411020000000000000e+05
5.282000000000000000e+04 1.372830000000000000e+05
5.790100000000000000e+04 1.328840000000000000e+05
6.321900000000000000e+04 1.296450000000000000e+05
6.765200000000000000e+04 1.259620000000000000e+05
7.113100000000000000e+04 1.226890000000000000e+05
7.634800000000000000e+04 1.177440000000000000e+05
8.033800000000000000e+04 1.133440000000000000e+05
8.477100000000000000e+04 1.109580000000000000e+05
8.862400000000000000e+04 1.065590000000000000e+05
9.373900000000000000e+04 1.010350000000000000e+05
9.987700000000000000e+04 9.881900000000000000e+04
1.015810000000000000e+05 9.643200000000000000e+04
1.051950000000000000e+05 8.954400000000000000e+04
1.103100000000000000e+05 8.828200000000000000e+04
1.114360000000000000e+05 8.398600000000000000e+04
1.168580000000000000e+05 7.853000000000000000e+04
1.208460000000000000e+05 7.477900000000000000e+04
1.232680000000000000e+05 7.014200000000000000e+04
1.269850000000000000e+05 6.588000000000000000e+04
1.299850000000000000e+05 5.926500000000000000e+04
1.361240000000000000e+05 5.237700000000000000e+04
1.378630000000000000e+05 4.876200000000000000e+04
1.407950000000000000e+05 4.078200000000000000e+04
1.427050000000000000e+05 3.542900000000000000e+04
1.438640000000000000e+05 2.687100000000000000e+04
1.470350000000000000e+05 2.199400000000000000e+04
1.486030000000000000e+05 1.445900000000000000e+04
1.500360000000000000e+05 5.968000000000000000e+03
1.511610000000000000e+05 -2.728000000000000000e+03
1.542300000000000000e+05 -9.684000000000000000e+03
1.533430000000000000e+05 -1.926600000000000000e+04
1.497970000000000000e+05 -2.533500000000000000e+04
1.497290000000000000e+05 -3.699800000000000000e+04
1.483990000000000000e+05 -4.395400000000000000e+04
1.458760000000000000e+05 -5.524000000000000000e+04
1.421240000000000000e+05 -6.482300000000000000e+04
1.370440000000000000e+05 -7.276700000000000000e+04
1.332250000000000000e+05 -8.354200000000000000e+04
1.263030000000000000e+05 -9.264700000000000000e+04
1.195510000000000000e+05 -9.939900000000000000e+04
1.146410000000000000e+05 -1.028420000000000000e+05
1.120160000000000000e+05 -1.071050000000000000e+05
1.013420000000000000e+05 -1.210180000000000000e+05
8.930500000000000000e+04 -1.276660000000000000e+05
7.962100000000000000e+04 -1.296100000000000000e+05
7.123200000000000000e+04 -1.338050000000000000e+05
6.141200000000000000e+04 -1.366690000000000000e+05
4.992100000000000000e+04 -1.368050000000000000e+05
4.119200000000000000e+04 -1.384420000000000000e+05
3.348600000000000000e+04 -1.393630000000000000e+05
2.387000000000000000e+04 -1.393620000000000000e+05
1.473100000000000000e+04 -1.374190000000000000e+05
7.161000000000000000e+03 -1.353730000000000000e+05
4.440000000000000000e+02 -1.323380000000000000e+05
-6.171000000000000000e+03 -1.303600000000000000e+05
-1.060500000000000000e+04 -1.282120000000000000e+05
-1.711800000000000000e+04 -1.265070000000000000e+05
-2.260700000000000000e+04 -1.219720000000000000e+05
-2.584700000000000000e+04 -1.210510000000000000e+05
-3.205300000000000000e+04 -1.184930000000000000e+05
-3.655400000000000000e+04 -1.173690000000000000e+05
-3.924800000000000000e+04 -1.149820000000000000e+05
-4.228200000000000000e+04 -1.140600000000000000e+05
-4.787400000000000000e+04 -1.119130000000000000e+05
-5.121600000000000000e+04 -1.111290000000000000e+05
-5.524100000000000000e+04 -1.100720000000000000e+05
-5.929800000000000000e+04 -1.097650000000000000e+05
-6.212800000000000000e+04 -1.081960000000000000e+05
-6.765200000000000000e+04 -1.085720000000000000e+05
-7.293800000000000000e+04 -1.078890000000000000e+05
-7.692700000000000000e+04 -1.071730000000000000e+05
-8.149600000000000000e+04 -1.058090000000000000e+05
-8.504300000000000000e+04 -1.045820000000000000e+05
-9.220400000000000000e+04 -1.033200000000000000e+05
-9.823900000000000000e+04 -1.030810000000000000e+05
-1.036950000000000000e+05 -1.011040000000000000e+05
-1.109240000000000000e+05 -1.000810000000000000e+05
-1.171640000000000000e+05 -9.595400000000000000e+04
-1.225180000000000000e+05 -9.315900000000000000e+04
-1.294740000000000000e+05 -8.910100000000000000e+04
-1.383400000000000000e+05 -8.470200000000000000e+04
-1.448870000000000000e+05 -7.921200000000000000e+04
-1.496940000000000000e+05 -7.229000000000000000e+04
-1.559340000000000000e+05 -6.553800000000000000e+04
-1.630620000000000000e+05 -5.640000000000000000e+04
-1.685850000000000000e+05 -4.709000000000000000e+04
-1.734270000000000000e+05 -3.604200000000000000e+04
-1.774510000000000000e+05 -2.683500000000000000e+04
-1.795650000000000000e+05 -1.261700000000000000e+04
-1.833170000000000000e+05 -9.210000000000000000e+02
-1.826670000000000000e+05 1.159300000000000000e+04
-1.812700000000000000e+05 2.564200000000000000e+04
-1.805200000000000000e+05 3.894100000000000000e+04
-1.752680000000000000e+05 5.384200000000000000e+04
-1.694030000000000000e+05 6.751600000000000000e+04
-1.638110000000000000e+05 8.088300000000000000e+04
-1.572990000000000000e+05 9.363600000000000000e+04
-1.493190000000000000e+05 1.044110000000000000e+05
-1.391230000000000000e+05 1.171650000000000000e+05
-1.302590000000000000e+05 1.281790000000000000e+05
-1.209490000000000000e+05 1.361230000000000000e+05
-1.085710000000000000e+05 1.444780000000000000e+05
-9.762500000000000000e+04 1.509900000000000000e+05
-8.565700000000000000e+04 1.567870000000000000e+05
-7.542700000000000000e+04 1.615270000000000000e+05
-6.379900000000000000e+04 1.671880000000000000e+05
-5.200100000000000000e+04 1.686190000000000000e+05
-4.163500000000000000e+04 1.713140000000000000e+05
-2.884700000000000000e+04 1.711430000000000000e+05
-1.841300000000000000e+04 1.712800000000000000e+05
-7.706000000000000000e+03 1.713140000000000000e+05
2.114000000000000000e+03 1.694380000000000000e+05
1.111600000000000000e+04 1.702900000000000000e+05
2.144800000000000000e+04 1.674950000000000000e+05
3.092800000000000000e+04 1.649720000000000000e+05
4.391900000000000000e+04 1.643580000000000000e+05
4.828400000000000000e+04 1.600260000000000000e+05
6.039000000000000000e+04 1.558320000000000000e+05
6.666400000000000000e+04 1.556280000000000000e+05
7.587000000000000000e+04 1.508880000000000000e+05
8.398600000000000000e+04 1.457730000000000000e+05
9.148800000000000000e+04 1.450230000000000000e+05
9.936400000000000000e+04 1.385450000000000000e+05
1.087420000000000000e+05 1.329520000000000000e+05
1.138560000000000000e+05 1.257230000000000000e+05
1.210850000000000000e+05 1.209490000000000000e+05
1.287580000000000000e+05 1.137200000000000000e+05
1.324060000000000000e+05 1.081280000000000000e+05
1.412720000000000000e+05 1.020240000000000000e+05
1.455690000000000000e+05 9.332900000000000000e+04
1.496950000000000000e+05 8.640700000000000000e+04
1.531380000000000000e+05 7.662000000000000000e+04
1.574010000000000000e+05 6.639000000000000000e+04
1.610160000000000000e+05 5.912800000000000000e+04
1.638800000000000000e+05 4.790900000000000000e+04
1.632330000000000000e+05 3.812300000000000000e+04
1.648010000000000000e+05 2.912100000000000000e+04
1.647670000000000000e+05 1.827700000000000000e+04
1.643580000000000000e+05 6.138000000000000000e+03
1.640850000000000000e+05 -3.035000000000000000e+03
1.604700000000000000e+05 -1.012700000000000000e+04
1.583220000000000000e+05 -2.080100000000000000e+04
1.543320000000000000e+05 -3.028000000000000000e+04
1.514680000000000000e+05 -4.040700000000000000e+04
1.450920000000000000e+05 -4.814800000000000000e+04
1.386800000000000000e+05 -5.602400000000000000e+04
1.347930000000000000e+05 -6.465100000000000000e+04
1.293370000000000000e+05 -7.314300000000000000e+04
1.249730000000000000e+05 -8.136000000000000000e+04
1.159710000000000000e+05 -8.644100000000000000e+04
1.117080000000000000e+05 -9.411300000000000000e+04
1.039000000000000000e+05 -1.008310000000000000e+05
9.697800000000000000e+04 -1.070720000000000000e+05
9.002200000000000000e+04 -1.152200000000000000e+05
8.057600000000000000e+04 -1.179820000000000000e+05
7.222200000000000000e+04 -1.249390000000000000e+05
6.512900000000000000e+04 -1.279730000000000000e+05
5.578700000000000000e+04 -1.329180000000000000e+05
4.889800000000000000e+04 -1.377940000000000000e+05
3.969200000000000000e+04 -1.391580000000000000e+05
3.072300000000000000e+04 -1.446140000000000000e+05
2.069800000000000000e+04 -1.464890000000000000e+05
1.265100000000000000e+04 -1.482960000000000000e+05
2.490000000000000000e+03 -1.508880000000000000e+05
-5.115000000000000000e+03 -1.520130000000000000e+05
-1.619700000000000000e+04 -1.539910000000000000e+05
-2.537000000000000000e+04 -1.515020000000000000e+05
-3.358800000000000000e+04 -1.498310000000000000e+05
-4.446500000000000000e+04 -1.483990000000000000e+05
-5.428600000000000000e+04 -1.473420000000000000e+05
-6.240100000000000000e+04 -1.436250000000000000e+05
-7.079000000000000000e+04 -1.387490000000000000e+05
-8.003000000000000000e+04 -1.349640000000000000e+05
-9.022600000000000000e+04 -1.288600000000000000e+05
-9.864900000000000000e+04 -1.213930000000000000e+05
-1.062530000000000000e+05 -1.129020000000000000e+05
-1.120500000000000000e+05 -1.055710000000000000e+05
-1.195510000000000000e+05 -9.697800000000000000e+04
-1.227900000000000000e+05 -8.726000000000000000e+04
-1.290300000000000000e+05 -7.791600000000000000e+04
-1.325430000000000000e+05 -6.874400000000000000e+04
-1.347250000000000000e+05 -5.892300000000000000e+04
-1.351340000000000000e+05 -5.090900000000000000e+04
-1.346570000000000000e+05 -4.027100000000000000e+04
-1.340780000000000000e+05 -3.068900000000000000e+04
-1.349640000000000000e+05 -2.195900000000000000e+04
-1.308380000000000000e+05 -1.554900000000000000e+04
-1.308040000000000000e+05 -1.002500000000000000e+04
-1.280080000000000000e+05 -4.057000000000000000e+03
-1.266430000000000000e+05 2.217000000000000000e+03
-1.234390000000000000e+05 7.741000000000000000e+03
-1.192780000000000000e+05 1.220800000000000000e+04
-1.164480000000000000e+05 1.718600000000000000e+04
-1.130030000000000000e+05 2.127800000000000000e+04
-1.097640000000000000e+05 2.554000000000000000e+04
-1.061160000000000000e+05 3.051900000000000000e+04
-1.049910000000000000e+05 3.573500000000000000e+04
-1.003190000000000000e+05 3.645200000000000000e+04
-9.864800000000000000e+04 4.054400000000000000e+04
-9.322600000000000000e+04 4.528400000000000000e+04
-9.292000000000000000e+04 4.917100000000000000e+04
-9.049900000000000000e+04 5.275100000000000000e+04
-8.947600000000000000e+04 5.551300000000000000e+04
-8.316700000000000000e+04 5.991200000000000000e+04
-8.211000000000000000e+04 6.605100000000000000e+04
-7.870000000000000000e+04 6.877800000000000000e+04
-7.617700000000000000e+04 7.426700000000000000e+04
-7.191500000000000000e+04 8.088400000000000000e+04
-6.816400000000000000e+04 8.419100000000000000e+04
-6.622000000000000000e+04 8.766900000000000000e+04
-6.325300000000000000e+04 9.465900000000000000e+04
-5.854800000000000000e+04 9.980900000000000000e+04
-5.493300000000000000e+04 1.042750000000000000e+05
-4.821600000000000000e+04 1.098330000000000000e+05
-4.221400000000000000e+04 1.159710000000000000e+05
-3.563300000000000000e+04 1.218020000000000000e+05
-3.031300000000000000e+04 1.269160000000000000e+05
-2.458500000000000000e+04 1.321340000000000000e+05
-1.589000000000000000e+04 1.358500000000000000e+05
-7.842000000000000000e+03 1.401470000000000000e+05
3.512000000000000000e+03 1.427390000000000000e+05
1.091200000000000000e+04 1.461830000000000000e+05
2.052800000000000000e+04 1.522180000000000000e+05
3.174500000000000000e+04 1.528320000000000000e+05
4.432900000000000000e+04 1.553220000000000000e+05
5.646800000000000000e+04 1.538550000000000000e+05
6.577700000000000000e+04 1.526960000000000000e+05
7.917800000000000000e+04 1.529000000000000000e+05
9.094200000000000000e+04 1.474790000000000000e+05
1.009330000000000000e+05 1.414090000000000000e+05
1.113670000000000000e+05 1.340440000000000000e+05
1.225860000000000000e+05 1.277350000000000000e+05
1.308040000000000000e+05 1.163120000000000000e+05
1.385100000000000000e+05 1.078550000000000000e+05
1.456030000000000000e+05 9.554500000000000000e+04
1.502750000000000000e+05 8.463400000000000000e+04
1.540260000000000000e+05 7.235800000000000000e+04
1.572980000000000000e+05 6.045700000000000000e+04
1.578100000000000000e+05 4.866000000000000000e+04
1.578450000000000000e+05 3.549700000000000000e+04
1.579120000000000000e+05 2.577900000000000000e+04
1.546390000000000000e+05 1.360500000000000000e+04
1.530360000000000000e+05 5.627000000000000000e+03
1.492520000000000000e+05 -3.512000000000000000e+03
1.462850000000000000e+05 -9.855000000000000000e+03
1.422950000000000000e+05 -1.943600000000000000e+04
1.379310000000000000e+05 -2.745000000000000000e+04
1.325440000000000000e+05 -3.335000000000000000e+04
1.296440000000000000e+05 -4.003200000000000000e+04
1.243930000000000000e+05 -4.524900000000000000e+04
1.215630000000000000e+05 -5.162600000000000000e+04
1.155270000000000000e+05 -5.530900000000000000e+04
1.104470000000000000e+05 -6.004900000000000000e+04
1.074800000000000000e+05 -6.325400000000000000e+04
1.030470000000000000e+05 -6.952800000000000000e+04
9.827400000000000000e+04 -7.201600000000000000e+04
9.390900000000000000e+04 -7.679100000000000000e+04
8.899800000000000000e+04 -8.122400000000000000e+04
8.514500000000000000e+04 -8.402000000000000000e+04
8.142900000000000000e+04 -8.800900000000000000e+04
7.518800000000000000e+04 -9.428300000000000000e+04
7.126700000000000000e+04 -9.759200000000000000e+04
6.608400000000000000e+04 -1.029450000000000000e+05
6.093500000000000000e+04 -1.068320000000000000e+05
5.738800000000000000e+04 -1.117770000000000000e+05
5.016000000000000000e+04 -1.148790000000000000e+05
4.279500000000000000e+04 -1.178800000000000000e+05
3.669000000000000000e+04 -1.228920000000000000e+05
3.126900000000000000e+04 -1.266090000000000000e+05
2.100500000000000000e+04 -1.277680000000000000e+05
1.664100000000000000e+04 -1.314860000000000000e+05
7.059000000000000000e+03 -1.340770000000000000e+05
-3.171000000000000000e+03 -1.370780000000000000e+05
-1.026300000000000000e+04 -1.375560000000000000e+05
-1.780000000000000000e+04 -1.403510000000000000e+05
-2.905200000000000000e+04 -1.352370000000000000e+05
-3.573600000000000000e+04 -1.351350000000000000e+05
-4.412400000000000000e+04 -1.343850000000000000e+05
-5.224000000000000000e+04 -1.331570000000000000e+05
-5.738800000000000000e+04 -1.319630000000000000e+05
-6.724300000000000000e+04 -1.271210000000000000e+05
-7.365400000000000000e+04 -1.190740000000000000e+05
-7.999600000000000000e+04 -1.175390000000000000e+05
-8.596300000000000000e+04 -1.103790000000000000e+05
-9.049900000000000000e+04 -1.043770000000000000e+05
-9.653400000000000000e+04 -1.006610000000000000e+05
-9.875100000000000000e+04 -9.459100000000000000e+04
-1.027410000000000000e+05 -8.644000000000000000e+04
-1.059460000000000000e+05 -7.999600000000000000e+04
-1.083320000000000000e+05 -7.494900000000000000e+04
-1.102760000000000000e+05 -6.738000000000000000e+04
-1.127310000000000000e+05 -6.011700000000000000e+04
-1.151860000000000000e+05 -5.224000000000000000e+04
-1.167540000000000000e+05 -4.630600000000000000e+04
-1.158340000000000000e+05 -3.839500000000000000e+04
-1.160730000000000000e+05 -3.450800000000000000e+04
-1.163460000000000000e+05 -2.608600000000000000e+04
-1.167210000000000000e+05 -2.011800000000000000e+04
-1.183230000000000000e+05 -1.156000000000000000e+04
-1.142310000000000000e+05 -7.195000000000000000e+03
-1.155270000000000000e+05 1.370000000000000000e+02
-1.139590000000000000e+05 4.978000000000000000e+03
-1.140270000000000000e+05 1.186700000000000000e+04
-1.110610000000000000e+05 1.749300000000000000e+04
-1.112650000000000000e+05 2.148200000000000000e+04
-1.096630000000000000e+05 2.966600000000000000e+04
-1.051620000000000000e+05 3.580400000000000000e+04
-1.029110000000000000e+05 3.883800000000000000e+04
-1.004900000000000000e+05 4.299900000000000000e+04
-9.626200000000000000e+04 4.971600000000000000e+04
-9.274900000000000000e+04 5.558100000000000000e+04
-8.794100000000000000e+04 5.933200000000000000e+04
-8.719100000000000000e+04 6.386800000000000000e+04
-7.928000000000000000e+04 6.993700000000000000e+04
-7.552900000000000000e+04 7.249400000000000000e+04
-7.372200000000000000e+04 7.723400000000000000e+04
-6.662900000000000000e+04 7.890500000000000000e+04
-6.134400000000000000e+04 8.044000000000000000e+04
-5.622900000000000000e+04 8.381500000000000000e+04
-5.087600000000000000e+04 8.357600000000000000e+04
-4.579400000000000000e+04 8.838500000000000000e+04
-3.901000000000000000e+04 8.777100000000000000e+04
-3.399700000000000000e+04 8.708900000000000000e+04
-2.942700000000000000e+04 8.841800000000000000e+04
-2.213000000000000000e+04 8.974900000000000000e+04
-1.998200000000000000e+04 8.985100000000000000e+04
-1.404800000000000000e+04 9.087400000000000000e+04
-1.005800000000000000e+04 9.046500000000000000e+04
-6.547000000000000000e+03 8.991900000000000000e+04
-2.217000000000000000e+03 9.087400000000000000e+04
1.432000000000000000e+03 8.876000000000000000e+04
6.854000000000000000e+03 8.872600000000000000e+04
8.184000000000000000e+03 8.899800000000000000e+04
1.261700000000000000e+04 8.937300000000000000e+04
1.565200000000000000e+04 8.865800000000000000e+04
1.960700000000000000e+04 8.688500000000000000e+04
2.339200000000000000e+04 8.708900000000000000e+04
2.673400000000000000e+04 8.702100000000000000e+04
2.919000000000000000e+04 8.620200000000000000e+04
2.376800000000000000e+04 7.812200000000000000e+04
3.512200000000000000e+04 8.494100000000000000e+04
3.945200000000000000e+04 8.224700000000000000e+04
4.047600000000000000e+04 8.207600000000000000e+04
4.507900000000000000e+04 8.173600000000000000e+04
4.675000000000000000e+04 8.030400000000000000e+04
5.121700000000000000e+04 7.870100000000000000e+04
5.640000000000000000e+04 7.638200000000000000e+04
5.790100000000000000e+04 7.648500000000000000e+04
6.086700000000000000e+04 7.583600000000000000e+04
6.519700000000000000e+04 7.184600000000000000e+04
6.959600000000000000e+04 6.980100000000000000e+04
7.055100000000000000e+04 6.785700000000000000e+04
7.658600000000000000e+04 6.642500000000000000e+04
7.713200000000000000e+04 6.229900000000000000e+04
8.258900000000000000e+04 5.916200000000000000e+04
8.770200000000000000e+04 5.752600000000000000e+04
8.899900000000000000e+04 5.234200000000000000e+04
9.517100000000000000e+04 4.855800000000000000e+04
9.759200000000000000e+04 4.351100000000000000e+04
1.007290000000000000e+05 3.638300000000000000e+04
1.044460000000000000e+05 3.515600000000000000e+04
1.066620000000000000e+05 2.809800000000000000e+04
1.109240000000000000e+05 1.878900000000000000e+04
1.099700000000000000e+05 1.323000000000000000e+04
1.125950000000000000e+05 5.831000000000000000e+03
1.132090000000000000e+05 -1.637000000000000000e+03
1.129690000000000000e+05 -8.354000000000000000e+03
1.111630000000000000e+05 -1.711700000000000000e+04
1.078220000000000000e+05 -2.311900000000000000e+04
1.069340000000000000e+05 -3.427000000000000000e+04
1.038310000000000000e+05 -3.785000000000000000e+04
9.575000000000000000e+04 -4.545400000000000000e+04
9.339800000000000000e+04 -4.981900000000000000e+04
8.749800000000000000e+04 -5.357000000000000000e+04
8.091700000000000000e+04 -6.018400000000000000e+04
7.614300000000000000e+04 -6.335600000000000000e+04
6.939200000000000000e+04 -6.574300000000000000e+04
6.478900000000000000e+04 -6.499200000000000000e+04
5.813900000000000000e+04 -6.782400000000000000e+04
5.254600000000000000e+04 -6.710700000000000000e+04
4.842100000000000000e+04 -6.870900000000000000e+04
4.507900000000000000e+04 -6.707300000000000000e+04
3.843000000000000000e+04 -6.765200000000000000e+04
3.583800000000000000e+04 -6.833500000000000000e+04
3.324700000000000000e+04 -6.424200000000000000e+04
2.772300000000000000e+04 -6.523200000000000000e+04
2.363100000000000000e+04 -6.308300000000000000e+04
2.056200000000000000e+04 -6.287800000000000000e+04
1.909600000000000000e+04 -6.352600000000000000e+04
1.708400000000000000e+04 -6.216200000000000000e+04
1.377600000000000000e+04 -6.148000000000000000e+04
1.091100000000000000e+04 -6.257100000000000000e+04
1.070700000000000000e+04 -6.154900000000000000e+04
5.865000000000000000e+03 -6.052600000000000000e+04
5.559000000000000000e+03 -6.158300000000000000e+04
4.263000000000000000e+03 -6.035500000000000000e+04
2.182000000000000000e+03 -6.117300000000000000e+04
6.800000000000000000e+01 -6.073100000000000000e+04
-2.932000000000000000e+03 -6.097000000000000000e+04
-3.206000000000000000e+03 -6.028700000000000000e+04
-5.864000000000000000e+03 -6.260500000000000000e+04
-7.126000000000000000e+03 -6.212900000000000000e+04
-1.203700000000000000e+04 -6.076400000000000000e+04
-1.193500000000000000e+04 -6.103700000000000000e+04
-1.323000000000000000e+04 -6.410600000000000000e+04
-1.728800000000000000e+04 -6.311800000000000000e+04
-2.076700000000000000e+04 -6.137900000000000000e+04
-2.230000000000000000e+04 -6.216200000000000000e+04
-2.479000000000000000e+04 -6.185600000000000000e+04
-2.700600000000000000e+04 -5.803700000000000000e+04
-2.942800000000000000e+04 -5.957100000000000000e+04
-3.218900000000000000e+04 -5.752500000000000000e+04
-3.542900000000000000e+04 -5.438800000000000000e+04
-3.672400000000000000e+04 -5.220500000000000000e+04
-3.870200000000000000e+04 4.882900000000000000e+04
6.547000000000000000e+03 -5.455000000000000000e+03
5.456000000000000000e+03 -6.240000000000000000e+03
7.468000000000000000e+03 -4.705000000000000000e+03
5.661000000000000000e+03 -5.865000000000000000e+03
4.944000000000000000e+03 -7.605000000000000000e+03
7.706000000000000000e+03 -7.365000000000000000e+03
6.377000000000000000e+03 -9.036000000000000000e+03
8.285000000000000000e+03 -9.377000000000000000e+03
8.116000000000000000e+03 -1.186600000000000000e+04
1.053600000000000000e+04 -9.718000000000000000e+03
9.992000000000000000e+03 -1.053600000000000000e+04
1.036600000000000000e+04 -7.673000000000000000e+03
7.229000000000000000e+03 -7.535000000000000000e+03
7.502000000000000000e+03 -6.275000000000000000e+03
5.320000000000000000e+03 -6.649000000000000000e+03
1.943000000000000000e+03 -5.762000000000000000e+03
1.363000000000000000e+03 -5.933000000000000000e+03
-6.820000000000000000e+02 -8.764000000000000000e+03
-2.148000000000000000e+03 -9.241000000000000000e+03
-3.989000000000000000e+03 -1.108300000000000000e+04
-5.114000000000000000e+03 -1.401500000000000000e+04
-5.660000000000000000e+03 -1.196900000000000000e+04
-4.399000000000000000e+03 -1.302500000000000000e+04
-5.899000000000000000e+03 -1.353700000000000000e+04
-5.899000000000000000e+03 -1.326500000000000000e+04
-7.263000000000000000e+03 -1.173000000000000000e+04
-9.411000000000000000e+03 -1.398100000000000000e+04
-4.535000000000000000e+03 -1.169600000000000000e+04
-6.308000000000000000e+03 -1.363900000000000000e+04
-8.251000000000000000e+03 -1.077500000000000000e+04
-8.934000000000000000e+03 -1.029800000000000000e+04
-6.103000000000000000e+03 -1.125300000000000000e+04
-5.558000000000000000e+03 -9.343000000000000000e+03
-6.854000000000000000e+03 -6.241000000000000000e+03
-1.108200000000000000e+04 -6.308000000000000000e+03
-1.527700000000000000e+04 -4.433000000000000000e+03
-1.507200000000000000e+04 -8.456000000000000000e+03
-1.640100000000000000e+04 -7.468000000000000000e+03
-1.619700000000000000e+04 -5.490000000000000000e+03
-1.599300000000000000e+04 -4.160000000000000000e+03
-1.878900000000000000e+04 -1.569000000000000000e+03
-1.998200000000000000e+04 -2.011000000000000000e+03
-2.155000000000000000e+04 -4.740000000000000000e+03
-2.325600000000000000e+04 -2.182000000000000000e+03
-2.144800000000000000e+04 -1.568000000000000000e+03
-2.223300000000000000e+04 8.520000000000000000e+02
-2.264200000000000000e+04 6.800000000000000000e+01
-2.322200000000000000e+04 2.592000000000000000e+03
-1.974300000000000000e+04 2.353000000000000000e+03
-2.097100000000000000e+04 4.126000000000000000e+03
-2.046000000000000000e+04 5.251000000000000000e+03
-1.957200000000000000e+04 4.194000000000000000e+03
-1.766300000000000000e+04 7.672000000000000000e+03
-1.650400000000000000e+04 8.559000000000000000e+03
-1.742500000000000000e+04 7.843000000000000000e+03
-1.653800000000000000e+04 1.149100000000000000e+04
-1.517500000000000000e+04 1.084300000000000000e+04
-1.531100000000000000e+04 1.057100000000000000e+04
-1.415200000000000000e+04 1.398100000000000000e+04
-1.534500000000000000e+04 1.367400000000000000e+04
-1.329900000000000000e+04 1.364000000000000000e+04
-1.169700000000000000e+04 1.616300000000000000e+04
-1.016200000000000000e+04 1.776500000000000000e+04
-1.408300000000000000e+04 1.749200000000000000e+04
-1.142400000000000000e+04 1.800400000000000000e+04
-1.207100000000000000e+04 1.970900000000000000e+04
-1.023000000000000000e+04 2.172100000000000000e+04
-1.156000000000000000e+04 2.131100000000000000e+04
-9.684000000000000000e+03 2.161900000000000000e+04
-8.627000000000000000e+03 2.226700000000000000e+04
-5.627000000000000000e+03 2.322100000000000000e+04
-4.092000000000000000e+03 2.335800000000000000e+04
-1.944000000000000000e+03 2.305100000000000000e+04
-1.227000000000000000e+03 2.421000000000000000e+04
2.728000000000000000e+03 2.390300000000000000e+04
2.421000000000000000e+03 2.305100000000000000e+04
5.455000000000000000e+03 2.455200000000000000e+04
8.559000000000000000e+03 2.325600000000000000e+04
8.968000000000000000e+03 2.444900000000000000e+04
1.142300000000000000e+04 2.247200000000000000e+04
1.350300000000000000e+04 2.390400000000000000e+04
1.677700000000000000e+04 2.257300000000000000e+04
1.810700000000000000e+04 2.219900000000000000e+04
2.066300000000000000e+04 2.124300000000000000e+04
2.093700000000000000e+04 1.981100000000000000e+04
2.329000000000000000e+04 2.022000000000000000e+04
2.547200000000000000e+04 1.902800000000000000e+04
2.687100000000000000e+04 1.657200000000000000e+04
2.802900000000000000e+04 1.507300000000000000e+04
2.850700000000000000e+04 1.469700000000000000e+04
3.038200000000000000e+04 1.074200000000000000e+04
2.980300000000000000e+04 1.094600000000000000e+04
2.833600000000000000e+04 6.751000000000000000e+03
2.997300000000000000e+04 3.922000000000000000e+03
3.038200000000000000e+04 1.568000000000000000e+03
2.956400000000000000e+04 -2.830000000000000000e+03
2.990500000000000000e+04 -4.842000000000000000e+03
2.837100000000000000e+04 -5.489000000000000000e+03
2.758600000000000000e+04 -8.661000000000000000e+03
2.779000000000000000e+04 -8.525000000000000000e+03
2.574500000000000000e+04 -9.241000000000000000e+03
2.584700000000000000e+04 -1.118500000000000000e+04
2.352900000000000000e+04 -1.377600000000000000e+04
2.264200000000000000e+04 -1.227600000000000000e+04
2.114100000000000000e+04 -1.241200000000000000e+04
2.056100000000000000e+04 -1.275200000000000000e+04
1.998200000000000000e+04 -1.479900000000000000e+04
1.814100000000000000e+04 -1.213900000000000000e+04
1.953900000000000000e+04 -1.288900000000000000e+04
1.868600000000000000e+04 -1.275300000000000000e+04
1.817500000000000000e+04 -1.473100000000000000e+04
1.701500000000000000e+04 -1.401400000000000000e+04
1.769700000000000000e+04 -1.401400000000000000e+04
1.800400000000000000e+04 -1.411700000000000000e+04
2.015200000000000000e+04 -1.282100000000000000e+04
1.936700000000000000e+04 -1.343400000000000000e+04
2.567600000000000000e+04 -9.820000000000000000e+03
-3.140500000000000000e+04 -7.229000000000000000e+03
1.367300000000000000e+04 -2.567600000000000000e+04
1.456100000000000000e+04 -2.250500000000000000e+04
1.660600000000000000e+04 -2.049300000000000000e+04
1.527700000000000000e+04 -2.134600000000000000e+04
1.398000000000000000e+04 -2.247100000000000000e+04
1.439000000000000000e+04 -2.226700000000000000e+04
1.258200000000000000e+04 -2.646100000000000000e+04
1.108200000000000000e+04 -2.475600000000000000e+04
1.094500000000000000e+04 -2.554000000000000000e+04
9.957000000000000000e+03 -2.557400000000000000e+04
8.831000000000000000e+03 -2.690400000000000000e+04
5.251000000000000000e+03 -3.000700000000000000e+04
4.297000000000000000e+03 -2.980200000000000000e+04
3.035000000000000000e+03 -2.990500000000000000e+04
2.796000000000000000e+03 -3.191700000000000000e+04
-9.540000000000000000e+02 -3.297400000000000000e+04
-3.751000000000000000e+03 -3.348500000000000000e+04
-6.649000000000000000e+03 -3.375800000000000000e+04
-6.922000000000000000e+03 -3.457600000000000000e+04
-1.302500000000000000e+04 -3.495200000000000000e+04
-1.411700000000000000e+04 -3.553100000000000000e+04
-1.677700000000000000e+04 -3.648600000000000000e+04
-1.936800000000000000e+04 -3.617900000000000000e+04
-2.369900000000000000e+04 -3.457600000000000000e+04
-2.721100000000000000e+04 -3.345100000000000000e+04
-3.222400000000000000e+04 -3.297400000000000000e+04
-3.266700000000000000e+04 -2.993900000000000000e+04
-3.358800000000000000e+04 -2.895000000000000000e+04
-3.825900000000000000e+04 -2.663100000000000000e+04
-3.941900000000000000e+04 -2.506200000000000000e+04
-4.091900000000000000e+04 -2.270900000000000000e+04
-4.473800000000000000e+04 -2.189200000000000000e+04
-4.473700000000000000e+04 -2.083400000000000000e+04
-4.753400000000000000e+04 -1.803800000000000000e+04
-4.647700000000000000e+04 -1.306000000000000000e+04
-4.978400000000000000e+04 -1.251400000000000000e+04
-4.998900000000000000e+04 -9.786000000000000000e+03
-5.149000000000000000e+04 -1.019500000000000000e+04
-5.094400000000000000e+04 -6.411000000000000000e+03
-5.179700000000000000e+04 -5.524000000000000000e+03
-5.435300000000000000e+04 -2.115000000000000000e+03
-5.329600000000000000e+04 -5.790000000000000000e+02
-5.353500000000000000e+04 1.227000000000000000e+03
-5.657000000000000000e+04 5.900000000000000000e+03
-5.472900000000000000e+04 4.740000000000000000e+03
-5.779700000000000000e+04 9.718000000000000000e+03
-5.568400000000000000e+04 1.404900000000000000e+04
-5.807100000000000000e+04 1.657200000000000000e+04
-5.984300000000000000e+04 1.827700000000000000e+04
-5.865000000000000000e+04 2.301700000000000000e+04
-5.817300000000000000e+04 2.731300000000000000e+04
-5.940100000000000000e+04 2.956400000000000000e+04
-5.902500000000000000e+04 3.348500000000000000e+04
-5.643300000000000000e+04 4.088500000000000000e+04
-5.807100000000000000e+04 4.248700000000000000e+04
-5.360400000000000000e+04 4.927300000000000000e+04
-5.326300000000000000e+04 5.275100000000000000e+04
-4.886400000000000000e+04 5.670700000000000000e+04
-4.521600000000000000e+04 6.250400000000000000e+04
-4.166800000000000000e+04 6.468600000000000000e+04
-3.617900000000000000e+04 6.935800000000000000e+04
-3.246200000000000000e+04 7.188100000000000000e+04
-2.431200000000000000e+04 7.607500000000000000e+04
-1.803800000000000000e+04 7.825700000000000000e+04
-1.326500000000000000e+04 7.917800000000000000e+04
-4.876000000000000000e+03 7.979100000000000000e+04
4.090000000000000000e+02 8.108800000000000000e+04
8.389000000000000000e+03 8.211100000000000000e+04
1.558400000000000000e+04 8.142900000000000000e+04
2.301700000000000000e+04 8.183800000000000000e+04
2.997300000000000000e+04 7.982600000000000000e+04
3.699800000000000000e+04 7.730300000000000000e+04
4.149800000000000000e+04 7.406400000000000000e+04
4.814800000000000000e+04 7.208500000000000000e+04
5.213700000000000000e+04 6.680000000000000000e+04
5.933300000000000000e+04 6.512900000000000000e+04
6.202600000000000000e+04 5.994600000000000000e+04
6.731100000000000000e+04 5.582000000000000000e+04
7.276700000000000000e+04 4.951200000000000000e+04
7.634800000000000000e+04 4.504500000000000000e+04
7.730300000000000000e+04 4.006700000000000000e+04
8.057600000000000000e+04 3.560000000000000000e+04
8.361100000000000000e+04 3.092800000000000000e+04
8.521300000000000000e+04 2.584800000000000000e+04
8.490700000000000000e+04 2.025500000000000000e+04
8.753300000000000000e+04 1.548100000000000000e+04
8.736200000000000000e+04 1.162800000000000000e+04
8.722600000000000000e+04 5.456000000000000000e+03
8.732800000000000000e+04 7.840000000000000000e+02
8.606600000000000000e+04 -4.228000000000000000e+03
8.616800000000000000e+04 -8.320000000000000000e+03
8.596400000000000000e+04 -1.370800000000000000e+04
8.385000000000000000e+04 -1.803800000000000000e+04
8.156500000000000000e+04 -2.155000000000000000e+04
7.982600000000000000e+04 -2.632500000000000000e+04
7.672300000000000000e+04 -3.164400000000000000e+04
7.460900000000000000e+04 -3.420200000000000000e+04
7.297200000000000000e+04 -3.849700000000000000e+04
6.928900000000000000e+04 -4.460100000000000000e+04
6.380000000000000000e+04 -4.504500000000000000e+04
6.124200000000000000e+04 -5.056900000000000000e+04
5.854800000000000000e+04 -5.432000000000000000e+04
5.418400000000000000e+04 -5.786500000000000000e+04
4.722800000000000000e+04 -5.936600000000000000e+04
4.296500000000000000e+04 -6.294600000000000000e+04
3.621300000000000000e+04 -6.335600000000000000e+04
7.580200000000000000e+04 -1.875400000000000000e+04
7.341500000000000000e+04 -2.270900000000000000e+04
6.870900000000000000e+04 -2.543700000000000000e+04
6.649400000000000000e+04 -3.065500000000000000e+04
6.264000000000000000e+04 -3.454200000000000000e+04
6.035600000000000000e+04 -3.563300000000000000e+04
5.435400000000000000e+04 -3.788400000000000000e+04
5.254600000000000000e+04 -3.931600000000000000e+04
4.664800000000000000e+04 -4.255500000000000000e+04
4.429500000000000000e+04 -4.173800000000000000e+04
4.044200000000000000e+04 -4.344200000000000000e+04
3.655400000000000000e+04 -4.153200000000000000e+04
3.358800000000000000e+04 -4.371500000000000000e+04
3.171300000000000000e+04 -4.460200000000000000e+04
2.891700000000000000e+04 -4.494200000000000000e+04
2.649500000000000000e+04 -4.374900000000000000e+04
2.294900000000000000e+04 -4.456700000000000000e+04
2.107300000000000000e+04 -4.477100000000000000e+04
2.209600000000000000e+04 -4.460200000000000000e+04
1.875400000000000000e+04 -4.296500000000000000e+04
1.749300000000000000e+04 -4.409000000000000000e+04
1.722000000000000000e+04 -4.296500000000000000e+04
1.537800000000000000e+04 -4.463500000000000000e+04
1.466300000000000000e+04 -4.259000000000000000e+04
1.210500000000000000e+04 -4.337400000000000000e+04
1.132100000000000000e+04 -4.262400000000000000e+04
9.752000000000000000e+03 -4.279400000000000000e+04
9.003000000000000000e+03 -4.395400000000000000e+04
6.888000000000000000e+03 -4.501100000000000000e+04
6.036000000000000000e+03 -4.664700000000000000e+04
5.592000000000000000e+03 -4.467000000000000000e+04
4.092000000000000000e+03 -4.658000000000000000e+04
5.354000000000000000e+03 -4.569300000000000000e+04
7.510000000000000000e+02 -4.613700000000000000e+04
-4.090000000000000000e+02 -4.862500000000000000e+04
-3.750000000000000000e+02 -4.927300000000000000e+04
-3.614000000000000000e+03 -5.033100000000000000e+04
-4.569000000000000000e+03 -5.091000000000000000e+04
-7.570000000000000000e+03 -5.329700000000000000e+04
-1.193500000000000000e+04 -5.455900000000000000e+04
-1.367400000000000000e+04 -5.445600000000000000e+04
-1.514000000000000000e+04 -5.445700000000000000e+04
-2.005100000000000000e+04 -5.667300000000000000e+04
-2.216400000000000000e+04 -5.687700000000000000e+04
-2.779000000000000000e+04 -5.762800000000000000e+04
-3.147400000000000000e+04 -5.841200000000000000e+04
-3.529200000000000000e+04 -5.885500000000000000e+04
-4.071500000000000000e+04 -5.786600000000000000e+04
-4.586300000000000000e+04 -5.721800000000000000e+04
-5.002300000000000000e+04 -5.585400000000000000e+04
-5.500200000000000000e+04 -5.305800000000000000e+04
-5.991200000000000000e+04 -5.281900000000000000e+04
-6.513000000000000000e+04 -4.787600000000000000e+04
-7.471100000000000000e+04 -4.678400000000000000e+04
-7.771200000000000000e+04 -4.531800000000000000e+04
-8.091700000000000000e+04 -3.781500000000000000e+04
-8.593000000000000000e+04 -3.355400000000000000e+04
-8.841900000000000000e+04 -3.123500000000000000e+04
-9.424900000000000000e+04 -2.451700000000000000e+04
-9.667000000000000000e+04 -1.943700000000000000e+04
-9.905800000000000000e+04 -1.554900000000000000e+04
-1.008650000000000000e+05 -7.842000000000000000e+03
-1.006270000000000000e+05 -1.842000000000000000e+03
-1.039680000000000000e+05 2.694000000000000000e+03
-1.028770000000000000e+05 8.763000000000000000e+03
-1.020590000000000000e+05 1.251400000000000000e+04
-1.002510000000000000e+05 1.780000000000000000e+04
-1.024000000000000000e+05 2.339200000000000000e+04
-1.017860000000000000e+05 2.973500000000000000e+04
-9.844500000000000000e+04 3.236000000000000000e+04
-9.803500000000000000e+04 3.682700000000000000e+04
-9.636400000000000000e+04 4.490900000000000000e+04
-9.155600000000000000e+04 4.913700000000000000e+04
-9.234100000000000000e+04 5.258100000000000000e+04
-8.852100000000000000e+04 5.807100000000000000e+04
-8.538400000000000000e+04 6.281100000000000000e+04
