-6.342000000000000000e+03 -3.921000000000000000e+03
-4.262000000000000000e+03 -1.876000000000000000e+03
-5.114000000000000000e+03 -2.080000000000000000e+03
-5.967000000000000000e+03 -3.683000000000000000e+03
-4.671000000000000000e+03 -4.024000000000000000e+03
-8.933000000000000000e+03 -3.103000000000000000e+03
-7.365000000000000000e+03 -8.520000000000000000e+02
-8.252000000000000000e+03 -3.479000000000000000e+03
-8.456000000000000000e+03 -8.190000000000000000e+02
-8.218000000000000000e+03 -3.410000000000000000e+02
-9.479000000000000000e+03 -2.387000000000000000e+03
-8.831000000000000000e+03 -6.140000000000000000e+02
-1.159400000000000000e+04 5.110000000000000000e+02
-1.200200000000000000e+04 -5.110000000000000000e+02
-1.227600000000000000e+04 1.030000000000000000e+02
-1.329800000000000000e+04 1.091000000000000000e+03
-1.306000000000000000e+04 6.810000000000000000e+02
-1.401500000000000000e+04 3.955000000000000000e+03
-1.292300000000000000e+04 1.637000000000000000e+03
-1.408200000000000000e+04 2.012000000000000000e+03
-1.445800000000000000e+04 4.604000000000000000e+03
-1.500300000000000000e+04 4.330000000000000000e+03
-1.449200000000000000e+04 3.752000000000000000e+03
-1.285500000000000000e+04 7.911000000000000000e+03
-1.558300000000000000e+04 7.126000000000000000e+03
-1.640100000000000000e+04 7.263000000000000000e+03
-1.507100000000000000e+04 8.183000000000000000e+03
-1.265000000000000000e+04 1.104800000000000000e+04
-1.428700000000000000e+04 1.159400000000000000e+04
-1.350300000000000000e+04 1.295700000000000000e+04
-1.360600000000000000e+04 1.261600000000000000e+04
-1.138900000000000000e+04 1.299200000000000000e+04
-1.265000000000000000e+04 1.524200000000000000e+04
-1.159400000000000000e+04 1.527600000000000000e+04
-1.220700000000000000e+04 1.619700000000000000e+04
-9.991000000000000000e+03 1.667500000000000000e+04
-7.706000000000000000e+03 1.994800000000000000e+04
-8.457000000000000000e+03 1.940200000000000000e+04
-7.945000000000000000e+03 1.916400000000000000e+04
-7.229000000000000000e+03 1.776500000000000000e+04
-3.478000000000000000e+03 2.042600000000000000e+04
-3.342000000000000000e+03 2.093700000000000000e+04
-4.399000000000000000e+03 2.056200000000000000e+04
-1.261000000000000000e+03 2.127800000000000000e+04
1.091000000000000000e+03 2.124400000000000000e+04
2.421000000000000000e+03 2.209600000000000000e+04
2.898000000000000000e+03 2.161900000000000000e+04
3.069000000000000000e+03 2.069800000000000000e+04
2.932000000000000000e+03 1.960700000000000000e+04
7.127000000000000000e+03 1.936800000000000000e+04
8.968000000000000000e+03 1.718600000000000000e+04
9.207000000000000000e+03 1.984600000000000000e+04
1.115000000000000000e+04 1.923200000000000000e+04
1.121900000000000000e+04 1.687900000000000000e+04
1.449200000000000000e+04 1.650400000000000000e+04
1.408300000000000000e+04 1.561700000000000000e+04
1.411700000000000000e+04 1.650400000000000000e+04
1.548100000000000000e+04 1.309400000000000000e+04
1.534400000000000000e+04 1.203700000000000000e+04
1.677700000000000000e+04 1.070700000000000000e+04
1.575400000000000000e+04 1.009400000000000000e+04
1.599200000000000000e+04 8.081000000000000000e+03
1.684500000000000000e+04 6.342000000000000000e+03
1.943600000000000000e+04 7.945000000000000000e+03
1.677700000000000000e+04 3.956000000000000000e+03
1.797000000000000000e+04 5.319000000000000000e+03
1.742400000000000000e+04 1.501000000000000000e+03
1.820900000000000000e+04 2.720000000000000000e+02
1.752600000000000000e+04 1.774000000000000000e+03
1.664100000000000000e+04 -1.058000000000000000e+03
1.517400000000000000e+04 -1.501000000000000000e+03
1.432100000000000000e+04 -2.284000000000000000e+03
1.554900000000000000e+04 -4.296000000000000000e+03
1.323000000000000000e+04 -6.207000000000000000e+03
1.425300000000000000e+04 -5.626000000000000000e+03
1.271800000000000000e+04 -5.524000000000000000e+03
1.186600000000000000e+04 -8.695000000000000000e+03
1.387800000000000000e+04 -8.594000000000000000e+03
9.956000000000000000e+03 -1.077600000000000000e+04
1.039900000000000000e+04 -8.627000000000000000e+03
9.308000000000000000e+03 -9.445000000000000000e+03
8.422000000000000000e+03 -1.176400000000000000e+04
7.569000000000000000e+03 -1.159300000000000000e+04
7.092000000000000000e+03 -1.053700000000000000e+04
7.877000000000000000e+03 -1.026400000000000000e+04
5.114000000000000000e+03 -1.326400000000000000e+04
4.535000000000000000e+03 -1.203700000000000000e+04
3.477000000000000000e+03 -1.288900000000000000e+04
1.807000000000000000e+03 -1.145800000000000000e+04
2.114000000000000000e+03 -1.128700000000000000e+04
1.023000000000000000e+03 -1.118500000000000000e+04
1.296000000000000000e+03 -1.162800000000000000e+04
-6.820000000000000000e+02 -1.306000000000000000e+04
3.410000000000000000e+02 -1.057100000000000000e+04
-8.530000000000000000e+02 -9.480000000000000000e+03
-1.910000000000000000e+03 -9.411000000000000000e+03
5.110000000000000000e+02 -1.196900000000000000e+04
-9.890000000000000000e+02 -9.718000000000000000e+03
-2.455000000000000000e+03 -8.286000000000000000e+03
-1.773000000000000000e+03 -9.139000000000000000e+03
-3.070000000000000000e+02 -9.445000000000000000e+03
-3.478000000000000000e+03 -8.422000000000000000e+03
-1.160000000000000000e+03 -9.275000000000000000e+03
-4.090000000000000000e+02 -7.366000000000000000e+03
-2.216000000000000000e+03 -9.104000000000000000e+03
-2.046000000000000000e+03 -6.649000000000000000e+03
-2.625000000000000000e+03 -6.751000000000000000e+03
-2.626000000000000000e+03 -6.888000000000000000e+03
-2.114000000000000000e+03 -4.978000000000000000e+03
-1.159000000000000000e+03 -6.547000000000000000e+03
-1.774000000000000000e+03 -5.728000000000000000e+03
-8.530000000000000000e+02 -6.035000000000000000e+03
-1.773000000000000000e+03 -6.206000000000000000e+03
-1.705000000000000000e+03 -3.785000000000000000e+03
-4.090000000000000000e+02 -3.989000000000000000e+03
-1.978000000000000000e+03 -4.159000000000000000e+03
-1.125000000000000000e+03 -5.388000000000000000e+03
-2.183000000000000000e+03 -6.171000000000000000e+03
-5.460000000000000000e+02 -4.807000000000000000e+03
-3.001000000000000000e+03 -2.148000000000000000e+03
-1.807000000000000000e+03 -3.921000000000000000e+03
0.000000000000000000e+00 -3.239000000000000000e+03
-1.534000000000000000e+03 -3.648000000000000000e+03
-9.550000000000000000e+02 -4.569000000000000000e+03
-5.460000000000000000e+02 -4.296000000000000000e+03
-2.693000000000000000e+03 -4.671000000000000000e+03
-3.614000000000000000e+03 -6.820000000000000000e+03
-3.887000000000000000e+03 -4.672000000000000000e+03
-1.365000000000000000e+03 -3.171000000000000000e+03
-5.354000000000000000e+03 -3.410000000000000000e+03
-5.592000000000000000e+03 -2.966000000000000000e+03
-4.910000000000000000e+03 2.390000000000000000e+02
-5.353000000000000000e+03 -1.397000000000000000e+03
-6.955000000000000000e+03 -3.444000000000000000e+03
-6.853000000000000000e+03 -1.704000000000000000e+03
-6.854000000000000000e+03 -2.421000000000000000e+03
-8.287000000000000000e+03 -1.637000000000000000e+03
-8.730000000000000000e+03 -7.500000000000000000e+02
-5.900000000000000000e+03 2.046000000000000000e+03
-1.046800000000000000e+04 -3.070000000000000000e+02
-1.036700000000000000e+04 7.160000000000000000e+02
-1.040000000000000000e+04 3.410000000000000000e+02
-1.104800000000000000e+04 1.330000000000000000e+03
-1.196900000000000000e+04 3.445000000000000000e+03
-1.213900000000000000e+04 2.830000000000000000e+03
-1.118500000000000000e+04 4.058000000000000000e+03
-1.179800000000000000e+04 5.899000000000000000e+03
-1.166200000000000000e+04 3.853000000000000000e+03
-1.053700000000000000e+04 7.604000000000000000e+03
-1.285500000000000000e+04 5.286000000000000000e+03
-1.248100000000000000e+04 7.741000000000000000e+03
-1.217400000000000000e+04 8.729000000000000000e+03
-1.190000000000000000e+04 7.979000000000000000e+03
-1.237800000000000000e+04 1.067300000000000000e+04
-1.152600000000000000e+04 1.217300000000000000e+04
-1.111600000000000000e+04 1.183300000000000000e+04
-1.081000000000000000e+04 1.196800000000000000e+04
-9.105000000000000000e+03 1.176400000000000000e+04
-1.152500000000000000e+04 1.381000000000000000e+04
-7.775000000000000000e+03 1.418500000000000000e+04
-8.832000000000000000e+03 1.561800000000000000e+04
-6.990000000000000000e+03 1.469700000000000000e+04
-7.024000000000000000e+03 1.646900000000000000e+04
-6.240000000000000000e+03 1.619600000000000000e+04
-4.740000000000000000e+03 1.739100000000000000e+04
-2.353000000000000000e+03 1.800400000000000000e+04
-9.210000000000000000e+02 1.718600000000000000e+04
-1.466000000000000000e+03 1.722000000000000000e+04
8.180000000000000000e+02 1.653800000000000000e+04
1.705000000000000000e+03 1.677700000000000000e+04
1.840000000000000000e+03 1.568600000000000000e+04
5.183000000000000000e+03 1.783400000000000000e+04
5.592000000000000000e+03 1.844800000000000000e+04
6.206000000000000000e+03 1.745900000000000000e+04
8.252000000000000000e+03 1.285600000000000000e+04
8.559000000000000000e+03 1.520900000000000000e+04
9.240000000000000000e+03 1.561800000000000000e+04
9.889000000000000000e+03 1.640200000000000000e+04
1.125300000000000000e+04 1.377600000000000000e+04
1.377600000000000000e+04 1.316200000000000000e+04
1.319700000000000000e+04 1.370800000000000000e+04
1.319700000000000000e+04 1.265100000000000000e+04
1.408300000000000000e+04 1.104800000000000000e+04
1.381000000000000000e+04 9.071000000000000000e+03
1.459500000000000000e+04 8.832000000000000000e+03
1.814100000000000000e+04 7.160000000000000000e+03
1.548100000000000000e+04 7.569000000000000000e+03
1.555000000000000000e+04 4.500000000000000000e+03
1.619700000000000000e+04 4.705000000000000000e+03
1.548100000000000000e+04 4.058000000000000000e+03
1.660600000000000000e+04 3.546000000000000000e+03
1.732200000000000000e+04 1.194000000000000000e+03
1.609400000000000000e+04 1.058000000000000000e+03
1.636800000000000000e+04 -1.841000000000000000e+03
1.445800000000000000e+04 -3.717000000000000000e+03
1.503800000000000000e+04 -4.399000000000000000e+03
1.285600000000000000e+04 -4.876000000000000000e+03
1.292400000000000000e+04 -6.172000000000000000e+03
1.183300000000000000e+04 -7.911000000000000000e+03
1.152600000000000000e+04 -6.206000000000000000e+03
9.412000000000000000e+03 -8.184000000000000000e+03
1.023000000000000000e+04 -9.480000000000000000e+03
9.445000000000000000e+03 -1.091200000000000000e+04
8.525000000000000000e+03 -1.029800000000000000e+04
7.945000000000000000e+03 -1.101400000000000000e+04
6.478000000000000000e+03 -1.159400000000000000e+04
4.672000000000000000e+03 -1.302600000000000000e+04
3.750000000000000000e+03 -1.411700000000000000e+04
4.228000000000000000e+03 -1.421900000000000000e+04
1.636000000000000000e+03 -1.387900000000000000e+04
2.659000000000000000e+03 -1.425300000000000000e+04
1.160000000000000000e+03 -1.422000000000000000e+04
1.500000000000000000e+03 -1.496900000000000000e+04
-2.967000000000000000e+03 -1.452700000000000000e+04
-1.432000000000000000e+03 -1.561700000000000000e+04
-1.261000000000000000e+03 -1.507200000000000000e+04
-1.876000000000000000e+03 -1.534500000000000000e+04
-2.558000000000000000e+03 -1.456000000000000000e+04
-2.216000000000000000e+03 -1.329900000000000000e+04
-3.750000000000000000e+03 -1.258400000000000000e+04
-3.341000000000000000e+03 -1.381100000000000000e+04
-4.330000000000000000e+03 -1.452700000000000000e+04
-4.091000000000000000e+03 -1.401400000000000000e+04
-2.830000000000000000e+03 -1.479900000000000000e+04
-3.376000000000000000e+03 -1.340100000000000000e+04
-4.467000000000000000e+03 -1.220800000000000000e+04
-3.274000000000000000e+03 -1.306000000000000000e+04
-3.580000000000000000e+03 -9.719000000000000000e+03
-2.933000000000000000e+03 -1.118400000000000000e+04
-2.455000000000000000e+03 -1.108300000000000000e+04
-2.762000000000000000e+03 -1.026400000000000000e+04
-1.125000000000000000e+03 -9.956000000000000000e+03
-2.080000000000000000e+03 -7.707000000000000000e+03
-1.432000000000000000e+03 -6.854000000000000000e+03
-2.148000000000000000e+03 -7.843000000000000000e+03
-3.410000000000000000e+02 -7.536000000000000000e+03
-2.694000000000000000e+03 -5.967000000000000000e+03
2.040000000000000000e+02 -5.353000000000000000e+03
-2.390000000000000000e+02 -5.319000000000000000e+03
-2.216000000000000000e+03 -2.796000000000000000e+03
5.120000000000000000e+02 -3.444000000000000000e+03
4.430000000000000000e+02 -2.864000000000000000e+03
-6.470000000000000000e+02 -1.739000000000000000e+03
-6.130000000000000000e+02 -2.864000000000000000e+03
-7.160000000000000000e+02 -2.625000000000000000e+03
-2.830000000000000000e+03 -1.159000000000000000e+03
-1.534000000000000000e+03 -1.772000000000000000e+03
-3.035000000000000000e+03 -1.364000000000000000e+03
-3.581000000000000000e+03 -2.762000000000000000e+03
-2.148000000000000000e+03 -1.636000000000000000e+03
-3.376000000000000000e+03 -7.500000000000000000e+02
-4.263000000000000000e+03 -5.110000000000000000e+02
-2.455000000000000000e+03 -0.000000000000000000e+00
-5.184000000000000000e+03 4.430000000000000000e+02
-4.774000000000000000e+03 -8.530000000000000000e+02
-4.194000000000000000e+03 -0.000000000000000000e+00
-7.741000000000000000e+03 7.160000000000000000e+02
-8.115000000000000000e+03 1.636000000000000000e+03
-7.331000000000000000e+03 1.431000000000000000e+03
-8.729000000000000000e+03 2.251000000000000000e+03
-9.548000000000000000e+03 2.114000000000000000e+03
-1.036700000000000000e+04 1.841000000000000000e+03
-1.118400000000000000e+04 3.239000000000000000e+03
-9.752000000000000000e+03 2.523000000000000000e+03
-1.135500000000000000e+04 1.193000000000000000e+03
-1.210500000000000000e+04 4.228000000000000000e+03
-1.230900000000000000e+04 5.558000000000000000e+03
-1.329800000000000000e+04 4.842000000000000000e+03
-1.398100000000000000e+04 5.456000000000000000e+03
-1.404900000000000000e+04 6.751000000000000000e+03
-1.319700000000000000e+04 6.138000000000000000e+03
-1.347000000000000000e+04 6.888000000000000000e+03
-1.312900000000000000e+04 8.116000000000000000e+03
-1.364000000000000000e+04 7.741000000000000000e+03
-1.435600000000000000e+04 9.003000000000000000e+03
-1.299200000000000000e+04 1.050200000000000000e+04
-1.319700000000000000e+04 1.029800000000000000e+04
-1.282200000000000000e+04 1.118400000000000000e+04
-1.275300000000000000e+04 1.142400000000000000e+04
-1.111600000000000000e+04 1.142300000000000000e+04
-1.074100000000000000e+04 1.196800000000000000e+04
-1.060400000000000000e+04 1.241200000000000000e+04
-9.923000000000000000e+03 1.469700000000000000e+04
-8.832000000000000000e+03 1.442500000000000000e+04
-7.093000000000000000e+03 1.507100000000000000e+04
-7.365000000000000000e+03 1.422000000000000000e+04
-5.319000000000000000e+03 1.479900000000000000e+04
-4.126000000000000000e+03 1.537800000000000000e+04
-3.683000000000000000e+03 1.599300000000000000e+04
-2.114000000000000000e+03 1.592500000000000000e+04
-1.432000000000000000e+03 1.749300000000000000e+04
-2.046000000000000000e+03 1.582200000000000000e+04
0.000000000000000000e+00 1.398100000000000000e+04
1.670000000000000000e+03 1.640200000000000000e+04
2.182000000000000000e+03 1.449200000000000000e+04
3.342000000000000000e+03 1.548100000000000000e+04
4.467000000000000000e+03 1.612900000000000000e+04
4.229000000000000000e+03 1.377600000000000000e+04
5.865000000000000000e+03 1.551500000000000000e+04
8.047000000000000000e+03 1.507200000000000000e+04
8.797000000000000000e+03 1.360600000000000000e+04
9.411000000000000000e+03 1.312800000000000000e+04
9.820000000000000000e+03 1.244600000000000000e+04
1.200200000000000000e+04 1.108300000000000000e+04
1.162700000000000000e+04 9.719000000000000000e+03
1.145800000000000000e+04 8.729000000000000000e+03
1.295800000000000000e+04 7.775000000000000000e+03
1.398100000000000000e+04 7.468000000000000000e+03
1.578800000000000000e+04 5.353000000000000000e+03
1.541300000000000000e+04 4.262000000000000000e+03
1.585600000000000000e+04 4.228000000000000000e+03
1.609500000000000000e+04 2.217000000000000000e+03
1.561800000000000000e+04 1.705000000000000000e+03
1.619700000000000000e+04 -1.160000000000000000e+03
1.725400000000000000e+04 -1.398000000000000000e+03
1.500300000000000000e+04 -1.773000000000000000e+03
1.647000000000000000e+04 -4.603000000000000000e+03
1.629900000000000000e+04 -5.455000000000000000e+03
1.404900000000000000e+04 -5.251000000000000000e+03
1.367300000000000000e+04 -6.854000000000000000e+03
1.343500000000000000e+04 -9.547000000000000000e+03
1.442400000000000000e+04 -8.626000000000000000e+03
1.285600000000000000e+04 -1.026300000000000000e+04
1.101400000000000000e+04 -1.138900000000000000e+04
1.070700000000000000e+04 -1.220800000000000000e+04
1.104800000000000000e+04 -1.340100000000000000e+04
8.388000000000000000e+03 -1.394600000000000000e+04
8.729000000000000000e+03 -1.357100000000000000e+04
8.559000000000000000e+03 -1.329900000000000000e+04
6.615000000000000000e+03 -1.404900000000000000e+04
4.535000000000000000e+03 -1.432100000000000000e+04
4.978000000000000000e+03 -1.449200000000000000e+04
4.637000000000000000e+03 -1.554900000000000000e+04
4.535000000000000000e+03 -1.473100000000000000e+04
2.455000000000000000e+03 -1.667500000000000000e+04
2.897000000000000000e+03 -1.462900000000000000e+04
2.353000000000000000e+03 -1.452600000000000000e+04
9.540000000000000000e+02 -1.340100000000000000e+04
9.200000000000000000e+02 -1.452600000000000000e+04
7.170000000000000000e+02 -1.387900000000000000e+04
-7.170000000000000000e+02 -1.398100000000000000e+04
5.120000000000000000e+02 -1.377600000000000000e+04
-2.050000000000000000e+02 -1.336700000000000000e+04
-2.080000000000000000e+03 -1.186700000000000000e+04
-1.568000000000000000e+03 -1.074100000000000000e+04
-1.398000000000000000e+03 -1.081000000000000000e+04
-1.091000000000000000e+03 -1.057100000000000000e+04
-1.330000000000000000e+03 -9.888000000000000000e+03
-2.148000000000000000e+03 -9.036000000000000000e+03
-3.273000000000000000e+03 -8.422000000000000000e+03
-2.761000000000000000e+03 -8.593000000000000000e+03
-4.501000000000000000e+03 -6.172000000000000000e+03
-2.592000000000000000e+03 -6.104000000000000000e+03
-4.569000000000000000e+03 -7.911000000000000000e+03
-2.182000000000000000e+03 -5.558000000000000000e+03
-1.671000000000000000e+03 -6.615000000000000000e+03
-2.421000000000000000e+03 -5.115000000000000000e+03
-3.477000000000000000e+03 -5.115000000000000000e+03
-2.660000000000000000e+03 -4.160000000000000000e+03
-2.591000000000000000e+03 -3.888000000000000000e+03
-3.069000000000000000e+03 -3.068000000000000000e+03
-2.113000000000000000e+03 -2.694000000000000000e+03
-1.773000000000000000e+03 -4.603000000000000000e+03
-3.683000000000000000e+03 -1.978000000000000000e+03
-3.853000000000000000e+03 -2.830000000000000000e+03
-3.034000000000000000e+03 -3.273000000000000000e+03
-2.558000000000000000e+03 -1.739000000000000000e+03
-4.023000000000000000e+03 -2.421000000000000000e+03
-2.148000000000000000e+03 -1.636000000000000000e+03
-4.023000000000000000e+03 -1.057000000000000000e+03
-2.591000000000000000e+03 -8.180000000000000000e+02
-3.001000000000000000e+03 -1.364000000000000000e+03
-4.467000000000000000e+03 -1.330000000000000000e+03
-3.478000000000000000e+03 -3.341000000000000000e+03
-3.751000000000000000e+03 -2.216000000000000000e+03
-4.739000000000000000e+03 -4.770000000000000000e+02
-5.490000000000000000e+03 -6.480000000000000000e+02
-6.002000000000000000e+03 -1.432000000000000000e+03
-4.126000000000000000e+03 -2.390000000000000000e+02
-5.217000000000000000e+03 -1.705000000000000000e+03
-5.523000000000000000e+03 -1.057000000000000000e+03
-4.569000000000000000e+03 -6.820000000000000000e+02
-8.695000000000000000e+03 -2.050000000000000000e+02
-8.354000000000000000e+03 -2.625000000000000000e+03
-6.479000000000000000e+03 -1.568000000000000000e+03
-8.865000000000000000e+03 -2.730000000000000000e+02
-8.866000000000000000e+03 -6.800000000000000000e+01
-7.502000000000000000e+03 2.728000000000000000e+03
-9.854000000000000000e+03 1.023000000000000000e+03
-7.332000000000000000e+03 -3.300000000000000000e+01
-8.184000000000000000e+03 1.159000000000000000e+03
-9.445000000000000000e+03 1.671000000000000000e+03
-9.275000000000000000e+03 3.138000000000000000e+03
-9.241000000000000000e+03 6.900000000000000000e+01
-8.968000000000000000e+03 5.660000000000000000e+03
-7.297000000000000000e+03 3.546000000000000000e+03
-9.855000000000000000e+03 3.479000000000000000e+03
-9.412000000000000000e+03 4.467000000000000000e+03
-9.036000000000000000e+03 4.876000000000000000e+03
-7.502000000000000000e+03 5.627000000000000000e+03
-7.740000000000000000e+03 6.956000000000000000e+03
-7.433000000000000000e+03 6.241000000000000000e+03
-7.775000000000000000e+03 6.785000000000000000e+03
-5.490000000000000000e+03 8.081000000000000000e+03
-5.695000000000000000e+03 9.002000000000000000e+03
-6.172000000000000000e+03 1.002500000000000000e+04
-3.240000000000000000e+03 1.057100000000000000e+04
-2.455000000000000000e+03 9.139000000000000000e+03
-2.148000000000000000e+03 9.105000000000000000e+03
-1.330000000000000000e+03 9.616000000000000000e+03
-3.750000000000000000e+02 1.115100000000000000e+04
2.050000000000000000e+02 1.087800000000000000e+04
2.932000000000000000e+03 1.029800000000000000e+04
2.557000000000000000e+03 1.217300000000000000e+04
3.444000000000000000e+03 9.276000000000000000e+03
5.217000000000000000e+03 9.617000000000000000e+03
7.400000000000000000e+03 1.244600000000000000e+04
7.229000000000000000e+03 1.053600000000000000e+04
8.968000000000000000e+03 1.026400000000000000e+04
9.719000000000000000e+03 1.023000000000000000e+04
9.855000000000000000e+03 7.843000000000000000e+03
1.220800000000000000e+04 9.513000000000000000e+03
1.295800000000000000e+04 9.854000000000000000e+03
1.486800000000000000e+04 8.866000000000000000e+03
1.398100000000000000e+04 6.547000000000000000e+03
1.889100000000000000e+04 6.308000000000000000e+03
1.769700000000000000e+04 5.388000000000000000e+03
2.025400000000000000e+04 3.956000000000000000e+03
1.981200000000000000e+04 6.547000000000000000e+03
2.247100000000000000e+04 4.262000000000000000e+03
2.158500000000000000e+04 3.615000000000000000e+03
2.366600000000000000e+04 4.398000000000000000e+03
2.427800000000000000e+04 2.046000000000000000e+03
2.489300000000000000e+04 2.456000000000000000e+03
2.475700000000000000e+04 3.512000000000000000e+03
2.577900000000000000e+04 1.977000000000000000e+03
2.526800000000000000e+04 8.520000000000000000e+02
2.448400000000000000e+04 1.841000000000000000e+03
2.571100000000000000e+04 3.750000000000000000e+02
2.537000000000000000e+04 2.454000000000000000e+03
2.305100000000000000e+04 1.944000000000000000e+03
2.226700000000000000e+04 1.700000000000000000e+02
2.049400000000000000e+04 4.770000000000000000e+02
2.144900000000000000e+04 1.637000000000000000e+03
2.018700000000000000e+04 1.773000000000000000e+03
1.807300000000000000e+04 1.193000000000000000e+03
1.452600000000000000e+04 6.830000000000000000e+02
1.302600000000000000e+04 -8.870000000000000000e+02
1.254900000000000000e+04 4.780000000000000000e+02
1.002500000000000000e+04 -1.091000000000000000e+03
9.037000000000000000e+03 -1.637000000000000000e+03
6.445000000000000000e+03 1.330000000000000000e+03
4.569000000000000000e+03 -3.000000000000000000e+03
2.217000000000000000e+03 -2.387000000000000000e+03
8.190000000000000000e+02 -8.870000000000000000e+02
-3.750000000000000000e+02 -2.626000000000000000e+03
-3.682000000000000000e+03 -4.877000000000000000e+03
-4.297000000000000000e+03 -5.183000000000000000e+03
-4.229000000000000000e+03 -5.251000000000000000e+03
-6.001000000000000000e+03 -4.842000000000000000e+03
-8.798000000000000000e+03 -5.864000000000000000e+03
-7.366000000000000000e+03 -5.728000000000000000e+03
-8.901000000000000000e+03 -6.922000000000000000e+03
-1.060500000000000000e+04 -4.091000000000000000e+03
-1.193400000000000000e+04 -5.114000000000000000e+03
-9.787000000000000000e+03 -5.217000000000000000e+03
-1.312800000000000000e+04 -5.080000000000000000e+03
-1.149100000000000000e+04 -4.944000000000000000e+03
-1.156000000000000000e+04 -3.308000000000000000e+03
-1.295700000000000000e+04 -3.512000000000000000e+03
-1.292400000000000000e+04 -5.864000000000000000e+03
-1.268600000000000000e+04 -6.171000000000000000e+03
-1.063900000000000000e+04 -3.921000000000000000e+03
-1.193500000000000000e+04 -5.626000000000000000e+03
-1.244600000000000000e+04 -4.500000000000000000e+03
-1.282100000000000000e+04 -3.750000000000000000e+03
-1.251500000000000000e+04 -3.308000000000000000e+03
-1.060500000000000000e+04 -3.102000000000000000e+03
-9.684000000000000000e+03 -2.489000000000000000e+03
-1.012800000000000000e+04 -1.330000000000000000e+03
-1.132100000000000000e+04 -1.432000000000000000e+03
-9.036000000000000000e+03 -1.807000000000000000e+03
-8.048000000000000000e+03 -2.050000000000000000e+02
-8.388000000000000000e+03 -1.534000000000000000e+03
-7.979000000000000000e+03 1.022000000000000000e+03
-9.719000000000000000e+03 -2.040000000000000000e+02
-6.752000000000000000e+03 -5.120000000000000000e+02
-8.014000000000000000e+03 1.364000000000000000e+03
-6.513000000000000000e+03 1.125000000000000000e+03
-5.763000000000000000e+03 2.730000000000000000e+02
-6.036000000000000000e+03 -6.800000000000000000e+01
-4.569000000000000000e+03 3.239000000000000000e+03
-6.035000000000000000e+03 8.180000000000000000e+02
-3.546000000000000000e+03 2.523000000000000000e+03
-4.808000000000000000e+03 8.530000000000000000e+02
-6.445000000000000000e+03 2.011000000000000000e+03
-5.388000000000000000e+03 6.800000000000000000e+01
-5.319000000000000000e+03 1.704000000000000000e+03
-4.331000000000000000e+03 1.330000000000000000e+03
-4.603000000000000000e+03 9.890000000000000000e+02
-4.807000000000000000e+03 6.470000000000000000e+02
-4.160000000000000000e+03 3.069000000000000000e+03
-5.626000000000000000e+03 1.364000000000000000e+03
-4.023000000000000000e+03 7.840000000000000000e+02
-5.797000000000000000e+03 5.800000000000000000e+02
-3.989000000000000000e+03 1.705000000000000000e+03
-5.320000000000000000e+03 4.780000000000000000e+02
-5.626000000000000000e+03 2.455000000000000000e+03
-4.910000000000000000e+03 2.114000000000000000e+03
-4.535000000000000000e+03 8.520000000000000000e+02
-6.615000000000000000e+03 2.865000000000000000e+03
-5.558000000000000000e+03 3.512000000000000000e+03
-6.309000000000000000e+03 1.978000000000000000e+03
-6.820000000000000000e+03 3.683000000000000000e+03
-5.831000000000000000e+03 2.933000000000000000e+03
-5.592000000000000000e+03 4.125000000000000000e+03
-4.536000000000000000e+03 5.558000000000000000e+03
-5.558000000000000000e+03 6.922000000000000000e+03
-5.149000000000000000e+03 3.273000000000000000e+03
-5.183000000000000000e+03 4.876000000000000000e+03
-6.752000000000000000e+03 6.717000000000000000e+03
-5.252000000000000000e+03 6.513000000000000000e+03
-5.593000000000000000e+03 8.218000000000000000e+03
-5.899000000000000000e+03 8.354000000000000000e+03
-5.728000000000000000e+03 6.887000000000000000e+03
-3.648000000000000000e+03 9.684000000000000000e+03
-2.728000000000000000e+03 8.661000000000000000e+03
-1.603000000000000000e+03 1.036600000000000000e+04
-3.000000000000000000e+03 1.040000000000000000e+04
-2.730000000000000000e+02 1.186700000000000000e+04
-4.780000000000000000e+02 1.186600000000000000e+04
-1.159000000000000000e+03 1.050200000000000000e+04
-2.040000000000000000e+02 1.241200000000000000e+04
1.330000000000000000e+03 1.145800000000000000e+04
3.001000000000000000e+03 1.275300000000000000e+04
2.932000000000000000e+03 1.248000000000000000e+04
3.376000000000000000e+03 1.384400000000000000e+04
4.705000000000000000e+03 1.554900000000000000e+04
5.967000000000000000e+03 1.319600000000000000e+04
6.411000000000000000e+03 1.316200000000000000e+04
5.626000000000000000e+03 1.370800000000000000e+04
7.332000000000000000e+03 1.289000000000000000e+04
8.184000000000000000e+03 1.418500000000000000e+04
1.053700000000000000e+04 1.391200000000000000e+04
1.098000000000000000e+04 1.210500000000000000e+04
1.081000000000000000e+04 1.040100000000000000e+04
1.271900000000000000e+04 9.889000000000000000e+03
1.234500000000000000e+04 1.162800000000000000e+04
1.408300000000000000e+04 1.084400000000000000e+04
1.384400000000000000e+04 9.104000000000000000e+03
1.306100000000000000e+04 9.718000000000000000e+03
1.599300000000000000e+04 9.173000000000000000e+03
1.394700000000000000e+04 8.456000000000000000e+03
1.329800000000000000e+04 5.729000000000000000e+03
1.503800000000000000e+04 5.047000000000000000e+03
1.561700000000000000e+04 7.093000000000000000e+03
1.551500000000000000e+04 4.057000000000000000e+03
1.367400000000000000e+04 3.922000000000000000e+03
1.411800000000000000e+04 3.580000000000000000e+03
1.353700000000000000e+04 2.251000000000000000e+03
1.268500000000000000e+04 3.410000000000000000e+03
1.336700000000000000e+04 3.070000000000000000e+02
1.203700000000000000e+04 7.500000000000000000e+02
1.029800000000000000e+04 -1.228000000000000000e+03
1.098000000000000000e+04 -1.671000000000000000e+03
1.016200000000000000e+04 -4.501000000000000000e+03
9.206000000000000000e+03 -2.455000000000000000e+03
8.252000000000000000e+03 -4.228000000000000000e+03
7.740000000000000000e+03 -4.842000000000000000e+03
6.205000000000000000e+03 -4.876000000000000000e+03
6.479000000000000000e+03 -7.605000000000000000e+03
5.183000000000000000e+03 -7.195000000000000000e+03
5.661000000000000000e+03 -7.297000000000000000e+03
3.172000000000000000e+03 -1.067300000000000000e+04
3.069000000000000000e+03 -8.457000000000000000e+03
1.705000000000000000e+03 -9.787000000000000000e+03
1.710000000000000000e+02 -1.060500000000000000e+04
9.210000000000000000e+02 -1.009300000000000000e+04
-2.421000000000000000e+03 -1.016100000000000000e+04
-1.706000000000000000e+03 -1.111600000000000000e+04
-1.023000000000000000e+03 -1.029800000000000000e+04
-1.535000000000000000e+03 -1.227600000000000000e+04
-2.659000000000000000e+03 -1.121900000000000000e+04
-3.512000000000000000e+03 -1.132100000000000000e+04
-4.945000000000000000e+03 -1.138900000000000000e+04
-5.422000000000000000e+03 -1.179800000000000000e+04
-4.774000000000000000e+03 -1.234400000000000000e+04
-5.114000000000000000e+03 -1.118400000000000000e+04
-5.149000000000000000e+03 -1.074100000000000000e+04
-6.069000000000000000e+03 -9.719000000000000000e+03
-4.944000000000000000e+03 -9.889000000000000000e+03
-5.012000000000000000e+03 -9.649000000000000000e+03
-6.649000000000000000e+03 -1.050200000000000000e+04
-6.615000000000000000e+03 -1.080900000000000000e+04
-6.479000000000000000e+03 -7.195000000000000000e+03
-5.558000000000000000e+03 -9.275000000000000000e+03
-6.446000000000000000e+03 -9.002000000000000000e+03
-5.728000000000000000e+03 -8.627000000000000000e+03
-4.774000000000000000e+03 -8.933000000000000000e+03
-5.524000000000000000e+03 -8.388000000000000000e+03
-8.149000000000000000e+03 -7.741000000000000000e+03
-5.831000000000000000e+03 -6.922000000000000000e+03
-4.399000000000000000e+03 -7.024000000000000000e+03
-5.115000000000000000e+03 -6.274000000000000000e+03
-4.296000000000000000e+03 -4.535000000000000000e+03
-4.161000000000000000e+03 -5.490000000000000000e+03
-2.592000000000000000e+03 -5.353000000000000000e+03
-2.966000000000000000e+03 -3.205000000000000000e+03
-4.535000000000000000e+03 -5.796000000000000000e+03
-1.330000000000000000e+03 -2.830000000000000000e+03
-3.000000000000000000e+03 -3.648000000000000000e+03
-2.967000000000000000e+03 -4.876000000000000000e+03
-2.455000000000000000e+03 -3.342000000000000000e+03
-2.592000000000000000e+03 -3.410000000000000000e+03
-3.376000000000000000e+03 -2.625000000000000000e+03
-3.444000000000000000e+03 -2.592000000000000000e+03
-1.739000000000000000e+03 -1.603000000000000000e+03
-3.785000000000000000e+03 -2.046000000000000000e+03
-1.808000000000000000e+03 -3.751000000000000000e+03
-2.216000000000000000e+03 -3.512000000000000000e+03
-1.739000000000000000e+03 -1.841000000000000000e+03
-2.625000000000000000e+03 -5.460000000000000000e+02
-2.557000000000000000e+03 -1.500000000000000000e+03
-1.534000000000000000e+03 -1.910000000000000000e+03
-2.046000000000000000e+03 -8.180000000000000000e+02
-2.899000000000000000e+03 -2.114000000000000000e+03
-2.899000000000000000e+03 -1.056000000000000000e+03
-2.319000000000000000e+03 -1.160000000000000000e+03
-2.626000000000000000e+03 -1.194000000000000000e+03
-3.103000000000000000e+03 -1.535000000000000000e+03
-4.160000000000000000e+03 -1.602000000000000000e+03
-1.842000000000000000e+03 -2.489000000000000000e+03
-4.535000000000000000e+03 -1.739000000000000000e+03
-3.615000000000000000e+03 -2.730000000000000000e+02
-5.865000000000000000e+03 -2.148000000000000000e+03
-3.853000000000000000e+03 -5.460000000000000000e+02
-5.047000000000000000e+03 -7.840000000000000000e+02
-4.978000000000000000e+03 2.865000000000000000e+03
-4.297000000000000000e+03 -1.092000000000000000e+03
-3.581000000000000000e+03 4.770000000000000000e+02
-3.683000000000000000e+03 -0.000000000000000000e+00
-4.160000000000000000e+03 1.193000000000000000e+03
-3.751000000000000000e+03 1.568000000000000000e+03
-5.456000000000000000e+03 2.728000000000000000e+03
-6.206000000000000000e+03 5.460000000000000000e+02
-3.513000000000000000e+03 6.480000000000000000e+02
-3.103000000000000000e+03 2.694000000000000000e+03
-3.171000000000000000e+03 2.421000000000000000e+03
-4.023000000000000000e+03 2.659000000000000000e+03
-4.365000000000000000e+03 3.342000000000000000e+03
-3.103000000000000000e+03 3.239000000000000000e+03
-3.444000000000000000e+03 4.194000000000000000e+03
-3.410000000000000000e+03 4.263000000000000000e+03
-2.353000000000000000e+03 3.955000000000000000e+03
-2.148000000000000000e+03 4.126000000000000000e+03
-1.636000000000000000e+03 5.217000000000000000e+03
-5.790000000000000000e+02 6.274000000000000000e+03
-4.770000000000000000e+02 7.536000000000000000e+03
-3.420000000000000000e+02 6.955000000000000000e+03
-8.520000000000000000e+02 4.808000000000000000e+03
-2.285000000000000000e+03 6.479000000000000000e+03
1.023000000000000000e+03 8.149000000000000000e+03
1.875000000000000000e+03 6.752000000000000000e+03
1.603000000000000000e+03 8.899000000000000000e+03
2.046000000000000000e+03 7.331000000000000000e+03
2.591000000000000000e+03 9.582000000000000000e+03
3.615000000000000000e+03 8.797000000000000000e+03
4.058000000000000000e+03 1.012800000000000000e+04
3.785000000000000000e+03 7.229000000000000000e+03
4.467000000000000000e+03 8.252000000000000000e+03
4.944000000000000000e+03 7.365000000000000000e+03
7.093000000000000000e+03 8.320000000000000000e+03
7.160000000000000000e+03 5.489000000000000000e+03
6.103000000000000000e+03 8.013000000000000000e+03
7.365000000000000000e+03 7.263000000000000000e+03
7.912000000000000000e+03 6.717000000000000000e+03
6.274000000000000000e+03 7.877000000000000000e+03
6.308000000000000000e+03 7.195000000000000000e+03
8.696000000000000000e+03 8.116000000000000000e+03
8.150000000000000000e+03 7.570000000000000000e+03
9.036000000000000000e+03 4.364000000000000000e+03
7.537000000000000000e+03 7.195000000000000000e+03
1.050200000000000000e+04 6.377000000000000000e+03
7.468000000000000000e+03 5.831000000000000000e+03
9.684000000000000000e+03 3.785000000000000000e+03
9.207000000000000000e+03 3.683000000000000000e+03
8.081000000000000000e+03 3.103000000000000000e+03
8.354000000000000000e+03 2.660000000000000000e+03
8.423000000000000000e+03 6.820000000000000000e+02
7.059000000000000000e+03 1.092000000000000000e+03
6.785000000000000000e+03 1.568000000000000000e+03
4.569000000000000000e+03 5.790000000000000000e+02
6.070000000000000000e+03 1.159000000000000000e+03
5.081000000000000000e+03 -8.530000000000000000e+02
5.797000000000000000e+03 -1.329000000000000000e+03
2.149000000000000000e+03 -2.217000000000000000e+03
3.444000000000000000e+03 -1.637000000000000000e+03
3.205000000000000000e+03 -2.114000000000000000e+03
2.591000000000000000e+03 -3.376000000000000000e+03
6.480000000000000000e+02 -2.149000000000000000e+03
-5.450000000000000000e+02 -4.740000000000000000e+03
-2.040000000000000000e+02 -3.956000000000000000e+03
3.400000000000000000e+01 -4.910000000000000000e+03
-2.523000000000000000e+03 -5.661000000000000000e+03
-2.524000000000000000e+03 -7.230000000000000000e+03
-3.819000000000000000e+03 -7.775000000000000000e+03
-2.080000000000000000e+03 -7.468000000000000000e+03
-4.501000000000000000e+03 -7.741000000000000000e+03
-5.831000000000000000e+03 -9.650000000000000000e+03
-5.865000000000000000e+03 -8.116000000000000000e+03
-7.024000000000000000e+03 -1.029800000000000000e+04
-6.922000000000000000e+03 -8.116000000000000000e+03
-6.104000000000000000e+03 -7.127000000000000000e+03
-7.706000000000000000e+03 -5.967000000000000000e+03
-7.945000000000000000e+03 -8.320000000000000000e+03
-8.660000000000000000e+03 -9.412000000000000000e+03
-8.081000000000000000e+03 -7.433000000000000000e+03
-9.514000000000000000e+03 -6.956000000000000000e+03
-8.184000000000000000e+03 -8.014000000000000000e+03
-8.217000000000000000e+03 -9.514000000000000000e+03
-8.013000000000000000e+03 -7.468000000000000000e+03
-9.854000000000000000e+03 -9.616000000000000000e+03
-1.026300000000000000e+04 -8.525000000000000000e+03
-8.490000000000000000e+03 -8.457000000000000000e+03
-8.627000000000000000e+03 -6.172000000000000000e+03
-8.184000000000000000e+03 -7.025000000000000000e+03
-8.626000000000000000e+03 -7.638000000000000000e+03
-8.456000000000000000e+03 -6.548000000000000000e+03
-7.331000000000000000e+03 -6.957000000000000000e+03
-8.558000000000000000e+03 -6.308000000000000000e+03
-7.808000000000000000e+03 -6.956000000000000000e+03
-7.399000000000000000e+03 -5.729000000000000000e+03
-6.138000000000000000e+03 -6.615000000000000000e+03
-6.376000000000000000e+03 -6.888000000000000000e+03
-6.172000000000000000e+03 -5.319000000000000000e+03
-3.717000000000000000e+03 -3.956000000000000000e+03
-6.035000000000000000e+03 -4.843000000000000000e+03
-6.002000000000000000e+03 -5.524000000000000000e+03
-5.422000000000000000e+03 -5.081000000000000000e+03
-4.911000000000000000e+03 -4.911000000000000000e+03
-5.626000000000000000e+03 -4.296000000000000000e+03
-3.921000000000000000e+03 -4.536000000000000000e+03
-4.502000000000000000e+03 -3.955000000000000000e+03
-3.445000000000000000e+03 -6.104000000000000000e+03
-4.058000000000000000e+03 -3.035000000000000000e+03
-4.228000000000000000e+03 -3.580000000000000000e+03
-4.058000000000000000e+03 -4.638000000000000000e+03
-3.683000000000000000e+03 -4.229000000000000000e+03
-3.649000000000000000e+03 -4.911000000000000000e+03
-4.399000000000000000e+03 -3.376000000000000000e+03
-3.137000000000000000e+03 -2.319000000000000000e+03
-5.490000000000000000e+03 -2.898000000000000000e+03
-3.546000000000000000e+03 -4.263000000000000000e+03
-2.830000000000000000e+03 -2.591000000000000000e+03
-5.285000000000000000e+03 -5.592000000000000000e+03
-3.103000000000000000e+03 -3.376000000000000000e+03
-3.581000000000000000e+03 -2.352000000000000000e+03
-3.751000000000000000e+03 -2.421000000000000000e+03
-3.512000000000000000e+03 -3.649000000000000000e+03
-4.978000000000000000e+03 -2.933000000000000000e+03
-4.058000000000000000e+03 -3.683000000000000000e+03
-2.864000000000000000e+03 -3.683000000000000000e+03
-5.695000000000000000e+03 -3.956000000000000000e+03
-2.762000000000000000e+03 -1.432000000000000000e+03
-5.251000000000000000e+03 -3.035000000000000000e+03
-3.546000000000000000e+03 -6.820000000000000000e+02
-4.705000000000000000e+03 -2.182000000000000000e+03
-4.604000000000000000e+03 -3.137000000000000000e+03
-3.035000000000000000e+03 -1.807000000000000000e+03
-5.387000000000000000e+03 -2.933000000000000000e+03
-3.649000000000000000e+03 -3.444000000000000000e+03
-2.046000000000000000e+03 -1.568000000000000000e+03
-4.570000000000000000e+03 -2.762000000000000000e+03
-2.660000000000000000e+03 -1.466000000000000000e+03
-2.899000000000000000e+03 2.390000000000000000e+02
-4.229000000000000000e+03 -2.114000000000000000e+03
-2.524000000000000000e+03 -6.800000000000000000e+01
-2.728000000000000000e+03 5.110000000000000000e+02
-1.364000000000000000e+03 7.850000000000000000e+02
-1.329000000000000000e+03 -1.398000000000000000e+03
-2.762000000000000000e+03 -2.050000000000000000e+02
-1.943000000000000000e+03 7.160000000000000000e+02
-2.730000000000000000e+02 6.800000000000000000e+01
0.000000000000000000e+00 -3.410000000000000000e+02
2.012000000000000000e+03 1.569000000000000000e+03
2.319000000000000000e+03 1.432000000000000000e+03
1.807000000000000000e+03 9.890000000000000000e+02
2.387000000000000000e+03 2.285000000000000000e+03
1.432000000000000000e+03 8.860000000000000000e+02
2.728000000000000000e+03 9.210000000000000000e+02
3.922000000000000000e+03 6.800000000000000000e+01
5.148000000000000000e+03 2.012000000000000000e+03
6.069000000000000000e+03 1.228000000000000000e+03
3.922000000000000000e+03 1.700000000000000000e+02
8.423000000000000000e+03 1.501000000000000000e+03
6.377000000000000000e+03 3.400000000000000000e+01
6.070000000000000000e+03 1.159000000000000000e+03
7.571000000000000000e+03 1.432000000000000000e+03
8.491000000000000000e+03 9.540000000000000000e+02
8.219000000000000000e+03 2.380000000000000000e+02
1.043400000000000000e+04 6.480000000000000000e+02
9.139000000000000000e+03 5.110000000000000000e+02
1.152600000000000000e+04 -1.398000000000000000e+03
1.258200000000000000e+04 1.636000000000000000e+03
1.258200000000000000e+04 6.820000000000000000e+02
1.132100000000000000e+04 1.023000000000000000e+03
1.176400000000000000e+04 -2.730000000000000000e+02
1.357200000000000000e+04 2.730000000000000000e+02
1.288900000000000000e+04 1.159000000000000000e+03
1.466300000000000000e+04 1.125000000000000000e+03
1.408300000000000000e+04 7.840000000000000000e+02
1.534500000000000000e+04 1.330000000000000000e+03
1.251500000000000000e+04 1.364000000000000000e+03
1.350300000000000000e+04 1.160000000000000000e+03
1.592400000000000000e+04 1.193000000000000000e+03
1.510600000000000000e+04 1.671000000000000000e+03
1.326500000000000000e+04 2.285000000000000000e+03
1.606000000000000000e+04 3.240000000000000000e+03
1.445800000000000000e+04 1.261000000000000000e+03
1.404900000000000000e+04 2.626000000000000000e+03
1.350300000000000000e+04 3.342000000000000000e+03
1.421900000000000000e+04 2.865000000000000000e+03
1.333300000000000000e+04 3.274000000000000000e+03
1.377600000000000000e+04 2.489000000000000000e+03
1.166100000000000000e+04 4.263000000000000000e+03
1.023000000000000000e+04 4.092000000000000000e+03
1.050300000000000000e+04 2.251000000000000000e+03
8.457000000000000000e+03 4.127000000000000000e+03
6.548000000000000000e+03 4.433000000000000000e+03
7.093000000000000000e+03 5.149000000000000000e+03
4.330000000000000000e+03 4.569000000000000000e+03
2.591000000000000000e+03 4.195000000000000000e+03
2.899000000000000000e+03 4.467000000000000000e+03
1.398000000000000000e+03 5.251000000000000000e+03
-1.020000000000000000e+02 4.501000000000000000e+03
3.400000000000000000e+01 6.343000000000000000e+03
-4.365000000000000000e+03 6.376000000000000000e+03
-5.559000000000000000e+03 6.274000000000000000e+03
-6.274000000000000000e+03 5.217000000000000000e+03
-8.558000000000000000e+03 5.013000000000000000e+03
-9.241000000000000000e+03 5.525000000000000000e+03
-1.094600000000000000e+04 4.399000000000000000e+03
-1.312700000000000000e+04 3.036000000000000000e+03
-1.241200000000000000e+04 2.592000000000000000e+03
-1.500300000000000000e+04 4.944000000000000000e+03
-1.520800000000000000e+04 2.660000000000000000e+03
-1.739000000000000000e+04 2.455000000000000000e+03
-1.797000000000000000e+04 3.171000000000000000e+03
-1.793600000000000000e+04 3.070000000000000000e+02
-1.779900000000000000e+04 1.023000000000000000e+03
-2.025500000000000000e+04 9.550000000000000000e+02
-2.165300000000000000e+04 4.090000000000000000e+02
-1.906100000000000000e+04 -1.057000000000000000e+03
-2.046000000000000000e+04 -3.410000000000000000e+02
-2.025500000000000000e+04 -2.284000000000000000e+03
-2.284600000000000000e+04 -4.638000000000000000e+03
-2.161900000000000000e+04 -3.410000000000000000e+03
-2.035700000000000000e+04 -4.433000000000000000e+03
-2.141400000000000000e+04 -5.388000000000000000e+03
-2.015200000000000000e+04 -5.695000000000000000e+03
-2.151700000000000000e+04 -6.138000000000000000e+03
-2.052700000000000000e+04 -6.377000000000000000e+03
-1.933400000000000000e+04 -7.365000000000000000e+03
-1.851600000000000000e+04 -9.820000000000000000e+03
-1.885700000000000000e+04 -8.763000000000000000e+03
-1.810700000000000000e+04 -1.145700000000000000e+04
-1.595800000000000000e+04 -1.084400000000000000e+04
-1.513900000000000000e+04 -7.672000000000000000e+03
-1.486700000000000000e+04 -9.820000000000000000e+03
-1.363900000000000000e+04 -1.135500000000000000e+04
-1.449100000000000000e+04 -1.302600000000000000e+04
-1.432200000000000000e+04 -1.230900000000000000e+04
-1.196900000000000000e+04 -9.753000000000000000e+03
-1.074100000000000000e+04 -1.231000000000000000e+04
-1.135400000000000000e+04 -1.173000000000000000e+04
-1.022900000000000000e+04 -1.285500000000000000e+04
-9.786000000000000000e+03 -1.227600000000000000e+04
-9.513000000000000000e+03 -1.213900000000000000e+04
-7.740000000000000000e+03 -1.067300000000000000e+04
-7.126000000000000000e+03 -1.203600000000000000e+04
-6.172000000000000000e+03 -1.295700000000000000e+04
-5.285000000000000000e+03 -1.152600000000000000e+04
-4.296000000000000000e+03 -1.244600000000000000e+04
-5.797000000000000000e+03 -1.156000000000000000e+04
-6.718000000000000000e+03 -1.196900000000000000e+04
-5.831000000000000000e+03 -1.254800000000000000e+04
-4.706000000000000000e+03 -1.196900000000000000e+04
-4.024000000000000000e+03 -1.265100000000000000e+04
-6.649000000000000000e+03 -1.200300000000000000e+04
-4.263000000000000000e+03 -1.166200000000000000e+04
-6.104000000000000000e+03 -1.159300000000000000e+04
-3.921000000000000000e+03 -1.183200000000000000e+04
-4.433000000000000000e+03 -9.991000000000000000e+03
-3.409000000000000000e+03 -1.295800000000000000e+04
-7.160000000000000000e+02 -1.340000000000000000e+04
-2.524000000000000000e+03 -1.213900000000000000e+04
-4.430000000000000000e+02 -1.002500000000000000e+04
-1.091000000000000000e+03 -1.230900000000000000e+04
-2.730000000000000000e+02 -1.022900000000000000e+04
1.466000000000000000e+03 -1.179800000000000000e+04
2.899000000000000000e+03 -1.115000000000000000e+04
3.376000000000000000e+03 -1.254800000000000000e+04
2.625000000000000000e+03 -1.227600000000000000e+04
6.377000000000000000e+03 -1.125300000000000000e+04
8.320000000000000000e+03 -1.169500000000000000e+04
8.355000000000000000e+03 -1.040000000000000000e+04
8.661000000000000000e+03 -1.203600000000000000e+04
1.128700000000000000e+04 -1.060500000000000000e+04
1.183300000000000000e+04 -1.155900000000000000e+04
1.299100000000000000e+04 -9.786000000000000000e+03
1.534500000000000000e+04 -8.797000000000000000e+03
1.739100000000000000e+04 -8.354000000000000000e+03
1.820900000000000000e+04 -8.592000000000000000e+03
2.063100000000000000e+04 -7.774000000000000000e+03
2.107400000000000000e+04 -8.081000000000000000e+03
2.226700000000000000e+04 -5.387000000000000000e+03
2.318700000000000000e+04 -3.649000000000000000e+03
2.823400000000000000e+04 -2.455000000000000000e+03
2.816600000000000000e+04 -4.297000000000000000e+03
2.884700000000000000e+04 5.450000000000000000e+02
2.915400000000000000e+04 -0.000000000000000000e+00
3.123400000000000000e+04 1.841000000000000000e+03
3.375700000000000000e+04 3.751000000000000000e+03
3.256400000000000000e+04 5.525000000000000000e+03
3.478100000000000000e+04 6.717000000000000000e+03
3.512200000000000000e+04 8.833000000000000000e+03
3.447400000000000000e+04 1.067300000000000000e+04
3.498600000000000000e+04 1.261700000000000000e+04
3.900900000000000000e+04 1.432200000000000000e+04
3.648600000000000000e+04 1.571900000000000000e+04
3.542900000000000000e+04 2.046000000000000000e+04
3.420100000000000000e+04 2.138000000000000000e+04
3.614500000000000000e+04 2.260800000000000000e+04
3.430300000000000000e+04 2.475600000000000000e+04
3.317800000000000000e+04 2.905200000000000000e+04
3.126900000000000000e+04 2.768900000000000000e+04
3.031400000000000000e+04 3.212100000000000000e+04
2.840400000000000000e+04 3.440600000000000000e+04
2.673400000000000000e+04 3.501900000000000000e+04
2.441500000000000000e+04 3.873700000000000000e+04
2.144800000000000000e+04 3.890700000000000000e+04
1.626500000000000000e+04 3.986200000000000000e+04
1.323100000000000000e+04 4.037300000000000000e+04
1.179800000000000000e+04 4.357900000000000000e+04
8.389000000000000000e+03 4.276000000000000000e+04
5.251000000000000000e+03 4.357900000000000000e+04
4.100000000000000000e+02 4.381800000000000000e+04
-3.376000000000000000e+03 4.504500000000000000e+04
-9.172000000000000000e+03 4.446500000000000000e+04
-1.115100000000000000e+04 4.177100000000000000e+04
-1.565100000000000000e+04 4.143000000000000000e+04
-1.930100000000000000e+04 3.979400000000000000e+04
-2.335700000000000000e+04 4.027100000000000000e+04
-2.738200000000000000e+04 3.781700000000000000e+04
-2.881300000000000000e+04 3.539500000000000000e+04
-3.396300000000000000e+04 3.403100000000000000e+04
-3.727000000000000000e+04 3.079200000000000000e+04
-4.006700000000000000e+04 2.956400000000000000e+04
-4.214700000000000000e+04 2.615400000000000000e+04
-4.514700000000000000e+04 2.369900000000000000e+04
-4.470300000000000000e+04 1.960700000000000000e+04
-4.906800000000000000e+04 1.735700000000000000e+04
-5.033000000000000000e+04 1.302600000000000000e+04
-5.162500000000000000e+04 1.169700000000000000e+04
-5.220500000000000000e+04 7.024000000000000000e+03
-5.152400000000000000e+04 4.058000000000000000e+03
-5.353500000000000000e+04 1.739000000000000000e+03
-5.380800000000000000e+04 -4.430000000000000000e+02
-5.401300000000000000e+04 -4.774000000000000000e+03
-5.404700000000000000e+04 -7.263000000000000000e+03
-5.012600000000000000e+04 -9.923000000000000000e+03
-5.111400000000000000e+04 -1.449200000000000000e+04
-4.988700000000000000e+04 -1.500400000000000000e+04
-4.988700000000000000e+04 -1.660700000000000000e+04
-4.814800000000000000e+04 -2.168700000000000000e+04
-4.763600000000000000e+04 -2.352800000000000000e+04
-4.640900000000000000e+04 -2.567600000000000000e+04
-4.473800000000000000e+04 -2.789200000000000000e+04
-4.303300000000000000e+04 -2.857500000000000000e+04
-4.064700000000000000e+04 -2.970100000000000000e+04
-3.863400000000000000e+04 -3.263200000000000000e+04
-3.529300000000000000e+04 -3.478100000000000000e+04
-3.311000000000000000e+04 -3.488400000000000000e+04
-3.222300000000000000e+04 -3.716800000000000000e+04
-2.980300000000000000e+04 -3.911200000000000000e+04
-2.523300000000000000e+04 -3.952100000000000000e+04
-2.373300000000000000e+04 -3.921300000000000000e+04
-2.076700000000000000e+04 -3.914500000000000000e+04
-1.855000000000000000e+04 -3.935000000000000000e+04
-1.343500000000000000e+04 -3.969100000000000000e+04
-1.350300000000000000e+04 -4.013500000000000000e+04
-1.101400000000000000e+04 -4.156700000000000000e+04
-5.421000000000000000e+03 -4.030500000000000000e+04
-5.421000000000000000e+03 -3.877100000000000000e+04
-3.409000000000000000e+03 -3.975900000000000000e+04
2.050000000000000000e+02 -3.720200000000000000e+04
2.490000000000000000e+03 -3.669100000000000000e+04
5.115000000000000000e+03 -3.662300000000000000e+04
6.513000000000000000e+03 -3.426900000000000000e+04
8.389000000000000000e+03 -3.498600000000000000e+04
