1.464200000000000000e+05 -9.245270000000000000e+05
-1.024812000000000000e+06 2.696550000000000000e+05
-3.355400000000000000e+04 1.066617000000000000e+06
1.185630000000000000e+05 3.532700000000000000e+04
8.112100000000000000e+04 4.830130000000000000e+05
6.258530000000000000e+05 4.405590000000000000e+05
9.265720000000000000e+05 -2.981960000000000000e+05
1.071390000000000000e+05 -9.376890000000000000e+05
-4.515390000000000000e+05 -4.414460000000000000e+05
-2.814880000000000000e+05 -4.081600000000000000e+04
-6.096800000000000000e+04 -3.617230000000000000e+05
-8.380170000000000000e+05 -5.169400000000000000e+04
-5.198740000000000000e+05 5.637590000000000000e+05
-2.639300000000000000e+04 7.890850000000000000e+05
5.271030000000000000e+05 6.753990000000000000e+05
7.995880000000000000e+05 2.182300000000000000e+04
2.359300000000000000e+05 -1.939890000000000000e+05
4.382410000000000000e+05 -2.970030000000000000e+05
1.342830000000000000e+05 -6.335590000000000000e+05
-3.485600000000000000e+05 -6.569520000000000000e+05
-7.233080000000000000e+05 -2.784530000000000000e+05
-5.568030000000000000e+05 3.251680000000000000e+05
-5.957100000000000000e+04 3.901610000000000000e+05
-1.064560000000000000e+05 2.388290000000000000e+05
8.350800000000000000e+04 3.627450000000000000e+05
2.691440000000000000e+05 2.712920000000000000e+05
3.908430000000000000e+05 1.067300000000000000e+05
4.150880000000000000e+05 -1.902380000000000000e+05
2.809800000000000000e+04 -4.443790000000000000e+05
-9.718100000000000000e+04 -1.441030000000000000e+05
-2.195900000000000000e+04 -2.198710000000000000e+05
-2.418640000000000000e+05 -2.621540000000000000e+05
-3.709290000000000000e+05 -2.758600000000000000e+04
-2.591870000000000000e+05 2.250190000000000000e+05
-2.081000000000000000e+03 3.083570000000000000e+05
1.533780000000000000e+05 1.007630000000000000e+05
4.109000000000000000e+04 3.474700000000000000e+04
4.739800000000000000e+04 4.511300000000000000e+04
5.796800000000000000e+04 3.785000000000000000e+04
7.198300000000000000e+04 2.973400000000000000e+04
1.004900000000000000e+05 -5.524000000000000000e+03
5.101200000000000000e+04 -6.127700000000000000e+04
1.715100000000000000e+04 -2.755300000000000000e+04
5.036400000000000000e+04 1.535000000000000000e+03
1.280080000000000000e+05 -7.430200000000000000e+04
-1.370000000000000000e+02 -2.587780000000000000e+05
-2.452400000000000000e+05 -1.853280000000000000e+05
-3.082550000000000000e+05 6.267400000000000000e+04
-1.311110000000000000e+05 2.371240000000000000e+05
1.910000000000000000e+03 1.601290000000000000e+05
1.667500000000000000e+04 1.875450000000000000e+05
1.303950000000000000e+05 1.886690000000000000e+05
2.525380000000000000e+05 1.120830000000000000e+05
3.179740000000000000e+05 -1.090490000000000000e+05
5.643400000000000000e+04 -2.989810000000000000e+05
-7.307400000000000000e+04 -1.350330000000000000e+05
1.842000000000000000e+03 -1.140610000000000000e+05
-7.157400000000000000e+04 -2.750430000000000000e+05
-4.202020000000000000e+05 -1.871690000000000000e+05
-4.249760000000000000e+05 1.846800000000000000e+05
-1.805200000000000000e+05 4.131440000000000000e+05
1.386810000000000000e+05 4.042430000000000000e+05
2.245420000000000000e+05 2.040140000000000000e+05
3.156890000000000000e+05 2.360340000000000000e+05
4.810700000000000000e+05 -5.595700000000000000e+04
3.221670000000000000e+05 -3.500260000000000000e+05
2.404000000000000000e+04 -5.018020000000000000e+05
-3.602560000000000000e+05 -3.945940000000000000e+05
-3.813640000000000000e+05 1.602700000000000000e+04
-2.077990000000000000e+05 2.526700000000000000e+04
-3.405810000000000000e+05 5.646800000000000000e+04
-2.705070000000000000e+05 3.609380000000000000e+05
6.339100000000000000e+04 4.564840000000000000e+05
3.459700000000000000e+05 3.072320000000000000e+05
4.452310000000000000e+05 -3.400000000000000000e+01
2.459220000000000000e+05 -2.170740000000000000e+05
2.122670000000000000e+05 -1.938870000000000000e+05
1.279400000000000000e+05 -4.793980000000000000e+05
-3.493780000000000000e+05 -4.904470000000000000e+05
-5.549950000000000000e+05 -1.135840000000000000e+05
-4.644970000000000000e+05 2.437400000000000000e+05
-1.727110000000000000e+05 4.569610000000000000e+05
9.834200000000000000e+04 3.429340000000000000e+05
1.663360000000000000e+05 3.319540000000000000e+05
3.979020000000000000e+05 2.171080000000000000e+05
4.422640000000000000e+05 -6.649400000000000000e+04
3.123130000000000000e+05 -2.950590000000000000e+05
7.508600000000000000e+04 -4.157700000000000000e+05
-1.799400000000000000e+05 -2.979580000000000000e+05
-1.392940000000000000e+05 -1.563440000000000000e+05
-1.988310000000000000e+05 -2.164950000000000000e+05
-4.218400000000000000e+05 -1.180850000000000000e+05
-4.384110000000000000e+05 2.585040000000000000e+05
-1.195850000000000000e+05 4.614960000000000000e+05
1.562760000000000000e+05 3.858310000000000000e+05
2.584020000000000000e+05 2.207230000000000000e+05
3.053570000000000000e+05 1.616970000000000000e+05
4.340810000000000000e+05 -4.415900000000000000e+04
3.114270000000000000e+05 -3.341020000000000000e+05
2.925700000000000000e+04 -4.542330000000000000e+05
