-1.258260000000000000e+05 -5.602500000000000000e+04
-1.763950000000000000e+05 2.455000000000000000e+03
-1.734620000000000000e+05 1.074120000000000000e+05
-5.667300000000000000e+04 1.964780000000000000e+05
9.448800000000000000e+04 1.837940000000000000e+05
1.933070000000000000e+05 9.210100000000000000e+04
2.134600000000000000e+05 -2.905300000000000000e+04
1.403180000000000000e+05 -1.283830000000000000e+05
1.742400000000000000e+04 -1.447170000000000000e+05
-5.415000000000000000e+04 -9.677300000000000000e+04
-6.966400000000000000e+04 -4.941000000000000000e+04
-6.952800000000000000e+04 -2.554000000000000000e+04
-7.791600000000000000e+04 -1.230900000000000000e+04
-9.731800000000000000e+04 1.667500000000000000e+04
-8.166700000000000000e+04 6.414000000000000000e+04
-3.276900000000000000e+04 1.093210000000000000e+05
6.625500000000000000e+04 1.168580000000000000e+05
1.430450000000000000e+05 5.339900000000000000e+04
1.400450000000000000e+05 -3.617900000000000000e+04
7.883700000000000000e+04 -8.988500000000000000e+04
2.933000000000000000e+03 -9.806900000000000000e+04
-4.859100000000000000e+04 -6.557300000000000000e+04
-5.677400000000000000e+04 -2.663100000000000000e+04
-4.572700000000000000e+04 -5.865000000000000000e+03
-4.190700000000000000e+04 -2.455000000000000000e+03
-5.019400000000000000e+04 7.297000000000000000e+03
-5.275100000000000000e+04 2.939300000000000000e+04
-2.294800000000000000e+04 5.919600000000000000e+04
-6.008200000000000000e+04 4.166900000000000000e+04
-1.606100000000000000e+04 7.116500000000000000e+04
4.136200000000000000e+04 7.198300000000000000e+04
8.129200000000000000e+04 3.321300000000000000e+04
7.757500000000000000e+04 -1.312800000000000000e+04
4.061200000000000000e+04 -4.180500000000000000e+04
3.717000000000000000e+03 -4.327100000000000000e+04
-1.602600000000000000e+04 -3.113200000000000000e+04
-1.882300000000000000e+04 -2.093600000000000000e+04
-1.923200000000000000e+04 -2.100500000000000000e+04
-3.082600000000000000e+04 -2.195900000000000000e+04
-5.138700000000000000e+04 -9.479000000000000000e+03
-5.987800000000000000e+04 1.885700000000000000e+04
-3.682700000000000000e+04 4.770500000000000000e+04
3.649000000000000000e+03 5.909400000000000000e+04
3.880400000000000000e+04 4.477200000000000000e+04
5.766200000000000000e+04 1.510600000000000000e+04
4.869400000000000000e+04 -1.677700000000000000e+04
1.868600000000000000e+04 -3.348600000000000000e+04
-5.865000000000000000e+03 -2.898400000000000000e+04
-1.851500000000000000e+04 -1.906100000000000000e+04
-1.578800000000000000e+04 -1.572000000000000000e+04
-1.892400000000000000e+04 -1.595900000000000000e+04
-3.628100000000000000e+04 -1.261700000000000000e+04
-4.917100000000000000e+04 6.547000000000000000e+03
-4.074800000000000000e+04 3.805400000000000000e+04
-7.468000000000000000e+03 5.653600000000000000e+04
3.321200000000000000e+04 4.893200000000000000e+04
5.663800000000000000e+04 2.288000000000000000e+04
5.367200000000000000e+04 -2.728000000000000000e+03
3.726900000000000000e+04 -1.466200000000000000e+04
1.875500000000000000e+04 -1.500400000000000000e+04
1.077500000000000000e+04 -1.524200000000000000e+04
1.067300000000000000e+04 -2.182300000000000000e+04
3.062100000000000000e+04 -3.907700000000000000e+04
-7.372300000000000000e+04 -1.524910000000000000e+05
-2.018670000000000000e+05 2.329000000000000000e+04
7.263000000000000000e+03 2.302360000000000000e+05
8.763400000000000000e+04 3.372400000000000000e+04
5.923000000000000000e+04 -1.340100000000000000e+04
2.946100000000000000e+04 -3.324600000000000000e+04
6.786000000000000000e+03 -3.529200000000000000e+04
-1.278700000000000000e+04 -2.601800000000000000e+04
-1.875500000000000000e+04 -1.275300000000000000e+04
-1.439000000000000000e+04 -3.819000000000000000e+03
-1.070700000000000000e+04 -1.228000000000000000e+03
-6.513000000000000000e+03 6.820000000000000000e+02
-7.536000000000000000e+03 2.050000000000000000e+02
-8.149000000000000000e+03 3.546000000000000000e+03
-8.354000000000000000e+03 9.922000000000000000e+03
-2.523000000000000000e+03 1.353700000000000000e+04
6.752000000000000000e+03 1.445800000000000000e+04
1.418600000000000000e+04 7.297000000000000000e+03
1.278800000000000000e+04 -2.626000000000000000e+03
8.423000000000000000e+03 -9.071000000000000000e+03
-2.040000000000000000e+02 -1.128700000000000000e+04
-4.398000000000000000e+03 -8.287000000000000000e+03
-6.649000000000000000e+03 -7.161000000000000000e+03
-5.660000000000000000e+03 -3.137000000000000000e+03
-6.376000000000000000e+03 -2.557000000000000000e+03
-5.046000000000000000e+03 -1.091000000000000000e+03
-7.024000000000000000e+03 1.568000000000000000e+03
-8.252000000000000000e+03 7.262000000000000000e+03
-7.297000000000000000e+03 9.514000000000000000e+03
1.876000000000000000e+03 1.363900000000000000e+04
1.002500000000000000e+04 8.320000000000000000e+03
1.411800000000000000e+04 3.400000000000000000e+01
1.046800000000000000e+04 -8.082000000000000000e+03
2.967000000000000000e+03 -1.125300000000000000e+04
-3.171000000000000000e+03 -9.753000000000000000e+03
-5.285000000000000000e+03 -6.172000000000000000e+03
-5.524000000000000000e+03 -5.354000000000000000e+03
