-7.696100000000000000e+04 -1.389870000000000000e+05
-9.015800000000000000e+04 -1.241540000000000000e+05
-9.783000000000000000e+04 -1.078210000000000000e+05
-1.041040000000000000e+05 -9.401100000000000000e+04
-1.060140000000000000e+05 -7.921200000000000000e+04
-1.075480000000000000e+05 -6.778900000000000000e+04
-1.068660000000000000e+05 -5.940000000000000000e+04
-1.059800000000000000e+05 -4.988700000000000000e+04
-1.036950000000000000e+05 -4.272600000000000000e+04
-1.041380000000000000e+05 -3.815700000000000000e+04
-1.039680000000000000e+05 -3.590600000000000000e+04
-1.054680000000000000e+05 -3.089300000000000000e+04
-1.062870000000000000e+05 -2.611900000000000000e+04
-1.101740000000000000e+05 -2.212900000000000000e+04
-1.176410000000000000e+05 -1.537900000000000000e+04
-1.210170000000000000e+05 -7.093000000000000000e+03
-1.260640000000000000e+05 2.046000000000000000e+03
-1.327130000000000000e+05 1.462800000000000000e+04
-1.365330000000000000e+05 2.905300000000000000e+04
-1.397030000000000000e+05 4.623800000000000000e+04
-1.389530000000000000e+05 6.632300000000000000e+04
-1.339750000000000000e+05 8.606600000000000000e+04
-1.273260000000000000e+05 1.092190000000000000e+05
-1.147770000000000000e+05 1.299860000000000000e+05
-9.772700000000000000e+04 1.483650000000000000e+05
-7.699500000000000000e+04 1.632320000000000000e+05
-5.513800000000000000e+04 1.749280000000000000e+05
-3.065500000000000000e+04 1.838280000000000000e+05
-7.160000000000000000e+03 1.865220000000000000e+05
1.657300000000000000e+04 1.847820000000000000e+05
4.122600000000000000e+04 1.777920000000000000e+05
5.837800000000000000e+04 1.719620000000000000e+05
7.836000000000000000e+04 1.596170000000000000e+05
9.322700000000000000e+04 1.502410000000000000e+05
1.092540000000000000e+05 1.328150000000000000e+05
1.196880000000000000e+05 1.209840000000000000e+05
1.284170000000000000e+05 1.058780000000000000e+05
1.379640000000000000e+05 9.009000000000000000e+04
1.448870000000000000e+05 7.648400000000000000e+04
1.496950000000000000e+05 6.175300000000000000e+04
1.537870000000000000e+05 4.681900000000000000e+04
1.595160000000000000e+05 3.236000000000000000e+04
1.612200000000000000e+05 1.592400000000000000e+04
1.616300000000000000e+05 -2.012000000000000000e+03
1.643910000000000000e+05 -2.134600000000000000e+04
1.600950000000000000e+05 -3.836100000000000000e+04
1.568900000000000000e+05 -5.738900000000000000e+04
1.498650000000000000e+05 -7.754100000000000000e+04
1.386800000000000000e+05 -9.568100000000000000e+04
1.298500000000000000e+05 -1.116060000000000000e+05
1.136180000000000000e+05 -1.271550000000000000e+05
9.738700000000000000e+04 -1.424320000000000000e+05
7.999600000000000000e+04 -1.557980000000000000e+05
6.161700000000000000e+04 -1.633000000000000000e+05
4.156600000000000000e+04 -1.716210000000000000e+05
2.076700000000000000e+04 -1.777580000000000000e+05
-1.125000000000000000e+03 -1.807930000000000000e+05
-2.352800000000000000e+04 -1.795310000000000000e+05
-4.426100000000000000e+04 -1.747580000000000000e+05
-6.693600000000000000e+04 -1.708700000000000000e+05
-8.766900000000000000e+04 -1.613560000000000000e+05
-1.082310000000000000e+05 -1.508200000000000000e+05
-1.279400000000000000e+05 -1.330200000000000000e+05
-1.441370000000000000e+05 -1.155950000000000000e+05
-1.552530000000000000e+05 -9.394200000000000000e+04
-1.648350000000000000e+05 -7.027800000000000000e+04
-1.719610000000000000e+05 -4.542000000000000000e+04
-1.726440000000000000e+05 -1.960700000000000000e+04
-1.676650000000000000e+05 3.717000000000000000e+03
-1.593110000000000000e+05 2.513100000000000000e+04
-1.493200000000000000e+05 4.214600000000000000e+04
-1.363620000000000000e+05 5.401200000000000000e+04
-1.238480000000000000e+05 6.826700000000000000e+04
-1.115710000000000000e+05 7.505300000000000000e+04
-1.005240000000000000e+05 8.282700000000000000e+04
-8.882800000000000000e+04 8.763500000000000000e+04
-8.279200000000000000e+04 9.118000000000000000e+04
-7.481300000000000000e+04 9.414700000000000000e+04
-6.632200000000000000e+04 9.806900000000000000e+04
-5.936600000000000000e+04 1.050590000000000000e+05
-5.176200000000000000e+04 1.088780000000000000e+05
-4.651100000000000000e+04 1.172670000000000000e+05
-3.502000000000000000e+04 1.233020000000000000e+05
-2.472100000000000000e+04 1.298140000000000000e+05
-1.442400000000000000e+04 1.360220000000000000e+05
-7.850000000000000000e+02 1.407950000000000000e+05
1.500400000000000000e+04 1.475130000000000000e+05
3.215500000000000000e+04 1.500700000000000000e+05
5.015900000000000000e+04 1.516380000000000000e+05
6.850500000000000000e+04 1.500370000000000000e+05
8.818100000000000000e+04 1.453640000000000000e+05
1.104460000000000000e+05 1.360890000000000000e+05
1.274280000000000000e+05 1.230290000000000000e+05
1.446490000000000000e+05 1.077870000000000000e+05
1.563100000000000000e+05 8.811200000000000000e+04
1.679040000000000000e+05 6.455000000000000000e+04
1.717910000000000000e+05 4.190800000000000000e+04
1.725070000000000000e+05 1.701500000000000000e+04
1.691310000000000000e+05 -4.705000000000000000e+03
1.619370000000000000e+05 -2.448300000000000000e+04
1.528320000000000000e+05 -3.996300000000000000e+04
1.444440000000000000e+05 -5.602500000000000000e+04
1.331570000000000000e+05 -6.796000000000000000e+04
1.228240000000000000e+05 -7.791600000000000000e+04
1.119820000000000000e+05 -8.575800000000000000e+04
1.058780000000000000e+05 -9.360100000000000000e+04
9.827400000000000000e+04 -1.020250000000000000e+05
9.036300000000000000e+04 -1.084690000000000000e+05
8.224700000000000000e+04 -1.180170000000000000e+05
7.239200000000000000e+04 -1.258590000000000000e+05
6.475500000000000000e+04 -1.363960000000000000e+05
5.285400000000000000e+04 -1.469320000000000000e+05
3.860000000000000000e+04 -1.579120000000000000e+05
2.243700000000000000e+04 -1.685510000000000000e+05
3.409000000000000000e+03 -1.762240000000000000e+05
-2.195900000000000000e+04 -1.811340000000000000e+05
-4.576100000000000000e+04 -1.839640000000000000e+05
-7.065300000000000000e+04 -1.811670000000000000e+05
-9.428400000000000000e+04 -1.726090000000000000e+05
-1.177440000000000000e+05 -1.620720000000000000e+05
-1.392260000000000000e+05 -1.468300000000000000e+05
-1.567880000000000000e+05 -1.252790000000000000e+05
-1.726430000000000000e+05 -1.046160000000000000e+05
-1.808270000000000000e+05 -8.074600000000000000e+04
-1.888740000000000000e+05 -5.578600000000000000e+04
-1.940240000000000000e+05 -2.942800000000000000e+04
-1.949780000000000000e+05 -6.274000000000000000e+03
-1.927620000000000000e+05 1.950500000000000000e+04
-1.864530000000000000e+05 4.381700000000000000e+04
-1.773830000000000000e+05 6.540200000000000000e+04
-1.672900000000000000e+05 8.804300000000000000e+04
-1.543320000000000000e+05 1.089120000000000000e+05
-1.384420000000000000e+05 1.260640000000000000e+05
-1.201650000000000000e+05 1.436250000000000000e+05
-9.994400000000000000e+04 1.536850000000000000e+05
-7.801800000000000000e+04 1.626190000000000000e+05
-5.609300000000000000e+04 1.694730000000000000e+05
-3.362100000000000000e+04 1.709730000000000000e+05
-1.285600000000000000e+04 1.685850000000000000e+05
4.501000000000000000e+03 1.645280000000000000e+05
2.332500000000000000e+04 1.601290000000000000e+05
3.638400000000000000e+04 1.521510000000000000e+05
4.934200000000000000e+04 1.436590000000000000e+05
6.189000000000000000e+04 1.366350000000000000e+05
7.259700000000000000e+04 1.298150000000000000e+05
8.180300000000000000e+04 1.214950000000000000e+05
9.104500000000000000e+04 1.131750000000000000e+05
9.796700000000000000e+04 1.067300000000000000e+05
1.092530000000000000e+05 9.793200000000000000e+04
1.190390000000000000e+05 9.012400000000000000e+04
1.270870000000000000e+05 8.026900000000000000e+04
1.342820000000000000e+05 7.102800000000000000e+04
1.418180000000000000e+05 5.783200000000000000e+04
1.472060000000000000e+05 4.364700000000000000e+04
1.519450000000000000e+05 2.867800000000000000e+04
1.572980000000000000e+05 1.251500000000000000e+04
1.591740000000000000e+05 -4.126000000000000000e+03
1.582190000000000000e+05 -2.352800000000000000e+04
1.561050000000000000e+05 -4.351000000000000000e+04
1.495930000000000000e+05 -6.267400000000000000e+04
1.388850000000000000e+05 -8.009800000000000000e+04
1.269160000000000000e+05 -9.864900000000000000e+04
1.099350000000000000e+05 -1.134470000000000000e+05
1.011380000000000000e+05 -1.218360000000000000e+05
7.467700000000000000e+04 -1.336680000000000000e+05
5.438900000000000000e+04 -1.369420000000000000e+05
3.744100000000000000e+04 -1.374530000000000000e+05
2.069800000000000000e+04 -1.334300000000000000e+05
7.399000000000000000e+03 -1.307010000000000000e+05
-4.398000000000000000e+03 -1.245970000000000000e+05
-1.398100000000000000e+04 -1.209490000000000000e+05
-2.427800000000000000e+04 -1.161750000000000000e+05
-3.068900000000000000e+04 -1.147430000000000000e+05
-3.808800000000000000e+04 -1.131060000000000000e+05
-4.545300000000000000e+04 -1.109590000000000000e+05
-5.404700000000000000e+04 -1.090830000000000000e+05
-6.233300000000000000e+04 -1.086740000000000000e+05
-7.304100000000000000e+04 -1.087080000000000000e+05
-8.487200000000000000e+04 -1.089120000000000000e+05
-9.868300000000000000e+04 -1.078560000000000000e+05
-1.094580000000000000e+05 -1.032170000000000000e+05
-1.253830000000000000e+05 -9.718200000000000000e+04
-1.388180000000000000e+05 -8.753200000000000000e+04
-1.539910000000000000e+05 -7.331300000000000000e+04
-1.691990000000000000e+05 -5.732100000000000000e+04
-1.800090000000000000e+05 -3.682700000000000000e+04
-1.840660000000000000e+05 -1.152500000000000000e+04
-1.838620000000000000e+05 1.486700000000000000e+04
-1.797700000000000000e+05 4.334000000000000000e+04
-1.687220000000000000e+05 7.000500000000000000e+04
-1.546720000000000000e+05 9.513700000000000000e+04
-1.373850000000000000e+05 1.168580000000000000e+05
-1.156980000000000000e+05 1.347590000000000000e+05
-9.438600000000000000e+04 1.501720000000000000e+05
-7.280100000000000000e+04 1.585940000000000000e+05
-5.022700000000000000e+04 1.641530000000000000e+05
-3.058700000000000000e+04 1.677670000000000000e+05
-9.685000000000000000e+03 1.701200000000000000e+05
1.176400000000000000e+04 1.663350000000000000e+05
2.912100000000000000e+04 1.641190000000000000e+05
4.490800000000000000e+04 1.575040000000000000e+05
6.431100000000000000e+04 1.526960000000000000e+05
8.020000000000000000e+04 1.452620000000000000e+05
9.728400000000000000e+04 1.353390000000000000e+05
1.128680000000000000e+05 1.268830000000000000e+05
1.270190000000000000e+05 1.144700000000000000e+05
1.392950000000000000e+05 9.939800000000000000e+04
1.498650000000000000e+05 8.449700000000000000e+04
1.556620000000000000e+05 6.526600000000000000e+04
1.611520000000000000e+05 4.364700000000000000e+04
1.636420000000000000e+05 2.577900000000000000e+04
1.607770000000000000e+05 5.728000000000000000e+03
1.571290000000000000e+05 -1.203700000000000000e+04
1.503760000000000000e+05 -3.058700000000000000e+04
1.422270000000000000e+05 -4.855700000000000000e+04
1.310090000000000000e+05 -6.530000000000000000e+04
1.195850000000000000e+05 -7.911000000000000000e+04
1.055370000000000000e+05 -9.172600000000000000e+04
9.169300000000000000e+04 -1.031830000000000000e+05
7.740400000000000000e+04 -1.144710000000000000e+05
5.981100000000000000e+04 -1.231320000000000000e+05
4.351100000000000000e+04 -1.310760000000000000e+05
2.847200000000000000e+04 -1.360550000000000000e+05
1.016200000000000000e+04 -1.402840000000000000e+05
-9.480000000000000000e+03 -1.409310000000000000e+05
-2.625500000000000000e+04 -1.401130000000000000e+05
-4.347500000000000000e+04 -1.378620000000000000e+05
-6.223000000000000000e+04 -1.291680000000000000e+05
-7.750800000000000000e+04 -1.209490000000000000e+05
-8.835100000000000000e+04 -1.074800000000000000e+05
-9.997800000000000000e+04 -9.302300000000000000e+04
-1.110260000000000000e+05 -7.607600000000000000e+04
-1.120840000000000000e+05 -6.400400000000000000e+04
-1.172320000000000000e+05 -4.668100000000000000e+04
-1.164480000000000000e+05 -3.403100000000000000e+04
-1.122540000000000000e+05 -2.339200000000000000e+04
-1.121520000000000000e+05 -1.121800000000000000e+04
-1.105150000000000000e+05 -3.649000000000000000e+03
-1.060820000000000000e+05 6.308000000000000000e+03
-1.038660000000000000e+05 1.125300000000000000e+04
-1.005920000000000000e+05 1.923200000000000000e+04
-9.728400000000000000e+04 2.704100000000000000e+04
-9.595400000000000000e+04 3.570100000000000000e+04
-9.131700000000000000e+04 4.439700000000000000e+04
-8.777000000000000000e+04 5.534200000000000000e+04
-8.101900000000000000e+04 6.438000000000000000e+04
-7.716600000000000000e+04 7.730200000000000000e+04
-6.990300000000000000e+04 8.453100000000000000e+04
-6.192400000000000000e+04 9.762600000000000000e+04
-5.019400000000000000e+04 1.107880000000000000e+05
-3.689500000000000000e+04 1.212560000000000000e+05
-2.230100000000000000e+04 1.321680000000000000e+05
-2.047000000000000000e+03 1.412730000000000000e+05
1.711800000000000000e+04 1.496270000000000000e+05
3.880500000000000000e+04 1.508890000000000000e+05
6.454900000000000000e+04 1.492860000000000000e+05
8.685000000000000000e+04 1.429090000000000000e+05
1.065590000000000000e+05 1.297470000000000000e+05
1.256900000000000000e+05 1.122200000000000000e+05
1.351690000000000000e+05 9.264700000000000000e+04
1.423980000000000000e+05 6.792500000000000000e+04
1.468650000000000000e+05 4.715900000000000000e+04
1.439660000000000000e+05 2.441500000000000000e+04
1.421580000000000000e+05 8.832000000000000000e+03
1.351690000000000000e+05 -6.036000000000000000e+03
1.259620000000000000e+05 -1.923200000000000000e+04
1.202320000000000000e+05 -2.980200000000000000e+04
1.126980000000000000e+05 -4.108900000000000000e+04
1.056730000000000000e+05 -4.981900000000000000e+04
9.602300000000000000e+04 -5.875200000000000000e+04
8.831600000000000000e+04 -6.437900000000000000e+04
8.211000000000000000e+04 -7.242700000000000000e+04
7.409700000000000000e+04 -8.125800000000000000e+04
6.277600000000000000e+04 -8.606600000000000000e+04
5.350200000000000000e+04 -9.500100000000000000e+04
4.276000000000000000e+04 -1.028430000000000000e+05
3.358800000000000000e+04 -1.078890000000000000e+05
2.001600000000000000e+04 -1.110600000000000000e+05
7.775000000000000000e+03 -1.173000000000000000e+05
-8.115000000000000000e+03 -1.169590000000000000e+05
-2.148200000000000000e+04 -1.178120000000000000e+05
-3.389400000000000000e+04 -1.151520000000000000e+05
-4.695400000000000000e+04 -1.099010000000000000e+05
-5.820700000000000000e+04 -1.069340000000000000e+05
-6.669800000000000000e+04 -9.823900000000000000e+04
-7.440500000000000000e+04 -9.046400000000000000e+04
-7.904100000000000000e+04 -8.156500000000000000e+04
-8.558800000000000000e+04 -7.061900000000000000e+04
-8.742900000000000000e+04 -6.247000000000000000e+04
-9.107800000000000000e+04 -5.264900000000000000e+04
-9.414700000000000000e+04 -4.347600000000000000e+04
-9.680600000000000000e+04 -3.352000000000000000e+04
-9.933100000000000000e+04 -2.468800000000000000e+04
-9.977400000000000000e+04 -1.319600000000000000e+04
-1.015460000000000000e+05 -6.445000000000000000e+03
-1.029790000000000000e+05 4.092000000000000000e+03
-1.042070000000000000e+05 1.456100000000000000e+04
-1.022620000000000000e+05 2.482500000000000000e+04
-9.708000000000000000e+04 3.580400000000000000e+04
-9.387400000000000000e+04 4.876100000000000000e+04
-8.678200000000000000e+04 5.708200000000000000e+04
-8.187100000000000000e+04 6.669700000000000000e+04
-7.106200000000000000e+04 7.563200000000000000e+04
-6.131000000000000000e+04 8.231500000000000000e+04
-4.968200000000000000e+04 8.940700000000000000e+04
-4.013400000000000000e+04 9.159000000000000000e+04
-2.912000000000000000e+04 9.390800000000000000e+04
-1.909600000000000000e+04 9.769400000000000000e+04
-9.104000000000000000e+03 1.001490000000000000e+05
3.750000000000000000e+02 1.012070000000000000e+05
1.098100000000000000e+04 1.013420000000000000e+05
2.052800000000000000e+04 9.892200000000000000e+04
2.052800000000000000e+04 9.118000000000000000e+04
3.682700000000000000e+04 9.660200000000000000e+04
4.497600000000000000e+04 9.438600000000000000e+04
5.479700000000000000e+04 9.124900000000000000e+04
6.294700000000000000e+04 8.777100000000000000e+04
7.389300000000000000e+04 8.449700000000000000e+04
8.252000000000000000e+04 7.665500000000000000e+04
9.240900000000000000e+04 7.024500000000000000e+04
1.009330000000000000e+05 5.994600000000000000e+04
1.074120000000000000e+05 4.968200000000000000e+04
1.145040000000000000e+05 3.457600000000000000e+04
1.160390000000000000e+05 1.916400000000000000e+04
1.181200000000000000e+05 3.239000000000000000e+03
1.158680000000000000e+05 -1.288900000000000000e+04
1.090830000000000000e+05 -2.738200000000000000e+04
1.004560000000000000e+05 -4.218000000000000000e+04
8.831700000000000000e+04 -5.148900000000000000e+04
7.921200000000000000e+04 -5.571800000000000000e+04
6.669800000000000000e+04 -5.960500000000000000e+04
5.391000000000000000e+04 -6.134300000000000000e+04
4.603400000000000000e+04 -6.045800000000000000e+04
3.969100000000000000e+04 -5.929900000000000000e+04
3.311000000000000000e+04 -5.800200000000000000e+04
2.908600000000000000e+04 -5.697900000000000000e+04
2.451600000000000000e+04 -5.438800000000000000e+04
1.953800000000000000e+04 -5.367100000000000000e+04
1.575300000000000000e+04 -5.418300000000000000e+04
1.132200000000000000e+04 -5.394500000000000000e+04
1.074100000000000000e+04 -5.500100000000000000e+04
6.923000000000000000e+03 -5.585400000000000000e+04
9.890000000000000000e+02 -5.694500000000000000e+04
4.770000000000000000e+02 -5.848000000000000000e+04
-3.171000000000000000e+03 -6.113900000000000000e+04
-7.843000000000000000e+03 -6.148000000000000000e+04
-1.326500000000000000e+04 -6.281100000000000000e+04
-1.769700000000000000e+04 -6.039000000000000000e+04
-2.301700000000000000e+04 -6.032100000000000000e+04
-2.840400000000000000e+04 -5.663800000000000000e+04
5.319000000000000000e+03 -3.137000000000000000e+03
4.365000000000000000e+03 -5.387000000000000000e+03
6.547000000000000000e+03 -6.649000000000000000e+03
8.116000000000000000e+03 -9.888000000000000000e+03
1.231000000000000000e+04 -1.016100000000000000e+04
1.278800000000000000e+04 -7.740000000000000000e+03
9.958000000000000000e+03 -7.331000000000000000e+03
6.274000000000000000e+03 -6.308000000000000000e+03
2.762000000000000000e+03 -7.434000000000000000e+03
-1.023000000000000000e+03 -1.217300000000000000e+04
-4.430000000000000000e+02 -1.295700000000000000e+04
-3.717000000000000000e+03 -1.374200000000000000e+04
-5.012000000000000000e+03 -1.565200000000000000e+04
-4.808000000000000000e+03 -1.674200000000000000e+04
-8.559000000000000000e+03 -1.619700000000000000e+04
-8.593000000000000000e+03 -1.657200000000000000e+04
-8.933000000000000000e+03 -1.483300000000000000e+04
-1.442500000000000000e+04 -8.865000000000000000e+03
-1.824300000000000000e+04 -1.142300000000000000e+04
-2.168700000000000000e+04 -7.501000000000000000e+03
-2.513100000000000000e+04 -4.194000000000000000e+03
-2.646100000000000000e+04 -2.455000000000000000e+03
-2.717700000000000000e+04 2.182000000000000000e+03
-2.649500000000000000e+04 1.398000000000000000e+03
-2.380200000000000000e+04 7.468000000000000000e+03
-2.175500000000000000e+04 9.445000000000000000e+03
-2.100500000000000000e+04 1.091200000000000000e+04
-1.800400000000000000e+04 1.364000000000000000e+04
-1.926600000000000000e+04 1.367400000000000000e+04
-1.364000000000000000e+04 1.619700000000000000e+04
-1.248000000000000000e+04 2.093600000000000000e+04
-1.121800000000000000e+04 2.015200000000000000e+04
-9.446000000000000000e+03 2.414200000000000000e+04
-6.990000000000000000e+03 2.376700000000000000e+04
-4.467000000000000000e+03 2.219800000000000000e+04
-3.400000000000000000e+01 2.414300000000000000e+04
3.750000000000000000e+03 2.479000000000000000e+04
8.490000000000000000e+03 2.683600000000000000e+04
1.074100000000000000e+04 2.434700000000000000e+04
1.602600000000000000e+04 2.318800000000000000e+04
1.913000000000000000e+04 1.936900000000000000e+04
2.277800000000000000e+04 1.647000000000000000e+04
2.584700000000000000e+04 1.439000000000000000e+04
2.826800000000000000e+04 1.162800000000000000e+04
2.860900000000000000e+04 9.855000000000000000e+03
2.567600000000000000e+04 5.524000000000000000e+03
2.438100000000000000e+04 4.090000000000000000e+02
2.458500000000000000e+04 -3.580000000000000000e+03
2.148200000000000000e+04 -6.069000000000000000e+03
1.981100000000000000e+04 -7.809000000000000000e+03
2.039100000000000000e+04 -9.343000000000000000e+03
1.807200000000000000e+04 -9.377000000000000000e+03
1.616300000000000000e+04 -7.843000000000000000e+03
1.657200000000000000e+04 -9.514000000000000000e+03
1.500400000000000000e+04 -9.105000000000000000e+03
1.643600000000000000e+04 -1.053600000000000000e+04
1.855000000000000000e+04 -8.763000000000000000e+03
1.936800000000000000e+04 -9.172000000000000000e+03
2.458500000000000000e+04 -3.853000000000000000e+03
1.711800000000000000e+04 -1.977800000000000000e+04
1.834500000000000000e+04 -1.783400000000000000e+04
1.647000000000000000e+04 -1.609500000000000000e+04
1.773100000000000000e+04 -2.059500000000000000e+04
1.548100000000000000e+04 -2.281200000000000000e+04
1.459500000000000000e+04 -2.629000000000000000e+04
1.214000000000000000e+04 -3.167800000000000000e+04
9.753000000000000000e+03 -3.403100000000000000e+04
4.331000000000000000e+03 -3.856500000000000000e+04
-3.068000000000000000e+03 -4.020200000000000000e+04
-1.098000000000000000e+04 -4.333900000000000000e+04
-1.786700000000000000e+04 -4.269200000000000000e+04
-2.649400000000000000e+04 -4.197600000000000000e+04
-3.447500000000000000e+04 -4.279400000000000000e+04
-4.095200000000000000e+04 -3.720200000000000000e+04
-4.811400000000000000e+04 -3.225800000000000000e+04
-5.483100000000000000e+04 -2.802900000000000000e+04
-5.994600000000000000e+04 -2.110700000000000000e+04
-6.349300000000000000e+04 -1.353700000000000000e+04
-6.564100000000000000e+04 -8.320000000000000000e+03
-6.918700000000000000e+04 -9.550000000000000000e+02
-6.836900000000000000e+04 5.797000000000000000e+03
-7.314200000000000000e+04 1.421900000000000000e+04
-7.034700000000000000e+04 2.574500000000000000e+04
-6.932400000000000000e+04 3.259900000000000000e+04
-6.673200000000000000e+04 4.313600000000000000e+04
-5.963900000000000000e+04 5.224000000000000000e+04
-5.247800000000000000e+04 6.079900000000000000e+04
-4.194100000000000000e+04 7.072100000000000000e+04
-3.065400000000000000e+04 7.818900000000000000e+04
-1.834600000000000000e+04 8.170100000000000000e+04
-4.876000000000000000e+03 8.292900000000000000e+04
9.583000000000000000e+03 8.593000000000000000e+04
2.632500000000000000e+04 8.091700000000000000e+04
3.945300000000000000e+04 7.699600000000000000e+04
5.114900000000000000e+04 7.099400000000000000e+04
6.110600000000000000e+04 6.158300000000000000e+04
6.908500000000000000e+04 5.404700000000000000e+04
7.566600000000000000e+04 4.129400000000000000e+04
7.897400000000000000e+04 3.099700000000000000e+04
8.136100000000000000e+04 2.063000000000000000e+04
8.214400000000000000e+04 1.173000000000000000e+04
8.050800000000000000e+04 8.520000000000000000e+02
7.733700000000000000e+04 -7.843000000000000000e+03
7.321000000000000000e+04 -1.537900000000000000e+04
6.874400000000000000e+04 -2.346000000000000000e+04
6.229900000000000000e+04 -2.898400000000000000e+04
5.602600000000000000e+04 -3.242800000000000000e+04
4.869300000000000000e+04 -3.764500000000000000e+04
4.317000000000000000e+04 -4.023600000000000000e+04
3.556500000000000000e+04 -4.235100000000000000e+04
3.052000000000000000e+04 -4.531700000000000000e+04
2.294900000000000000e+04 -4.446500000000000000e+04
4.777400000000000000e+04 -1.456000000000000000e+04
4.484000000000000000e+04 -1.670900000000000000e+04
4.228300000000000000e+04 -1.899300000000000000e+04
3.911200000000000000e+04 -1.899300000000000000e+04
3.822500000000000000e+04 -1.960700000000000000e+04
3.563300000000000000e+04 -2.148300000000000000e+04
3.201900000000000000e+04 -2.335800000000000000e+04
3.242900000000000000e+04 -2.574400000000000000e+04
3.225800000000000000e+04 -2.683600000000000000e+04
3.392900000000000000e+04 -2.881300000000000000e+04
3.437200000000000000e+04 -3.034900000000000000e+04
3.317800000000000000e+04 -3.379300000000000000e+04
3.249700000000000000e+04 -3.750900000000000000e+04
3.140500000000000000e+04 -4.081700000000000000e+04
2.813200000000000000e+04 -4.538600000000000000e+04
2.625700000000000000e+04 -5.131900000000000000e+04
2.226700000000000000e+04 -5.578600000000000000e+04
1.688000000000000000e+04 -6.168500000000000000e+04
1.115100000000000000e+04 -6.652700000000000000e+04
1.910000000000000000e+03 -7.079000000000000000e+04
-7.741000000000000000e+03 -7.437000000000000000e+04
-1.947000000000000000e+04 -7.761000000000000000e+04
-3.065500000000000000e+04 -7.907600000000000000e+04
-4.644200000000000000e+04 -7.815500000000000000e+04
-6.206000000000000000e+04 -7.617800000000000000e+04
-7.730200000000000000e+04 -6.710700000000000000e+04
-9.397600000000000000e+04 -5.888900000000000000e+04
-1.035250000000000000e+05 -4.787500000000000000e+04
-1.148120000000000000e+05 -3.287100000000000000e+04
-1.222800000000000000e+05 -1.653800000000000000e+04
-1.255180000000000000e+05 -2.830000000000000000e+03
-1.227220000000000000e+05 1.462800000000000000e+04
-1.200960000000000000e+05 2.867700000000000000e+04
-1.151180000000000000e+05 4.156600000000000000e+04
-1.080600000000000000e+05 5.278500000000000000e+04
-9.680700000000000000e+04 6.359500000000000000e+04
-8.681600000000000000e+04 7.113100000000000000e+04
-7.542700000000000000e+04 8.132600000000000000e+04
