-1.531100000000000000e+04 -6.820000000000000000e+02
-1.722000000000000000e+04 -1.500000000000000000e+03
-1.544600000000000000e+04 -7.840000000000000000e+02
-1.657200000000000000e+04 -1.262000000000000000e+03
-1.609500000000000000e+04 4.433000000000000000e+03
-1.687900000000000000e+04 3.853000000000000000e+03
-1.602600000000000000e+04 4.808000000000000000e+03
-1.749300000000000000e+04 4.705000000000000000e+03
-1.456000000000000000e+04 6.581000000000000000e+03
-1.490100000000000000e+04 7.672000000000000000e+03
-1.493500000000000000e+04 7.604000000000000000e+03
-1.237800000000000000e+04 1.005900000000000000e+04
-1.292300000000000000e+04 9.991000000000000000e+03
-1.268500000000000000e+04 9.581000000000000000e+03
-1.149100000000000000e+04 1.023000000000000000e+04
-1.169600000000000000e+04 1.169600000000000000e+04
-9.274000000000000000e+03 1.350300000000000000e+04
-9.138000000000000000e+03 1.186600000000000000e+04
-1.036600000000000000e+04 1.367400000000000000e+04
-8.422000000000000000e+03 1.438900000000000000e+04
-6.445000000000000000e+03 1.289000000000000000e+04
-7.638000000000000000e+03 1.309400000000000000e+04
-6.888000000000000000e+03 1.210500000000000000e+04
-4.501000000000000000e+03 1.254800000000000000e+04
-6.138000000000000000e+03 1.169500000000000000e+04
-6.308000000000000000e+03 1.176400000000000000e+04
-5.422000000000000000e+03 1.254800000000000000e+04
-4.023000000000000000e+03 1.258300000000000000e+04
-2.728000000000000000e+03 1.254800000000000000e+04
-2.864000000000000000e+03 1.265000000000000000e+04
-2.523000000000000000e+03 1.278700000000000000e+04
-2.558000000000000000e+03 1.428800000000000000e+04
-2.830000000000000000e+03 1.098000000000000000e+04
-1.125000000000000000e+03 1.282100000000000000e+04
-8.870000000000000000e+02 1.111600000000000000e+04
-8.870000000000000000e+02 1.125200000000000000e+04
-9.900000000000000000e+02 1.186600000000000000e+04
6.140000000000000000e+02 1.217300000000000000e+04
2.720000000000000000e+02 1.169600000000000000e+04
2.421000000000000000e+03 1.169600000000000000e+04
8.190000000000000000e+02 1.132100000000000000e+04
2.352000000000000000e+03 1.012700000000000000e+04
-2.730000000000000000e+02 1.135500000000000000e+04
1.296000000000000000e+03 1.200300000000000000e+04
6.480000000000000000e+02 1.183300000000000000e+04
6.810000000000000000e+02 1.026300000000000000e+04
1.670000000000000000e+03 1.012800000000000000e+04
1.364000000000000000e+03 1.043400000000000000e+04
2.796000000000000000e+03 1.128700000000000000e+04
2.557000000000000000e+03 1.060500000000000000e+04
2.591000000000000000e+03 1.074000000000000000e+04
1.569000000000000000e+03 1.012800000000000000e+04
4.058000000000000000e+03 9.241000000000000000e+03
2.284000000000000000e+03 1.084300000000000000e+04
5.933000000000000000e+03 9.445000000000000000e+03
3.785000000000000000e+03 1.053700000000000000e+04
1.875000000000000000e+03 9.821000000000000000e+03
3.512000000000000000e+03 1.166200000000000000e+04
4.637000000000000000e+03 9.650000000000000000e+03
4.705000000000000000e+03 8.218000000000000000e+03
3.205000000000000000e+03 9.241000000000000000e+03
3.751000000000000000e+03 8.320000000000000000e+03
5.183000000000000000e+03 1.029800000000000000e+04
5.660000000000000000e+03 9.547000000000000000e+03
6.103000000000000000e+03 8.013000000000000000e+03
5.626000000000000000e+03 7.979000000000000000e+03
7.330000000000000000e+03 9.582000000000000000e+03
7.877000000000000000e+03 6.921000000000000000e+03
8.183000000000000000e+03 7.672000000000000000e+03
8.559000000000000000e+03 6.717000000000000000e+03
9.206000000000000000e+03 7.468000000000000000e+03
1.040000000000000000e+04 5.797000000000000000e+03
8.661000000000000000e+03 5.489000000000000000e+03
1.132100000000000000e+04 4.058000000000000000e+03
1.244700000000000000e+04 5.694000000000000000e+03
1.067300000000000000e+04 3.955000000000000000e+03
1.125300000000000000e+04 3.785000000000000000e+03
1.411700000000000000e+04 4.568000000000000000e+03
1.360500000000000000e+04 1.159000000000000000e+03
1.350300000000000000e+04 1.360000000000000000e+02
1.404800000000000000e+04 -1.432000000000000000e+03
1.490100000000000000e+04 -0.000000000000000000e+00
1.524200000000000000e+04 6.130000000000000000e+02
1.510600000000000000e+04 -3.409000000000000000e+03
1.629900000000000000e+04 -1.534000000000000000e+03
1.479800000000000000e+04 -3.512000000000000000e+03
1.520800000000000000e+04 -6.684000000000000000e+03
1.769700000000000000e+04 -5.933000000000000000e+03
1.384500000000000000e+04 -8.081000000000000000e+03
1.408300000000000000e+04 -1.009400000000000000e+04
1.534500000000000000e+04 -8.287000000000000000e+03
1.462900000000000000e+04 -8.832000000000000000e+03
1.476500000000000000e+04 -9.889000000000000000e+03
1.265100000000000000e+04 -1.415100000000000000e+04
1.278700000000000000e+04 -1.285600000000000000e+04
8.934000000000000000e+03 -1.449200000000000000e+04
1.060500000000000000e+04 -1.684500000000000000e+04
8.593000000000000000e+03 -1.633400000000000000e+04
8.968000000000000000e+03 -1.701600000000000000e+04
7.877000000000000000e+03 -1.677700000000000000e+04
7.263000000000000000e+03 -1.514000000000000000e+04
5.251000000000000000e+03 -1.544700000000000000e+04
3.273000000000000000e+03 -1.773100000000000000e+04
1.671000000000000000e+03 -1.681100000000000000e+04
2.898000000000000000e+03 -1.745900000000000000e+04
6.480000000000000000e+02 -1.554900000000000000e+04
-1.296000000000000000e+03 -1.670900000000000000e+04
-2.216000000000000000e+03 -1.759500000000000000e+04
-3.342000000000000000e+03 -1.653800000000000000e+04
-3.989000000000000000e+03 -1.619800000000000000e+04
-4.262000000000000000e+03 -1.541300000000000000e+04
-5.524000000000000000e+03 -1.370800000000000000e+04
-7.911000000000000000e+03 -1.333300000000000000e+04
-7.501000000000000000e+03 -1.289000000000000000e+04
-8.389000000000000000e+03 -1.094600000000000000e+04
-8.661000000000000000e+03 -1.231000000000000000e+04
-8.763000000000000000e+03 -1.040100000000000000e+04
-1.162800000000000000e+04 -9.992000000000000000e+03
-1.172900000000000000e+04 -9.377000000000000000e+03
-1.053700000000000000e+04 -6.615000000000000000e+03
-1.316200000000000000e+04 -8.968000000000000000e+03
-1.336700000000000000e+04 -8.559000000000000000e+03
-1.258200000000000000e+04 -7.195000000000000000e+03
-1.360500000000000000e+04 -3.922000000000000000e+03
-1.514000000000000000e+04 -4.740000000000000000e+03
-1.299200000000000000e+04 -2.831000000000000000e+03
-1.459500000000000000e+04 -2.524000000000000000e+03
-1.561700000000000000e+04 -1.160000000000000000e+03
-1.646900000000000000e+04 1.020000000000000000e+02
-1.585600000000000000e+04 1.125000000000000000e+03
-1.401500000000000000e+04 2.080000000000000000e+03
-1.271800000000000000e+04 2.387000000000000000e+03
-1.381000000000000000e+04 5.115000000000000000e+03
-1.323100000000000000e+04 4.603000000000000000e+03
-1.350300000000000000e+04 5.182000000000000000e+03
-1.200200000000000000e+04 6.171000000000000000e+03
-1.309400000000000000e+04 5.524000000000000000e+03
-1.210500000000000000e+04 9.479000000000000000e+03
-1.138900000000000000e+04 9.957000000000000000e+03
-1.043400000000000000e+04 9.855000000000000000e+03
-9.445000000000000000e+03 1.336700000000000000e+04
-7.911000000000000000e+03 1.336700000000000000e+04
-6.718000000000000000e+03 1.220700000000000000e+04
-6.819000000000000000e+03 1.186700000000000000e+04
-5.422000000000000000e+03 1.220700000000000000e+04
-5.626000000000000000e+03 1.343500000000000000e+04
-5.524000000000000000e+03 1.381000000000000000e+04
-4.398000000000000000e+03 1.479900000000000000e+04
-3.035000000000000000e+03 1.377600000000000000e+04
-2.353000000000000000e+03 1.459400000000000000e+04
-2.455000000000000000e+03 1.370700000000000000e+04
-2.591000000000000000e+03 1.285500000000000000e+04
-3.400000000000000000e+01 1.214000000000000000e+04
-5.110000000000000000e+02 1.241200000000000000e+04
1.943000000000000000e+03 1.043400000000000000e+04
1.125000000000000000e+03 1.210500000000000000e+04
1.602000000000000000e+03 1.271900000000000000e+04
1.023000000000000000e+03 1.186600000000000000e+04
3.035000000000000000e+03 1.043500000000000000e+04
4.433000000000000000e+03 8.422000000000000000e+03
3.512000000000000000e+03 9.241000000000000000e+03
3.375000000000000000e+03 9.308000000000000000e+03
1.363000000000000000e+03 1.111600000000000000e+04
3.479000000000000000e+03 8.865000000000000000e+03
3.649000000000000000e+03 8.729000000000000000e+03
5.388000000000000000e+03 6.649000000000000000e+03
3.683000000000000000e+03 6.615000000000000000e+03
3.854000000000000000e+03 9.070000000000000000e+03
4.024000000000000000e+03 6.956000000000000000e+03
2.012000000000000000e+03 7.229000000000000000e+03
3.547000000000000000e+03 7.468000000000000000e+03
3.614000000000000000e+03 6.478000000000000000e+03
3.717000000000000000e+03 6.785000000000000000e+03
3.308000000000000000e+03 5.762000000000000000e+03
2.149000000000000000e+03 6.649000000000000000e+03
2.967000000000000000e+03 7.194000000000000000e+03
3.785000000000000000e+03 5.728000000000000000e+03
3.239000000000000000e+03 6.956000000000000000e+03
2.318000000000000000e+03 5.899000000000000000e+03
2.864000000000000000e+03 5.421000000000000000e+03
2.864000000000000000e+03 5.865000000000000000e+03
2.694000000000000000e+03 6.581000000000000000e+03
2.796000000000000000e+03 6.990000000000000000e+03
2.455000000000000000e+03 6.240000000000000000e+03
2.490000000000000000e+03 7.195000000000000000e+03
3.239000000000000000e+03 5.830000000000000000e+03
3.240000000000000000e+03 5.183000000000000000e+03
3.614000000000000000e+03 6.615000000000000000e+03
4.773000000000000000e+03 6.444000000000000000e+03
2.762000000000000000e+03 6.138000000000000000e+03
3.989000000000000000e+03 4.705000000000000000e+03
4.330000000000000000e+03 5.455000000000000000e+03
6.547000000000000000e+03 6.444000000000000000e+03
6.138000000000000000e+03 5.421000000000000000e+03
7.297000000000000000e+03 4.398000000000000000e+03
6.070000000000000000e+03 6.513000000000000000e+03
7.672000000000000000e+03 3.409000000000000000e+03
7.605000000000000000e+03 3.273000000000000000e+03
7.911000000000000000e+03 3.785000000000000000e+03
7.093000000000000000e+03 3.648000000000000000e+03
8.729000000000000000e+03 8.860000000000000000e+02
9.036000000000000000e+03 9.210000000000000000e+02
7.638000000000000000e+03 -4.090000000000000000e+02
1.033200000000000000e+04 -2.390000000000000000e+02
1.162800000000000000e+04 -6.130000000000000000e+02
1.125300000000000000e+04 -1.807000000000000000e+03
1.074200000000000000e+04 -5.660000000000000000e+03
1.275300000000000000e+04 -5.524000000000000000e+03
1.115100000000000000e+04 -5.047000000000000000e+03
1.289000000000000000e+04 -5.115000000000000000e+03
1.377700000000000000e+04 -7.843000000000000000e+03
1.278700000000000000e+04 -9.514000000000000000e+03
1.149200000000000000e+04 -1.009300000000000000e+04
1.316200000000000000e+04 -9.889000000000000000e+03
1.268500000000000000e+04 -1.248100000000000000e+04
1.111600000000000000e+04 -1.316200000000000000e+04
1.456000000000000000e+04 -1.214000000000000000e+04
1.261700000000000000e+04 -1.333300000000000000e+04
1.070800000000000000e+04 -1.565100000000000000e+04
1.210500000000000000e+04 -1.438900000000000000e+04
1.063900000000000000e+04 -1.476500000000000000e+04
9.719000000000000000e+03 -1.762900000000000000e+04
7.570000000000000000e+03 -1.725400000000000000e+04
8.081000000000000000e+03 -1.899300000000000000e+04
7.058000000000000000e+03 -1.875500000000000000e+04
5.354000000000000000e+03 -2.090300000000000000e+04
2.182000000000000000e+03 -1.885700000000000000e+04
4.296000000000000000e+03 -1.872100000000000000e+04
7.840000000000000000e+02 -2.056200000000000000e+04
1.227000000000000000e+03 -1.977700000000000000e+04
2.390000000000000000e+02 -2.022100000000000000e+04
-2.762000000000000000e+03 -1.943600000000000000e+04
-4.535000000000000000e+03 -2.025500000000000000e+04
-4.467000000000000000e+03 -1.957300000000000000e+04
-7.706000000000000000e+03 -1.831100000000000000e+04
-7.161000000000000000e+03 -1.790200000000000000e+04
-7.707000000000000000e+03 -1.616300000000000000e+04
-9.854000000000000000e+03 -1.643600000000000000e+04
-1.142300000000000000e+04 -1.418600000000000000e+04
-1.288900000000000000e+04 -1.422000000000000000e+04
-1.381000000000000000e+04 -1.227600000000000000e+04
-1.456000000000000000e+04 -1.152500000000000000e+04
-1.125300000000000000e+04 -9.787000000000000000e+03
-1.544700000000000000e+04 -9.412000000000000000e+03
-1.452700000000000000e+04 -9.002000000000000000e+03
-1.442300000000000000e+04 -5.729000000000000000e+03
-1.609400000000000000e+04 -5.592000000000000000e+03
-1.462800000000000000e+04 -3.921000000000000000e+03
-1.459400000000000000e+04 -2.353000000000000000e+03
-1.578800000000000000e+04 -7.500000000000000000e+02
-1.619700000000000000e+04 1.020000000000000000e+02
-1.486600000000000000e+04 -4.430000000000000000e+02
-1.551500000000000000e+04 1.193000000000000000e+03
-1.445800000000000000e+04 3.683000000000000000e+03
-1.377500000000000000e+04 4.024000000000000000e+03
-1.418500000000000000e+04 5.456000000000000000e+03
-1.312800000000000000e+04 1.005900000000000000e+04
-1.364000000000000000e+04 9.650000000000000000e+03
-1.145700000000000000e+04 9.445000000000000000e+03
-1.149100000000000000e+04 1.057100000000000000e+04
-1.081000000000000000e+04 1.237800000000000000e+04
-1.050200000000000000e+04 1.254800000000000000e+04
-1.077500000000000000e+04 1.292400000000000000e+04
-1.033100000000000000e+04 1.278800000000000000e+04
-9.547000000000000000e+03 1.469700000000000000e+04
-8.149000000000000000e+03 1.459400000000000000e+04
-8.389000000000000000e+03 1.456100000000000000e+04
-8.150000000000000000e+03 1.670900000000000000e+04
-4.979000000000000000e+03 1.633400000000000000e+04
-4.876000000000000000e+03 1.633300000000000000e+04
-4.808000000000000000e+03 1.756100000000000000e+04
-3.580000000000000000e+03 1.749300000000000000e+04
-4.160000000000000000e+03 1.783400000000000000e+04
-2.080000000000000000e+03 1.745900000000000000e+04
-3.818000000000000000e+03 1.623100000000000000e+04
-1.943000000000000000e+03 1.670800000000000000e+04
-3.546000000000000000e+03 1.534400000000000000e+04
2.390000000000000000e+02 1.503800000000000000e+04
-2.353000000000000000e+03 1.432100000000000000e+04
3.750000000000000000e+02 1.469700000000000000e+04
6.800000000000000000e+01 1.360600000000000000e+04
-3.070000000000000000e+02 1.282200000000000000e+04
8.180000000000000000e+02 1.067300000000000000e+04
-3.400000000000000000e+01 1.220800000000000000e+04
1.432000000000000000e+03 1.033200000000000000e+04
9.550000000000000000e+02 1.029800000000000000e+04
1.568000000000000000e+03 1.016200000000000000e+04
6.900000000000000000e+01 8.729000000000000000e+03
1.637000000000000000e+03 9.275000000000000000e+03
3.137000000000000000e+03 8.422000000000000000e+03
2.966000000000000000e+03 5.490000000000000000e+03
1.739000000000000000e+03 5.899000000000000000e+03
1.535000000000000000e+03 6.171000000000000000e+03
2.012000000000000000e+03 5.285000000000000000e+03
4.125000000000000000e+03 5.797000000000000000e+03
2.012000000000000000e+03 4.160000000000000000e+03
1.159000000000000000e+03 2.830000000000000000e+03
2.353000000000000000e+03 2.933000000000000000e+03
2.386000000000000000e+03 4.194000000000000000e+03
2.149000000000000000e+03 3.001000000000000000e+03
2.898000000000000000e+03 2.011000000000000000e+03
2.967000000000000000e+03 2.693000000000000000e+03
2.523000000000000000e+03 2.216000000000000000e+03
2.830000000000000000e+03 2.182000000000000000e+03
9.550000000000000000e+02 2.046000000000000000e+03
4.228000000000000000e+03 3.069000000000000000e+03
2.420000000000000000e+03 4.330000000000000000e+03
2.285000000000000000e+03 1.568000000000000000e+03
2.353000000000000000e+03 3.410000000000000000e+03
5.217000000000000000e+03 1.739000000000000000e+03
2.352000000000000000e+03 2.250000000000000000e+03
3.239000000000000000e+03 2.352000000000000000e+03
4.433000000000000000e+03 1.636000000000000000e+03
4.944000000000000000e+03 1.671000000000000000e+03
4.229000000000000000e+03 2.796000000000000000e+03
3.955000000000000000e+03 1.363000000000000000e+03
4.876000000000000000e+03 1.534000000000000000e+03
3.922000000000000000e+03 1.670000000000000000e+03
5.934000000000000000e+03 2.728000000000000000e+03
7.399000000000000000e+03 6.820000000000000000e+02
4.774000000000000000e+03 -1.091000000000000000e+03
8.593000000000000000e+03 1.023000000000000000e+03
7.365000000000000000e+03 -8.180000000000000000e+02
8.286000000000000000e+03 -3.070000000000000000e+02
8.593000000000000000e+03 -1.432000000000000000e+03
8.321000000000000000e+03 -2.114000000000000000e+03
8.491000000000000000e+03 -1.876000000000000000e+03
1.040100000000000000e+04 -2.012000000000000000e+03
1.128700000000000000e+04 -2.387000000000000000e+03
1.193500000000000000e+04 -4.127000000000000000e+03
1.060500000000000000e+04 -5.865000000000000000e+03
1.149200000000000000e+04 -6.854000000000000000e+03
1.196900000000000000e+04 -5.524000000000000000e+03
1.309400000000000000e+04 -7.639000000000000000e+03
1.234400000000000000e+04 -7.570000000000000000e+03
1.306000000000000000e+04 -8.014000000000000000e+03
1.309400000000000000e+04 -1.036700000000000000e+04
1.193500000000000000e+04 -1.138900000000000000e+04
1.203700000000000000e+04 -1.234400000000000000e+04
1.179800000000000000e+04 -1.292400000000000000e+04
1.139000000000000000e+04 -1.258300000000000000e+04
1.108200000000000000e+04 -1.333300000000000000e+04
9.855000000000000000e+03 -1.459400000000000000e+04
9.548000000000000000e+03 -1.421900000000000000e+04
1.098000000000000000e+04 -1.442400000000000000e+04
7.229000000000000000e+03 -1.507200000000000000e+04
7.842000000000000000e+03 -1.473100000000000000e+04
5.900000000000000000e+03 -1.370800000000000000e+04
5.559000000000000000e+03 -1.435600000000000000e+04
5.013000000000000000e+03 -1.718600000000000000e+04
4.330000000000000000e+03 -1.312800000000000000e+04
2.796000000000000000e+03 -1.691300000000000000e+04
3.274000000000000000e+03 -1.548100000000000000e+04
6.900000000000000000e+01 -1.513900000000000000e+04
-6.820000000000000000e+02 -1.462900000000000000e+04
-2.012000000000000000e+03 -1.384500000000000000e+04
-5.660000000000000000e+03 -1.701600000000000000e+04
-3.955000000000000000e+03 -1.534500000000000000e+04
-4.330000000000000000e+03 -1.572000000000000000e+04
-6.240000000000000000e+03 -1.285600000000000000e+04
-6.342000000000000000e+03 -1.319600000000000000e+04
-7.706000000000000000e+03 -1.166200000000000000e+04
-9.683000000000000000e+03 -1.213900000000000000e+04
-1.057000000000000000e+04 -1.142300000000000000e+04
-1.005900000000000000e+04 -1.019600000000000000e+04
-1.186600000000000000e+04 -1.101400000000000000e+04
-1.268400000000000000e+04 -1.016200000000000000e+04
-1.466200000000000000e+04 -9.547000000000000000e+03
-1.265000000000000000e+04 -6.445000000000000000e+03
-1.555000000000000000e+04 -6.377000000000000000e+03
-1.766300000000000000e+04 -4.978000000000000000e+03
-1.534400000000000000e+04 -4.263000000000000000e+03
-1.626400000000000000e+04 -3.512000000000000000e+03
-1.626500000000000000e+04 -2.455000000000000000e+03
-1.585700000000000000e+04 -1.909000000000000000e+03
-1.527600000000000000e+04 1.710000000000000000e+02
-1.439000000000000000e+04 1.057000000000000000e+03
-1.578800000000000000e+04 2.080000000000000000e+03
-1.572000000000000000e+04 4.876000000000000000e+03
-1.479800000000000000e+04 3.989000000000000000e+03
-1.449200000000000000e+04 5.013000000000000000e+03
-1.234300000000000000e+04 7.331000000000000000e+03
-1.408300000000000000e+04 8.149000000000000000e+03
-1.179800000000000000e+04 8.831000000000000000e+03
-1.077500000000000000e+04 9.616000000000000000e+03
-1.080900000000000000e+04 1.070700000000000000e+04
-9.343000000000000000e+03 9.070000000000000000e+03
-8.388000000000000000e+03 1.053700000000000000e+04
-5.933000000000000000e+03 1.261700000000000000e+04
-6.615000000000000000e+03 1.074100000000000000e+04
-5.830000000000000000e+03 1.319700000000000000e+04
-4.671000000000000000e+03 1.346900000000000000e+04
-3.717000000000000000e+03 1.067300000000000000e+04
-3.547000000000000000e+03 1.200200000000000000e+04
-1.636000000000000000e+03 1.340000000000000000e+04
-8.180000000000000000e+02 1.265200000000000000e+04
2.730000000000000000e+02 1.132100000000000000e+04
-1.808000000000000000e+03 1.070700000000000000e+04
3.400000000000000000e+01 1.186700000000000000e+04
2.319000000000000000e+03 1.012800000000000000e+04
1.842000000000000000e+03 1.029700000000000000e+04
2.966000000000000000e+03 1.063900000000000000e+04
3.854000000000000000e+03 9.582000000000000000e+03
4.604000000000000000e+03 1.057100000000000000e+04
3.069000000000000000e+03 8.115000000000000000e+03
6.343000000000000000e+03 8.491000000000000000e+03
6.922000000000000000e+03 7.877000000000000000e+03
7.127000000000000000e+03 6.036000000000000000e+03
5.797000000000000000e+03 5.353000000000000000e+03
6.035000000000000000e+03 5.933000000000000000e+03
5.865000000000000000e+03 4.023000000000000000e+03
8.594000000000000000e+03 3.853000000000000000e+03
7.400000000000000000e+03 3.239000000000000000e+03
8.388000000000000000e+03 2.080000000000000000e+03
8.457000000000000000e+03 2.966000000000000000e+03
8.559000000000000000e+03 1.875000000000000000e+03
9.821000000000000000e+03 3.400000000000000000e+01
1.063900000000000000e+04 -9.210000000000000000e+02
9.991000000000000000e+03 1.193000000000000000e+03
9.378000000000000000e+03 -1.091000000000000000e+03
9.104000000000000000e+03 -1.700000000000000000e+02
1.033200000000000000e+04 -1.500000000000000000e+03
1.166200000000000000e+04 -1.227000000000000000e+03
1.091200000000000000e+04 -2.114000000000000000e+03
1.190100000000000000e+04 -2.386000000000000000e+03
1.251500000000000000e+04 -1.091000000000000000e+03
1.234400000000000000e+04 -8.190000000000000000e+02
1.561800000000000000e+04 -2.898000000000000000e+03
1.312900000000000000e+04 -1.160000000000000000e+03
1.527700000000000000e+04 -2.730000000000000000e+02
1.438900000000000000e+04 7.500000000000000000e+02
1.479900000000000000e+04 -0.000000000000000000e+00
1.548100000000000000e+04 -1.370000000000000000e+02
1.500400000000000000e+04 1.841000000000000000e+03
1.490100000000000000e+04 1.671000000000000000e+03
1.609500000000000000e+04 2.182000000000000000e+03
1.684400000000000000e+04 4.091000000000000000e+03
1.415100000000000000e+04 7.024000000000000000e+03
1.496900000000000000e+04 4.910000000000000000e+03
1.514000000000000000e+04 7.161000000000000000e+03
1.394600000000000000e+04 5.967000000000000000e+03
1.357100000000000000e+04 8.422000000000000000e+03
1.244600000000000000e+04 9.344000000000000000e+03
1.251400000000000000e+04 8.661000000000000000e+03
1.118400000000000000e+04 8.593000000000000000e+03
1.029700000000000000e+04 9.650000000000000000e+03
9.343000000000000000e+03 9.207000000000000000e+03
8.695000000000000000e+03 7.945000000000000000e+03
8.354000000000000000e+03 9.480000000000000000e+03
6.478000000000000000e+03 7.537000000000000000e+03
6.001000000000000000e+03 6.070000000000000000e+03
6.922000000000000000e+03 7.774000000000000000e+03
5.081000000000000000e+03 5.286000000000000000e+03
4.706000000000000000e+03 4.604000000000000000e+03
5.524000000000000000e+03 4.603000000000000000e+03
3.444000000000000000e+03 3.239000000000000000e+03
2.489000000000000000e+03 2.353000000000000000e+03
3.171000000000000000e+03 1.671000000000000000e+03
3.649000000000000000e+03 3.410000000000000000e+02
1.978000000000000000e+03 1.296000000000000000e+03
2.216000000000000000e+03 -9.890000000000000000e+02
1.875000000000000000e+03 -1.842000000000000000e+03
7.160000000000000000e+02 -3.751000000000000000e+03
3.070000000000000000e+02 -3.546000000000000000e+03
7.160000000000000000e+02 -5.149000000000000000e+03
-1.193000000000000000e+03 -4.672000000000000000e+03
-3.171000000000000000e+03 -5.865000000000000000e+03
-2.489000000000000000e+03 -7.842000000000000000e+03
-1.227000000000000000e+03 -8.354000000000000000e+03
-1.501000000000000000e+03 -7.127000000000000000e+03
-1.875000000000000000e+03 -9.003000000000000000e+03
-3.375000000000000000e+03 -8.013000000000000000e+03
-2.865000000000000000e+03 -1.026400000000000000e+04
-7.296000000000000000e+03 -1.128700000000000000e+04
-6.956000000000000000e+03 -9.685000000000000000e+03
-6.172000000000000000e+03 -1.087800000000000000e+04
-8.081000000000000000e+03 -9.718000000000000000e+03
-8.047000000000000000e+03 -1.046900000000000000e+04
-8.150000000000000000e+03 -9.514000000000000000e+03
-8.593000000000000000e+03 -1.009300000000000000e+04
-9.548000000000000000e+03 -8.628000000000000000e+03
-8.047000000000000000e+03 -9.310000000000000000e+03
-1.162700000000000000e+04 -7.878000000000000000e+03
-1.016200000000000000e+04 -7.843000000000000000e+03
-1.350300000000000000e+04 -9.241000000000000000e+03
-1.289000000000000000e+04 -6.274000000000000000e+03
-1.261700000000000000e+04 -5.660000000000000000e+03
-1.524300000000000000e+04 -5.524000000000000000e+03
-1.271900000000000000e+04 -5.900000000000000000e+03
-1.602600000000000000e+04 -4.330000000000000000e+03
-1.541200000000000000e+04 -4.637000000000000000e+03
-1.381100000000000000e+04 -4.570000000000000000e+03
-1.517500000000000000e+04 -3.547000000000000000e+03
-1.514100000000000000e+04 -2.694000000000000000e+03
-1.452700000000000000e+04 -2.421000000000000000e+03
-1.432200000000000000e+04 -1.773000000000000000e+03
-1.667500000000000000e+04 9.890000000000000000e+02
-1.415100000000000000e+04 -2.730000000000000000e+02
-1.459500000000000000e+04 7.160000000000000000e+02
-1.346900000000000000e+04 3.206000000000000000e+03
-1.285500000000000000e+04 4.500000000000000000e+03
-1.480000000000000000e+04 2.592000000000000000e+03
-1.333300000000000000e+04 5.285000000000000000e+03
-1.268500000000000000e+04 5.797000000000000000e+03
-1.196900000000000000e+04 7.297000000000000000e+03
-1.176400000000000000e+04 7.161000000000000000e+03
-1.019600000000000000e+04 9.070000000000000000e+03
-9.105000000000000000e+03 9.070000000000000000e+03
-1.053700000000000000e+04 9.173000000000000000e+03
-8.695000000000000000e+03 9.241000000000000000e+03
-6.513000000000000000e+03 1.084400000000000000e+04
-6.991000000000000000e+03 1.104800000000000000e+04
-5.251000000000000000e+03 1.050200000000000000e+04
-4.057000000000000000e+03 1.111600000000000000e+04
-2.591000000000000000e+03 1.063800000000000000e+04
-2.762000000000000000e+03 1.200300000000000000e+04
-2.523000000000000000e+03 1.162800000000000000e+04
8.530000000000000000e+02 1.329800000000000000e+04
7.840000000000000000e+02 1.268500000000000000e+04
3.273000000000000000e+03 1.442400000000000000e+04
1.500000000000000000e+03 1.278700000000000000e+04
4.604000000000000000e+03 1.244600000000000000e+04
4.569000000000000000e+03 1.104800000000000000e+04
5.660000000000000000e+03 1.353700000000000000e+04
7.706000000000000000e+03 1.367400000000000000e+04
7.433000000000000000e+03 1.156000000000000000e+04
6.888000000000000000e+03 1.220700000000000000e+04
8.013000000000000000e+03 1.128600000000000000e+04
7.945000000000000000e+03 1.210500000000000000e+04
9.002000000000000000e+03 1.111600000000000000e+04
8.048000000000000000e+03 1.207100000000000000e+04
9.003000000000000000e+03 1.132000000000000000e+04
9.104000000000000000e+03 1.050300000000000000e+04
7.740000000000000000e+03 1.074100000000000000e+04
9.514000000000000000e+03 9.752000000000000000e+03
8.832000000000000000e+03 9.854000000000000000e+03
6.786000000000000000e+03 8.661000000000000000e+03
1.012700000000000000e+04 7.911000000000000000e+03
1.002500000000000000e+04 8.491000000000000000e+03
8.968000000000000000e+03 9.923000000000000000e+03
8.764000000000000000e+03 5.183000000000000000e+03
9.206000000000000000e+03 5.490000000000000000e+03
8.047000000000000000e+03 4.876000000000000000e+03
7.025000000000000000e+03 6.309000000000000000e+03
7.877000000000000000e+03 4.092000000000000000e+03
7.706000000000000000e+03 3.887000000000000000e+03
7.092000000000000000e+03 3.478000000000000000e+03
7.775000000000000000e+03 4.263000000000000000e+03
6.581000000000000000e+03 4.297000000000000000e+03
7.774000000000000000e+03 4.262000000000000000e+03
4.501000000000000000e+03 2.353000000000000000e+03
6.274000000000000000e+03 4.433000000000000000e+03
7.024000000000000000e+03 2.524000000000000000e+03
7.332000000000000000e+03 2.353000000000000000e+03
5.149000000000000000e+03 2.046000000000000000e+03
3.853000000000000000e+03 2.183000000000000000e+03
4.194000000000000000e+03 2.388000000000000000e+03
3.410000000000000000e+03 2.390000000000000000e+02
3.478000000000000000e+03 1.841000000000000000e+03
4.944000000000000000e+03 2.148000000000000000e+03
3.819000000000000000e+03 3.035000000000000000e+03
3.410000000000000000e+03 1.700000000000000000e+02
3.615000000000000000e+03 5.800000000000000000e+02
3.376000000000000000e+03 -2.730000000000000000e+02
2.694000000000000000e+03 -7.500000000000000000e+02
3.307000000000000000e+03 -3.410000000000000000e+02
3.239000000000000000e+03 3.750000000000000000e+02
4.502000000000000000e+03 1.710000000000000000e+02
2.626000000000000000e+03 -2.080000000000000000e+03
4.535000000000000000e+03 6.140000000000000000e+02
3.137000000000000000e+03 -2.865000000000000000e+03
2.114000000000000000e+03 -3.307000000000000000e+03
3.103000000000000000e+03 -2.694000000000000000e+03
3.307000000000000000e+03 -2.421000000000000000e+03
2.455000000000000000e+03 -3.615000000000000000e+03
2.456000000000000000e+03 -3.921000000000000000e+03
1.160000000000000000e+03 -4.024000000000000000e+03
3.922000000000000000e+03 -5.150000000000000000e+03
2.012000000000000000e+03 -4.501000000000000000e+03
3.205000000000000000e+03 -7.365000000000000000e+03
4.228000000000000000e+03 -3.103000000000000000e+03
5.490000000000000000e+03 -4.467000000000000000e+03
3.410000000000000000e+03 -6.478000000000000000e+03
2.966000000000000000e+03 -7.127000000000000000e+03
3.342000000000000000e+03 -8.081000000000000000e+03
3.308000000000000000e+03 -8.866000000000000000e+03
1.364000000000000000e+03 -7.537000000000000000e+03
3.273000000000000000e+03 -1.009400000000000000e+04
2.967000000000000000e+03 -8.286000000000000000e+03
2.114000000000000000e+03 -8.525000000000000000e+03
1.501000000000000000e+03 -1.060500000000000000e+04
2.046000000000000000e+03 -1.005900000000000000e+04
1.398000000000000000e+03 -8.696000000000000000e+03
1.774000000000000000e+03 -9.616000000000000000e+03
5.800000000000000000e+02 -9.036000000000000000e+03
-6.800000000000000000e+01 -1.357200000000000000e+04
-3.400000000000000000e+01 -1.104800000000000000e+04
-9.890000000000000000e+02 -1.176400000000000000e+04
-1.398000000000000000e+03 -1.121800000000000000e+04
-5.450000000000000000e+02 -1.115000000000000000e+04
-3.819000000000000000e+03 -1.159400000000000000e+04
-2.659000000000000000e+03 -1.190100000000000000e+04
-3.615000000000000000e+03 -1.118500000000000000e+04
-3.649000000000000000e+03 -1.145700000000000000e+04
-3.512000000000000000e+03 -1.115000000000000000e+04
-4.262000000000000000e+03 -1.026400000000000000e+04
-4.433000000000000000e+03 -1.118500000000000000e+04
-4.671000000000000000e+03 -8.627000000000000000e+03
-7.093000000000000000e+03 -1.019500000000000000e+04
-6.581000000000000000e+03 -1.033200000000000000e+04
-7.912000000000000000e+03 -7.944000000000000000e+03
-7.365000000000000000e+03 -7.911000000000000000e+03
-9.923000000000000000e+03 -8.763000000000000000e+03
-9.173000000000000000e+03 -9.002000000000000000e+03
-8.832000000000000000e+03 -7.025000000000000000e+03
-7.536000000000000000e+03 -6.547000000000000000e+03
-8.116000000000000000e+03 -5.558000000000000000e+03
-8.832000000000000000e+03 -4.092000000000000000e+03
-8.662000000000000000e+03 -5.217000000000000000e+03
-8.389000000000000000e+03 -2.728000000000000000e+03
-1.019600000000000000e+04 -4.092000000000000000e+03
-9.207000000000000000e+03 -2.420000000000000000e+03
-1.067400000000000000e+04 -2.114000000000000000e+03
-1.002600000000000000e+04 -6.140000000000000000e+02
-7.434000000000000000e+03 2.390000000000000000e+02
-8.116000000000000000e+03 8.190000000000000000e+02
-8.559000000000000000e+03 -3.420000000000000000e+02
-7.741000000000000000e+03 1.842000000000000000e+03
-7.059000000000000000e+03 2.080000000000000000e+03
-7.775000000000000000e+03 1.364000000000000000e+03
-6.752000000000000000e+03 2.489000000000000000e+03
-7.263000000000000000e+03 1.159000000000000000e+03
-5.319000000000000000e+03 3.001000000000000000e+03
-5.627000000000000000e+03 3.001000000000000000e+03
-5.149000000000000000e+03 3.410000000000000000e+03
-3.513000000000000000e+03 4.160000000000000000e+03
-4.023000000000000000e+03 5.149000000000000000e+03
-5.592000000000000000e+03 2.455000000000000000e+03
-2.830000000000000000e+03 6.479000000000000000e+03
-2.284000000000000000e+03 3.717000000000000000e+03
-1.603000000000000000e+03 7.127000000000000000e+03
-1.943000000000000000e+03 5.387000000000000000e+03
3.400000000000000000e+01 4.364000000000000000e+03
-7.500000000000000000e+02 5.831000000000000000e+03
6.800000000000000000e+01 6.036000000000000000e+03
1.091000000000000000e+03 3.887000000000000000e+03
-3.410000000000000000e+02 4.161000000000000000e+03
1.739000000000000000e+03 5.831000000000000000e+03
2.864000000000000000e+03 5.729000000000000000e+03
2.660000000000000000e+03 6.854000000000000000e+03
3.205000000000000000e+03 6.104000000000000000e+03
2.284000000000000000e+03 7.092000000000000000e+03
4.808000000000000000e+03 5.149000000000000000e+03
4.774000000000000000e+03 4.979000000000000000e+03
3.614000000000000000e+03 5.899000000000000000e+03
4.979000000000000000e+03 4.945000000000000000e+03
6.275000000000000000e+03 6.275000000000000000e+03
5.353000000000000000e+03 6.377000000000000000e+03
3.853000000000000000e+03 7.809000000000000000e+03
4.979000000000000000e+03 7.025000000000000000e+03
4.978000000000000000e+03 5.626000000000000000e+03
2.830000000000000000e+03 6.853000000000000000e+03
5.899000000000000000e+03 6.206000000000000000e+03
5.729000000000000000e+03 3.376000000000000000e+03
2.523000000000000000e+03 4.603000000000000000e+03
3.887000000000000000e+03 2.625000000000000000e+03
4.944000000000000000e+03 5.694000000000000000e+03
2.967000000000000000e+03 5.286000000000000000e+03
5.831000000000000000e+03 4.024000000000000000e+03
4.297000000000000000e+03 5.047000000000000000e+03
3.342000000000000000e+03 3.955000000000000000e+03
2.796000000000000000e+03 4.330000000000000000e+03
2.353000000000000000e+03 2.047000000000000000e+03
2.625000000000000000e+03 3.239000000000000000e+03
3.034000000000000000e+03 1.875000000000000000e+03
1.774000000000000000e+03 2.797000000000000000e+03
2.659000000000000000e+03 1.842000000000000000e+03
2.489000000000000000e+03 1.841000000000000000e+03
1.875000000000000000e+03 3.274000000000000000e+03
6.140000000000000000e+02 1.910000000000000000e+03
2.046000000000000000e+03 1.944000000000000000e+03
2.490000000000000000e+03 1.602000000000000000e+03
1.160000000000000000e+03 1.432000000000000000e+03
9.890000000000000000e+02 2.012000000000000000e+03
8.520000000000000000e+02 1.228000000000000000e+03
1.466000000000000000e+03 2.592000000000000000e+03
7.170000000000000000e+02 2.730000000000000000e+02
7.840000000000000000e+02 9.540000000000000000e+02
-5.110000000000000000e+02 8.520000000000000000e+02
6.480000000000000000e+02 1.020000000000000000e+02
1.125000000000000000e+03 1.398000000000000000e+03
1.534000000000000000e+03 1.700000000000000000e+02
1.841000000000000000e+03 7.160000000000000000e+02
1.466000000000000000e+03 8.870000000000000000e+02
2.114000000000000000e+03 1.057000000000000000e+03
2.728000000000000000e+03 4.100000000000000000e+02
2.050000000000000000e+02 9.210000000000000000e+02
9.200000000000000000e+02 2.050000000000000000e+02
1.534000000000000000e+03 -1.671000000000000000e+03
2.729000000000000000e+03 1.398000000000000000e+03
3.240000000000000000e+03 -6.480000000000000000e+02
9.550000000000000000e+02 -2.557000000000000000e+03
1.944000000000000000e+03 -1.398000000000000000e+03
2.694000000000000000e+03 -1.159000000000000000e+03
4.780000000000000000e+02 -9.200000000000000000e+02
6.480000000000000000e+02 -2.933000000000000000e+03
2.050000000000000000e+02 -1.876000000000000000e+03
2.114000000000000000e+03 -2.489000000000000000e+03
1.637000000000000000e+03 -2.660000000000000000e+03
0.000000000000000000e+00 -3.683000000000000000e+03
-6.480000000000000000e+02 -3.888000000000000000e+03
-5.460000000000000000e+02 -3.410000000000000000e+03
-1.057000000000000000e+03 -5.899000000000000000e+03
-7.500000000000000000e+02 -4.877000000000000000e+03
-1.603000000000000000e+03 -6.104000000000000000e+03
-7.850000000000000000e+02 -6.615000000000000000e+03
-1.261000000000000000e+03 -6.275000000000000000e+03
-5.460000000000000000e+02 -7.297000000000000000e+03
-1.740000000000000000e+03 -8.320000000000000000e+03
-3.751000000000000000e+03 -8.969000000000000000e+03
-1.670000000000000000e+03 -7.229000000000000000e+03
-2.728000000000000000e+03 -6.751000000000000000e+03
-4.024000000000000000e+03 -9.821000000000000000e+03
-5.013000000000000000e+03 -9.071000000000000000e+03
-4.399000000000000000e+03 -9.275000000000000000e+03
-4.501000000000000000e+03 -1.050200000000000000e+04
-6.206000000000000000e+03 -9.718000000000000000e+03
-5.456000000000000000e+03 -8.560000000000000000e+03
-7.263000000000000000e+03 -9.548000000000000000e+03
-8.252000000000000000e+03 -1.050300000000000000e+04
-5.388000000000000000e+03 -9.513000000000000000e+03
-6.888000000000000000e+03 -8.252000000000000000e+03
-8.422000000000000000e+03 -9.923000000000000000e+03
-8.626000000000000000e+03 -8.355000000000000000e+03
-8.763000000000000000e+03 -8.423000000000000000e+03
-1.125300000000000000e+04 -8.969000000000000000e+03
-9.274000000000000000e+03 -8.184000000000000000e+03
-9.479000000000000000e+03 -9.718000000000000000e+03
-1.080900000000000000e+04 -8.764000000000000000e+03
-1.029800000000000000e+04 -7.195000000000000000e+03
-9.445000000000000000e+03 -6.070000000000000000e+03
-1.104800000000000000e+04 -7.536000000000000000e+03
-1.241200000000000000e+04 -7.263000000000000000e+03
-1.132000000000000000e+04 -6.513000000000000000e+03
-1.108200000000000000e+04 -8.082000000000000000e+03
-1.149100000000000000e+04 -6.411000000000000000e+03
-1.193500000000000000e+04 -7.740000000000000000e+03
-1.118400000000000000e+04 -5.661000000000000000e+03
-1.016100000000000000e+04 -4.467000000000000000e+03
-9.820000000000000000e+03 -4.774000000000000000e+03
-1.057000000000000000e+04 -3.717000000000000000e+03
-8.285000000000000000e+03 -3.546000000000000000e+03
-1.033100000000000000e+04 -2.728000000000000000e+03
-1.087700000000000000e+04 -3.648000000000000000e+03
-8.831000000000000000e+03 -9.540000000000000000e+02
-7.195000000000000000e+03 -1.228000000000000000e+03
-7.160000000000000000e+03 -1.194000000000000000e+03
-6.786000000000000000e+03 -3.750000000000000000e+02
-7.365000000000000000e+03 -1.501000000000000000e+03
-6.069000000000000000e+03 -7.840000000000000000e+02
-4.774000000000000000e+03 1.058000000000000000e+03
-5.694000000000000000e+03 -4.090000000000000000e+02
-4.603000000000000000e+03 -4.780000000000000000e+02
-4.979000000000000000e+03 1.330000000000000000e+03
-2.285000000000000000e+03 1.910000000000000000e+03
-1.875000000000000000e+03 5.450000000000000000e+02
-8.190000000000000000e+02 1.091000000000000000e+03
-1.808000000000000000e+03 3.400000000000000000e+01
-5.120000000000000000e+02 6.820000000000000000e+02
2.012000000000000000e+03 6.800000000000000000e+01
3.750000000000000000e+02 1.876000000000000000e+03
2.387000000000000000e+03 1.773000000000000000e+03
1.534000000000000000e+03 9.550000000000000000e+02
2.319000000000000000e+03 1.705000000000000000e+03
1.602000000000000000e+03 -0.000000000000000000e+00
1.432000000000000000e+03 6.820000000000000000e+02
4.945000000000000000e+03 1.398000000000000000e+03
3.887000000000000000e+03 9.890000000000000000e+02
3.410000000000000000e+03 8.180000000000000000e+02
5.013000000000000000e+03 6.140000000000000000e+02
6.069000000000000000e+03 -5.460000000000000000e+02
6.889000000000000000e+03 1.398000000000000000e+03
5.524000000000000000e+03 -1.023000000000000000e+03
5.592000000000000000e+03 -2.380000000000000000e+02
7.024000000000000000e+03 -3.410000000000000000e+02
5.456000000000000000e+03 2.050000000000000000e+02
6.240000000000000000e+03 -2.285000000000000000e+03
7.059000000000000000e+03 -5.110000000000000000e+02
6.547000000000000000e+03 1.262000000000000000e+03
5.933000000000000000e+03 3.750000000000000000e+02
7.434000000000000000e+03 -3.400000000000000000e+01
7.161000000000000000e+03 5.120000000000000000e+02
7.331000000000000000e+03 -3.410000000000000000e+02
7.331000000000000000e+03 2.390000000000000000e+02
6.820000000000000000e+03 -2.115000000000000000e+03
5.183000000000000000e+03 9.550000000000000000e+02
8.320000000000000000e+03 -5.120000000000000000e+02
6.206000000000000000e+03 8.860000000000000000e+02
7.024000000000000000e+03 -1.057000000000000000e+03
7.911000000000000000e+03 -1.466000000000000000e+03
6.002000000000000000e+03 5.460000000000000000e+02
7.297000000000000000e+03 1.700000000000000000e+02
4.945000000000000000e+03 8.860000000000000000e+02
7.604000000000000000e+03 2.080000000000000000e+03
7.229000000000000000e+03 -4.430000000000000000e+02
6.172000000000000000e+03 -9.890000000000000000e+02
6.308000000000000000e+03 3.070000000000000000e+02
7.570000000000000000e+03 -1.370000000000000000e+02
6.479000000000000000e+03 5.120000000000000000e+02
7.434000000000000000e+03 7.850000000000000000e+02
6.206000000000000000e+03 7.840000000000000000e+02
7.059000000000000000e+03 4.440000000000000000e+02
8.525000000000000000e+03 9.550000000000000000e+02
5.524000000000000000e+03 -3.750000000000000000e+02
4.433000000000000000e+03 -3.410000000000000000e+02
5.490000000000000000e+03 1.705000000000000000e+03
6.479000000000000000e+03 1.773000000000000000e+03
4.740000000000000000e+03 2.353000000000000000e+03
6.889000000000000000e+03 1.023000000000000000e+03
5.559000000000000000e+03 -3.400000000000000000e+01
4.604000000000000000e+03 1.227000000000000000e+03
5.456000000000000000e+03 1.467000000000000000e+03
5.934000000000000000e+03 3.103000000000000000e+03
6.513000000000000000e+03 1.262000000000000000e+03
5.558000000000000000e+03 2.796000000000000000e+03
4.399000000000000000e+03 1.944000000000000000e+03
3.752000000000000000e+03 1.875000000000000000e+03
5.218000000000000000e+03 1.500000000000000000e+03
6.649000000000000000e+03 3.409000000000000000e+03
6.343000000000000000e+03 1.808000000000000000e+03
5.865000000000000000e+03 1.330000000000000000e+03
5.558000000000000000e+03 2.898000000000000000e+03
4.740000000000000000e+03 4.535000000000000000e+03
6.002000000000000000e+03 1.909000000000000000e+03
4.944000000000000000e+03 2.285000000000000000e+03
3.478000000000000000e+03 2.182000000000000000e+03
4.842000000000000000e+03 2.216000000000000000e+03
3.955000000000000000e+03 2.149000000000000000e+03
3.956000000000000000e+03 3.137000000000000000e+03
3.342000000000000000e+03 3.035000000000000000e+03
2.967000000000000000e+03 2.421000000000000000e+03
2.183000000000000000e+03 4.433000000000000000e+03
1.705000000000000000e+03 4.876000000000000000e+03
-4.090000000000000000e+02 4.126000000000000000e+03
-2.730000000000000000e+02 1.739000000000000000e+03
-1.700000000000000000e+02 3.785000000000000000e+03
-2.625000000000000000e+03 3.036000000000000000e+03
-2.694000000000000000e+03 3.410000000000000000e+03
-2.626000000000000000e+03 2.490000000000000000e+03
-8.457000000000000000e+03 4.467000000000000000e+03
-6.239000000000000000e+03 4.433000000000000000e+03
-8.456000000000000000e+03 5.115000000000000000e+03
-9.172000000000000000e+03 2.251000000000000000e+03
-1.026400000000000000e+04 4.023000000000000000e+03
-1.026300000000000000e+04 4.263000000000000000e+03
-1.510600000000000000e+04 5.149000000000000000e+03
-1.670900000000000000e+04 2.080000000000000000e+03
-1.664000000000000000e+04 1.194000000000000000e+03
-1.899300000000000000e+04 2.012000000000000000e+03
-1.981100000000000000e+04 -8.190000000000000000e+02
-1.998200000000000000e+04 9.550000000000000000e+02
-2.148200000000000000e+04 2.390000000000000000e+02
-2.318800000000000000e+04 -2.456000000000000000e+03
-2.363100000000000000e+04 -2.660000000000000000e+03
-2.560900000000000000e+04 -2.251000000000000000e+03
-2.680200000000000000e+04 -1.706000000000000000e+03
-2.690400000000000000e+04 -4.536000000000000000e+03
-2.697200000000000000e+04 -3.445000000000000000e+03
-2.963200000000000000e+04 -4.705000000000000000e+03
-2.799500000000000000e+04 -6.479000000000000000e+03
-2.929000000000000000e+04 -7.433000000000000000e+03
-2.935900000000000000e+04 -8.116000000000000000e+03
-2.837000000000000000e+04 -8.559000000000000000e+03
-3.062000000000000000e+04 -8.695000000000000000e+03
-2.922300000000000000e+04 -1.319700000000000000e+04
-2.830200000000000000e+04 -1.248100000000000000e+04
-2.874500000000000000e+04 -1.398100000000000000e+04
-2.639200000000000000e+04 -1.524200000000000000e+04
-2.502900000000000000e+04 -1.534400000000000000e+04
-2.652900000000000000e+04 -1.967600000000000000e+04
-2.472200000000000000e+04 -1.814100000000000000e+04
-2.189200000000000000e+04 -2.032300000000000000e+04
-1.981200000000000000e+04 -2.121000000000000000e+04
-1.981100000000000000e+04 -2.284700000000000000e+04
-1.486700000000000000e+04 -2.376700000000000000e+04
-1.381000000000000000e+04 -2.451700000000000000e+04
-1.166100000000000000e+04 -2.506200000000000000e+04
-6.751000000000000000e+03 -2.349400000000000000e+04
-6.172000000000000000e+03 -2.404000000000000000e+04
-2.046000000000000000e+03 -2.502800000000000000e+04
-6.800000000000000000e+01 -2.311900000000000000e+04
2.865000000000000000e+03 -2.284600000000000000e+04
4.740000000000000000e+03 -2.311900000000000000e+04
9.548000000000000000e+03 -2.284600000000000000e+04
1.162800000000000000e+04 -2.209600000000000000e+04
1.490200000000000000e+04 -1.943700000000000000e+04
1.725400000000000000e+04 -2.005100000000000000e+04
1.841400000000000000e+04 -1.831100000000000000e+04
2.110700000000000000e+04 -1.428700000000000000e+04
2.237000000000000000e+04 -1.329900000000000000e+04
2.295000000000000000e+04 -1.323100000000000000e+04
2.710900000000000000e+04 -1.084400000000000000e+04
2.758600000000000000e+04 -9.888000000000000000e+03
2.912000000000000000e+04 -6.854000000000000000e+03
2.772200000000000000e+04 -7.263000000000000000e+03
3.143900000000000000e+04 -4.024000000000000000e+03
3.055300000000000000e+04 -4.228000000000000000e+03
2.830200000000000000e+04 -2.319000000000000000e+03
3.113200000000000000e+04 -1.432000000000000000e+03
3.154100000000000000e+04 1.773000000000000000e+03
2.796100000000000000e+04 2.421000000000000000e+03
2.993900000000000000e+04 4.229000000000000000e+03
3.038200000000000000e+04 7.706000000000000000e+03
3.079100000000000000e+04 7.161000000000000000e+03
2.915400000000000000e+04 9.548000000000000000e+03
2.830200000000000000e+04 1.077600000000000000e+04
2.912100000000000000e+04 1.251500000000000000e+04
2.577900000000000000e+04 1.507100000000000000e+04
2.792700000000000000e+04 1.364000000000000000e+04
2.479000000000000000e+04 1.483200000000000000e+04
2.414200000000000000e+04 1.517400000000000000e+04
2.277800000000000000e+04 1.745900000000000000e+04
2.162000000000000000e+04 1.899300000000000000e+04
1.998200000000000000e+04 1.800400000000000000e+04
1.861800000000000000e+04 2.141400000000000000e+04
1.582200000000000000e+04 1.844700000000000000e+04
1.527600000000000000e+04 2.039200000000000000e+04
1.404800000000000000e+04 2.298300000000000000e+04
1.203700000000000000e+04 2.063100000000000000e+04
1.057000000000000000e+04 2.202900000000000000e+04
7.570000000000000000e+03 2.312000000000000000e+04
8.661000000000000000e+03 2.206200000000000000e+04
7.161000000000000000e+03 2.151600000000000000e+04
4.570000000000000000e+03 2.216500000000000000e+04
3.478000000000000000e+03 2.063000000000000000e+04
1.978000000000000000e+03 2.063000000000000000e+04
3.001000000000000000e+03 2.271100000000000000e+04
1.261000000000000000e+03 2.066400000000000000e+04
1.023000000000000000e+03 1.820800000000000000e+04
-2.319000000000000000e+03 1.841400000000000000e+04
-3.274000000000000000e+03 1.889100000000000000e+04
-1.943000000000000000e+03 1.691300000000000000e+04
-2.660000000000000000e+03 1.715200000000000000e+04
-2.250000000000000000e+03 1.814000000000000000e+04
-2.659000000000000000e+03 1.827700000000000000e+04
-3.887000000000000000e+03 1.820900000000000000e+04
-3.921000000000000000e+03 1.589000000000000000e+04
-3.853000000000000000e+03 1.619700000000000000e+04
-4.773000000000000000e+03 1.745800000000000000e+04
-5.218000000000000000e+03 1.868600000000000000e+04
-2.796000000000000000e+03 1.633300000000000000e+04
-5.592000000000000000e+03 1.800400000000000000e+04
-4.057000000000000000e+03 1.565200000000000000e+04
-4.501000000000000000e+03 1.715200000000000000e+04
-5.455000000000000000e+03 1.490200000000000000e+04
-5.831000000000000000e+03 1.766400000000000000e+04
-6.786000000000000000e+03 1.817400000000000000e+04
-5.661000000000000000e+03 1.670900000000000000e+04
-4.705000000000000000e+03 1.916400000000000000e+04
-7.570000000000000000e+03 1.909500000000000000e+04
-7.195000000000000000e+03 1.800400000000000000e+04
-9.206000000000000000e+03 1.998200000000000000e+04
-8.354000000000000000e+03 2.025500000000000000e+04
-1.005900000000000000e+04 1.810700000000000000e+04
-1.309400000000000000e+04 2.052800000000000000e+04
-1.722000000000000000e+04 2.076600000000000000e+04
-1.817500000000000000e+04 2.216400000000000000e+04
-1.981200000000000000e+04 2.059600000000000000e+04
-1.882200000000000000e+04 2.028900000000000000e+04
-2.441400000000000000e+04 2.066400000000000000e+04
-2.686900000000000000e+04 2.148200000000000000e+04
-2.973400000000000000e+04 1.868600000000000000e+04
-3.314400000000000000e+04 1.834500000000000000e+04
-3.549700000000000000e+04 1.687900000000000000e+04
-3.901000000000000000e+04 1.565200000000000000e+04
-4.320400000000000000e+04 1.551500000000000000e+04
-4.426000000000000000e+04 1.271900000000000000e+04
-4.838600000000000000e+04 1.087800000000000000e+04
-5.206900000000000000e+04 8.047000000000000000e+03
-5.384200000000000000e+04 6.922000000000000000e+03
-5.571800000000000000e+04 2.217000000000000000e+03
-6.059400000000000000e+04 -2.865000000000000000e+03
-6.113900000000000000e+04 -6.615000000000000000e+03
-6.257100000000000000e+04 -1.138900000000000000e+04
-6.325300000000000000e+04 -1.582200000000000000e+04
-6.414000000000000000e+04 -1.820900000000000000e+04
-6.451500000000000000e+04 -2.509700000000000000e+04
-6.591400000000000000e+04 -2.983600000000000000e+04
-6.267400000000000000e+04 -3.645200000000000000e+04
-6.233300000000000000e+04 -3.993000000000000000e+04
-5.974200000000000000e+04 -4.596500000000000000e+04
-5.633200000000000000e+04 -5.033000000000000000e+04
-5.353600000000000000e+04 -5.367200000000000000e+04
-4.940900000000000000e+04 -5.817200000000000000e+04
-4.565800000000000000e+04 -5.980900000000000000e+04
-4.310100000000000000e+04 -6.366300000000000000e+04
-3.672500000000000000e+04 -6.707200000000000000e+04
-3.038300000000000000e+04 -6.809600000000000000e+04
-2.704000000000000000e+04 -7.079000000000000000e+04
-2.175500000000000000e+04 -7.041500000000000000e+04
