-2.787940000000000000e+05 -3.660530000000000000e+05
-3.565390000000000000e+05 -2.652220000000000000e+05
-3.843300000000000000e+05 -1.347250000000000000e+05
-3.390120000000000000e+05 -1.094700000000000000e+04
-2.511390000000000000e+05 4.678300000000000000e+04
-1.929660000000000000e+05 4.381700000000000000e+04
-1.815430000000000000e+05 2.148200000000000000e+04
-1.977400000000000000e+05 1.834600000000000000e+04
-2.220860000000000000e+05 3.791800000000000000e+04
-2.430920000000000000e+05 8.067800000000000000e+04
-2.473200000000000000e+05 1.369760000000000000e+05
-2.289750000000000000e+05 2.100160000000000000e+05
-1.811330000000000000e+05 2.830560000000000000e+05
-9.793200000000000000e+04 3.417740000000000000e+05
7.840000000000000000e+02 3.669740000000000000e+05
1.022630000000000000e+05 3.483560000000000000e+05
1.771790000000000000e+05 2.940020000000000000e+05
2.206890000000000000e+05 2.211310000000000000e+05
2.333400000000000000e+05 1.527980000000000000e+05
2.201090000000000000e+05 9.390800000000000000e+04
1.955240000000000000e+05 5.854800000000000000e+04
1.704950000000000000e+05 4.432800000000000000e+04
1.684840000000000000e+05 5.401300000000000000e+04
1.925570000000000000e+05 6.165100000000000000e+04
2.421370000000000000e+05 4.033900000000000000e+04
2.809080000000000000e+05 -2.206300000000000000e+04
2.840110000000000000e+05 -1.076840000000000000e+05
2.535270000000000000e+05 -1.949100000000000000e+05
1.920450000000000000e+05 -2.694500000000000000e+05
1.126630000000000000e+05 -3.207690000000000000e+05
1.803900000000000000e+04 -3.514930000000000000e+05
2.914790000000000000e+05 -2.010820000000000000e+05
2.191210000000000000e+05 -2.767810000000000000e+05
1.254160000000000000e+05 -3.272140000000000000e+05
2.080000000000000000e+04 -3.447420000000000000e+05
-8.241700000000000000e+04 -3.235990000000000000e+05
-1.653460000000000000e+05 -2.590160000000000000e+05
-1.986950000000000000e+05 -1.717910000000000000e+05
-1.839980000000000000e+05 -1.065600000000000000e+05
-1.638460000000000000e+05 -8.187200000000000000e+04
-1.638790000000000000e+05 -6.710600000000000000e+04
-1.737000000000000000e+05 -5.002300000000000000e+04
-1.834190000000000000e+05 -2.564300000000000000e+04
-1.886700000000000000e+05 8.832000000000000000e+03
-1.833510000000000000e+05 4.419200000000000000e+04
-1.708020000000000000e+05 7.822300000000000000e+04
-1.500700000000000000e+05 1.110600000000000000e+05
-1.241550000000000000e+05 1.413750000000000000e+05
-8.739600000000000000e+04 1.634360000000000000e+05
-4.674900000000000000e+04 1.771440000000000000e+05
-8.530000000000000000e+02 1.786110000000000000e+05
4.054300000000000000e+04 1.627540000000000000e+05
6.860700000000000000e+04 1.347930000000000000e+05
7.757500000000000000e+04 9.916000000000000000e+04
7.263100000000000000e+04 7.866600000000000000e+04
5.916200000000000000e+04 7.167600000000000000e+04
5.415000000000000000e+04 7.542600000000000000e+04
6.223100000000000000e+04 8.729300000000000000e+04
8.337200000000000000e+04 9.718200000000000000e+04
1.139250000000000000e+05 9.718200000000000000e+04
1.492860000000000000e+05 8.521300000000000000e+04
1.824300000000000000e+05 5.803600000000000000e+04
2.089590000000000000e+05 1.084300000000000000e+04
2.182340000000000000e+05 -4.507900000000000000e+04
2.070830000000000000e+05 -1.104120000000000000e+05
1.737680000000000000e+05 -1.686190000000000000e+05
1.184260000000000000e+05 -2.186440000000000000e+05
5.026200000000000000e+04 -2.459560000000000000e+05
-1.947100000000000000e+04 -2.479340000000000000e+05
-8.367900000000000000e+04 -2.256670000000000000e+05
-1.261670000000000000e+05 -1.880220000000000000e+05
-1.470690000000000000e+05 -1.460460000000000000e+05
-1.618670000000000000e+05 -1.191760000000000000e+05
-1.813040000000000000e+05 -8.998700000000000000e+04
-2.067760000000000000e+05 -5.258100000000000000e+04
-2.167330000000000000e+05 -3.649000000000000000e+03
-2.104590000000000000e+05 4.975000000000000000e+04
-1.894550000000000000e+05 9.837600000000000000e+04
-1.571970000000000000e+05 1.384760000000000000e+05
-1.201660000000000000e+05 1.703590000000000000e+05
-7.604100000000000000e+04 1.915000000000000000e+05
-2.806300000000000000e+04 2.049010000000000000e+05
2.213100000000000000e+04 2.075610000000000000e+05
7.713200000000000000e+04 1.969220000000000000e+05
1.286210000000000000e+05 1.655160000000000000e+05
1.626870000000000000e+05 1.131750000000000000e+05
1.641190000000000000e+05 5.408100000000000000e+04
1.387490000000000000e+05 1.374100000000000000e+04
1.115720000000000000e+05 -3.500000000000000000e+01
1.038650000000000000e+05 1.876000000000000000e+03
1.085710000000000000e+05 1.432000000000000000e+03
1.219720000000000000e+05 -6.479000000000000000e+03
1.378630000000000000e+05 -2.905300000000000000e+04
1.514350000000000000e+05 -6.076500000000000000e+04
1.568550000000000000e+05 -1.099700000000000000e+05
1.414080000000000000e+05 -1.672900000000000000e+05
9.841000000000000000e+04 -2.268270000000000000e+05
2.441400000000000000e+04 -2.762020000000000000e+05
-7.426800000000000000e+04 -2.892620000000000000e+05
-1.669140000000000000e+05 -2.546510000000000000e+05
-2.314640000000000000e+05 -1.843400000000000000e+05
-2.544470000000000000e+05 -1.042410000000000000e+05
-2.450020000000000000e+05 -3.246300000000000000e+04
-2.243380000000000000e+05 1.401500000000000000e+04
-2.005370000000000000e+05 4.228300000000000000e+04
-1.955230000000000000e+05 5.841200000000000000e+04
-2.059930000000000000e+05 8.947600000000000000e+04
-2.103230000000000000e+05 1.509900000000000000e+05
-1.804180000000000000e+05 2.376360000000000000e+05
-9.636400000000000000e+04 3.131650000000000000e+05
1.786800000000000000e+04 3.416040000000000000e+05
1.342140000000000000e+05 3.216900000000000000e+05
2.220530000000000000e+05 2.583680000000000000e+05
2.774980000000000000e+05 1.738020000000000000e+05
3.028680000000000000e+05 8.879400000000000000e+04
2.992190000000000000e+05 4.740000000000000000e+03
2.758610000000000000e+05 -6.922200000000000000e+04
2.338510000000000000e+05 -1.358850000000000000e+05
1.762580000000000000e+05 -1.854310000000000000e+05
1.049230000000000000e+05 -2.104930000000000000e+05
4.354500000000000000e+04 -2.047300000000000000e+05
6.410000000000000000e+03 -1.803500000000000000e+05
-7.979000000000000000e+03 -1.611180000000000000e+05
-1.626500000000000000e+04 -1.588340000000000000e+05
-2.762100000000000000e+04 -1.614240000000000000e+05
-4.968200000000000000e+04 -1.700860000000000000e+05
-7.883700000000000000e+04 -1.642210000000000000e+05
-1.163800000000000000e+05 -1.760870000000000000e+05
-1.616300000000000000e+05 -1.665740000000000000e+05
-2.115510000000000000e+05 -1.448530000000000000e+05
-2.578230000000000000e+05 -9.469300000000000000e+04
-2.916140000000000000e+05 -1.735700000000000000e+04
-2.819990000000000000e+05 7.968900000000000000e+04
-2.281560000000000000e+05 1.628230000000000000e+05
-1.505470000000000000e+05 2.074920000000000000e+05
-8.245100000000000000e+04 2.101860000000000000e+05
-3.866800000000000000e+04 1.904430000000000000e+05
-2.063000000000000000e+04 1.712460000000000000e+05
-1.626500000000000000e+04 1.637090000000000000e+05
-1.479800000000000000e+04 1.695410000000000000e+05
-3.308000000000000000e+03 1.925910000000000000e+05
3.113200000000000000e+04 2.219840000000000000e+05
9.176000000000000000e+04 2.428200000000000000e+05
1.760530000000000000e+05 2.362720000000000000e+05
2.334420000000000000e+05 1.967180000000000000e+05
2.889220000000000000e+05 1.242570000000000000e+05
3.098910000000000000e+05 3.004100000000000000e+04
2.975140000000000000e+05 -6.680000000000000000e+04
2.549240000000000000e+05 -1.423630000000000000e+05
1.960010000000000000e+05 -1.966490000000000000e+05
1.352360000000000000e+05 -2.247120000000000000e+05
8.061000000000000000e+04 -2.353850000000000000e+05
3.133700000000000000e+04 -2.354190000000000000e+05
-1.132100000000000000e+04 -2.263840000000000000e+05
-4.490800000000000000e+04 -2.128120000000000000e+05
-7.491600000000000000e+04 -2.007410000000000000e+05
-1.037980000000000000e+05 -1.856350000000000000e+05
-1.320660000000000000e+05 -1.676310000000000000e+05
-1.573670000000000000e+05 -1.438980000000000000e+05
-1.819530000000000000e+05 -1.173690000000000000e+05
-2.027860000000000000e+05 -8.579400000000000000e+04
-2.193250000000000000e+05 -4.852400000000000000e+04
-2.304070000000000000e+05 -9.880000000000000000e+02
-2.297940000000000000e+05 5.179600000000000000e+04
-2.178930000000000000e+05 1.133450000000000000e+05
-1.832490000000000000e+05 1.732230000000000000e+05
-1.213590000000000000e+05 2.237910000000000000e+05
-4.351000000000000000e+04 2.348050000000000000e+05
1.739100000000000000e+04 2.088910000000000000e+05
4.419200000000000000e+04 1.659600000000000000e+05
4.998900000000000000e+04 1.334290000000000000e+05
4.559000000000000000e+04 1.168910000000000000e+05
4.364700000000000000e+04 1.109580000000000000e+05
4.879600000000000000e+04 1.161410000000000000e+05
6.291200000000000000e+04 1.192100000000000000e+05
8.862300000000000000e+04 1.199940000000000000e+05
1.186310000000000000e+05 1.140950000000000000e+05
1.538890000000000000e+05 9.499900000000000000e+04
1.806910000000000000e+05 5.749100000000000000e+04
1.970930000000000000e+05 5.320000000000000000e+03
1.918750000000000000e+05 -5.234200000000000000e+04
1.666080000000000000e+05 -1.014790000000000000e+05
1.292010000000000000e+05 -1.345890000000000000e+05
9.264800000000000000e+04 -1.504790000000000000e+05
6.059500000000000000e+04 -1.551170000000000000e+05
3.594000000000000000e+04 -1.519800000000000000e+05
1.851600000000000000e+04 -1.526270000000000000e+05
0.000000000000000000e+00 -1.591740000000000000e+05
-2.219900000000000000e+04 -1.693700000000000000e+05
-5.858200000000000000e+04 -1.830100000000000000e+05
-1.036610000000000000e+05 -1.805540000000000000e+05
-1.504100000000000000e+05 -1.562070000000000000e+05
-1.818170000000000000e+05 -1.149480000000000000e+05
-2.016950000000000000e+05 -6.816400000000000000e+04
-2.039120000000000000e+05 -2.032300000000000000e+04
-1.986270000000000000e+05 2.496000000000000000e+04
-1.840320000000000000e+05 7.082300000000000000e+04
-1.608800000000000000e+05 1.107880000000000000e+05
-1.302240000000000000e+05 1.475460000000000000e+05
-8.974800000000000000e+04 1.757120000000000000e+05
-4.194100000000000000e+04 1.882950000000000000e+05
6.308000000000000000e+03 1.791560000000000000e+05
3.771400000000000000e+04 1.510250000000000000e+05
4.981800000000000000e+04 1.262000000000000000e+05
5.472900000000000000e+04 1.114010000000000000e+05
5.711700000000000000e+04 1.074800000000000000e+05
6.870900000000000000e+04 1.068660000000000000e+05
8.347400000000000000e+04 1.079580000000000000e+05
1.048210000000000000e+05 1.066960000000000000e+05
1.314180000000000000e+05 9.377200000000000000e+04
1.610500000000000000e+05 7.079000000000000000e+04
1.832140000000000000e+05 3.287200000000000000e+04
1.931030000000000000e+05 -1.623100000000000000e+04
1.805890000000000000e+05 -7.229000000000000000e+04
1.483660000000000000e+05 -1.187340000000000000e+05
1.088780000000000000e+05 -1.516040000000000000e+05
6.472000000000000000e+04 -1.593780000000000000e+05
3.256400000000000000e+04 -1.597880000000000000e+05
7.877000000000000000e+03 -1.529010000000000000e+05
-9.343000000000000000e+03 -1.512630000000000000e+05
-2.332400000000000000e+04 -1.505130000000000000e+05
-3.842900000000000000e+04 -1.581850000000000000e+05
-6.608300000000000000e+04 -1.670850000000000000e+05
-1.061510000000000000e+05 -1.708700000000000000e+05
-1.560030000000000000e+05 -1.602310000000000000e+05
-2.044570000000000000e+05 -1.229950000000000000e+05
-2.331010000000000000e+05 -6.168600000000000000e+04
-2.392390000000000000e+05 8.115000000000000000e+03
-2.214050000000000000e+05 7.194800000000000000e+04
-1.850560000000000000e+05 1.235400000000000000e+05
-1.448860000000000000e+05 1.601630000000000000e+05
-9.861400000000000000e+04 1.802470000000000000e+05
-5.425100000000000000e+04 1.917720000000000000e+05
-1.674300000000000000e+04 1.940230000000000000e+05
2.032300000000000000e+04 1.888750000000000000e+05
4.995500000000000000e+04 1.791560000000000000e+05
7.685900000000000000e+04 1.696770000000000000e+05
1.026380000000000000e+05 1.546390000000000000e+05
1.363960000000000000e+05 1.334290000000000000e+05
1.613230000000000000e+05 1.092520000000000000e+05
1.816110000000000000e+05 7.941600000000000000e+04
1.999920000000000000e+05 4.224800000000000000e+04
2.089590000000000000e+05 -1.023000000000000000e+03
2.089930000000000000e+05 -5.121700000000000000e+04
1.951490000000000000e+05 -1.056390000000000000e+05
1.614250000000000000e+05 -1.593450000000000000e+05
1.096630000000000000e+05 -2.019680000000000000e+05
5.067100000000000000e+04 -2.224620000000000000e+05
-1.411700000000000000e+04 -2.164610000000000000e+05
-6.137800000000000000e+04 -1.896590000000000000e+05
