-4.661400000000000000e+04 4.797800000000000000e+04
-4.501100000000000000e+04 4.951100000000000000e+04
-4.156700000000000000e+04 5.108100000000000000e+04
-4.061200000000000000e+04 5.159200000000000000e+04
-3.911200000000000000e+04 5.418300000000000000e+04
-3.846300000000000000e+04 5.483100000000000000e+04
-3.409900000000000000e+04 5.783200000000000000e+04
-3.249700000000000000e+04 5.950300000000000000e+04
-3.048400000000000000e+04 6.168500000000000000e+04
-2.966600000000000000e+04 6.352600000000000000e+04
-2.775700000000000000e+04 6.359500000000000000e+04
-2.451700000000000000e+04 6.755000000000000000e+04
-2.277800000000000000e+04 6.884700000000000000e+04
-1.984500000000000000e+04 7.031300000000000000e+04
-1.773100000000000000e+04 7.300600000000000000e+04
-1.411700000000000000e+04 7.627900000000000000e+04
-9.957000000000000000e+03 7.801900000000000000e+04
-7.979000000000000000e+03 8.108700000000000000e+04
-3.410000000000000000e+03 8.204200000000000000e+04
5.460000000000000000e+02 8.310000000000000000e+04
7.195000000000000000e+03 8.616800000000000000e+04
1.176400000000000000e+04 8.572500000000000000e+04
1.677600000000000000e+04 8.927200000000000000e+04
2.458600000000000000e+04 8.889600000000000000e+04
3.133700000000000000e+04 8.916900000000000000e+04
3.771400000000000000e+04 8.818000000000000000e+04
4.330600000000000000e+04 8.586200000000000000e+04
4.995500000000000000e+04 8.487300000000000000e+04
5.663900000000000000e+04 8.238300000000000000e+04
6.468600000000000000e+04 7.965500000000000000e+04
7.051700000000000000e+04 7.317600000000000000e+04
7.788200000000000000e+04 7.065300000000000000e+04
8.558800000000000000e+04 6.669700000000000000e+04
9.118000000000000000e+04 6.250400000000000000e+04
9.820500000000000000e+04 5.438800000000000000e+04
1.041730000000000000e+05 4.866000000000000000e+04
1.079240000000000000e+05 4.395400000000000000e+04
1.097640000000000000e+05 3.808800000000000000e+04
1.170960000000000000e+05 3.246200000000000000e+04
1.164480000000000000e+05 2.673400000000000000e+04
1.197900000000000000e+05 1.994800000000000000e+04
1.211190000000000000e+05 1.224200000000000000e+04
1.226540000000000000e+05 6.445000000000000000e+03
1.254170000000000000e+05 3.400000000000000000e+01
1.259960000000000000e+05 -7.467000000000000000e+03
1.244270000000000000e+05 -9.444000000000000000e+03
1.241890000000000000e+05 -1.681100000000000000e+04
1.208120000000000000e+05 -2.366500000000000000e+04
1.192100000000000000e+05 -2.799500000000000000e+04
1.191080000000000000e+05 -3.253000000000000000e+04
1.135500000000000000e+05 -3.774800000000000000e+04
1.122540000000000000e+05 -4.235100000000000000e+04
1.086400000000000000e+05 -4.787500000000000000e+04
1.027070000000000000e+05 -5.401300000000000000e+04
1.009330000000000000e+05 -5.909300000000000000e+04
9.500000000000000000e+04 -6.427700000000000000e+04
9.141900000000000000e+04 -6.724300000000000000e+04
8.470200000000000000e+04 -7.300700000000000000e+04
8.084800000000000000e+04 -7.887100000000000000e+04
7.515400000000000000e+04 -8.279200000000000000e+04
6.830000000000000000e+04 -8.746400000000000000e+04
6.727700000000000000e+04 -9.377200000000000000e+04
5.483100000000000000e+04 -9.721600000000000000e+04
4.835200000000000000e+04 -1.021270000000000000e+05
4.122500000000000000e+04 -1.055020000000000000e+05
3.461000000000000000e+04 -1.075490000000000000e+05
2.656300000000000000e+04 -1.109240000000000000e+05
1.827700000000000000e+04 -1.115040000000000000e+05
1.063900000000000000e+04 -1.159360000000000000e+05
3.990000000000000000e+03 -1.163110000000000000e+05
-3.649000000000000000e+03 -1.165850000000000000e+05
-1.462900000000000000e+04 -1.153560000000000000e+05
-1.991400000000000000e+04 -1.140610000000000000e+05
-2.772300000000000000e+04 -1.094930000000000000e+05
-3.307600000000000000e+04 -1.071390000000000000e+05
-4.010100000000000000e+04 -1.042410000000000000e+05
-4.259000000000000000e+04 -9.967100000000000000e+04
-4.903500000000000000e+04 -9.605600000000000000e+04
-5.336500000000000000e+04 -9.118000000000000000e+04
-5.667300000000000000e+04 -8.429200000000000000e+04
-6.287900000000000000e+04 -7.985900000000000000e+04
-6.628900000000000000e+04 -7.440400000000000000e+04
-6.884500000000000000e+04 -6.901700000000000000e+04
-7.051700000000000000e+04 -6.656100000000000000e+04
-7.508600000000000000e+04 -6.189000000000000000e+04
-7.703000000000000000e+04 -5.749100000000000000e+04
-7.836000000000000000e+04 -5.374000000000000000e+04
-8.003100000000000000e+04 -5.084200000000000000e+04
-8.180400000000000000e+04 -4.726100000000000000e+04
-9.650000000000000000e+04 -4.777200000000000000e+04
-1.050250000000000000e+05 -4.398800000000000000e+04
-1.032520000000000000e+05 -2.792700000000000000e+04
-9.148800000000000000e+04 -2.516500000000000000e+04
-9.428400000000000000e+04 -2.492600000000000000e+04
-9.714900000000000000e+04 -2.093700000000000000e+04
-9.902400000000000000e+04 -2.172100000000000000e+04
-1.015140000000000000e+05 -1.841400000000000000e+04
-1.028770000000000000e+05 -1.759500000000000000e+04
-1.040700000000000000e+05 -1.265100000000000000e+04
-1.040370000000000000e+05 -1.033200000000000000e+04
-1.067980000000000000e+05 -9.035000000000000000e+03
-1.089810000000000000e+05 -6.138000000000000000e+03
-1.112990000000000000e+05 -1.398000000000000000e+03
-1.110270000000000000e+05 -6.140000000000000000e+02
-1.162090000000000000e+05 2.182000000000000000e+03
-1.265750000000000000e+05 3.069000000000000000e+03
-1.173690000000000000e+05 1.381000000000000000e+04
-1.174720000000000000e+05 1.439000000000000000e+04
-1.188010000000000000e+05 2.015300000000000000e+04
-1.188010000000000000e+05 2.407500000000000000e+04
-1.199270000000000000e+05 2.755100000000000000e+04
-1.177780000000000000e+05 3.314500000000000000e+04
-1.178470000000000000e+05 3.686100000000000000e+04
-1.189370000000000000e+05 3.440500000000000000e+04
-1.060830000000000000e+05 6.154800000000000000e+04
-1.076500000000000000e+05 6.246900000000000000e+04
-1.027740000000000000e+05 6.894800000000000000e+04
-1.006610000000000000e+05 7.631400000000000000e+04
-9.350000000000000000e+04 8.330300000000000000e+04
-8.105300000000000000e+04 8.927200000000000000e+04
-8.108800000000000000e+04 1.004210000000000000e+05
-7.570000000000000000e+04 1.064240000000000000e+05
-6.840300000000000000e+04 1.132770000000000000e+05
-6.096900000000000000e+04 1.185620000000000000e+05
-5.309200000000000000e+04 1.231650000000000000e+05
-4.600000000000000000e+04 1.252110000000000000e+05
-3.706600000000000000e+04 1.274280000000000000e+05
-3.113300000000000000e+04 1.312470000000000000e+05
-2.342600000000000000e+04 1.301900000000000000e+05
-1.374200000000000000e+04 1.323040000000000000e+05
-8.730000000000000000e+03 1.316570000000000000e+05
-1.705000000000000000e+03 1.309750000000000000e+05
3.990000000000000000e+03 1.295760000000000000e+05
8.388000000000000000e+03 1.316220000000000000e+05
1.254800000000000000e+04 1.293380000000000000e+05
1.681100000000000000e+04 1.271210000000000000e+05
2.192600000000000000e+04 1.271890000000000000e+05
2.400600000000000000e+04 1.247340000000000000e+05
2.687000000000000000e+04 1.225520000000000000e+05
3.045000000000000000e+04 1.215290000000000000e+05
3.403100000000000000e+04 1.190740000000000000e+05
3.802000000000000000e+04 1.157320000000000000e+05
4.276000000000000000e+04 1.148790000000000000e+05
4.923900000000000000e+04 1.109580000000000000e+05
5.640000000000000000e+04 1.114010000000000000e+05
6.956200000000000000e+04 1.078550000000000000e+05
7.651800000000000000e+04 1.112640000000000000e+05
8.166700000000000000e+04 1.075490000000000000e+05
9.448800000000000000e+04 1.040360000000000000e+05
-1.977800000000000000e+04 2.208930000000000000e+05
1.095260000000000000e+05 1.078550000000000000e+05
1.159020000000000000e+05 1.033540000000000000e+05
1.277340000000000000e+05 9.967200000000000000e+04
1.455690000000000000e+05 9.349900000000000000e+04
1.581520000000000000e+05 9.462500000000000000e+04
1.726440000000000000e+05 9.193100000000000000e+04
1.866240000000000000e+05 9.046500000000000000e+04
2.004680000000000000e+05 8.869200000000000000e+04
2.110380000000000000e+05 8.742900000000000000e+04
2.239280000000000000e+05 8.425900000000000000e+04
2.334770000000000000e+05 7.951900000000000000e+04
2.435010000000000000e+05 7.542700000000000000e+04
2.517530000000000000e+05 7.027800000000000000e+04
2.579250000000000000e+05 6.321900000000000000e+04
2.642680000000000000e+05 5.534200000000000000e+04
2.688020000000000000e+05 4.412400000000000000e+04
2.733720000000000000e+05 3.457700000000000000e+04
2.697230000000000000e+05 1.855000000000000000e+04
2.714280000000000000e+05 8.082000000000000000e+03
2.713260000000000000e+05 -1.077600000000000000e+04
2.698250000000000000e+05 -2.799500000000000000e+04
2.671650000000000000e+05 -4.705700000000000000e+04
2.639600000000000000e+05 -6.802800000000000000e+04
2.577880000000000000e+05 -8.695200000000000000e+04
2.500820000000000000e+05 -1.075490000000000000e+05
2.443880000000000000e+05 -1.254510000000000000e+05
2.330330000000000000e+05 -1.419550000000000000e+05
2.213370000000000000e+05 -1.590030000000000000e+05
2.090950000000000000e+05 -1.772470000000000000e+05
1.929320000000000000e+05 -1.909210000000000000e+05
1.783030000000000000e+05 -2.059590000000000000e+05
1.605380000000000000e+05 -2.233480000000000000e+05
1.415460000000000000e+05 -2.372270000000000000e+05
1.256200000000000000e+05 -2.510030000000000000e+05
7.481300000000000000e+04 -2.636530000000000000e+05
5.131900000000000000e+04 -2.753160000000000000e+05
3.034800000000000000e+04 -2.861260000000000000e+05
1.616300000000000000e+04 -2.931830000000000000e+05
4.430000000000000000e+02 -2.980930000000000000e+05
-1.363900000000000000e+04 -3.015040000000000000e+05
-3.120000000000000000e+04 -3.052550000000000000e+05
-4.644200000000000000e+04 -3.071640000000000000e+05
-5.997900000000000000e+04 -3.095170000000000000e+05
-7.634700000000000000e+04 -3.528560000000000000e+05
-9.066900000000000000e+04 -3.361140000000000000e+05
-1.055710000000000000e+05 -3.187240000000000000e+05
-1.216640000000000000e+05 -2.970360000000000000e+05
-1.385100000000000000e+05 -2.776000000000000000e+05
-1.594470000000000000e+05 -2.559470000000000000e+05
-1.791900000000000000e+05 -2.328970000000000000e+05
-2.010140000000000000e+05 -2.111410000000000000e+05
-2.271680000000000000e+05 -1.895230000000000000e+05
-2.524010000000000000e+05 -1.705970000000000000e+05
-2.793730000000000000e+05 -1.555600000000000000e+05
-3.036510000000000000e+05 -1.432160000000000000e+05
-3.246900000000000000e+05 -1.327140000000000000e+05
-3.427630000000000000e+05 -1.220060000000000000e+05
-3.580060000000000000e+05 -1.146760000000000000e+05
-3.633930000000000000e+05 -1.048890000000000000e+05
-3.707580000000000000e+05 -9.254500000000000000e+04
-3.735550000000000000e+05 -8.129200000000000000e+04
-3.717820000000000000e+05 -6.911900000000000000e+04
-3.684400000000000000e+05 -5.305800000000000000e+04
-3.657120000000000000e+05 -3.652000000000000000e+04
-3.569490000000000000e+05 -2.223300000000000000e+04
-3.498890000000000000e+05 -5.251000000000000000e+03
-3.415360000000000000e+05 8.729000000000000000e+03
-3.329430000000000000e+05 2.560800000000000000e+04
-3.203270000000000000e+05 4.258900000000000000e+04
-3.113580000000000000e+05 5.605900000000000000e+04
-2.988780000000000000e+05 7.235900000000000000e+04
-2.895680000000000000e+05 8.514500000000000000e+04
-2.770880000000000000e+05 9.963700000000000000e+04
-2.678130000000000000e+05 1.107530000000000000e+05
-2.556410000000000000e+05 1.244270000000000000e+05
-2.450350000000000000e+05 1.342470000000000000e+05
-2.320100000000000000e+05 1.454660000000000000e+05
-2.203470000000000000e+05 1.583550000000000000e+05
-2.085490000000000000e+05 1.686880000000000000e+05
-1.967180000000000000e+05 1.805200000000000000e+05
-1.844410000000000000e+05 1.923530000000000000e+05
-1.710400000000000000e+05 2.041850000000000000e+05
-1.610840000000000000e+05 2.192570000000000000e+05
-1.517070000000000000e+05 2.329650000000000000e+05
-1.431480000000000000e+05 2.501840000000000000e+05
-1.397710000000000000e+05 2.620170000000000000e+05
-1.365330000000000000e+05 2.746000000000000000e+05
-1.327820000000000000e+05 2.846930000000000000e+05
-1.317930000000000000e+05 2.962520000000000000e+05
-1.287240000000000000e+05 3.042660000000000000e+05
-1.253140000000000000e+05 3.092780000000000000e+05
-1.207100000000000000e+05 3.139150000000000000e+05
-1.148450000000000000e+05 3.173600000000000000e+05
-1.079240000000000000e+05 3.205300000000000000e+05
-1.000470000000000000e+05 3.212810000000000000e+05
-9.039700000000000000e+04 3.218260000000000000e+05
-7.740600000000000000e+04 3.214180000000000000e+05
-6.165100000000000000e+04 3.200880000000000000e+05
-4.426100000000000000e+04 3.196110000000000000e+05
-2.530200000000000000e+04 3.189960000000000000e+05
-4.092000000000000000e+03 3.184510000000000000e+05
1.875500000000000000e+04 3.201560000000000000e+05
4.272600000000000000e+04 3.193380000000000000e+05
6.581100000000000000e+04 3.222700000000000000e+05
9.329500000000000000e+04 3.192350000000000000e+05
1.184260000000000000e+05 3.171210000000000000e+05
1.415460000000000000e+05 3.153820000000000000e+05
1.661990000000000000e+05 3.107780000000000000e+05
1.894540000000000000e+05 3.025610000000000000e+05
2.133920000000000000e+05 2.933200000000000000e+05
2.371580000000000000e+05 2.815210000000000000e+05
2.586750000000000000e+05 2.658360000000000000e+05
2.798170000000000000e+05 2.507640000000000000e+05
3.007200000000000000e+05 2.312590000000000000e+05
3.200880000000000000e+05 2.136640000000000000e+05
3.338630000000000000e+05 1.942290000000000000e+05
3.504700000000000000e+05 1.731890000000000000e+05
3.625070000000000000e+05 1.506500000000000000e+05
3.742030000000000000e+05 1.313840000000000000e+05
3.857970000000000000e+05 1.116410000000000000e+05
3.917980000000000000e+05 9.319300000000000000e+04
3.986860000000000000e+05 7.334700000000000000e+04
4.037660000000000000e+05 5.530900000000000000e+04
4.083700000000000000e+05 3.686100000000000000e+04
4.114720000000000000e+05 2.131200000000000000e+04
4.101770000000000000e+05 4.263000000000000000e+03
4.096990000000000000e+05 -1.217300000000000000e+04
4.060520000000000000e+05 -2.751800000000000000e+04
4.012100000000000000e+05 -4.603400000000000000e+04
3.930260000000000000e+05 -6.250300000000000000e+04
3.861030000000000000e+05 -8.456600000000000000e+04
3.729070000000000000e+05 -1.062870000000000000e+05
3.642800000000000000e+05 -1.303610000000000000e+05
3.538460000000000000e+05 -1.575710000000000000e+05
3.438540000000000000e+05 -1.844070000000000000e+05
3.313400000000000000e+05 -2.123010000000000000e+05
3.256790000000000000e+05 -2.422740000000000000e+05
3.169850000000000000e+05 -2.699620000000000000e+05
3.091080000000000000e+05 -2.955700000000000000e+05
2.997650000000000000e+05 -3.229520000000000000e+05
2.900460000000000000e+05 -3.460030000000000000e+05
2.798500000000000000e+05 -3.701790000000000000e+05
2.655290000000000000e+05 -3.900590000000000000e+05
2.508670000000000000e+05 -4.096650000000000000e+05
2.343290000000000000e+05 -4.286580000000000000e+05
2.167340000000000000e+05 -4.439690000000000000e+05
1.922160000000000000e+05 -4.568930000000000000e+05
1.665400000000000000e+05 -4.718970000000000000e+05
1.396700000000000000e+05 -4.813760000000000000e+05
1.112310000000000000e+05 -4.906500000000000000e+05
7.801900000000000000e+04 -4.969940000000000000e+05
4.716000000000000000e+04 -5.025520000000000000e+05
1.251400000000000000e+04 -5.061320000000000000e+05
-2.601800000000000000e+04 -5.037110000000000000e+05
-5.933300000000000000e+04 -5.048700000000000000e+05
-9.520500000000000000e+04 -4.998240000000000000e+05
-1.329860000000000000e+05 -4.903440000000000000e+05
-1.682100000000000000e+05 -4.772160000000000000e+05
-2.028880000000000000e+05 -4.603720000000000000e+05
-2.398180000000000000e+05 -4.390590000000000000e+05
-2.720760000000000000e+05 -4.148830000000000000e+05
-3.050840000000000000e+05 -3.871260000000000000e+05
-3.344430000000000000e+05 -3.549710000000000000e+05
-3.619950000000000000e+05 -3.203260000000000000e+05
-3.919340000000000000e+05 -2.849990000000000000e+05
-4.188380000000000000e+05 -2.459220000000000000e+05
-4.423670000000000000e+05 -2.058220000000000000e+05
-4.609500000000000000e+05 -1.663360000000000000e+05
-4.796360000000000000e+05 -1.266780000000000000e+05
-4.928330000000000000e+05 -8.845300000000000000e+04
-5.028240000000000000e+05 -5.288700000000000000e+04
-5.105640000000000000e+05 -1.773100000000000000e+04
-5.115530000000000000e+05 1.568600000000000000e+04
-5.083820000000000000e+05 4.644300000000000000e+04
-5.030280000000000000e+05 7.290400000000000000e+04
-4.956630000000000000e+05 9.960300000000000000e+04
-4.826380000000000000e+05 1.245300000000000000e+05
-4.656220000000000000e+05 1.441700000000000000e+05
-4.463560000000000000e+05 1.660620000000000000e+05
-4.264420000000000000e+05 1.858400000000000000e+05
-4.030850000000000000e+05 2.036730000000000000e+05
-3.791810000000000000e+05 2.239620000000000000e+05
-3.566070000000000000e+05 2.395800000000000000e+05
-3.323970000000000000e+05 2.575150000000000000e+05
-3.079830000000000000e+05 2.714280000000000000e+05
-2.857830000000000000e+05 2.847950000000000000e+05
-2.631760000000000000e+05 2.980250000000000000e+05
-2.416600000000000000e+05 3.090050000000000000e+05
-2.204500000000000000e+05 3.182460000000000000e+05
-1.997170000000000000e+05 3.274530000000000000e+05
-1.784750000000000000e+05 3.350230000000000000e+05
-1.583550000000000000e+05 3.408540000000000000e+05
-1.411020000000000000e+05 3.428650000000000000e+05
-1.204040000000000000e+05 3.461730000000000000e+05
-1.010350000000000000e+05 3.465480000000000000e+05
-7.934800000000000000e+04 3.484920000000000000e+05
-5.929800000000000000e+04 3.505040000000000000e+05
-4.183900000000000000e+04 3.482870000000000000e+05
-2.124400000000000000e+04 3.463100000000000000e+05
-2.216000000000000000e+03 3.445710000000000000e+05
1.428800000000000000e+04 3.412290000000000000e+05
2.912100000000000000e+04 3.392860000000000000e+05
4.644300000000000000e+04 3.321240000000000000e+05
6.042400000000000000e+04 3.266680000000000000e+05
7.593900000000000000e+04 3.196780000000000000e+05
8.995400000000000000e+04 3.121420000000000000e+05
1.003190000000000000e+05 3.024920000000000000e+05
1.134480000000000000e+05 2.926380000000000000e+05
1.248020000000000000e+05 2.805670000000000000e+05
1.363630000000000000e+05 2.684270000000000000e+05
1.464220000000000000e+05 2.554010000000000000e+05
1.563440000000000000e+05 2.420700000000000000e+05
1.677340000000000000e+05 2.245420000000000000e+05
1.782360000000000000e+05 2.104590000000000000e+05
1.877150000000000000e+05 1.948420000000000000e+05
1.985940000000000000e+05 1.780650000000000000e+05
2.114820000000000000e+05 1.642890000000000000e+05
2.218480000000000000e+05 1.473070000000000000e+05
2.346360000000000000e+05 1.353050000000000000e+05
2.461610000000000000e+05 1.218360000000000000e+05
2.576860000000000000e+05 1.091170000000000000e+05
2.663480000000000000e+05 9.731900000000000000e+04
2.774980000000000000e+05 8.603100000000000000e+04
2.865010000000000000e+05 7.321100000000000000e+04
2.935580000000000000e+05 6.240100000000000000e+04
3.034480000000000000e+05 5.012500000000000000e+04
3.118020000000000000e+05 3.860100000000000000e+04
3.177010000000000000e+05 2.554000000000000000e+04
3.236000000000000000e+05 1.248000000000000000e+04
3.313060000000000000e+05 1.602000000000000000e+03
3.333860000000000000e+05 -1.237800000000000000e+04
3.412290000000000000e+05 -2.639300000000000000e+04
3.488670000000000000e+05 -4.221500000000000000e+04
3.506400000000000000e+05 -5.592200000000000000e+04
3.577330000000000000e+05 -7.184700000000000000e+04
3.587560000000000000e+05 -8.886200000000000000e+04
3.622680000000000000e+05 -1.067300000000000000e+05
3.637010000000000000e+05 -1.239150000000000000e+05
3.656440000000000000e+05 -1.444090000000000000e+05
3.652350000000000000e+05 -1.630610000000000000e+05
3.635640000000000000e+05 -1.872720000000000000e+05
3.577670000000000000e+05 -2.082760000000000000e+05
3.552090000000000000e+05 -2.308850000000000000e+05
3.469580000000000000e+05 -2.551970000000000000e+05
3.349550000000000000e+05 -2.817600000000000000e+05
3.224060000000000000e+05 -3.070280000000000000e+05
3.073010000000000000e+05 -3.325680000000000000e+05
2.862270000000000000e+05 -3.594380000000000000e+05
2.671660000000000000e+05 -3.861720000000000000e+05
2.453080000000000000e+05 -4.080980000000000000e+05
2.177220000000000000e+05 -4.323760000000000000e+05
1.884660000000000000e+05 -4.503460000000000000e+05
1.554920000000000000e+05 -4.685550000000000000e+05
1.231660000000000000e+05 -4.832510000000000000e+05
8.841800000000000000e+04 -4.949130000000000000e+05
5.104700000000000000e+04 -5.026880000000000000e+05
1.493600000000000000e+04 -5.066780000000000000e+05
-2.363100000000000000e+04 -5.074960000000000000e+05
-6.035600000000000000e+04 -5.021430000000000000e+05
-9.800100000000000000e+04 -4.970960000000000000e+05
-1.348960000000000000e+05 -4.877520000000000000e+05
-1.697450000000000000e+05 -4.726120000000000000e+05
-2.066050000000000000e+05 -4.536870000000000000e+05
-2.414890000000000000e+05 -4.323760000000000000e+05
-2.743950000000000000e+05 -4.104500000000000000e+05
-3.056980000000000000e+05 -3.841940000000000000e+05
-3.359430000000000000e+05 -3.564720000000000000e+05
-3.635640000000000000e+05 -3.300790000000000000e+05
-3.886950000000000000e+05 -3.002070000000000000e+05
-4.138590000000000000e+05 -2.714630000000000000e+05
-4.335690000000000000e+05 -2.376020000000000000e+05
-4.522210000000000000e+05 -2.062650000000000000e+05
-4.688280000000000000e+05 -1.717570000000000000e+05
-4.828420000000000000e+05 -1.380330000000000000e+05
-4.936860000000000000e+05 -1.043100000000000000e+05
-5.010510000000000000e+05 -6.942600000000000000e+04
-5.069840000000000000e+05 -3.658800000000000000e+04
-5.112470000000000000e+05 -2.251000000000000000e+03
-5.134970000000000000e+05 3.034800000000000000e+04
-5.135660000000000000e+05 6.345800000000000000e+04
-5.085530000000000000e+05 9.694300000000000000e+04
-5.061320000000000000e+05 1.275640000000000000e+05
-4.994820000000000000e+05 1.602650000000000000e+05
-4.922870000000000000e+05 1.892830000000000000e+05
-4.802510000000000000e+05 2.170070000000000000e+05
-4.692360000000000000e+05 2.434660000000000000e+05
-4.545740000000000000e+05 2.702690000000000000e+05
-4.392630000000000000e+05 2.937970000000000000e+05
-4.221110000000000000e+05 3.158940000000000000e+05
-4.016180000000000000e+05 3.368980000000000000e+05
-3.803400000000000000e+05 3.522090000000000000e+05
-3.568460000000000000e+05 3.694960000000000000e+05
-3.289870000000000000e+05 3.835800000000000000e+05
-2.977530000000000000e+05 3.969460000000000000e+05
-2.675070000000000000e+05 4.084380000000000000e+05
-2.365790000000000000e+05 4.144060000000000000e+05
-2.049690000000000000e+05 4.219750000000000000e+05
-1.709380000000000000e+05 4.274990000000000000e+05
-1.367710000000000000e+05 4.300910000000000000e+05
-1.032860000000000000e+05 4.287610000000000000e+05
-7.079000000000000000e+04 4.249420000000000000e+05
-3.501900000000000000e+04 4.234760000000000000e+05
-3.138000000000000000e+03 4.168940000000000000e+05
2.854100000000000000e+04 4.067330000000000000e+05
5.902600000000000000e+04 3.950710000000000000e+05
8.688400000000000000e+04 3.822500000000000000e+05
1.114360000000000000e+05 3.688490000000000000e+05
1.333280000000000000e+05 3.508450000000000000e+05
1.574350000000000000e+05 3.341370000000000000e+05
1.728480000000000000e+05 3.159270000000000000e+05
1.898290000000000000e+05 2.963890000000000000e+05
2.023440000000000000e+05 2.777700000000000000e+05
2.140390000000000000e+05 2.562540000000000000e+05
2.223940000000000000e+05 2.373630000000000000e+05
2.296570000000000000e+05 2.187450000000000000e+05
2.347380000000000000e+05 2.025140000000000000e+05
2.387270000000000000e+05 1.842020000000000000e+05
2.403300000000000000e+05 1.678690000000000000e+05
2.426480000000000000e+05 1.564120000000000000e+05
2.409090000000000000e+05 1.439320000000000000e+05
2.423760000000000000e+05 1.300880000000000000e+05
2.391370000000000000e+05 1.198240000000000000e+05
2.407730000000000000e+05 1.091170000000000000e+05
2.380450000000000000e+05 1.006600000000000000e+05
2.369200000000000000e+05 9.268100000000000000e+04
2.354870000000000000e+05 8.385000000000000000e+04
2.337490000000000000e+05 7.696200000000000000e+04
2.316010000000000000e+05 6.973200000000000000e+04
2.298280000000000000e+05 6.158300000000000000e+04
2.303390000000000000e+05 5.520600000000000000e+04
2.287700000000000000e+05 4.900000000000000000e+04
2.295890000000000000e+05 4.074900000000000000e+04
2.333400000000000000e+05 3.450900000000000000e+04
2.358970000000000000e+05 2.779100000000000000e+04
2.366130000000000000e+05 2.114100000000000000e+04
2.399210000000000000e+05 1.050300000000000000e+04
2.439450000000000000e+05 2.523000000000000000e+03
2.493660000000000000e+05 -3.512000000000000000e+03
2.537310000000000000e+05 -1.244600000000000000e+04
2.576180000000000000e+05 -1.964100000000000000e+04
2.617100000000000000e+05 -2.755200000000000000e+04
2.650510000000000000e+05 -3.669100000000000000e+04
2.679160000000000000e+05 -4.422600000000000000e+04
2.705070000000000000e+05 -5.295500000000000000e+04
2.742580000000000000e+05 -6.161700000000000000e+04
2.759630000000000000e+05 -7.020900000000000000e+04
2.762020000000000000e+05 -7.815500000000000000e+04
2.786220000000000000e+05 -8.760100000000000000e+04
2.771230000000000000e+05 -9.691000000000000000e+04
2.783510000000000000e+05 -1.078210000000000000e+05
2.775660000000000000e+05 -1.179150000000000000e+05
2.750770000000000000e+05 -1.283490000000000000e+05
2.740870000000000000e+05 -1.400100000000000000e+05
2.734730000000000000e+05 -1.525590000000000000e+05
2.696210000000000000e+05 -1.620380000000000000e+05
2.674730000000000000e+05 -1.769390000000000000e+05
2.625620000000000000e+05 -1.860780000000000000e+05
2.603800000000000000e+05 -2.006390000000000000e+05
2.549920000000000000e+05 -2.132890000000000000e+05
2.486150000000000000e+05 -2.293500000000000000e+05
2.440800000000000000e+05 -2.399890000000000000e+05
2.343620000000000000e+05 -2.560490000000000000e+05
2.277810000000000000e+05 -2.673710000000000000e+05
2.190860000000000000e+05 -2.830900000000000000e+05
2.070830000000000000e+05 -2.969680000000000000e+05
1.957960000000000000e+05 -3.121420000000000000e+05
1.814750000000000000e+05 -3.236680000000000000e+05
1.667100000000000000e+05 -3.379550000000000000e+05
1.505810000000000000e+05 -3.496850000000000000e+05
1.314180000000000000e+05 -3.651670000000000000e+05
1.128340000000000000e+05 -3.771350000000000000e+05
8.923700000000000000e+04 -3.907400000000000000e+05
7.078900000000000000e+04 -4.027780000000000000e+05
4.572600000000000000e+04 -4.143710000000000000e+05
1.930000000000000000e+04 -4.255220000000000000e+05
-6.035000000000000000e+03 -4.333650000000000000e+05
-3.430400000000000000e+04 -4.403890000000000000e+05
-6.192400000000000000e+04 -4.457760000000000000e+05
-9.639800000000000000e+04 -4.490160000000000000e+05
-1.252120000000000000e+05 -4.484700000000000000e+05
-1.563790000000000000e+05 -4.464250000000000000e+05
-1.913640000000000000e+05 -4.419570000000000000e+05
-2.243030000000000000e+05 -4.351030000000000000e+05
-2.601750000000000000e+05 -4.253860000000000000e+05
-2.944790000000000000e+05 -4.130760000000000000e+05
-3.291580000000000000e+05 -3.946280000000000000e+05
-3.627450000000000000e+05 -3.753960000000000000e+05
-3.962990000000000000e+05 -3.526170000000000000e+05
-4.301600000000000000e+05 -3.259860000000000000e+05
-4.622470000000000000e+05 -2.947520000000000000e+05
-4.898320000000000000e+05 -2.642670000000000000e+05
-5.164300000000000000e+05 -2.284630000000000000e+05
-5.413560000000000000e+05 -1.929670000000000000e+05
-5.602810000000000000e+05 -1.528650000000000000e+05
-5.779440000000000000e+05 -1.105480000000000000e+05
-5.906290000000000000e+05 -7.106300000000000000e+04
-6.022580000000000000e+05 -2.782400000000000000e+04
-6.060080000000000000e+05 1.831100000000000000e+04
-6.045750000000000000e+05 6.270800000000000000e+04
-6.022910000000000000e+05 1.045140000000000000e+05
-5.933910000000000000e+05 1.492520000000000000e+05
-5.786260000000000000e+05 1.919100000000000000e+05
-5.624970000000000000e+05 2.316000000000000000e+05
-5.440850000000000000e+05 2.709500000000000000e+05
-5.178620000000000000e+05 3.061750000000000000e+05
-4.917770000000000000e+05 3.418080000000000000e+05
-4.606790000000000000e+05 3.729410000000000000e+05
-4.284880000000000000e+05 4.010380000000000000e+05
-3.953440000000000000e+05 4.241920000000000000e+05
-3.593360000000000000e+05 4.469700000000000000e+05
-3.218270000000000000e+05 4.641890000000000000e+05
-2.842490000000000000e+05 4.787500000000000000e+05
-2.454790000000000000e+05 4.915370000000000000e+05
-2.066410000000000000e+05 4.969940000000000000e+05
-1.677680000000000000e+05 5.023130000000000000e+05
-1.303610000000000000e+05 5.027220000000000000e+05
-8.937400000000000000e+04 5.035410000000000000e+05
-5.363800000000000000e+04 4.977440000000000000e+05
-1.756200000000000000e+04 4.903780000000000000e+05
1.708400000000000000e+04 4.801830000000000000e+05
5.135300000000000000e+04 4.687940000000000000e+05
8.623600000000000000e+04 4.558360000000000000e+05
1.151870000000000000e+05 4.410710000000000000e+05
1.446140000000000000e+05 4.239200000000000000e+05
1.728480000000000000e+05 4.047890000000000000e+05
1.995140000000000000e+05 3.866150000000000000e+05
2.218480000000000000e+05 3.666670000000000000e+05
2.443200000000000000e+05 3.454580000000000000e+05
2.656650000000000000e+05 3.225090000000000000e+05
2.801570000000000000e+05 3.006860000000000000e+05
2.969350000000000000e+05 2.767820000000000000e+05
3.077430000000000000e+05 2.544130000000000000e+05
3.195760000000000000e+05 2.294870000000000000e+05
3.274190000000000000e+05 2.062650000000000000e+05
3.327390000000000000e+05 1.831120000000000000e+05
3.378870000000000000e+05 1.603000000000000000e+05
3.362840000000000000e+05 1.376240000000000000e+05
3.361820000000000000e+05 1.147090000000000000e+05
3.358420000000000000e+05 9.605700000000000000e+04
3.323290000000000000e+05 7.498300000000000000e+04
3.279640000000000000e+05 5.629800000000000000e+04
3.222690000000000000e+05 3.774700000000000000e+04
3.147340000000000000e+05 2.390300000000000000e+04
3.065500000000000000e+05 8.218000000000000000e+03
2.968320000000000000e+05 -3.717000000000000000e+03
2.922290000000000000e+05 -1.418600000000000000e+04
2.817940000000000000e+05 -2.339300000000000000e+04
2.736450000000000000e+05 -3.334900000000000000e+04
2.658020000000000000e+05 -4.030500000000000000e+04
2.564930000000000000e+05 -4.432900000000000000e+04
2.466380000000000000e+05 -4.937500000000000000e+04
2.399200000000000000e+05 -5.476400000000000000e+04
2.339880000000000000e+05 -6.001400000000000000e+04
2.275080000000000000e+05 -6.240200000000000000e+04
2.222920000000000000e+05 -6.588000000000000000e+04
2.177570000000000000e+05 -7.194900000000000000e+04
2.132220000000000000e+05 -7.604100000000000000e+04
2.122330000000000000e+05 -8.061100000000000000e+04
2.115510000000000000e+05 -8.678200000000000000e+04
2.102890000000000000e+05 -8.992000000000000000e+04
2.093340000000000000e+05 -9.847800000000000000e+04
2.128130000000000000e+05 -1.039000000000000000e+05
2.160180000000000000e+05 -1.113330000000000000e+05
2.188140000000000000e+05 -1.164140000000000000e+05
2.181650000000000000e+05 -1.248030000000000000e+05
2.218820000000000000e+05 -1.331910000000000000e+05
2.230420000000000000e+05 -1.402150000000000000e+05
2.266900000000000000e+05 -1.486710000000000000e+05
2.236210000000000000e+05 -1.589010000000000000e+05
2.257360000000000000e+05 -1.667110000000000000e+05
2.248490000000000000e+05 -1.755420000000000000e+05
2.239620000000000000e+05 -1.871360000000000000e+05
2.218480000000000000e+05 -1.977740000000000000e+05
2.166310000000000000e+05 -2.075600000000000000e+05
2.113120000000000000e+05 -2.222580000000000000e+05
2.037070000000000000e+05 -2.347380000000000000e+05
1.960350000000000000e+05 -2.477980000000000000e+05
1.879880000000000000e+05 -2.589140000000000000e+05
1.782020000000000000e+05 -2.710880000000000000e+05
1.678690000000000000e+05 -2.859880000000000000e+05
1.522180000000000000e+05 -2.997990000000000000e+05
1.373500000000000000e+05 -3.136430000000000000e+05
1.224500000000000000e+05 -3.244530000000000000e+05
1.047520000000000000e+05 -3.358760000000000000e+05
8.620300000000000000e+04 -3.462070000000000000e+05
6.605000000000000000e+04 -3.558230000000000000e+05
4.269200000000000000e+04 -3.638360000000000000e+05
1.732300000000000000e+04 -3.705550000000000000e+05
-8.184000000000000000e+03 -3.783970000000000000e+05
-3.553100000000000000e+04 -3.820460000000000000e+05
-6.475400000000000000e+04 -3.876720000000000000e+05
-9.667100000000000000e+04 -3.938440000000000000e+05
-1.265420000000000000e+05 -3.969810000000000000e+05
-1.578110000000000000e+05 -4.013120000000000000e+05
-1.893510000000000000e+05 -4.007650000000000000e+05
-2.200060000000000000e+05 -4.012090000000000000e+05
-2.525030000000000000e+05 -3.938440000000000000e+05
-2.825790000000000000e+05 -3.840910000000000000e+05
-3.105730000000000000e+05 -3.695660000000000000e+05
-3.393870000000000000e+05 -3.510490000000000000e+05
-3.672130000000000000e+05 -3.300780000000000000e+05
-3.958890000000000000e+05 -3.052550000000000000e+05
-4.212940000000000000e+05 -2.772260000000000000e+05
-4.441740000000000000e+05 -2.476620000000000000e+05
-4.685540000000000000e+05 -2.175860000000000000e+05
-4.912640000000000000e+05 -1.873400000000000000e+05
-5.093030000000000000e+05 -1.517750000000000000e+05
-5.256030000000000000e+05 -1.174720000000000000e+05
-5.397530000000000000e+05 -7.842800000000000000e+04
-5.496760000000000000e+05 -4.443200000000000000e+04
-5.573140000000000000e+05 -6.546000000000000000e+03
-5.639300000000000000e+05 2.792600000000000000e+04
-5.652260000000000000e+05 6.516300000000000000e+04
-5.630770000000000000e+05 1.018190000000000000e+05
-5.607580000000000000e+05 1.381690000000000000e+05
-5.526770000000000000e+05 1.727800000000000000e+05
-5.417310000000000000e+05 2.074920000000000000e+05
-5.279550000000000000e+05 2.409440000000000000e+05
-5.133610000000000000e+05 2.736440000000000000e+05
-4.938900000000000000e+05 3.077780000000000000e+05
-4.728170000000000000e+05 3.355010000000000000e+05
-4.486070000000000000e+05 3.659500000000000000e+05
-4.206460000000000000e+05 3.939800000000000000e+05
-3.937080000000000000e+05 4.179510000000000000e+05
-3.645530000000000000e+05 4.430490000000000000e+05
-3.306250000000000000e+05 4.610530000000000000e+05
-2.966610000000000000e+05 4.795010000000000000e+05
-2.619150000000000000e+05 4.955610000000000000e+05
-2.229060000000000000e+05 5.089280000000000000e+05
-1.855330000000000000e+05 5.208630000000000000e+05
-1.444080000000000000e+05 5.291830000000000000e+05
-1.053660000000000000e+05 5.323550000000000000e+05
-6.219600000000000000e+04 5.351510000000000000e+05
-1.940200000000000000e+04 5.334450000000000000e+05
2.254000000000000000e+04 5.279210000000000000e+05
6.315200000000000000e+04 5.210670000000000000e+05
1.053320000000000000e+05 5.116900000000000000e+05
1.440000000000000000e+05 4.990400000000000000e+05
1.837260000000000000e+05 4.808980000000000000e+05
2.206550000000000000e+05 4.612580000000000000e+05
2.576180000000000000e+05 4.399790000000000000e+05
2.878300000000000000e+05 4.147800000000000000e+05
3.178030000000000000e+05 3.897850000000000000e+05
3.453890000000000000e+05 3.623370000000000000e+05
3.706910000000000000e+05 3.311700000000000000e+05
3.920710000000000000e+05 3.027310000000000000e+05
4.086090000000000000e+05 2.725200000000000000e+05
4.229640000000000000e+05 2.406710000000000000e+05
4.322390000000000000e+05 2.097430000000000000e+05
4.408320000000000000e+05 1.784400000000000000e+05
4.463220000000000000e+05 1.485360000000000000e+05
4.476860000000000000e+05 1.189380000000000000e+05
4.484020000000000000e+05 9.189700000000000000e+04
4.435940000000000000e+05 6.206000000000000000e+04
4.400480000000000000e+05 3.836100000000000000e+04
4.313180000000000000e+05 1.210600000000000000e+04
4.233740000000000000e+05 -8.763000000000000000e+03
4.136550000000000000e+05 -3.031400000000000000e+04
4.003900000000000000e+05 -5.029600000000000000e+04
3.884900000000000000e+05 -6.748200000000000000e+04
3.754980000000000000e+05 -8.303100000000000000e+04
3.617560000000000000e+05 -9.939900000000000000e+04
3.458670000000000000e+05 -1.124250000000000000e+05
3.334890000000000000e+05 -1.253140000000000000e+05
3.180070000000000000e+05 -1.348960000000000000e+05
3.044360000000000000e+05 -1.450230000000000000e+05
2.883420000000000000e+05 -1.517420000000000000e+05
2.767130000000000000e+05 -1.564120000000000000e+05
2.644040000000000000e+05 -1.655510000000000000e+05
2.492290000000000000e+05 -1.693700000000000000e+05
2.376700000000000000e+05 -1.756090000000000000e+05
2.274400000000000000e+05 -1.787470000000000000e+05
2.148570000000000000e+05 -1.818840000000000000e+05
2.047650000000000000e+05 -1.846810000000000000e+05
1.953530000000000000e+05 -1.876810000000000000e+05
1.860780000000000000e+05 -1.906820000000000000e+05
1.782010000000000000e+05 -1.935810000000000000e+05
1.675630000000000000e+05 -1.951490000000000000e+05
1.608790000000000000e+05 -1.962050000000000000e+05
1.523880000000000000e+05 -1.985240000000000000e+05
1.455680000000000000e+05 -2.015260000000000000e+05
1.376570000000000000e+05 -2.034350000000000000e+05
1.312800000000000000e+05 -2.088560000000000000e+05
1.221080000000000000e+05 -2.124710000000000000e+05
1.145390000000000000e+05 -2.146870000000000000e+05
1.068660000000000000e+05 -2.185750000000000000e+05
9.871700000000000000e+04 -2.231780000000000000e+05
9.019200000000000000e+04 -2.283610000000000000e+05
7.938200000000000000e+04 -2.300330000000000000e+05
6.993700000000000000e+04 -2.356590000000000000e+05
5.817300000000000000e+04 -2.396480000000000000e+05
4.835200000000000000e+04 -2.439790000000000000e+05
3.672400000000000000e+04 -2.499460000000000000e+05
2.049300000000000000e+04 -2.542080000000000000e+05
5.933000000000000000e+03 -2.562540000000000000e+05
-6.888000000000000000e+03 -2.610280000000000000e+05
-2.209600000000000000e+04 -2.637550000000000000e+05
-3.863400000000000000e+04 -2.679500000000000000e+05
-5.680900000000000000e+04 -2.659050000000000000e+05
-7.215400000000000000e+04 -2.677460000000000000e+05
-9.206800000000000000e+04 -2.692800000000000000e+05
-1.066960000000000000e+05 -2.702690000000000000e+05
-1.269510000000000000e+05 -2.672680000000000000e+05
-1.443760000000000000e+05 -2.656320000000000000e+05
-1.612200000000000000e+05 -2.624940000000000000e+05
-1.776560000000000000e+05 -2.614370000000000000e+05
-1.961720000000000000e+05 -2.556740000000000000e+05
-2.141430000000000000e+05 -2.518900000000000000e+05
-2.337150000000000000e+05 -2.440810000000000000e+05
-2.481050000000000000e+05 -2.372950000000000000e+05
-2.633820000000000000e+05 -2.272360000000000000e+05
-2.792370000000000000e+05 -2.205520000000000000e+05
-2.970710000000000000e+05 -2.102200000000000000e+05
-3.096190000000000000e+05 -1.994100000000000000e+05
-3.256460000000000000e+05 -1.882950000000000000e+05
-3.377510000000000000e+05 -1.759170000000000000e+05
-3.521750000000000000e+05 -1.616290000000000000e+05
-3.622000000000000000e+05 -1.462500000000000000e+05
-3.732830000000000000e+05 -1.342480000000000000e+05
-3.830010000000000000e+05 -1.176410000000000000e+05
-3.930260000000000000e+05 -1.006950000000000000e+05
-4.010390000000000000e+05 -8.279200000000000000e+04
-4.056760000000000000e+05 -6.557200000000000000e+04
-4.136560000000000000e+05 -4.572700000000000000e+04
-4.172700000000000000e+05 -2.731300000000000000e+04
-4.220780000000000000e+05 -6.002000000000000000e+03
-4.216680000000000000e+05 1.619800000000000000e+04
-4.227260000000000000e+05 3.590600000000000000e+04
-4.220100000000000000e+05 5.960500000000000000e+04
-4.182250000000000000e+05 8.125800000000000000e+04
-4.143040000000000000e+05 1.047860000000000000e+05
-4.078920000000000000e+05 1.271550000000000000e+05
-4.002200000000000000e+05 1.507180000000000000e+05
-3.875020000000000000e+05 1.711770000000000000e+05
-3.759090000000000000e+05 1.937850000000000000e+05
-3.613820000000000000e+05 2.151310000000000000e+05
-3.448100000000000000e+05 2.367160000000000000e+05
-3.247600000000000000e+05 2.573460000000000000e+05
-3.051520000000000000e+05 2.753830000000000000e+05
-2.823740000000000000e+05 2.942400000000000000e+05
-2.594260000000000000e+05 3.079140000000000000e+05
-2.332370000000000000e+05 3.239410000000000000e+05
-2.043560000000000000e+05 3.352950000000000000e+05
-1.763260000000000000e+05 3.482880000000000000e+05
-1.463870000000000000e+05 3.546980000000000000e+05
-1.166530000000000000e+05 3.616200000000000000e+05
-8.657800000000000000e+04 3.637010000000000000e+05
-5.541100000000000000e+04 3.660870000000000000e+05
-2.697300000000000000e+04 3.648940000000000000e+05
3.785000000000000000e+03 3.619270000000000000e+05
3.212200000000000000e+04 3.575620000000000000e+05
5.970700000000000000e+04 3.523120000000000000e+05
8.630500000000000000e+04 3.441270000000000000e+05
1.118110000000000000e+05 3.331810000000000000e+05
1.363950000000000000e+05 3.226450000000000000e+05
1.552190000000000000e+05 3.119030000000000000e+05
1.772470000000000000e+05 2.980940000000000000e+05
1.986260000000000000e+05 2.851020000000000000e+05
2.145850000000000000e+05 2.675070000000000000e+05
2.317030000000000000e+05 2.557090000000000000e+05
2.453430000000000000e+05 2.368860000000000000e+05
2.605500000000000000e+05 2.226320000000000000e+05
2.710870000000000000e+05 2.049010000000000000e+05
2.812490000000000000e+05 1.876470000000000000e+05
2.892620000000000000e+05 1.708700000000000000e+05
2.968660000000000000e+05 1.524900000000000000e+05
3.053900000000000000e+05 1.399420000000000000e+05
3.112900000000000000e+05 1.191420000000000000e+05
3.154500000000000000e+05 1.044790000000000000e+05
3.183150000000000000e+05 8.944200000000000000e+04
3.198150000000000000e+05 7.498400000000000000e+04
3.212800000000000000e+05 5.810400000000000000e+04
3.212130000000000000e+05 4.323700000000000000e+04
3.207020000000000000e+05 2.949500000000000000e+04
3.180760000000000000e+05 1.377600000000000000e+04
3.147680000000000000e+05 3.342000000000000000e+03
3.116990000000000000e+05 -9.888000000000000000e+03
3.061070000000000000e+05 -2.219900000000000000e+04
2.992530000000000000e+05 -3.317800000000000000e+04
2.931830000000000000e+05 -4.432900000000000000e+04
2.845230000000000000e+05 -5.442300000000000000e+04
2.764060000000000000e+05 -6.376500000000000000e+04
2.675410000000000000e+05 -7.413100000000000000e+04
2.587770000000000000e+05 -8.347500000000000000e+04
2.483100000000000000e+05 -9.210100000000000000e+04
2.398870000000000000e+05 -1.030130000000000000e+05
2.315670000000000000e+05 -1.078210000000000000e+05
2.224620000000000000e+05 -1.181530000000000000e+05
2.125050000000000000e+05 -1.237800000000000000e+05
2.032300000000000000e+05 -1.341800000000000000e+05
1.952160000000000000e+05 -1.394990000000000000e+05
1.849870000000000000e+05 -1.452950000000000000e+05
1.759850000000000000e+05 -1.512290000000000000e+05
1.679380000000000000e+05 -1.584930000000000000e+05
1.577760000000000000e+05 -1.646640000000000000e+05
1.532070000000000000e+05 -1.690970000000000000e+05
1.428410000000000000e+05 -1.752350000000000000e+05
1.321000000000000000e+05 -1.792590000000000000e+05
1.237450000000000000e+05 -1.821230000000000000e+05
1.162100000000000000e+05 -1.840670000000000000e+05
1.072750000000000000e+05 -1.840660000000000000e+05
9.929700000000000000e+04 -1.849530000000000000e+05
8.858900000000000000e+04 -1.884650000000000000e+05
8.159900000000000000e+04 -1.865550000000000000e+05
7.123300000000000000e+04 -1.896250000000000000e+05
6.352600000000000000e+04 -1.888400000000000000e+05
5.305800000000000000e+04 -1.910230000000000000e+05
4.218100000000000000e+04 -1.911590000000000000e+05
3.123500000000000000e+04 -1.939890000000000000e+05
2.110700000000000000e+04 -1.919440000000000000e+05
1.207200000000000000e+04 -1.939210000000000000e+05
-9.200000000000000000e+02 -1.925910000000000000e+05
-1.057000000000000000e+04 -1.928980000000000000e+05
-2.247200000000000000e+04 -1.932740000000000000e+05
-3.304200000000000000e+04 -1.916370000000000000e+05
-4.651100000000000000e+04 -1.895570000000000000e+05
-5.803700000000000000e+04 -1.857370000000000000e+05
-7.123200000000000000e+04 -1.847820000000000000e+05
-8.408800000000000000e+04 -1.816120000000000000e+05
-9.714800000000000000e+04 -1.771110000000000000e+05
-1.108220000000000000e+05 -1.748250000000000000e+05
-1.245980000000000000e+05 -1.696430000000000000e+05
-1.394640000000000000e+05 -1.666420000000000000e+05
-1.508540000000000000e+05 -1.614580000000000000e+05
-1.664710000000000000e+05 -1.581510000000000000e+05
-1.801110000000000000e+05 -1.533090000000000000e+05
-1.917050000000000000e+05 -1.479900000000000000e+05
-2.039800000000000000e+05 -1.437950000000000000e+05
-2.143810000000000000e+05 -1.388170000000000000e+05
-2.269970000000000000e+05 -1.302250000000000000e+05
-2.351130000000000000e+05 -1.229620000000000000e+05
-2.424100000000000000e+05 -1.153910000000000000e+05
-2.498100000000000000e+05 -1.058090000000000000e+05
-2.551970000000000000e+05 -9.748900000000000000e+04
-2.594250000000000000e+05 -8.722500000000000000e+04
-2.631420000000000000e+05 -7.566600000000000000e+04
-2.640630000000000000e+05 -6.267400000000000000e+04
-2.639270000000000000e+05 -5.230800000000000000e+04
-2.627670000000000000e+05 -3.856600000000000000e+04
-2.595270000000000000e+05 -2.687000000000000000e+04
-2.546850000000000000e+05 -1.261700000000000000e+04
-2.464330000000000000e+05 2.380000000000000000e+02
-2.438080000000000000e+05 1.456000000000000000e+04
-2.360340000000000000e+05 2.680200000000000000e+04
-2.285320000000000000e+05 4.119200000000000000e+04
-2.223600000000000000e+05 5.776400000000000000e+04
-2.123680000000000000e+05 7.317700000000000000e+04
-2.059240000000000000e+05 8.477000000000000000e+04
-1.979110000000000000e+05 1.009330000000000000e+05
-1.911250000000000000e+05 1.140610000000000000e+05
-1.846810000000000000e+05 1.277010000000000000e+05
-1.758830000000000000e+05 1.420570000000000000e+05
-1.725750000000000000e+05 1.550150000000000000e+05
-1.630960000000000000e+05 1.696780000000000000e+05
-1.566850000000000000e+05 1.837940000000000000e+05
-1.508530000000000000e+05 2.082770000000000000e+05
-1.449550000000000000e+05 2.162220000000000000e+05
-1.290990000000000000e+05 2.233490000000000000e+05
-1.150840000000000000e+05 2.279180000000000000e+05
-1.018880000000000000e+05 2.343630000000000000e+05
-8.610000000000000000e+04 2.397160000000000000e+05
-7.113100000000000000e+04 2.441160000000000000e+05
-5.721700000000000000e+04 2.469450000000000000e+05
-4.057700000000000000e+04 2.513780000000000000e+05
-2.509700000000000000e+04 2.533220000000000000e+05
-9.036000000000000000e+03 2.546860000000000000e+05
7.025000000000000000e+03 2.578570000000000000e+05
2.618800000000000000e+04 2.557760000000000000e+05
4.136200000000000000e+04 2.550950000000000000e+05
5.773000000000000000e+04 2.542760000000000000e+05
7.396100000000000000e+04 2.506960000000000000e+05
9.111200000000000000e+04 2.456160000000000000e+05
1.058090000000000000e+05 2.403980000000000000e+05
1.239840000000000000e+05 2.324540000000000000e+05
1.394990000000000000e+05 2.262130000000000000e+05
1.550830000000000000e+05 2.149940000000000000e+05
1.696420000000000000e+05 2.058910000000000000e+05
1.854650000000000000e+05 1.937500000000000000e+05
1.979110000000000000e+05 1.809970000000000000e+05
2.097770000000000000e+05 1.681770000000000000e+05
2.198710000000000000e+05 1.544690000000000000e+05
2.282930000000000000e+05 1.372830000000000000e+05
2.361360000000000000e+05 1.204380000000000000e+05
2.436380000000000000e+05 1.069350000000000000e+05
2.472860000000000000e+05 8.916900000000000000e+04
2.501840000000000000e+05 7.184700000000000000e+04
2.524340000000000000e+05 5.629700000000000000e+04
2.509690000000000000e+05 4.242000000000000000e+04
2.493660000000000000e+05 2.608600000000000000e+04
2.471490000000000000e+05 1.098000000000000000e+04
2.425120000000000000e+05 -3.819000000000000000e+03
2.377040000000000000e+05 -1.602600000000000000e+04
2.304750000000000000e+05 -2.843800000000000000e+04
2.227010000000000000e+05 -3.846400000000000000e+04
2.151650000000000000e+05 -4.818200000000000000e+04
2.067760000000000000e+05 -5.967300000000000000e+04
2.001260000000000000e+05 -6.758400000000000000e+04
1.903070000000000000e+05 -7.563100000000000000e+04
1.836230000000000000e+05 -8.091700000000000000e+04
1.728830000000000000e+05 -8.644200000000000000e+04
1.654480000000000000e+05 -8.995300000000000000e+04
1.553890000000000000e+05 -9.445400000000000000e+04
1.478870000000000000e+05 -9.755700000000000000e+04
1.395680000000000000e+05 -1.001140000000000000e+05
1.315200000000000000e+05 -1.028760000000000000e+05
1.235070000000000000e+05 -1.041380000000000000e+05
1.158350000000000000e+05 -1.070360000000000000e+05
1.106170000000000000e+05 -1.097650000000000000e+05
1.033880000000000000e+05 -1.111280000000000000e+05
9.575000000000000000e+04 -1.120150000000000000e+05
9.056700000000000000e+04 -1.126980000000000000e+05
8.490600000000000000e+04 -1.135490000000000000e+05
7.825700000000000000e+04 -1.150490000000000000e+05
7.280200000000000000e+04 -1.165160000000000000e+05
6.714100000000000000e+04 -1.182890000000000000e+05
6.390100000000000000e+04 -1.187670000000000000e+05
6.086700000000000000e+04 -1.205060000000000000e+05
5.343300000000000000e+04 -1.207780000000000000e+05
4.985300000000000000e+04 -1.232340000000000000e+05
4.422600000000000000e+04 -1.246320000000000000e+05
3.969200000000000000e+04 -1.282120000000000000e+05
3.450800000000000000e+04 -1.288600000000000000e+05
2.949500000000000000e+04 -1.319970000000000000e+05
2.482400000000000000e+04 -1.345540000000000000e+05
1.837900000000000000e+04 -1.320310000000000000e+05
1.319600000000000000e+04 -1.370100000000000000e+05
1.046900000000000000e+04 -1.383390000000000000e+05
1.296000000000000000e+03 -1.388510000000000000e+05
-6.479000000000000000e+03 -1.406930000000000000e+05
-1.306000000000000000e+04 -1.401470000000000000e+05
-1.957300000000000000e+04 -1.428410000000000000e+05
-2.782500000000000000e+04 -1.428750000000000000e+05
-3.532600000000000000e+04 -1.425680000000000000e+05
-4.412400000000000000e+04 -1.417500000000000000e+05
-5.247900000000000000e+04 -1.420560000000000000e+05
-5.929800000000000000e+04 -1.407610000000000000e+05
-6.997100000000000000e+04 -1.393630000000000000e+05
-7.723400000000000000e+04 -1.384760000000000000e+05
-8.565700000000000000e+04 -1.371120000000000000e+05
-9.455700000000000000e+04 -1.325770000000000000e+05
-1.022970000000000000e+05 -1.289620000000000000e+05
-1.119130000000000000e+05 -1.265760000000000000e+05
-1.194490000000000000e+05 -1.196870000000000000e+05
-1.270530000000000000e+05 -1.174370000000000000e+05
-1.360890000000000000e+05 -1.128680000000000000e+05
-1.435910000000000000e+05 -1.058440000000000000e+05
-1.538550000000000000e+05 -1.027410000000000000e+05
-1.623450000000000000e+05 -9.421500000000000000e+04
-1.700170000000000000e+05 -8.865800000000000000e+04
-1.772120000000000000e+05 -7.979100000000000000e+04
