1.447840000000000000e+05 -9.249020000000000000e+05
-8.754240000000000000e+05 -5.643380000000000000e+05
-1.056422000000000000e+06 -5.450000000000000000e+02
-9.402470000000000000e+05 5.105990000000000000e+05
-5.971760000000000000e+05 9.074430000000000000e+05
-3.321200000000000000e+04 1.081315000000000000e+06
5.736820000000000000e+05 6.900950000000000000e+05
3.587220000000000000e+05 3.669000000000000000e+04
-3.304200000000000000e+04 1.051270000000000000e+05
-6.553900000000000000e+04 3.383980000000000000e+05
7.559700000000000000e+04 4.875820000000000000e+05
2.826810000000000000e+05 5.379810000000000000e+05
5.120300000000000000e+05 4.991420000000000000e+05
7.330950000000000000e+05 3.504700000000000000e+05
9.018840000000000000e+05 7.740500000000000000e+04
9.280040000000000000e+05 -3.039590000000000000e+05
7.217740000000000000e+05 -7.015190000000000000e+05
3.193370000000000000e+05 -9.285170000000000000e+05
-8.818000000000000000e+04 -8.944170000000000000e+05
-3.543230000000000000e+05 -6.866860000000000000e+05
-4.575060000000000000e+05 -4.394340000000000000e+05
-4.417530000000000000e+05 -2.282590000000000000e+05
-3.498220000000000000e+05 -8.023500000000000000e+04
-2.104600000000000000e+05 -1.190100000000000000e+04
-5.445600000000000000e+04 -8.483900000000000000e+04
-4.194200000000000000e+04 -3.600180000000000000e+05
-4.432190000000000000e+05 -5.644750000000000000e+05
-8.148310000000000000e+05 -2.548900000000000000e+05
-8.208310000000000000e+05 1.282800000000000000e+05
-6.869590000000000000e+05 3.926500000000000000e+05
-5.167020000000000000e+05 5.667930000000000000e+05
-3.295340000000000000e+05 6.899940000000000000e+05
-1.289620000000000000e+05 7.670570000000000000e+05
8.640700000000000000e+04 7.990080000000000000e+05
3.124840000000000000e+05 7.732290000000000000e+05
5.315020000000000000e+05 6.747180000000000000e+05
7.219450000000000000e+05 4.778290000000000000e+05
8.197400000000000000e+05 1.853960000000000000e+05
7.387210000000000000e+05 -1.549120000000000000e+05
4.342850000000000000e+05 -3.537090000000000000e+05
2.115500000000000000e+05 -1.979460000000000000e+05
3.307950000000000000e+05 -7.573400000000000000e+04
4.422980000000000000e+05 -2.009110000000000000e+05
4.131780000000000000e+05 -3.800680000000000000e+05
2.966270000000000000e+05 -5.343660000000000000e+05
1.351000000000000000e+05 -6.386750000000000000e+05
-5.333100000000000000e+04 -6.890730000000000000e+05
-2.552650000000000000e+05 -6.830040000000000000e+05
-4.514030000000000000e+05 -6.194430000000000000e+05
-6.210460000000000000e+05 -4.814100000000000000e+05
-7.346290000000000000e+05 -2.729290000000000000e+05
-7.481660000000000000e+05 -1.275300000000000000e+04
-6.424600000000000000e+05 2.369200000000000000e+05
-4.505850000000000000e+05 4.091200000000000000e+05
-2.311230000000000000e+05 4.645990000000000000e+05
-4.484000000000000000e+04 3.986510000000000000e+05
2.342600000000000000e+04 2.554350000000000000e+05
-7.416500000000000000e+04 1.938530000000000000e+05
-9.731800000000000000e+04 2.829190000000000000e+05
-1.374100000000000000e+04 3.500950000000000000e+05
8.627000000000000000e+04 3.593690000000000000e+05
1.721660000000000000e+05 3.323970000000000000e+05
2.430920000000000000e+05 2.916830000000000000e+05
2.987420000000000000e+05 2.368860000000000000e+05
3.467530000000000000e+05 1.774180000000000000e+05
3.885930000000000000e+05 1.014110000000000000e+05
4.192130000000000000e+05 3.274000000000000000e+03
4.264430000000000000e+05 -1.226540000000000000e+05
3.766580000000000000e+05 -2.772930000000000000e+05
2.323170000000000000e+05 -4.189400000000000000e+05
8.184000000000000000e+03 -4.467650000000000000e+05
-1.426020000000000000e+05 -3.156890000000000000e+05
-1.368730000000000000e+05 -1.685510000000000000e+05
-6.086700000000000000e+04 -1.170270000000000000e+05
-1.132100000000000000e+04 -1.452620000000000000e+05
-1.831100000000000000e+04 -2.134260000000000000e+05
-8.797500000000000000e+04 -2.687000000000000000e+05
-1.895910000000000000e+05 -2.770200000000000000e+05
-2.851700000000000000e+05 -2.241670000000000000e+05
-3.431720000000000000e+05 -1.293720000000000000e+05
-3.640750000000000000e+05 -1.684500000000000000e+04
-3.391480000000000000e+05 9.094200000000000000e+04
-2.843510000000000000e+05 1.868970000000000000e+05
-1.984560000000000000e+05 2.594590000000000000e+05
-9.629600000000000000e+04 2.975140000000000000e+05
8.559000000000000000e+03 2.951270000000000000e+05
1.023650000000000000e+05 2.453080000000000000e+05
1.551170000000000000e+05 1.436250000000000000e+05
1.230630000000000000e+05 4.064600000000000000e+04
5.998000000000000000e+04 1.790200000000000000e+04
3.454200000000000000e+04 3.178000000000000000e+04
3.396200000000000000e+04 3.941900000000000000e+04
3.883900000000000000e+04 4.197600000000000000e+04
4.102100000000000000e+04 4.306700000000000000e+04
4.535200000000000000e+04 4.129400000000000000e+04
4.787600000000000000e+04 4.054300000000000000e+04
5.309200000000000000e+04 3.771300000000000000e+04
5.885500000000000000e+04 3.628100000000000000e+04
7.014200000000000000e+04 3.396300000000000000e+04
8.722500000000000000e+04 2.731400000000000000e+04
9.800000000000000000e+04 6.990000000000000000e+03
9.960400000000000000e+04 -2.762000000000000000e+04
7.454000000000000000e+04 -5.367200000000000000e+04
4.518100000000000000e+04 -5.626300000000000000e+04
2.612000000000000000e+04 -4.456800000000000000e+04
2.080000000000000000e+04 -2.707500000000000000e+04
2.260700000000000000e+04 -1.016200000000000000e+04
3.989600000000000000e+04 2.592000000000000000e+03
6.935700000000000000e+04 4.773000000000000000e+03
1.078550000000000000e+05 -1.476600000000000000e+04
1.429090000000000000e+05 -7.201700000000000000e+04
1.376570000000000000e+05 -1.649030000000000000e+05
6.301500000000000000e+04 -2.533560000000000000e+05
-5.377400000000000000e+04 -2.867040000000000000e+05
-1.690630000000000000e+05 -2.621190000000000000e+05
-2.577550000000000000e+05 -1.957970000000000000e+05
-3.164730000000000000e+05 -9.922800000000000000e+04
-3.307950000000000000e+05 1.087700000000000000e+04
-2.997650000000000000e+05 1.220400000000000000e+05
-2.280200000000000000e+05 2.056510000000000000e+05
-1.313150000000000000e+05 2.452400000000000000e+05
-3.764500000000000000e+04 2.316690000000000000e+05
5.354000000000000000e+03 1.788490000000000000e+05
-7.978000000000000000e+03 1.481260000000000000e+05
-1.595800000000000000e+04 1.640840000000000000e+05
1.244700000000000000e+04 1.912280000000000000e+05
5.261500000000000000e+04 2.078670000000000000e+05
1.052300000000000000e+05 2.032640000000000000e+05
1.571620000000000000e+05 1.917390000000000000e+05
2.083110000000000000e+05 1.625500000000000000e+05
2.603800000000000000e+05 1.171640000000000000e+05
2.972410000000000000e+05 5.414900000000000000e+04
3.333860000000000000e+05 -5.510400000000000000e+04
3.032770000000000000e+05 -1.814410000000000000e+05
1.968880000000000000e+05 -2.882730000000000000e+05
5.292100000000000000e+04 -3.066190000000000000e+05
-5.101200000000000000e+04 -2.413870000000000000e+05
-7.655200000000000000e+04 -1.625840000000000000e+05
-6.339000000000000000e+04 -1.082990000000000000e+05
-2.704100000000000000e+04 -9.121500000000000000e+04
5.525000000000000000e+03 -1.115370000000000000e+05
1.694700000000000000e+04 -1.668810000000000000e+05
-2.076600000000000000e+04 -2.492640000000000000e+05
-1.354070000000000000e+05 -3.183820000000000000e+05
-3.031740000000000000e+05 -3.069600000000000000e+05
-4.390930000000000000e+05 -1.910230000000000000e+05
-4.868320000000000000e+05 -2.632500000000000000e+04
-4.614270000000000000e+05 1.291330000000000000e+05
-3.938090000000000000e+05 2.557420000000000000e+05
-2.955700000000000000e+05 3.584490000000000000e+05
-1.769400000000000000e+05 4.258960000000000000e+05
-4.102000000000000000e+04 4.551190000000000000e+05
9.203300000000000000e+04 4.352400000000000000e+05
1.993430000000000000e+05 3.600170000000000000e+05
2.413880000000000000e+05 2.645060000000000000e+05
2.223260000000000000e+05 1.953870000000000000e+05
1.982520000000000000e+05 1.992410000000000000e+05
2.565280000000000000e+05 2.424100000000000000e+05
3.817050000000000000e+05 2.174830000000000000e+05
4.730210000000000000e+05 9.486400000000000000e+04
4.901400000000000000e+05 -5.827500000000000000e+04
4.474820000000000000e+05 -1.976720000000000000e+05
3.717140000000000000e+05 -3.113240000000000000e+05
2.716680000000000000e+05 -4.022320000000000000e+05
1.570600000000000000e+05 -4.667470000000000000e+05
1.998200000000000000e+04 -5.078020000000000000e+05
-1.354410000000000000e+05 -5.125080000000000000e+05
-3.003780000000000000e+05 -4.513010000000000000e+05
-4.268520000000000000e+05 -3.106420000000000000e+05
-4.585980000000000000e+05 -1.243930000000000000e+05
-3.780900000000000000e+05 2.513100000000000000e+04
-2.680520000000000000e+05 6.840200000000000000e+04
-2.081060000000000000e+05 4.320300000000000000e+04
-2.167670000000000000e+05 1.360000000000000000e+02
-2.789300000000000000e+05 -5.694000000000000000e+03
-3.495490000000000000e+05 5.128500000000000000e+04
-3.762150000000000000e+05 1.741440000000000000e+05
-3.249640000000000000e+05 3.129260000000000000e+05
-2.108680000000000000e+05 4.157700000000000000e+05
-6.973200000000000000e+04 4.631330000000000000e+05
7.191400000000000000e+04 4.636790000000000000e+05
1.998550000000000000e+05 4.229300000000000000e+05
3.092440000000000000e+05 3.535380000000000000e+05
3.940150000000000000e+05 2.536280000000000000e+05
4.464250000000000000e+05 1.286900000000000000e+05
4.498350000000000000e+05 -1.254900000000000000e+04
3.874680000000000000e+05 -1.423970000000000000e+05
2.831590000000000000e+05 -2.113460000000000000e+05
1.956260000000000000e+05 -2.075610000000000000e+05
1.776560000000000000e+05 -1.769740000000000000e+05
2.157440000000000000e+05 -1.886360000000000000e+05
2.452410000000000000e+05 -2.768160000000000000e+05
1.964790000000000000e+05 -4.185310000000000000e+05
4.535200000000000000e+04 -5.420380000000000000e+05
-1.683470000000000000e+05 -5.704770000000000000e+05
-3.593020000000000000e+05 -4.924580000000000000e+05
-4.880590000000000000e+05 -3.490040000000000000e+05
-5.487210000000000000e+05 -1.853960000000000000e+05
-5.571440000000000000e+05 -2.758600000000000000e+04
-5.238290000000000000e+05 1.199940000000000000e+05
-4.614270000000000000e+05 2.502520000000000000e+05
-3.635970000000000000e+05 3.596080000000000000e+05
-2.369540000000000000e+05 4.392640000000000000e+05
-8.787300000000000000e+04 4.644280000000000000e+05
4.412400000000000000e+04 4.145420000000000000e+05
9.438600000000000000e+04 3.333180000000000000e+05
9.503500000000000000e+04 3.031400000000000000e+05
1.231660000000000000e+05 3.267370000000000000e+05
2.105950000000000000e+05 3.384330000000000000e+05
3.147340000000000000e+05 3.032770000000000000e+05
4.012770000000000000e+05 2.170400000000000000e+05
4.520510000000000000e+05 1.059800000000000000e+05
4.589390000000000000e+05 -1.347000000000000000e+04
4.325810000000000000e+05 -1.243590000000000000e+05
3.805790000000000000e+05 -2.196320000000000000e+05
3.108120000000000000e+05 -3.030720000000000000e+05
2.269290000000000000e+05 -3.672460000000000000e+05
1.205410000000000000e+05 -4.103820000000000000e+05
2.217000000000000000e+03 -4.218730000000000000e+05
-1.177780000000000000e+05 -3.829320000000000000e+05
-1.917050000000000000e+05 -2.854770000000000000e+05
-1.891130000000000000e+05 -1.900340000000000000e+05
-1.460450000000000000e+05 -1.531390000000000000e+05
-1.245640000000000000e+05 -1.627550000000000000e+05
-1.422610000000000000e+05 -1.962400000000000000e+05
-1.973310000000000000e+05 -2.218490000000000000e+05
-2.829530000000000000e+05 -2.173480000000000000e+05
-3.841260000000000000e+05 -1.666760000000000000e+05
-4.655540000000000000e+05 -5.363800000000000000e+04
-4.919470000000000000e+05 1.024670000000000000e+05
-4.358540000000000000e+05 2.682570000000000000e+05
-3.176670000000000000e+05 3.905360000000000000e+05
-1.733260000000000000e+05 4.517780000000000000e+05
-3.911200000000000000e+04 4.603370000000000000e+05
7.413200000000000000e+04 4.306370000000000000e+05
1.589360000000000000e+05 3.758050000000000000e+05
2.258380000000000000e+05 3.052540000000000000e+05
2.474220000000000000e+05 2.441830000000000000e+05
2.495710000000000000e+05 1.916030000000000000e+05
2.553340000000000000e+05 1.755420000000000000e+05
3.029020000000000000e+05 1.675290000000000000e+05
3.772030000000000000e+05 1.171310000000000000e+05
4.297160000000000000e+05 1.687900000000000000e+04
4.352730000000000000e+05 -1.090150000000000000e+05
3.931620000000000000e+05 -2.341580000000000000e+05
3.121770000000000000e+05 -3.393200000000000000e+05
2.023780000000000000e+05 -4.132470000000000000e+05
8.269000000000000000e+04 -4.531760000000000000e+05
-3.897500000000000000e+04 -4.574390000000000000e+05
-1.517070000000000000e+05 -4.300230000000000000e+05
