-1.117420000000000000e+05 -1.186700000000000000e+04
-1.145730000000000000e+05 -5.183000000000000000e+03
-1.242230000000000000e+05 3.512000000000000000e+03
-1.334980000000000000e+05 2.110700000000000000e+04
-1.418870000000000000e+05 4.678400000000000000e+04
-1.384760000000000000e+05 7.836000000000000000e+04
-1.225180000000000000e+05 1.110950000000000000e+05
-9.445400000000000000e+04 1.406930000000000000e+05
-5.374000000000000000e+04 1.678360000000000000e+05
-3.080000000000000000e+02 1.834190000000000000e+05
5.380900000000000000e+04 1.820550000000000000e+05
1.075140000000000000e+05 1.622430000000000000e+05
1.527290000000000000e+05 1.319290000000000000e+05
1.889080000000000000e+05 9.373900000000000000e+04
2.118920000000000000e+05 5.097800000000000000e+04
2.201770000000000000e+05 -1.261000000000000000e+03
2.137660000000000000e+05 -5.196700000000000000e+04
1.926940000000000000e+05 -9.615900000000000000e+04
1.517400000000000000e+05 -1.338380000000000000e+05
9.950100000000000000e+04 -1.594120000000000000e+05
4.484000000000000000e+04 -1.669480000000000000e+05
-5.831000000000000000e+03 -1.562410000000000000e+05
-4.831800000000000000e+04 -1.373500000000000000e+05
-7.730300000000000000e+04 -1.109250000000000000e+05
-9.452200000000000000e+04 -8.173500000000000000e+04
-1.030130000000000000e+05 -5.251200000000000000e+04
-9.970500000000000000e+04 -3.103100000000000000e+04
-9.319200000000000000e+04 -1.261600000000000000e+04
-8.647500000000000000e+04 -1.000000000000000000e+00
-7.733600000000000000e+04 1.026300000000000000e+04
-7.096000000000000000e+04 1.217300000000000000e+04
-6.714200000000000000e+04 1.640200000000000000e+04
-6.676600000000000000e+04 1.994800000000000000e+04
-6.990300000000000000e+04 2.635900000000000000e+04
-7.048200000000000000e+04 3.447400000000000000e+04
-6.230000000000000000e+04 4.794300000000000000e+04
-6.676600000000000000e+04 6.018500000000000000e+04
-4.855800000000000000e+04 7.781400000000000000e+04
-2.417600000000000000e+04 9.356800000000000000e+04
4.706000000000000000e+03 1.029790000000000000e+05
4.085000000000000000e+04 1.058430000000000000e+05
7.590400000000000000e+04 1.019550000000000000e+05
1.073780000000000000e+05 8.681600000000000000e+04
1.325420000000000000e+05 5.537700000000000000e+04
1.460460000000000000e+05 2.134700000000000000e+04
1.468650000000000000e+05 -1.514000000000000000e+04
1.343160000000000000e+05 -4.954500000000000000e+04
1.121180000000000000e+05 -7.474500000000000000e+04
8.367800000000000000e+04 -9.281800000000000000e+04
5.227300000000000000e+04 -1.029110000000000000e+05
2.141400000000000000e+04 -1.080940000000000000e+05
-1.149200000000000000e+04 -1.029450000000000000e+05
-3.863400000000000000e+04 -9.169200000000000000e+04
-5.793400000000000000e+04 -7.522200000000000000e+04
-7.044900000000000000e+04 -5.626300000000000000e+04
-7.454100000000000000e+04 -3.590700000000000000e+04
-7.293700000000000000e+04 -1.906200000000000000e+04
-6.659600000000000000e+04 -4.501000000000000000e+03
-5.735400000000000000e+04 6.002000000000000000e+03
-4.906900000000000000e+04 1.057100000000000000e+04
-4.105500000000000000e+04 1.374200000000000000e+04
-3.634900000000000000e+04 1.295900000000000000e+04
-3.624700000000000000e+04 1.319700000000000000e+04
-3.672400000000000000e+04 1.490200000000000000e+04
-3.744000000000000000e+04 1.790200000000000000e+04
-3.583800000000000000e+04 2.213100000000000000e+04
-3.505400000000000000e+04 3.041700000000000000e+04
-2.762000000000000000e+04 3.829300000000000000e+04
-1.609500000000000000e+04 4.808000000000000000e+04
-6.185600000000000000e+04 1.408300000000000000e+04
-5.633200000000000000e+04 2.714300000000000000e+04
-4.552200000000000000e+04 4.296400000000000000e+04
-3.253100000000000000e+04 5.667300000000000000e+04
-1.483300000000000000e+04 6.734500000000000000e+04
3.989000000000000000e+03 7.297200000000000000e+04
2.755200000000000000e+04 7.454000000000000000e+04
4.784100000000000000e+04 6.703900000000000000e+04
6.628800000000000000e+04 5.435400000000000000e+04
8.197400000000000000e+04 3.781600000000000000e+04
8.790700000000000000e+04 1.902700000000000000e+04
8.558800000000000000e+04 -4.330000000000000000e+03
7.590400000000000000e+04 -2.301600000000000000e+04
6.301500000000000000e+04 -3.802000000000000000e+04
4.572700000000000000e+04 -4.627200000000000000e+04
2.820000000000000000e+04 -5.172800000000000000e+04
9.105000000000000000e+03 -5.326300000000000000e+04
-5.319000000000000000e+03 -5.138800000000000000e+04
-1.664100000000000000e+04 -4.432900000000000000e+04
-2.577900000000000000e+04 -3.757700000000000000e+04
-3.000700000000000000e+04 -3.004200000000000000e+04
-3.150800000000000000e+04 -2.178900000000000000e+04
-3.028000000000000000e+04 -1.763000000000000000e+04
-2.918800000000000000e+04 -1.329900000000000000e+04
-2.874500000000000000e+04 -1.019600000000000000e+04
-2.564200000000000000e+04 -1.121800000000000000e+04
-3.031400000000000000e+04 -1.374200000000000000e+04
-3.273500000000000000e+04 -1.053600000000000000e+04
-3.710000000000000000e+04 -7.706000000000000000e+03
-4.371500000000000000e+04 -5.319000000000000000e+03
-4.702300000000000000e+04 -2.040000000000000000e+02
-5.056900000000000000e+04 9.377000000000000000e+03
-4.784100000000000000e+04 1.943700000000000000e+04
-4.269200000000000000e+04 3.229200000000000000e+04
-3.300700000000000000e+04 4.289700000000000000e+04
-2.257300000000000000e+04 5.084200000000000000e+04
-5.353000000000000000e+03 5.493400000000000000e+04
9.479000000000000000e+03 5.548000000000000000e+04
2.376800000000000000e+04 5.363800000000000000e+04
3.825900000000000000e+04 4.678400000000000000e+04
4.773800000000000000e+04 3.826000000000000000e+04
5.527400000000000000e+04 2.400600000000000000e+04
5.895700000000000000e+04 9.684000000000000000e+03
5.875300000000000000e+04 -4.843000000000000000e+03
5.479700000000000000e+04 -1.827700000000000000e+04
4.402100000000000000e+04 -2.905200000000000000e+04
3.096200000000000000e+04 -3.860100000000000000e+04
1.585600000000000000e+04 -4.016900000000000000e+04
-1.432000000000000000e+03 -3.890700000000000000e+04
-1.009300000000000000e+04 -3.733800000000000000e+04
-1.889000000000000000e+04 -2.990400000000000000e+04
-2.455200000000000000e+04 -2.434600000000000000e+04
-2.854100000000000000e+04 -1.855000000000000000e+04
-2.560800000000000000e+04 -1.387800000000000000e+04
-2.680200000000000000e+04 -9.718000000000000000e+03
-2.472200000000000000e+04 -7.262000000000000000e+03
-2.161900000000000000e+04 -5.830000000000000000e+03
-2.376700000000000000e+04 -5.251000000000000000e+03
-2.646100000000000000e+04 -4.092000000000000000e+03
-2.939400000000000000e+04 -4.024000000000000000e+03
-3.536100000000000000e+04 -4.090000000000000000e+02
-3.887200000000000000e+04 3.819000000000000000e+03
-4.108900000000000000e+04 1.425400000000000000e+04
-3.996400000000000000e+04 2.127800000000000000e+04
-3.515600000000000000e+04 3.048500000000000000e+04
-2.581400000000000000e+04 4.201000000000000000e+04
-1.459500000000000000e+04 5.056900000000000000e+04
1.910000000000000000e+03 5.595700000000000000e+04
1.943600000000000000e+04 5.319500000000000000e+04
3.328000000000000000e+04 4.760200000000000000e+04
4.374800000000000000e+04 4.006600000000000000e+04
5.336500000000000000e+04 2.952900000000000000e+04
5.718300000000000000e+04 1.882300000000000000e+04
5.943500000000000000e+04 8.661000000000000000e+03
5.356900000000000000e+04 -1.569000000000000000e+03
5.016000000000000000e+04 -8.900000000000000000e+03
4.470400000000000000e+04 -1.442400000000000000e+04
3.716700000000000000e+04 -1.752600000000000000e+04
3.031400000000000000e+04 -1.797000000000000000e+04
2.359700000000000000e+04 -1.953900000000000000e+04
1.657200000000000000e+04 -1.916400000000000000e+04
1.384500000000000000e+04 -2.482500000000000000e+04
8.832000000000000000e+03 -2.639300000000000000e+04
6.411000000000000000e+03 -2.762100000000000000e+04
4.024000000000000000e+03 -3.300800000000000000e+04
6.342000000000000000e+03 -3.761100000000000000e+04
8.285000000000000000e+03 -4.572700000000000000e+04
1.960700000000000000e+04 -6.925500000000000000e+04
-5.663900000000000000e+04 -1.166190000000000000e+05
-9.568100000000000000e+04 -9.203300000000000000e+04
-1.295420000000000000e+05 -4.705700000000000000e+04
-1.505810000000000000e+05 1.708400000000000000e+04
-1.367370000000000000e+05 9.864900000000000000e+04
-7.552900000000000000e+04 1.717230000000000000e+05
9.551200000000000000e+04 1.047870000000000000e+05
7.450600000000000000e+04 6.322000000000000000e+04
7.051700000000000000e+04 3.911200000000000000e+04
6.775500000000000000e+04 2.114200000000000000e+04
6.134400000000000000e+04 2.353000000000000000e+03
5.264900000000000000e+04 -9.105000000000000000e+03
4.392000000000000000e+04 -1.957300000000000000e+04
3.488400000000000000e+04 -2.710900000000000000e+04
2.680200000000000000e+04 -3.563400000000000000e+04
1.667500000000000000e+04 -3.573500000000000000e+04
7.468000000000000000e+03 -3.570100000000000000e+04
-8.520000000000000000e+02 -3.464400000000000000e+04
-6.479000000000000000e+03 -3.017800000000000000e+04
-1.452600000000000000e+04 -2.509600000000000000e+04
-1.810700000000000000e+04 -2.189100000000000000e+04
-2.114100000000000000e+04 -1.742500000000000000e+04
-2.066400000000000000e+04 -1.029700000000000000e+04
-1.752700000000000000e+04 -6.411000000000000000e+03
-1.452600000000000000e+04 -2.523000000000000000e+03
-1.445800000000000000e+04 -1.360000000000000000e+02
-1.169500000000000000e+04 3.478000000000000000e+03
-1.063800000000000000e+04 1.774000000000000000e+03
-7.400000000000000000e+03 3.273000000000000000e+03
-5.455000000000000000e+03 3.341000000000000000e+03
-2.830000000000000000e+03 3.921000000000000000e+03
-5.080000000000000000e+03 5.933000000000000000e+03
-5.865000000000000000e+03 4.637000000000000000e+03
-6.478000000000000000e+03 6.069000000000000000e+03
-6.103000000000000000e+03 4.501000000000000000e+03
-7.979000000000000000e+03 4.807000000000000000e+03
-6.615000000000000000e+03 8.831000000000000000e+03
-6.478000000000000000e+03 9.343000000000000000e+03
-3.102000000000000000e+03 1.033200000000000000e+04
-2.626000000000000000e+03 1.108200000000000000e+04
1.364000000000000000e+03 1.340200000000000000e+04
4.331000000000000000e+03 1.176400000000000000e+04
7.912000000000000000e+03 1.077500000000000000e+04
1.166200000000000000e+04 7.672000000000000000e+03
1.258300000000000000e+04 5.831000000000000000e+03
1.428800000000000000e+04 -3.400000000000000000e+01
1.343600000000000000e+04 -3.307000000000000000e+03
1.135600000000000000e+04 -4.876000000000000000e+03
9.957000000000000000e+03 -7.399000000000000000e+03
9.241000000000000000e+03 -1.040100000000000000e+04
4.638000000000000000e+03 -1.251500000000000000e+04
2.217000000000000000e+03 -1.333300000000000000e+04
-3.035000000000000000e+03 -1.196900000000000000e+04
-4.842000000000000000e+03 -1.179800000000000000e+04
-7.467000000000000000e+03 -9.105000000000000000e+03
-7.740000000000000000e+03 -7.332000000000000000e+03
-7.945000000000000000e+03 -4.160000000000000000e+03
-9.138000000000000000e+03 -2.524000000000000000e+03
-8.081000000000000000e+03 -9.890000000000000000e+02
-7.638000000000000000e+03 1.159000000000000000e+03
-5.456000000000000000e+03 1.296000000000000000e+03
-5.728000000000000000e+03 1.569000000000000000e+03
-5.182000000000000000e+03 2.250000000000000000e+03
-3.103000000000000000e+03 1.637000000000000000e+03
-4.126000000000000000e+03 9.200000000000000000e+02
-4.466000000000000000e+03 2.720000000000000000e+02
-5.864000000000000000e+03 1.432000000000000000e+03
-6.240000000000000000e+03 3.990000000000000000e+03
-1.043500000000000000e+04 5.592000000000000000e+03
-8.047000000000000000e+03 7.058000000000000000e+03
-6.035000000000000000e+03 8.457000000000000000e+03
-6.206000000000000000e+03 9.377000000000000000e+03
-2.659000000000000000e+03 1.162700000000000000e+04
-7.840000000000000000e+02 1.309400000000000000e+04
1.774000000000000000e+03 1.203700000000000000e+04
6.513000000000000000e+03 1.306000000000000000e+04
1.040000000000000000e+04 1.026400000000000000e+04
1.179900000000000000e+04 6.206000000000000000e+03
1.415100000000000000e+04 1.364000000000000000e+03
1.507200000000000000e+04 -7.160000000000000000e+02
1.394700000000000000e+04 -5.525000000000000000e+03
9.684000000000000000e+03 -8.150000000000000000e+03
7.468000000000000000e+03 -1.077600000000000000e+04
5.661000000000000000e+03 -1.139000000000000000e+04
2.012000000000000000e+03 -1.186700000000000000e+04
-2.523000000000000000e+03 -1.183200000000000000e+04
-5.455000000000000000e+03 -1.132100000000000000e+04
-6.683000000000000000e+03 -1.033300000000000000e+04
-8.286000000000000000e+03 -6.956000000000000000e+03
-9.377000000000000000e+03 -5.183000000000000000e+03
-9.274000000000000000e+03 -5.627000000000000000e+03
-8.082000000000000000e+03 -4.365000000000000000e+03
-8.354000000000000000e+03 -1.671000000000000000e+03
