-2.367830000000000000e+05 -3.783620000000000000e+05
-3.735890000000000000e+05 -1.379300000000000000e+05
-2.331350000000000000e+05 5.479700000000000000e+04
-1.946030000000000000e+05 3.270100000000000000e+04
-2.441830000000000000e+05 1.074120000000000000e+05
-1.975690000000000000e+05 2.856480000000000000e+05
4.248800000000000000e+04 4.024360000000000000e+05
2.539690000000000000e+05 2.619830000000000000e+05
2.555040000000000000e+05 8.170100000000000000e+04
2.069810000000000000e+05 3.515600000000000000e+04
2.903870000000000000e+05 -2.022000000000000000e+04
2.613700000000000000e+05 -2.486500000000000000e+05
3.307700000000000000e+04 -3.875700000000000000e+05
2.121990000000000000e+05 -3.299770000000000000e+05
-6.236700000000000000e+04 -3.765900000000000000e+05
-2.468430000000000000e+05 -1.936490000000000000e+05
-2.036390000000000000e+05 -6.867500000000000000e+04
-2.199730000000000000e+05 -1.875400000000000000e+04
-2.201430000000000000e+05 9.264700000000000000e+04
-1.377940000000000000e+05 2.101870000000000000e+05
1.810700000000000000e+04 2.508670000000000000e+05
1.355090000000000000e+05 1.568560000000000000e+05
1.195860000000000000e+05 6.553800000000000000e+04
1.143000000000000000e+05 6.642500000000000000e+04
1.786790000000000000e+05 3.529200000000000000e+04
2.077310000000000000e+05 -8.470200000000000000e+04
1.208810000000000000e+05 -2.131870000000000000e+05
-4.426100000000000000e+04 -2.511400000000000000e+05
-1.813730000000000000e+05 -1.609470000000000000e+05
-1.962060000000000000e+05 -3.996400000000000000e+04
-1.910910000000000000e+05 4.767000000000000000e+04
-1.298830000000000000e+05 1.472400000000000000e+05
-2.250600000000000000e+04 1.926590000000000000e+05
8.937300000000000000e+04 1.719270000000000000e+05
1.665390000000000000e+05 8.122400000000000000e+04
1.298140000000000000e+05 -3.471300000000000000e+04
7.771100000000000000e+04 -4.419200000000000000e+04
8.790700000000000000e+04 -6.281000000000000000e+04
7.464300000000000000e+04 -1.321000000000000000e+05
-2.410800000000000000e+04 -2.025150000000000000e+05
-1.777240000000000000e+05 -1.522520000000000000e+05
-2.103220000000000000e+05 -3.205000000000000000e+03
-1.569920000000000000e+05 8.333800000000000000e+04
-1.326800000000000000e+05 1.489450000000000000e+05
-3.921000000000000000e+03 2.696560000000000000e+05
2.056510000000000000e+05 2.013890000000000000e+05
2.616070000000000000e+05 1.752700000000000000e+04
1.872720000000000000e+05 -1.363280000000000000e+05
4.770500000000000000e+04 -2.016960000000000000e+05
-4.033900000000000000e+04 -1.429780000000000000e+05
-5.200100000000000000e+04 -1.188700000000000000e+05
-9.442000000000000000e+04 -1.203360000000000000e+05
-1.709040000000000000e+05 -8.944100000000000000e+04
-2.282920000000000000e+05 3.215600000000000000e+04
-1.376230000000000000e+05 1.778260000000000000e+05
-2.063000000000000000e+04 1.734960000000000000e+05
-8.870000000000000000e+02 1.555940000000000000e+05
6.018600000000000000e+04 2.164610000000000000e+05
2.294180000000000000e+05 1.943640000000000000e+05
3.129950000000000000e+05 -2.809800000000000000e+04
1.943300000000000000e+05 -2.151300000000000000e+05
3.007500000000000000e+04 -2.558110000000000000e+05
-8.303100000000000000e+04 -2.066750000000000000e+05
-1.325420000000000000e+05 -1.408970000000000000e+05
-1.625840000000000000e+05 -9.026000000000000000e+04
-1.967860000000000000e+05 -2.492700000000000000e+04
-2.133920000000000000e+05 8.487300000000000000e+04
-1.256890000000000000e+05 2.253940000000000000e+05
3.406500000000000000e+04 2.106300000000000000e+05
6.182200000000000000e+04 1.397040000000000000e+05
8.316700000000000000e+04 1.398060000000000000e+05
1.729160000000000000e+05 1.301220000000000000e+05
2.582660000000000000e+05 -6.820000000000000000e+02
1.976030000000000000e+05 -1.875780000000000000e+05
4.221400000000000000e+04 -2.464330000000000000e+05
-6.414000000000000000e+04 -2.067420000000000000e+05
-1.285190000000000000e+05 -1.702910000000000000e+05
-2.042190000000000000e+05 -9.895500000000000000e+04
-2.195290000000000000e+05 2.230000000000000000e+04
-1.821910000000000000e+05 1.338730000000000000e+05
-9.087400000000000000e+04 2.332370000000000000e+05
7.631400000000000000e+04 2.451720000000000000e+05
1.495250000000000000e+05 1.238140000000000000e+05
1.446480000000000000e+05 6.963000000000000000e+04
1.759850000000000000e+05 2.564200000000000000e+04
1.913980000000000000e+05 -7.317600000000000000e+04
1.182900000000000000e+05 -1.973320000000000000e+05
-3.140500000000000000e+04 -2.196320000000000000e+05
-1.092530000000000000e+05 -1.473760000000000000e+05
-1.255520000000000000e+05 -9.881900000000000000e+04
-1.738030000000000000e+05 -6.772000000000000000e+04
-2.087540000000000000e+05 5.169400000000000000e+04
-1.329520000000000000e+05 1.754060000000000000e+05
-1.111600000000000000e+04 2.198360000000000000e+05
1.058770000000000000e+05 1.947740000000000000e+05
1.881250000000000000e+05 8.783900000000000000e+04
1.670170000000000000e+05 -1.138900000000000000e+04
1.399760000000000000e+05 -6.802700000000000000e+04
9.762500000000000000e+04 -1.339420000000000000e+05
1.306000000000000000e+04 -1.814080000000000000e+05
