-1.507100000000000000e+04 7.034600000000000000e+04
-1.323100000000000000e+04 6.881200000000000000e+04
-8.218000000000000000e+03 6.768700000000000000e+04
-2.865000000000000000e+03 6.710600000000000000e+04
-2.046000000000000000e+03 6.461800000000000000e+04
3.581000000000000000e+03 6.601600000000000000e+04
6.478000000000000000e+03 6.359400000000000000e+04
8.729000000000000000e+03 6.332100000000000000e+04
1.186600000000000000e+04 6.045800000000000000e+04
1.391200000000000000e+04 5.964000000000000000e+04
1.558300000000000000e+04 5.735500000000000000e+04
1.800400000000000000e+04 5.588900000000000000e+04
1.814100000000000000e+04 5.595600000000000000e+04
2.076600000000000000e+04 5.432000000000000000e+04
2.086900000000000000e+04 5.176200000000000000e+04
2.250600000000000000e+04 5.360400000000000000e+04
2.342600000000000000e+04 5.169400000000000000e+04
2.291400000000000000e+04 5.077400000000000000e+04
2.530100000000000000e+04 4.975000000000000000e+04
2.601700000000000000e+04 4.712500000000000000e+04
3.014400000000000000e+04 4.825100000000000000e+04
2.898400000000000000e+04 4.743200000000000000e+04
3.041600000000000000e+04 4.760200000000000000e+04
3.352000000000000000e+04 4.756800000000000000e+04
3.440600000000000000e+04 4.484100000000000000e+04
3.590700000000000000e+04 4.306700000000000000e+04
3.730500000000000000e+04 4.504400000000000000e+04
3.839500000000000000e+04 4.378400000000000000e+04
4.003200000000000000e+04 4.047600000000000000e+04
4.286200000000000000e+04 4.119200000000000000e+04
4.565800000000000000e+04 3.921400000000000000e+04
4.739700000000000000e+04 3.689500000000000000e+04
4.985300000000000000e+04 3.822500000000000000e+04
5.326300000000000000e+04 3.846300000000000000e+04
5.384200000000000000e+04 3.372400000000000000e+04
5.721800000000000000e+04 3.239400000000000000e+04
5.851400000000000000e+04 3.256500000000000000e+04
6.253800000000000000e+04 2.901800000000000000e+04
6.693600000000000000e+04 2.526700000000000000e+04
7.021000000000000000e+04 2.547200000000000000e+04
7.195000000000000000e+04 2.475600000000000000e+04
7.634700000000000000e+04 2.001600000000000000e+04
8.166700000000000000e+04 1.902800000000000000e+04
8.180400000000000000e+04 1.664000000000000000e+04
8.613400000000000000e+04 1.612900000000000000e+04
9.128300000000000000e+04 1.425400000000000000e+04
9.326100000000000000e+04 1.271900000000000000e+04
9.517000000000000000e+04 9.071000000000000000e+03
9.820500000000000000e+04 8.115000000000000000e+03
9.946700000000000000e+04 3.137000000000000000e+03
1.016840000000000000e+05 -0.000000000000000000e+00
1.028770000000000000e+05 -5.627000000000000000e+03
1.007280000000000000e+05 -8.422000000000000000e+03
1.033200000000000000e+05 -1.623100000000000000e+04
1.036270000000000000e+05 -2.172100000000000000e+04
1.043770000000000000e+05 -2.782500000000000000e+04
1.034570000000000000e+05 -3.365600000000000000e+04
1.006600000000000000e+05 -4.320300000000000000e+04
1.011370000000000000e+05 -5.056800000000000000e+04
1.001830000000000000e+05 -5.776400000000000000e+04
9.837500000000000000e+04 -6.618600000000000000e+04
9.431800000000000000e+04 -7.365400000000000000e+04
8.947600000000000000e+04 -8.149600000000000000e+04
8.715700000000000000e+04 -8.470200000000000000e+04
8.071200000000000000e+04 -9.578400000000000000e+04
7.488100000000000000e+04 -1.049570000000000000e+05
6.775500000000000000e+04 -1.082300000000000000e+05
5.899100000000000000e+04 -1.139580000000000000e+05
4.971600000000000000e+04 -1.206080000000000000e+05
4.163500000000000000e+04 -1.219040000000000000e+05
3.055300000000000000e+04 -1.277690000000000000e+05
2.274300000000000000e+04 -1.280420000000000000e+05
1.496900000000000000e+04 -1.324060000000000000e+05
4.023000000000000000e+03 -1.331560000000000000e+05
-3.853000000000000000e+03 -1.336340000000000000e+05
-1.377600000000000000e+04 -1.359190000000000000e+05
-1.988000000000000000e+04 -1.337360000000000000e+05
-2.949600000000000000e+04 -1.309750000000000000e+05
-3.836200000000000000e+04 -1.296440000000000000e+05
-4.565900000000000000e+04 -1.262690000000000000e+05
-5.466100000000000000e+04 -1.206080000000000000e+05
-6.042400000000000000e+04 -1.173340000000000000e+05
-7.075600000000000000e+04 -1.125610000000000000e+05
-7.900700000000000000e+04 -1.078220000000000000e+05
-8.494000000000000000e+04 -1.022630000000000000e+05
-9.281800000000000000e+04 -9.660300000000000000e+04
-1.016500000000000000e+05 -8.937300000000000000e+04
-1.091170000000000000e+05 -8.432700000000000000e+04
-1.163790000000000000e+05 -7.890500000000000000e+04
-1.204380000000000000e+05 -7.310800000000000000e+04
-1.477160000000000000e+05 -6.918700000000000000e+04
-1.664710000000000000e+05 -6.560700000000000000e+04
-1.687900000000000000e+05 -3.832800000000000000e+04
-1.545700000000000000e+05 -3.549700000000000000e+04
-1.575380000000000000e+05 -2.881400000000000000e+04
-1.615610000000000000e+05 -2.516500000000000000e+04
-1.650050000000000000e+05 -1.527700000000000000e+04
-1.684490000000000000e+05 -1.036600000000000000e+04
-1.672560000000000000e+05 -6.130000000000000000e+02
-1.690290000000000000e+05 8.320000000000000000e+03
-1.694040000000000000e+05 1.565200000000000000e+04
-1.678010000000000000e+05 2.577900000000000000e+04
-1.640850000000000000e+05 3.655400000000000000e+04
-1.631630000000000000e+05 4.412400000000000000e+04
-1.594130000000000000e+05 5.275100000000000000e+04
-1.524220000000000000e+05 5.640000000000000000e+04
-1.443400000000000000e+05 7.883700000000000000e+04
-1.388170000000000000e+05 8.234900000000000000e+04
-1.329860000000000000e+05 8.971500000000000000e+04
-1.238140000000000000e+05 9.680800000000000000e+04
-1.146410000000000000e+05 1.016490000000000000e+05
-1.061160000000000000e+05 1.062870000000000000e+05
-9.612500000000000000e+04 1.120160000000000000e+05
-9.302200000000000000e+04 1.124590000000000000e+05
-7.007400000000000000e+04 1.236770000000000000e+05
-5.749100000000000000e+04 1.241550000000000000e+05
-4.330600000000000000e+04 1.238140000000000000e+05
-3.635000000000000000e+04 1.250410000000000000e+05
-2.584700000000000000e+04 1.244620000000000000e+05
-1.023000000000000000e+04 1.213580000000000000e+05
5.421000000000000000e+03 1.182550000000000000e+05
7.092000000000000000e+03 1.207440000000000000e+05
1.619700000000000000e+04 1.194490000000000000e+05
2.339200000000000000e+04 1.189370000000000000e+05
3.218900000000000000e+04 1.175730000000000000e+05
3.706500000000000000e+04 1.130050000000000000e+05
4.184000000000000000e+04 1.095600000000000000e+05
4.460100000000000000e+04 1.126970000000000000e+05
4.927400000000000000e+04 1.028770000000000000e+05
5.193300000000000000e+04 1.019220000000000000e+05
5.425200000000000000e+04 9.609100000000000000e+04
5.353500000000000000e+04 9.264700000000000000e+04
5.411500000000000000e+04 9.022600000000000000e+04
5.183000000000000000e+04 8.388400000000000000e+04
5.152300000000000000e+04 7.774600000000000000e+04
5.019400000000000000e+04 7.501800000000000000e+04
4.617000000000000000e+04 6.946000000000000000e+04
4.746600000000000000e+04 6.400300000000000000e+04
4.443100000000000000e+04 5.800200000000000000e+04
4.548800000000000000e+04 5.431900000000000000e+04
4.767000000000000000e+04 5.074000000000000000e+04
4.705700000000000000e+04 5.012500000000000000e+04
4.937600000000000000e+04 4.756800000000000000e+04
5.152400000000000000e+04 4.702300000000000000e+04
5.316100000000000000e+04 4.746600000000000000e+04
6.055900000000000000e+04 4.637500000000000000e+04
5.987700000000000000e+04 4.995500000000000000e+04
6.325300000000000000e+04 5.097800000000000000e+04
6.741400000000000000e+04 5.029600000000000000e+04
9.753000000000000000e+03 5.943500000000000000e+04
7.051700000000000000e+04 5.568400000000000000e+04
7.229000000000000000e+04 5.554700000000000000e+04
7.419900000000000000e+04 5.377500000000000000e+04
8.357600000000000000e+04 5.203500000000000000e+04
9.128300000000000000e+04 5.629700000000000000e+04
9.728400000000000000e+04 5.616200000000000000e+04
1.052980000000000000e+05 5.697900000000000000e+04
1.139590000000000000e+05 5.544500000000000000e+04
1.212910000000000000e+05 5.408200000000000000e+04
1.310090000000000000e+05 5.554700000000000000e+04
1.385790000000000000e+05 5.558200000000000000e+04
1.476490000000000000e+05 5.455800000000000000e+04
1.578100000000000000e+05 5.619500000000000000e+04
1.663010000000000000e+05 5.541100000000000000e+04
1.710060000000000000e+05 5.575200000000000000e+04
1.786790000000000000e+05 5.711600000000000000e+04
1.820550000000000000e+05 5.670700000000000000e+04
1.829070000000000000e+05 5.312700000000000000e+04
1.826690000000000000e+05 4.927300000000000000e+04
1.810660000000000000e+05 4.589800000000000000e+04
1.822600000000000000e+05 3.536000000000000000e+04
1.806220000000000000e+05 2.281300000000000000e+04
1.811000000000000000e+05 1.224100000000000000e+04
1.816110000000000000e+05 -1.603000000000000000e+03
1.837600000000000000e+05 -1.609500000000000000e+04
1.860780000000000000e+05 -3.048500000000000000e+04
1.875110000000000000e+05 -4.620400000000000000e+04
1.888410000000000000e+05 -6.076400000000000000e+04
1.912280000000000000e+05 -7.529100000000000000e+04
1.913290000000000000e+05 -9.309100000000000000e+04
1.952850000000000000e+05 -1.091170000000000000e+05
1.969220000000000000e+05 -1.260300000000000000e+05
2.013550000000000000e+05 -1.417160000000000000e+05
2.023100000000000000e+05 -1.551510000000000000e+05
2.009460000000000000e+05 -1.677330000000000000e+05
1.975020000000000000e+05 -1.806570000000000000e+05
1.849880000000000000e+05 -1.953200000000000000e+05
1.707330000000000000e+05 -2.089930000000000000e+05
1.550830000000000000e+05 -2.242700000000000000e+05
1.364300000000000000e+05 -2.384200000000000000e+05
1.143000000000000000e+05 -2.561520000000000000e+05
9.462600000000000000e+04 -2.739170000000000000e+05
7.460900000000000000e+04 -2.924670000000000000e+05
5.397900000000000000e+04 -3.939800000000000000e+05
3.328100000000000000e+04 -3.979010000000000000e+05
1.084400000000000000e+04 -3.983450000000000000e+05
-1.490100000000000000e+04 -3.976960000000000000e+05
-3.907800000000000000e+04 -3.920710000000000000e+05
-6.778900000000000000e+04 -3.840910000000000000e+05
-9.708000000000000000e+04 -3.701110000000000000e+05
-1.302930000000000000e+05 -3.554490000000000000e+05
-1.644260000000000000e+05 -3.385690000000000000e+05
-2.014570000000000000e+05 -3.199850000000000000e+05
-2.384200000000000000e+05 -2.989800000000000000e+05
-2.749060000000000000e+05 -2.790660000000000000e+05
-3.113240000000000000e+05 -2.585720000000000000e+05
-3.474690000000000000e+05 -2.402270000000000000e+05
-3.799650000000000000e+05 -2.199730000000000000e+05
-4.074150000000000000e+05 -1.994450000000000000e+05
-4.341140000000000000e+05 -1.816120000000000000e+05
-4.541310000000000000e+05 -1.623790000000000000e+05
-4.717260000000000000e+05 -1.463530000000000000e+05
-4.811380000000000000e+05 -1.288600000000000000e+05
-4.872410000000000000e+05 -1.124250000000000000e+05
-4.826720000000000000e+05 -8.988500000000000000e+04
-4.808980000000000000e+05 -6.738000000000000000e+04
-4.690320000000000000e+05 -4.252200000000000000e+04
-4.552210000000000000e+05 -1.592500000000000000e+04
-4.427760000000000000e+05 1.473100000000000000e+04
-4.286590000000000000e+05 4.511300000000000000e+04
-4.154280000000000000e+05 7.713200000000000000e+04
-3.973900000000000000e+05 1.073100000000000000e+05
-3.846710000000000000e+05 1.392610000000000000e+05
-3.685760000000000000e+05 1.670170000000000000e+05
-3.529930000000000000e+05 1.973310000000000000e+05
-3.360460000000000000e+05 2.240300000000000000e+05
-3.216220000000000000e+05 2.485820000000000000e+05
-3.043690000000000000e+05 2.704400000000000000e+05
-2.866030000000000000e+05 2.924330000000000000e+05
-2.664840000000000000e+05 3.110170000000000000e+05
-2.439100000000000000e+05 3.277250000000000000e+05
-2.240650000000000000e+05 3.423880000000000000e+05
-1.983540000000000000e+05 3.566420000000000000e+05
-1.737340000000000000e+05 3.688150000000000000e+05
-1.502400000000000000e+05 3.797600000000000000e+05
-1.226880000000000000e+05 3.880470000000000000e+05
-9.476100000000000000e+04 3.974580000000000000e+05
-6.823200000000000000e+04 4.050620000000000000e+05
-4.555600000000000000e+04 4.108930000000000000e+05
-2.209600000000000000e+04 4.112340000000000000e+05
-4.263000000000000000e+03 4.113360000000000000e+05
1.739000000000000000e+04 4.059830000000000000e+05
3.621400000000000000e+04 4.025050000000000000e+05
5.244400000000000000e+04 3.932640000000000000e+05
6.843700000000000000e+04 3.784650000000000000e+05
8.586200000000000000e+04 3.625070000000000000e+05
1.013080000000000000e+05 3.438550000000000000e+05
1.159360000000000000e+05 3.218600000000000000e+05
1.311780000000000000e+05 3.019120000000000000e+05
1.475120000000000000e+05 2.769520000000000000e+05
1.601630000000000000e+05 2.526400000000000000e+05
1.718930000000000000e+05 2.297250000000000000e+05
1.878850000000000000e+05 2.044580000000000000e+05
1.997520000000000000e+05 1.825660000000000000e+05
2.100840000000000000e+05 1.591060000000000000e+05
2.207570000000000000e+05 1.395680000000000000e+05
2.292480000000000000e+05 1.193800000000000000e+05
2.357270000000000000e+05 1.043770000000000000e+05
2.425460000000000000e+05 8.933900000000000000e+04
2.448310000000000000e+05 7.737100000000000000e+04
2.464330000000000000e+05 6.710600000000000000e+04
2.447970000000000000e+05 5.888900000000000000e+04
2.425120000000000000e+05 5.200100000000000000e+04
2.375340000000000000e+05 4.630700000000000000e+04
2.319070000000000000e+05 4.378300000000000000e+04
2.263500000000000000e+05 3.710000000000000000e+04
2.253950000000000000e+05 3.331500000000000000e+04
2.184730000000000000e+05 3.225800000000000000e+04
2.130850000000000000e+05 2.874500000000000000e+04
2.072540000000000000e+05 2.847300000000000000e+04
2.073560000000000000e+05 2.615400000000000000e+04
2.064020000000000000e+05 2.693800000000000000e+04
2.080720000000000000e+05 2.530200000000000000e+04
2.079700000000000000e+05 2.318800000000000000e+04
2.125730000000000000e+05 2.301700000000000000e+04
2.166990000000000000e+05 2.131200000000000000e+04
2.223940000000000000e+05 1.844800000000000000e+04
2.274740000000000000e+05 1.759600000000000000e+04
2.338170000000000000e+05 1.619700000000000000e+04
2.398520000000000000e+05 1.070700000000000000e+04
2.428530000000000000e+05 7.024000000000000000e+03
2.468080000000000000e+05 -6.470000000000000000e+02
2.467410000000000000e+05 -8.081000000000000000e+03
2.497420000000000000e+05 -2.032200000000000000e+04
2.495030000000000000e+05 -3.553100000000000000e+04
2.484800000000000000e+05 -5.353500000000000000e+04
2.496730000000000000e+05 -7.396100000000000000e+04
2.486160000000000000e+05 -9.588600000000000000e+04
2.503210000000000000e+05 -1.208130000000000000e+05
2.523670000000000000e+05 -1.467960000000000000e+05
2.559470000000000000e+05 -1.711780000000000000e+05
2.575490000000000000e+05 -2.002290000000000000e+05
2.595960000000000000e+05 -2.247470000000000000e+05
2.606530000000000000e+05 -2.469110000000000000e+05
2.575160000000000000e+05 -2.694170000000000000e+05
2.564930000000000000e+05 -2.926720000000000000e+05
2.527760000000000000e+05 -3.139490000000000000e+05
2.434670000000000000e+05 -3.321930000000000000e+05
2.345670000000000000e+05 -3.497190000000000000e+05
2.205870000000000000e+05 -3.649620000000000000e+05
2.060260000000000000e+05 -3.778850000000000000e+05
1.870000000000000000e+05 -3.885920000000000000e+05
1.657890000000000000e+05 -3.966400000000000000e+05
1.397030000000000000e+05 -4.081310000000000000e+05
1.141290000000000000e+05 -4.174070000000000000e+05
8.640800000000000000e+04 -4.222140000000000000e+05
5.537700000000000000e+04 -4.291710000000000000e+05
2.530200000000000000e+04 -4.337050000000000000e+05
-4.467000000000000000e+03 -4.364330000000000000e+05
-3.720200000000000000e+04 -4.353770000000000000e+05
-6.973300000000000000e+04 -4.355810000000000000e+05
-1.006610000000000000e+05 -4.309780000000000000e+05
-1.327820000000000000e+05 -4.240560000000000000e+05
-1.664040000000000000e+05 -4.169960000000000000e+05
-1.957280000000000000e+05 -4.027770000000000000e+05
-2.289410000000000000e+05 -3.899220000000000000e+05
-2.604480000000000000e+05 -3.760450000000000000e+05
-2.923310000000000000e+05 -3.564380000000000000e+05
-3.241450000000000000e+05 -3.373420000000000000e+05
-3.547320000000000000e+05 -3.124840000000000000e+05
-3.847060000000000000e+05 -2.867720000000000000e+05
-4.148480000000000000e+05 -2.587780000000000000e+05
-4.426050000000000000e+05 -2.313280000000000000e+05
-4.700550000000000000e+05 -1.977070000000000000e+05
-4.968910000000000000e+05 -1.659260000000000000e+05
-5.211360000000000000e+05 -1.344530000000000000e+05
-5.429930000000000000e+05 -1.007280000000000000e+05
-5.607580000000000000e+05 -6.601500000000000000e+04
-5.748410000000000000e+05 -3.324600000000000000e+04
-5.850030000000000000e+05 2.387000000000000000e+03
-5.880040000000000000e+05 3.727100000000000000e+04
-5.881740000000000000e+05 7.624500000000000000e+04
-5.808770000000000000e+05 1.151180000000000000e+05
-5.690440000000000000e+05 1.543320000000000000e+05
-5.528810000000000000e+05 1.982860000000000000e+05
-5.339570000000000000e+05 2.405680000000000000e+05
-5.111100000000000000e+05 2.864670000000000000e+05
-4.814780000000000000e+05 3.283050000000000000e+05
-4.544030000000000000e+05 3.687810000000000000e+05
-4.209870000000000000e+05 4.090180000000000000e+05
-3.861030000000000000e+05 4.445830000000000000e+05
-3.526860000000000000e+05 4.750340000000000000e+05
-3.168480000000000000e+05 5.038470000000000000e+05
-2.759970000000000000e+05 5.261480000000000000e+05
-2.378400000000000000e+05 5.423450000000000000e+05
-1.984560000000000000e+05 5.554050000000000000e+05
-1.563100000000000000e+05 5.619180000000000000e+05
-1.146410000000000000e+05 5.636920000000000000e+05
-7.375600000000000000e+04 5.604170000000000000e+05
-3.055200000000000000e+04 5.544500000000000000e+05
7.741000000000000000e+03 5.432650000000000000e+05
5.036400000000000000e+04 5.282970000000000000e+05
8.930500000000000000e+04 5.114510000000000000e+05
1.263020000000000000e+05 4.877520000000000000e+05
1.631300000000000000e+05 4.663380000000000000e+05
1.976390000000000000e+05 4.435260000000000000e+05
2.276800000000000000e+05 4.166900000000000000e+05
2.526740000000000000e+05 3.892410000000000000e+05
2.798850000000000000e+05 3.592670000000000000e+05
3.005490000000000000e+05 3.292260000000000000e+05
3.209410000000000000e+05 2.982980000000000000e+05
3.348530000000000000e+05 2.661770000000000000e+05
3.487650000000000000e+05 2.362040000000000000e+05
3.606320000000000000e+05 2.012520000000000000e+05
3.659170000000000000e+05 1.710410000000000000e+05
3.704170000000000000e+05 1.358510000000000000e+05
3.732480000000000000e+05 1.066960000000000000e+05
3.735560000000000000e+05 7.317700000000000000e+04
3.740320000000000000e+05 4.497700000000000000e+04
3.728390000000000000e+05 1.558300000000000000e+04
3.699410000000000000e+05 -1.500300000000000000e+04
3.657800000000000000e+05 -4.132800000000000000e+04
3.600180000000000000e+05 -6.495900000000000000e+04
3.579380000000000000e+05 -8.753200000000000000e+04
3.506740000000000000e+05 -1.063210000000000000e+05
3.436840000000000000e+05 -1.230970000000000000e+05
3.362160000000000000e+05 -1.374530000000000000e+05
3.281690000000000000e+05 -1.489450000000000000e+05
3.177690000000000000e+05 -1.579810000000000000e+05
3.067560000000000000e+05 -1.627540000000000000e+05
2.944110000000000000e+05 -1.675970000000000000e+05
2.804300000000000000e+05 -1.717570000000000000e+05
2.658360000000000000e+05 -1.741440000000000000e+05
2.516850000000000000e+05 -1.758490000000000000e+05
2.335450000000000000e+05 -1.772810000000000000e+05
2.197340000000000000e+05 -1.788160000000000000e+05
2.049010000000000000e+05 -1.799070000000000000e+05
1.904100000000000000e+05 -1.794290000000000000e+05
1.770760000000000000e+05 -1.816120000000000000e+05
1.650730000000000000e+05 -1.849190000000000000e+05
1.580830000000000000e+05 -1.870000000000000000e+05
1.475470000000000000e+05 -1.883970000000000000e+05
1.428410000000000000e+05 -1.898630000000000000e+05
1.351000000000000000e+05 -1.930690000000000000e+05
1.309060000000000000e+05 -1.969900000000000000e+05
1.292020000000000000e+05 -1.984220000000000000e+05
1.256890000000000000e+05 -2.026500000000000000e+05
1.226200000000000000e+05 -2.064360000000000000e+05
1.205400000000000000e+05 -2.114480000000000000e+05
1.174720000000000000e+05 -2.181320000000000000e+05
1.156980000000000000e+05 -2.230760000000000000e+05
1.096970000000000000e+05 -2.341580000000000000e+05
1.035240000000000000e+05 -2.405000000000000000e+05
9.926200000000000000e+04 -2.505260000000000000e+05
9.203300000000000000e+04 -2.632110000000000000e+05
8.337200000000000000e+04 -2.735430000000000000e+05
7.454000000000000000e+04 -2.862960000000000000e+05
6.230000000000000000e+04 -2.974460000000000000e+05
4.828400000000000000e+04 -3.085620000000000000e+05
3.580400000000000000e+04 -3.214170000000000000e+05
1.977700000000000000e+04 -3.308620000000000000e+05
1.876000000000000000e+03 -3.402410000000000000e+05
-1.360600000000000000e+04 -3.469230000000000000e+05
-3.573600000000000000e+04 -3.536410000000000000e+05
-5.578600000000000000e+04 -3.601880000000000000e+05
-7.801900000000000000e+04 -3.605290000000000000e+05
-1.022290000000000000e+05 -3.594040000000000000e+05
-1.251090000000000000e+05 -3.553810000000000000e+05
-1.516720000000000000e+05 -3.481170000000000000e+05
-1.770420000000000000e+05 -3.411950000000000000e+05
-2.058560000000000000e+05 -3.264640000000000000e+05
-2.333400000000000000e+05 -3.137790000000000000e+05
-2.650860000000000000e+05 -2.955700000000000000e+05
-2.929440000000000000e+05 -2.755550000000000000e+05
-3.208030000000000000e+05 -2.549930000000000000e+05
-3.480490000000000000e+05 -2.327940000000000000e+05
-3.761460000000000000e+05 -2.061630000000000000e+05
-4.008000000000000000e+05 -1.797360000000000000e+05
-4.244640000000000000e+05 -1.533440000000000000e+05
-4.472090000000000000e+05 -1.265760000000000000e+05
-4.657580000000000000e+05 -9.663700000000000000e+04
-4.817850000000000000e+05 -6.676600000000000000e+04
-4.958680000000000000e+05 -3.566800000000000000e+04
-5.052790000000000000e+05 -3.989000000000000000e+03
-5.116210000000000000e+05 2.642700000000000000e+04
-5.152020000000000000e+05 5.991200000000000000e+04
-5.166340000000000000e+05 9.459000000000000000e+04
-5.135650000000000000e+05 1.242560000000000000e+05
-5.099850000000000000e+05 1.571960000000000000e+05
-5.009830000000000000e+05 1.873060000000000000e+05
-4.944690000000000000e+05 2.177220000000000000e+05
-4.797050000000000000e+05 2.486160000000000000e+05
-4.668160000000000000e+05 2.780090000000000000e+05
-4.493230000000000000e+05 3.055270000000000000e+05
-4.324440000000000000e+05 3.282710000000000000e+05
-4.124610000000000000e+05 3.522080000000000000e+05
-3.891710000000000000e+05 3.738620000000000000e+05
-3.667350000000000000e+05 3.945260000000000000e+05
-3.393530000000000000e+05 4.138600000000000000e+05
-3.104370000000000000e+05 4.290670000000000000e+05
-2.825780000000000000e+05 4.434570000000000000e+05
-2.521280000000000000e+05 4.559380000000000000e+05
-2.178240000000000000e+05 4.691350000000000000e+05
-1.835550000000000000e+05 4.750670000000000000e+05
-1.493880000000000000e+05 4.839330000000000000e+05
-1.141290000000000000e+05 4.889120000000000000e+05
-7.849500000000000000e+04 4.921850000000000000e+05
-3.965700000000000000e+04 4.915720000000000000e+05
-4.058000000000000000e+03 4.936170000000000000e+05
3.171200000000000000e+04 4.913330000000000000e+05
6.911900000000000000e+04 4.867630000000000000e+05
1.051280000000000000e+05 4.795690000000000000e+05
1.423980000000000000e+05 4.718280000000000000e+05
1.728820000000000000e+05 4.605410000000000000e+05
2.077310000000000000e+05 4.463900000000000000e+05
2.388980000000000000e+05 4.305000000000000000e+05
2.688370000000000000e+05 4.086080000000000000e+05
2.972080000000000000e+05 3.861370000000000000e+05
3.231910000000000000e+05 3.635640000000000000e+05
3.455940000000000000e+05 3.366260000000000000e+05
3.692920000000000000e+05 3.069590000000000000e+05
3.885590000000000000e+05 2.772590000000000000e+05
4.067680000000000000e+05 2.465020000000000000e+05
4.229300000000000000e+05 2.119250000000000000e+05
4.326490000000000000e+05 1.803840000000000000e+05
4.448220000000000000e+05 1.475130000000000000e+05
4.514710000000000000e+05 1.151860000000000000e+05
4.568250000000000000e+05 8.061100000000000000e+04
4.573020000000000000e+05 4.903400000000000000e+04
4.553920000000000000e+05 2.189200000000000000e+04
4.517100000000000000e+05 -9.104000000000000000e+03
4.449250000000000000e+05 -3.539500000000000000e+04
4.362630000000000000e+05 -6.318500000000000000e+04
4.234760000000000000e+05 -8.688400000000000000e+04
4.106200000000000000e+05 -1.109920000000000000e+05
3.983790000000000000e+05 -1.309060000000000000e+05
3.814320000000000000e+05 -1.511950000000000000e+05
3.639050000000000000e+05 -1.681080000000000000e+05
3.475370000000000000e+05 -1.795310000000000000e+05
3.286130000000000000e+05 -1.946720000000000000e+05
3.110510000000000000e+05 -2.059920000000000000e+05
2.955360000000000000e+05 -2.159150000000000000e+05
2.780090000000000000e+05 -2.230420000000000000e+05
2.617440000000000000e+05 -2.279520000000000000e+05
2.465700000000000000e+05 -2.340890000000000000e+05
2.309190000000000000e+05 -2.388290000000000000e+05
2.161200000000000000e+05 -2.390010000000000000e+05
2.039460000000000000e+05 -2.414890000000000000e+05
1.889770000000000000e+05 -2.404320000000000000e+05
1.761210000000000000e+05 -2.410800000000000000e+05
1.643230000000000000e+05 -2.390350000000000000e+05
1.519800000000000000e+05 -2.364430000000000000e+05
1.414430000000000000e+05 -2.363400000000000000e+05
1.319980000000000000e+05 -2.321460000000000000e+05
1.202670000000000000e+05 -2.263830000000000000e+05
1.077190000000000000e+05 -2.255310000000000000e+05
9.615900000000000000e+04 -2.222230000000000000e+05
8.872600000000000000e+04 -2.197680000000000000e+05
7.914400000000000000e+04 -2.172780000000000000e+05
7.068700000000000000e+04 -2.144490000000000000e+05
6.390100000000000000e+04 -2.122320000000000000e+05
5.483100000000000000e+04 -2.114820000000000000e+05
5.087600000000000000e+04 -2.091300000000000000e+05
4.640800000000000000e+04 -2.089590000000000000e+05
4.085000000000000000e+04 -2.083110000000000000e+05
3.396200000000000000e+04 -2.074920000000000000e+05
3.205300000000000000e+04 -2.065040000000000000e+05
2.693800000000000000e+04 -2.080720000000000000e+05
2.482400000000000000e+04 -2.100500000000000000e+05
2.168700000000000000e+04 -2.123340000000000000e+05
1.820900000000000000e+04 -2.141410000000000000e+05
1.745900000000000000e+04 -2.159150000000000000e+05
1.053700000000000000e+04 -2.216090000000000000e+05
6.036000000000000000e+03 -2.241320000000000000e+05
4.195000000000000000e+03 -2.293500000000000000e+05
-2.730000000000000000e+02 -2.332720000000000000e+05
-5.865000000000000000e+03 -2.400580000000000000e+05
-1.551500000000000000e+04 -2.454790000000000000e+05
-2.322200000000000000e+04 -2.519920000000000000e+05
-3.232600000000000000e+04 -2.588460000000000000e+05
-4.098800000000000000e+04 -2.660070000000000000e+05
-5.394500000000000000e+04 -2.715990000000000000e+05
-6.772000000000000000e+04 -2.799190000000000000e+05
-8.108800000000000000e+04 -2.874890000000000000e+05
-9.755700000000000000e+04 -2.905930000000000000e+05
-1.171310000000000000e+05 -2.970020000000000000e+05
-1.344530000000000000e+05 -2.986390000000000000e+05
-1.563440000000000000e+05 -3.019800000000000000e+05
-1.775870000000000000e+05 -3.020140000000000000e+05
-2.012530000000000000e+05 -3.003110000000000000e+05
-2.280210000000000000e+05 -2.971730000000000000e+05
-2.534580000000000000e+05 -2.929100000000000000e+05
-2.784530000000000000e+05 -2.824430000000000000e+05
-3.073000000000000000e+05 -2.691780000000000000e+05
-3.383300000000000000e+05 -2.571070000000000000e+05
-3.640070000000000000e+05 -2.388640000000000000e+05
-3.928890000000000000e+05 -2.178250000000000000e+05
-4.198960000000000000e+05 -1.948420000000000000e+05
-4.441060000000000000e+05 -1.685850000000000000e+05
-4.695440000000000000e+05 -1.390550000000000000e+05
-4.914700000000000000e+05 -1.090830000000000000e+05
-5.131220000000000000e+05 -7.382500000000000000e+04
-5.272740000000000000e+05 -3.986200000000000000e+04
-5.402660000000000000e+05 -1.569000000000000000e+03
-5.510070000000000000e+05 4.013400000000000000e+04
-5.579280000000000000e+05 7.767800000000000000e+04
-5.591560000000000000e+05 1.200620000000000000e+05
-5.564270000000000000e+05 1.628230000000000000e+05
-5.517910000000000000e+05 2.042190000000000000e+05
-5.415950000000000000e+05 2.476610000000000000e+05
-5.252960000000000000e+05 2.860560000000000000e+05
-5.067460000000000000e+05 3.266690000000000000e+05
-4.846150000000000000e+05 3.658480000000000000e+05
-4.555290000000000000e+05 4.020960000000000000e+05
-4.278070000000000000e+05 4.338420000000000000e+05
-3.932980000000000000e+05 4.632350000000000000e+05
-3.571190000000000000e+05 4.931750000000000000e+05
-3.194400000000000000e+05 5.155090000000000000e+05
-2.782820000000000000e+05 5.366850000000000000e+05
-2.349420000000000000e+05 5.520970000000000000e+05
-1.917730000000000000e+05 5.643390000000000000e+05
-1.482290000000000000e+05 5.731030000000000000e+05
-1.016490000000000000e+05 5.769550000000000000e+05
-5.998000000000000000e+04 5.763420000000000000e+05
-1.299200000000000000e+04 5.753870000000000000e+05
3.065600000000000000e+04 5.708180000000000000e+05
7.416600000000000000e+04 5.601100000000000000e+05
1.156640000000000000e+05 5.485850000000000000e+05
1.570940000000000000e+05 5.317060000000000000e+05
1.970580000000000000e+05 5.167030000000000000e+05
2.322490000000000000e+05 4.952200000000000000e+05
2.685640000000000000e+05 4.733630000000000000e+05
3.025960000000000000e+05 4.510270000000000000e+05
3.335220000000000000e+05 4.250450000000000000e+05
3.628130000000000000e+05 4.010730000000000000e+05
3.891720000000000000e+05 3.699400000000000000e+05
4.131100000000000000e+05 3.439220000000000000e+05
4.355810000000000000e+05 3.150070000000000000e+05
4.552220000000000000e+05 2.830900000000000000e+05
4.705330000000000000e+05 2.519570000000000000e+05
4.846490000000000000e+05 2.200410000000000000e+05
4.934810000000000000e+05 1.881580000000000000e+05
5.026190000000000000e+05 1.553210000000000000e+05
5.088590000000000000e+05 1.206760000000000000e+05
5.112810000000000000e+05 8.777100000000000000e+04
5.132580000000000000e+05 5.401300000000000000e+04
5.104960000000000000e+05 2.042500000000000000e+04
5.067120000000000000e+05 -1.442400000000000000e+04
5.009150000000000000e+05 -4.886400000000000000e+04
4.908560000000000000e+05 -8.159900000000000000e+04
4.801830000000000000e+05 -1.127990000000000000e+05
4.679750000000000000e+05 -1.403170000000000000e+05
4.547440000000000000e+05 -1.692330000000000000e+05
4.356150000000000000e+05 -1.958650000000000000e+05
4.177140000000000000e+05 -2.183020000000000000e+05
3.944910000000000000e+05 -2.416260000000000000e+05
3.745440000000000000e+05 -2.595620000000000000e+05
3.486630000000000000e+05 -2.768170000000000000e+05
3.229180000000000000e+05 -2.927740000000000000e+05
2.991850000000000000e+05 -3.042660000000000000e+05
2.728610000000000000e+05 -3.152110000000000000e+05
2.459900000000000000e+05 -3.233960000000000000e+05
2.199050000000000000e+05 -3.295000000000000000e+05
1.930350000000000000e+05 -3.346820000000000000e+05
1.677330000000000000e+05 -3.357390000000000000e+05
1.453640000000000000e+05 -3.337960000000000000e+05
1.224500000000000000e+05 -3.343410000000000000e+05
1.037290000000000000e+05 -3.328740000000000000e+05
8.234800000000000000e+04 -3.284760000000000000e+05
6.635700000000000000e+04 -3.207700000000000000e+05
4.896500000000000000e+04 -3.155180000000000000e+05
3.317900000000000000e+04 -3.091420000000000000e+05
2.032300000000000000e+04 -3.001730000000000000e+05
9.786000000000000000e+03 -2.907290000000000000e+05
-2.557000000000000000e+03 -2.812830000000000000e+05
-1.261700000000000000e+04 -2.706790000000000000e+05
-2.165300000000000000e+04 -2.586070000000000000e+05
-2.867700000000000000e+04 -2.510040000000000000e+05
-3.849800000000000000e+04 -2.384210000000000000e+05
-4.586400000000000000e+04 -2.320780000000000000e+05
-5.466100000000000000e+04 -2.206560000000000000e+05
-6.308300000000000000e+04 -2.133240000000000000e+05
-6.942500000000000000e+04 -2.025820000000000000e+05
-7.529000000000000000e+04 -1.967170000000000000e+05
-8.415600000000000000e+04 -1.910230000000000000e+05
-8.876000000000000000e+04 -1.864190000000000000e+05
-9.650000000000000000e+04 -1.833850000000000000e+05
-1.021260000000000000e+05 -1.838620000000000000e+05
-1.057410000000000000e+05 -1.825670000000000000e+05
-1.100720000000000000e+05 -1.859420000000000000e+05
-1.117080000000000000e+05 -1.857370000000000000e+05
-1.165500000000000000e+05 -1.881580000000000000e+05
-1.193460000000000000e+05 -1.886350000000000000e+05
-1.230980000000000000e+05 -1.892150000000000000e+05
-1.263370000000000000e+05 -1.894540000000000000e+05
-1.324750000000000000e+05 -1.865560000000000000e+05
-1.393970000000000000e+05 -1.856350000000000000e+05
-1.465580000000000000e+05 -1.809980000000000000e+05
-1.540600000000000000e+05 -1.786450000000000000e+05
-1.626180000000000000e+05 -1.777920000000000000e+05
-1.742110000000000000e+05 -1.753030000000000000e+05
-1.836230000000000000e+05 -1.746900000000000000e+05
-1.936150000000000000e+05 -1.716550000000000000e+05
-2.032980000000000000e+05 -1.683810000000000000e+05
-2.160860000000000000e+05 -1.645960000000000000e+05
-2.285320000000000000e+05 -1.600620000000000000e+05
-2.429210000000000000e+05 -1.544340000000000000e+05
-2.545150000000000000e+05 -1.482960000000000000e+05
-2.690760000000000000e+05 -1.425000000000000000e+05
-2.815210000000000000e+05 -1.308390000000000000e+05
-2.972750000000000000e+05 -1.239500000000000000e+05
-3.112220000000000000e+05 -1.105490000000000000e+05
-3.278620000000000000e+05 -1.013430000000000000e+05
-3.439230000000000000e+05 -8.678200000000000000e+04
-3.605290000000000000e+05 -7.300600000000000000e+04
-3.757380000000000000e+05 -5.609300000000000000e+04
-3.894790000000000000e+05 -3.900900000000000000e+04
-4.055060000000000000e+05 -1.933400000000000000e+04
-4.183270000000000000e+05 3.410000000000000000e+02
-4.311830000000000000e+05 2.427900000000000000e+04
-4.437990000000000000e+05 4.681800000000000000e+04
-4.509600000000000000e+05 7.348300000000000000e+04
-4.581880000000000000e+05 1.012060000000000000e+05
-4.659290000000000000e+05 1.313830000000000000e+05
-4.649750000000000000e+05 1.586630000000000000e+05
-4.679070000000000000e+05 1.939210000000000000e+05
-4.634740000000000000e+05 2.250540000000000000e+05
-4.563140000000000000e+05 2.612660000000000000e+05
-4.454010000000000000e+05 2.965940000000000000e+05
-4.342170000000000000e+05 3.307610000000000000e+05
-4.166560000000000000e+05 3.666670000000000000e+05
-3.945600000000000000e+05 3.976630000000000000e+05
-3.662910000000000000e+05 4.315570000000000000e+05
-3.398650000000000000e+05 4.612580000000000000e+05
-3.056980000000000000e+05 4.932080000000000000e+05
-2.686320000000000000e+05 5.206240000000000000e+05
-2.279870000000000000e+05 5.443910000000000000e+05
-1.853960000000000000e+05 5.676130000000000000e+05
-1.394990000000000000e+05 5.872190000000000000e+05
-9.026000000000000000e+04 6.008250000000000000e+05
-3.911100000000000000e+04 6.114630000000000000e+05
1.214000000000000000e+04 6.180450000000000000e+05
6.485600000000000000e+04 6.200570000000000000e+05
1.175050000000000000e+05 6.178750000000000000e+05
1.724390000000000000e+05 6.109180000000000000e+05
2.265200000000000000e+05 5.987790000000000000e+05
2.801920000000000000e+05 5.829910000000000000e+05
3.301470000000000000e+05 5.603160000000000000e+05
3.822840000000000000e+05 5.354570000000000000e+05
4.294770000000000000e+05 5.065410000000000000e+05
4.726120000000000000e+05 4.728860000000000000e+05
5.153390000000000000e+05 4.354440000000000000e+05
5.523020000000000000e+05 3.949700000000000000e+05
5.865040000000000000e+05 3.547660000000000000e+05
6.132030000000000000e+05 3.079820000000000000e+05
6.388110000000000000e+05 2.621870000000000000e+05
6.576330000000000000e+05 2.133910000000000000e+05
6.732850000000000000e+05 1.644260000000000000e+05
6.803440000000000000e+05 1.171300000000000000e+05
6.854920000000000000e+05 7.038000000000000000e+04
6.855950000000000000e+05 2.015300000000000000e+04
6.776500000000000000e+05 -2.451700000000000000e+04
6.696020000000000000e+05 -7.160700000000000000e+04
6.533710000000000000e+05 -1.139250000000000000e+05
6.362870000000000000e+05 -1.549120000000000000e+05
6.148390000000000000e+05 -1.930000000000000000e+05
5.885140000000000000e+05 -2.288720000000000000e+05
5.610990000000000000e+05 -2.619830000000000000e+05
5.321490000000000000e+05 -2.927400000000000000e+05
5.008460000000000000e+05 -3.213490000000000000e+05
4.677020000000000000e+05 -3.460030000000000000e+05
4.336030000000000000e+05 -3.687470000000000000e+05
3.972190000000000000e+05 -3.872620000000000000e+05
3.595730000000000000e+05 -4.028450000000000000e+05
3.239750000000000000e+05 -4.157010000000000000e+05
2.843170000000000000e+05 -4.259650000000000000e+05
2.474570000000000000e+05 -4.347620000000000000e+05
2.095730000000000000e+05 -4.374220000000000000e+05
1.707670000000000000e+05 -4.423660000000000000e+05
1.341800000000000000e+05 -4.413780000000000000e+05
9.861400000000000000e+04 -4.384800000000000000e+05
6.008300000000000000e+04 -4.359560000000000000e+05
2.380100000000000000e+04 -4.277730000000000000e+05
-9.275000000000000000e+03 -4.202360000000000000e+05
-4.040800000000000000e+04 -4.104170000000000000e+05
-7.123300000000000000e+04 -3.989580000000000000e+05
-1.014450000000000000e+05 -3.846030000000000000e+05
-1.256900000000000000e+05 -3.689850000000000000e+05
-1.536850000000000000e+05 -3.512540000000000000e+05
-1.742120000000000000e+05 -3.363190000000000000e+05
-1.935120000000000000e+05 -3.156890000000000000e+05
-2.106640000000000000e+05 -2.969690000000000000e+05
-2.246790000000000000e+05 -2.775670000000000000e+05
-2.378760000000000000e+05 -2.564590000000000000e+05
-2.462640000000000000e+05 -2.390340000000000000e+05
-2.558790000000000000e+05 -2.193250000000000000e+05
-2.612330000000000000e+05 -1.999230000000000000e+05
-2.637900000000000000e+05 -1.833160000000000000e+05
-2.668260000000000000e+05 -1.665740000000000000e+05
-2.650520000000000000e+05 -1.506490000000000000e+05
-2.628360000000000000e+05 -1.337360000000000000e+05
-2.583690000000000000e+05 -1.204720000000000000e+05
-2.532880000000000000e+05 -1.073440000000000000e+05
-2.514120000000000000e+05 -9.772800000000000000e+04
-2.467750000000000000e+05 -8.862400000000000000e+04
-2.411820000000000000e+05 -7.764300000000000000e+04
-2.355900000000000000e+05 -7.184600000000000000e+04
-2.307480000000000000e+05 -6.431000000000000000e+04
-2.274410000000000000e+05 -5.834400000000000000e+04
-2.228380000000000000e+05 -5.309200000000000000e+04
-2.208600000000000000e+05 -4.975000000000000000e+04
-2.152680000000000000e+05 -4.651100000000000000e+04
-2.130850000000000000e+05 -4.320400000000000000e+04
-2.093340000000000000e+05 -4.040700000000000000e+04
-2.078680000000000000e+05 -3.928200000000000000e+04
-2.053100000000000000e+05 -3.703200000000000000e+04
-2.064020000000000000e+05 -3.682700000000000000e+04
-2.041860000000000000e+05 -3.621300000000000000e+04
-2.036060000000000000e+05 -3.420100000000000000e+04
-2.020020000000000000e+05 -3.038200000000000000e+04
-2.053790000000000000e+05 -2.929100000000000000e+04
-2.052420000000000000e+05 -2.710800000000000000e+04
-2.058560000000000000e+05 -2.274400000000000000e+04
-2.098450000000000000e+05 -2.001600000000000000e+04
-2.138010000000000000e+05 -1.640200000000000000e+04
-2.160860000000000000e+05 -1.213900000000000000e+04
-2.208250000000000000e+05 -9.650000000000000000e+03
-2.241670000000000000e+05 -3.751000000000000000e+03
-2.299300000000000000e+05 1.023000000000000000e+03
-2.349080000000000000e+05 7.468000000000000000e+03
-2.393080000000000000e+05 1.428800000000000000e+04
-2.441150000000000000e+05 2.069900000000000000e+04
-2.463660000000000000e+05 2.717700000000000000e+04
-2.521970000000000000e+05 3.570200000000000000e+04
-2.531170000000000000e+05 4.463600000000000000e+04
-2.585400000000000000e+05 5.527400000000000000e+04
-2.603460000000000000e+05 6.277600000000000000e+04
-2.605160000000000000e+05 7.426700000000000000e+04
-2.627340000000000000e+05 8.681600000000000000e+04
-2.595270000000000000e+05 9.592100000000000000e+04
-2.601410000000000000e+05 1.091500000000000000e+05
-2.603800000000000000e+05 1.224150000000000000e+05
-2.530490000000000000e+05 1.367370000000000000e+05
-2.524700000000000000e+05 1.492510000000000000e+05
-2.469450000000000000e+05 1.636750000000000000e+05
-2.434330000000000000e+05 1.774850000000000000e+05
-2.330340000000000000e+05 1.926930000000000000e+05
-2.225990000000000000e+05 2.061970000000000000e+05
-2.148580000000000000e+05 2.231440000000000000e+05
-2.017640000000000000e+05 2.356580000000000000e+05
-1.913640000000000000e+05 2.514120000000000000e+05
-1.735640000000000000e+05 2.648130000000000000e+05
-1.588670000000000000e+05 2.778730000000000000e+05
-1.409650000000000000e+05 2.917170000000000000e+05
-1.213250000000000000e+05 3.036520000000000000e+05
-1.006940000000000000e+05 3.149390000000000000e+05
-7.655300000000000000e+04 3.253040000000000000e+05
-5.432000000000000000e+04 3.343750000000000000e+05
-2.857500000000000000e+04 3.434790000000000000e+05
1.842000000000000000e+03 3.510150000000000000e+05
3.014300000000000000e+04 3.554130000000000000e+05
6.148000000000000000e+04 3.602900000000000000e+05
9.084000000000000000e+04 3.626420000000000000e+05
1.224490000000000000e+05 3.617570000000000000e+05
1.558660000000000000e+05 3.599500000000000000e+05
1.879530000000000000e+05 3.547320000000000000e+05
2.201090000000000000e+05 3.493110000000000000e+05
2.520590000000000000e+05 3.383990000000000000e+05
2.840110000000000000e+05 3.284760000000000000e+05
3.157570000000000000e+05 3.137450000000000000e+05
3.431730000000000000e+05 2.987080000000000000e+05
3.720550000000000000e+05 2.789990000000000000e+05
3.986170000000000000e+05 2.583350000000000000e+05
4.253510000000000000e+05 2.373640000000000000e+05
4.466620000000000000e+05 2.106290000000000000e+05
4.671560000000000000e+05 1.856350000000000000e+05
4.814770000000000000e+05 1.585950000000000000e+05
4.959360000000000000e+05 1.272920000000000000e+05
5.066090000000000000e+05 9.977400000000000000e+04
5.138040000000000000e+05 6.816400000000000000e+04
5.184420000000000000e+05 3.672500000000000000e+04
5.200780000000000000e+05 4.672000000000000000e+03
5.187480000000000000e+05 -2.792700000000000000e+04
5.131560000000000000e+05 -6.001500000000000000e+04
5.052450000000000000e+05 -9.554500000000000000e+04
4.963110000000000000e+05 -1.252110000000000000e+05
4.829440000000000000e+05 -1.564800000000000000e+05
4.651790000000000000e+05 -1.886350000000000000e+05
4.464930000000000000e+05 -2.159830000000000000e+05
4.247370000000000000e+05 -2.442850000000000000e+05
3.991290000000000000e+05 -2.709160000000000000e+05
3.706230000000000000e+05 -2.967640000000000000e+05
3.419790000000000000e+05 -3.190640000000000000e+05
3.094490000000000000e+05 -3.392850000000000000e+05
2.798510000000000000e+05 -3.584830000000000000e+05
2.464680000000000000e+05 -3.765210000000000000e+05
2.125730000000000000e+05 -3.893430000000000000e+05
1.798040000000000000e+05 -4.001870000000000000e+05
1.471720000000000000e+05 -4.043460000000000000e+05
1.122540000000000000e+05 -4.050280000000000000e+05
7.870000000000000000e+04 -4.038340000000000000e+05
4.828400000000000000e+04 -3.963660000000000000e+05
1.435500000000000000e+04 -3.913550000000000000e+05
-1.647100000000000000e+04 -3.793850000000000000e+05
-4.630600000000000000e+04 -3.669390000000000000e+05
-7.832600000000000000e+04 -3.540160000000000000e+05
-1.046500000000000000e+05 -3.399330000000000000e+05
-1.294390000000000000e+05 -3.228150000000000000e+05
-1.550830000000000000e+05 -3.047430000000000000e+05
-1.803490000000000000e+05 -2.887500000000000000e+05
-1.981830000000000000e+05 -2.658020000000000000e+05
-2.158460000000000000e+05 -2.453760000000000000e+05
-2.308500000000000000e+05 -2.242350000000000000e+05
-2.432290000000000000e+05 -2.007410000000000000e+05
-2.562200000000000000e+05 -1.798380000000000000e+05
-2.632450000000000000e+05 -1.609810000000000000e+05
-2.704050000000000000e+05 -1.414090000000000000e+05
-2.727920000000000000e+05 -1.182220000000000000e+05
-2.749060000000000000e+05 -9.766000000000000000e+04
-2.736450000000000000e+05 -8.003100000000000000e+04
-2.732360000000000000e+05 -6.090100000000000000e+04
-2.713600000000000000e+05 -4.579600000000000000e+04
-2.682910000000000000e+05 -3.140500000000000000e+04
-2.627670000000000000e+05 -1.960700000000000000e+04
-2.560500000000000000e+05 -6.070000000000000000e+03
-2.497070000000000000e+05 3.307000000000000000e+03
-2.429560000000000000e+05 1.125300000000000000e+04
-2.354880000000000000e+05 1.728800000000000000e+04
-2.273720000000000000e+05 2.407400000000000000e+04
-2.171420000000000000e+05 2.762000000000000000e+04
-2.082430000000000000e+05 2.813200000000000000e+04
-1.982520000000000000e+05 3.126900000000000000e+04
-1.887720000000000000e+05 3.072300000000000000e+04
-1.776220000000000000e+05 3.045000000000000000e+04
-1.691660000000000000e+05 3.143900000000000000e+04
-1.562420000000000000e+05 2.802900000000000000e+04
-1.478880000000000000e+05 2.758700000000000000e+04
-1.386460000000000000e+05 2.615400000000000000e+04
-1.265070000000000000e+05 2.588100000000000000e+04
-1.202670000000000000e+05 2.465400000000000000e+04
-1.116750000000000000e+05 2.431300000000000000e+04
-1.026380000000000000e+05 2.547200000000000000e+04
-9.561400000000000000e+04 2.680200000000000000e+04
-9.087300000000000000e+04 2.983700000000000000e+04
-8.521400000000000000e+04 3.021100000000000000e+04
-8.142800000000000000e+04 3.447400000000000000e+04
-7.842800000000000000e+04 3.553100000000000000e+04
-7.733700000000000000e+04 4.040800000000000000e+04
-7.702900000000000000e+04 4.552300000000000000e+04
-7.771100000000000000e+04 4.930700000000000000e+04
-7.668800000000000000e+04 5.462600000000000000e+04
-7.955300000000000000e+04 5.902600000000000000e+04
-8.241800000000000000e+04 6.417500000000000000e+04
-8.402000000000000000e+04 6.867500000000000000e+04
-8.804300000000000000e+04 7.570000000000000000e+04
-9.261300000000000000e+04 8.200800000000000000e+04
-9.735300000000000000e+04 9.244200000000000000e+04
-9.766000000000000000e+04 9.438600000000000000e+04
-9.687500000000000000e+04 1.001490000000000000e+05
-9.329400000000000000e+04 1.051610000000000000e+05
-9.373800000000000000e+04 1.093900000000000000e+05
-9.141900000000000000e+04 1.146070000000000000e+05
-9.022600000000000000e+04 1.213930000000000000e+05
-8.668000000000000000e+04 1.275300000000000000e+05
-8.200800000000000000e+04 1.327130000000000000e+05
-8.101900000000000000e+04 1.399770000000000000e+05
-7.430100000000000000e+04 1.484670000000000000e+05
-7.249500000000000000e+04 1.547420000000000000e+05
-6.645900000000000000e+04 1.612200000000000000e+05
-5.943400000000000000e+04 1.671530000000000000e+05
-5.244500000000000000e+04 1.748930000000000000e+05
-4.589700000000000000e+04 1.791570000000000000e+05
-3.723600000000000000e+04 1.865900000000000000e+05
-2.843900000000000000e+04 1.903070000000000000e+05
-1.844700000000000000e+04 1.950120000000000000e+05
-7.570000000000000000e+03 2.015600000000000000e+05
6.922000000000000000e+03 2.060260000000000000e+05
1.855000000000000000e+04 2.068790000000000000e+05
3.011000000000000000e+04 2.095390000000000000e+05
4.562500000000000000e+04 2.091630000000000000e+05
6.158200000000000000e+04 2.103220000000000000e+05
7.716600000000000000e+04 2.125730000000000000e+05
9.285200000000000000e+04 2.112780000000000000e+05
1.067640000000000000e+05 2.085500000000000000e+05
1.230980000000000000e+05 2.032640000000000000e+05
1.441360000000000000e+05 2.023090000000000000e+05
1.583910000000000000e+05 1.958310000000000000e+05
1.744510000000000000e+05 1.887040000000000000e+05
1.943300000000000000e+05 1.806230000000000000e+05
2.071180000000000000e+05 1.725750000000000000e+05
2.235530000000000000e+05 1.644600000000000000e+05
2.385910000000000000e+05 1.498310000000000000e+05
2.532540000000000000e+05 1.394990000000000000e+05
2.665170000000000000e+05 1.240870000000000000e+05
2.775320000000000000e+05 1.102090000000000000e+05
2.897390000000000000e+05 9.240800000000000000e+04
2.999010000000000000e+05 7.689400000000000000e+04
3.115630000000000000e+05 6.154900000000000000e+04
3.160640000000000000e+05 4.020300000000000000e+04
3.212130000000000000e+05 2.107300000000000000e+04
3.226110000000000000e+05 -1.125000000000000000e+03
3.269760000000000000e+05 -1.872000000000000000e+04
3.277260000000000000e+05 -4.040700000000000000e+04
3.236000000000000000e+05 -6.182100000000000000e+04
3.186560000000000000e+05 -8.258800000000000000e+04
3.133700000000000000e+05 -1.040020000000000000e+05
3.026280000000000000e+05 -1.238810000000000000e+05
2.929440000000000000e+05 -1.435910000000000000e+05
2.812150000000000000e+05 -1.631970000000000000e+05
2.663480000000000000e+05 -1.813380000000000000e+05
2.485820000000000000e+05 -1.970580000000000000e+05
2.308160000000000000e+05 -2.109710000000000000e+05
2.133570000000000000e+05 -2.267590000000000000e+05
1.924540000000000000e+05 -2.379090000000000000e+05
1.710410000000000000e+05 -2.485820000000000000e+05
1.486370000000000000e+05 -2.609600000000000000e+05
1.261660000000000000e+05 -2.679490000000000000e+05
1.012740000000000000e+05 -2.739170000000000000e+05
7.880200000000000000e+04 -2.807720000000000000e+05
5.394500000000000000e+04 -2.831590000000000000e+05
3.086000000000000000e+04 -2.829200000000000000e+05
6.854000000000000000e+03 -2.841130000000000000e+05
-1.336600000000000000e+04 -2.807040000000000000e+05
-3.519000000000000000e+04 -2.768500000000000000e+05
-5.663900000000000000e+04 -2.713260000000000000e+05
-7.822400000000000000e+04 -2.650520000000000000e+05
-9.885300000000000000e+04 -2.559810000000000000e+05
-1.197550000000000000e+05 -2.468770000000000000e+05
-1.352030000000000000e+05 -2.367150000000000000e+05
-1.520810000000000000e+05 -2.252250000000000000e+05
-1.664370000000000000e+05 -2.133580000000000000e+05
-1.814070000000000000e+05 -1.986610000000000000e+05
-1.967510000000000000e+05 -1.851580000000000000e+05
-2.041850000000000000e+05 -1.695750000000000000e+05
-2.163240000000000000e+05 -1.516380000000000000e+05
-2.256330000000000000e+05 -1.393960000000000000e+05
-2.308850000000000000e+05 -1.204370000000000000e+05
-2.366810000000000000e+05 -1.042740000000000000e+05
-2.398860000000000000e+05 -8.657800000000000000e+04
-2.405690000000000000e+05 -7.188000000000000000e+04
-2.424780000000000000e+05 -5.483200000000000000e+04
-2.420690000000000000e+05 -3.757700000000000000e+04
-2.399540000000000000e+05 -2.359600000000000000e+04
-2.362720000000000000e+05 -9.651000000000000000e+03
-2.316690000000000000e+05 4.467000000000000000e+03
-2.251900000000000000e+05 1.827700000000000000e+04
-2.185750000000000000e+05 3.116600000000000000e+04
-2.097090000000000000e+05 4.419200000000000000e+04
-2.013890000000000000e+05 5.343300000000000000e+04
-1.925220000000000000e+05 6.243500000000000000e+04
