-9.786000000000000000e+03 1.773000000000000000e+03
-9.752000000000000000e+03 1.296000000000000000e+03
-7.808000000000000000e+03 6.470000000000000000e+02
-6.103000000000000000e+03 1.841000000000000000e+03
-5.694000000000000000e+03 1.057000000000000000e+03
-8.013000000000000000e+03 7.840000000000000000e+02
-7.229000000000000000e+03 3.137000000000000000e+03
-5.184000000000000000e+03 1.740000000000000000e+03
-6.683000000000000000e+03 2.489000000000000000e+03
-6.308000000000000000e+03 3.035000000000000000e+03
-8.286000000000000000e+03 5.790000000000000000e+02
-6.785000000000000000e+03 2.217000000000000000e+03
-6.410000000000000000e+03 2.933000000000000000e+03
-7.127000000000000000e+03 1.807000000000000000e+03
-7.876000000000000000e+03 3.069000000000000000e+03
-7.570000000000000000e+03 1.876000000000000000e+03
-6.955000000000000000e+03 3.274000000000000000e+03
-9.308000000000000000e+03 2.456000000000000000e+03
-8.354000000000000000e+03 2.864000000000000000e+03
-8.559000000000000000e+03 4.979000000000000000e+03
-9.616000000000000000e+03 4.706000000000000000e+03
-9.274000000000000000e+03 4.570000000000000000e+03
-9.138000000000000000e+03 5.797000000000000000e+03
-8.320000000000000000e+03 5.695000000000000000e+03
-9.957000000000000000e+03 5.797000000000000000e+03
-9.820000000000000000e+03 4.604000000000000000e+03
-1.046800000000000000e+04 6.036000000000000000e+03
-9.923000000000000000e+03 7.331000000000000000e+03
-9.581000000000000000e+03 7.741000000000000000e+03
-1.128700000000000000e+04 7.605000000000000000e+03
-1.111600000000000000e+04 9.002000000000000000e+03
-1.019600000000000000e+04 9.480000000000000000e+03
-9.616000000000000000e+03 9.957000000000000000e+03
-1.084300000000000000e+04 1.135500000000000000e+04
-9.547000000000000000e+03 1.101300000000000000e+04
-9.240000000000000000e+03 1.118500000000000000e+04
-9.104000000000000000e+03 1.305900000000000000e+04
-8.354000000000000000e+03 1.183300000000000000e+04
-8.013000000000000000e+03 1.592400000000000000e+04
-6.069000000000000000e+03 1.558300000000000000e+04
-6.648000000000000000e+03 1.541300000000000000e+04
-8.627000000000000000e+03 1.636800000000000000e+04
-4.740000000000000000e+03 1.797000000000000000e+04
-5.728000000000000000e+03 1.800400000000000000e+04
-4.228000000000000000e+03 1.950500000000000000e+04
-3.308000000000000000e+03 1.895900000000000000e+04
-1.194000000000000000e+03 1.967500000000000000e+04
-2.390000000000000000e+02 1.895900000000000000e+04
4.770000000000000000e+02 1.739000000000000000e+04
2.216000000000000000e+03 1.895900000000000000e+04
2.318000000000000000e+03 1.851600000000000000e+04
2.489000000000000000e+03 2.059500000000000000e+04
5.592000000000000000e+03 1.895900000000000000e+04
3.921000000000000000e+03 1.793700000000000000e+04
6.921000000000000000e+03 1.878900000000000000e+04
6.104000000000000000e+03 1.909600000000000000e+04
7.263000000000000000e+03 1.694700000000000000e+04
1.002400000000000000e+04 1.739000000000000000e+04
8.558000000000000000e+03 1.490100000000000000e+04
1.285500000000000000e+04 1.619700000000000000e+04
1.094500000000000000e+04 1.384400000000000000e+04
1.346900000000000000e+04 1.224100000000000000e+04
1.370800000000000000e+04 1.135500000000000000e+04
1.660600000000000000e+04 1.152500000000000000e+04
1.619700000000000000e+04 1.142400000000000000e+04
1.715200000000000000e+04 9.718000000000000000e+03
1.578800000000000000e+04 7.570000000000000000e+03
1.735600000000000000e+04 7.467000000000000000e+03
1.974300000000000000e+04 5.387000000000000000e+03
1.803800000000000000e+04 5.489000000000000000e+03
1.906100000000000000e+04 2.728000000000000000e+03
1.906100000000000000e+04 1.296000000000000000e+03
1.865200000000000000e+04 -9.210000000000000000e+02
2.063000000000000000e+04 -1.023000000000000000e+03
2.107400000000000000e+04 -3.750000000000000000e+02
1.841400000000000000e+04 -5.490000000000000000e+03
1.831100000000000000e+04 -4.331000000000000000e+03
1.865200000000000000e+04 -4.808000000000000000e+03
1.964100000000000000e+04 -5.729000000000000000e+03
1.722000000000000000e+04 -6.889000000000000000e+03
1.520800000000000000e+04 -8.525000000000000000e+03
1.408300000000000000e+04 -9.855000000000000000e+03
1.435500000000000000e+04 -1.159400000000000000e+04
1.374200000000000000e+04 -1.213900000000000000e+04
1.374200000000000000e+04 -1.261700000000000000e+04
1.398000000000000000e+04 -1.254800000000000000e+04
1.166200000000000000e+04 -1.469700000000000000e+04
9.991000000000000000e+03 -1.462900000000000000e+04
9.718000000000000000e+03 -1.548100000000000000e+04
7.467000000000000000e+03 -1.466300000000000000e+04
5.319000000000000000e+03 -1.578800000000000000e+04
4.091000000000000000e+03 -1.479900000000000000e+04
2.694000000000000000e+03 -1.527600000000000000e+04
2.728000000000000000e+03 -1.483300000000000000e+04
4.430000000000000000e+02 -1.534500000000000000e+04
2.040000000000000000e+02 -1.411700000000000000e+04
-1.058000000000000000e+03 -1.462900000000000000e+04
-8.530000000000000000e+02 -1.377700000000000000e+04
-2.421000000000000000e+03 -1.340200000000000000e+04
-3.751000000000000000e+03 -1.357200000000000000e+04
-3.547000000000000000e+03 -1.384500000000000000e+04
-5.114000000000000000e+03 -1.364000000000000000e+04
-5.763000000000000000e+03 -1.125200000000000000e+04
-4.058000000000000000e+03 -1.149200000000000000e+04
-7.127000000000000000e+03 -1.053700000000000000e+04
-5.695000000000000000e+03 -1.077600000000000000e+04
-8.217000000000000000e+03 -1.063900000000000000e+04
-6.513000000000000000e+03 -8.355000000000000000e+03
-7.229000000000000000e+03 -9.241000000000000000e+03
-8.695000000000000000e+03 -9.650000000000000000e+03
-6.513000000000000000e+03 -7.775000000000000000e+03
-7.808000000000000000e+03 -7.605000000000000000e+03
-8.729000000000000000e+03 -6.309000000000000000e+03
-8.422000000000000000e+03 -4.228000000000000000e+03
-5.831000000000000000e+03 -3.888000000000000000e+03
-7.740000000000000000e+03 -2.795000000000000000e+03
-8.422000000000000000e+03 -2.830000000000000000e+03
-6.922000000000000000e+03 -5.183000000000000000e+03
-7.058000000000000000e+03 -9.890000000000000000e+02
-6.957000000000000000e+03 -2.421000000000000000e+03
-6.240000000000000000e+03 -2.694000000000000000e+03
-4.944000000000000000e+03 -1.909000000000000000e+03
-7.092000000000000000e+03 -1.057000000000000000e+03
-5.898000000000000000e+03 -6.480000000000000000e+02
-5.115000000000000000e+03 -9.210000000000000000e+02
-6.990000000000000000e+03 3.443000000000000000e+03
-4.910000000000000000e+03 -3.410000000000000000e+02
-5.183000000000000000e+03 1.398000000000000000e+03
-3.818000000000000000e+03 1.466000000000000000e+03
-4.228000000000000000e+03 -6.820000000000000000e+02
-5.149000000000000000e+03 4.430000000000000000e+02
-4.466000000000000000e+03 2.216000000000000000e+03
-3.546000000000000000e+03 2.216000000000000000e+03
-4.603000000000000000e+03 1.330000000000000000e+03
-5.046000000000000000e+03 2.523000000000000000e+03
-1.773000000000000000e+03 3.853000000000000000e+03
-2.829000000000000000e+03 3.478000000000000000e+03
-2.523000000000000000e+03 3.034000000000000000e+03
-3.103000000000000000e+03 3.069000000000000000e+03
-2.387000000000000000e+03 5.012000000000000000e+03
-4.535000000000000000e+03 3.955000000000000000e+03
-7.024000000000000000e+03 3.375000000000000000e+03
-5.660000000000000000e+03 3.716000000000000000e+03
-6.001000000000000000e+03 3.921000000000000000e+03
-5.558000000000000000e+03 5.626000000000000000e+03
-4.160000000000000000e+03 3.921000000000000000e+03
-7.501000000000000000e+03 3.785000000000000000e+03
-5.046000000000000000e+03 6.581000000000000000e+03
-6.819000000000000000e+03 4.944000000000000000e+03
-5.899000000000000000e+03 5.489000000000000000e+03
-6.069000000000000000e+03 5.762000000000000000e+03
-6.990000000000000000e+03 5.183000000000000000e+03
-6.035000000000000000e+03 6.512000000000000000e+03
-7.229000000000000000e+03 6.342000000000000000e+03
-8.695000000000000000e+03 8.968000000000000000e+03
-7.911000000000000000e+03 9.582000000000000000e+03
-8.320000000000000000e+03 9.138000000000000000e+03
-8.729000000000000000e+03 6.957000000000000000e+03
-8.252000000000000000e+03 7.774000000000000000e+03
-8.320000000000000000e+03 9.650000000000000000e+03
-7.604000000000000000e+03 9.036000000000000000e+03
-6.888000000000000000e+03 1.005900000000000000e+04
-7.467000000000000000e+03 1.254800000000000000e+04
-5.422000000000000000e+03 1.046800000000000000e+04
-6.956000000000000000e+03 1.241200000000000000e+04
-5.046000000000000000e+03 1.360600000000000000e+04
-6.580000000000000000e+03 1.319600000000000000e+04
-4.978000000000000000e+03 1.404900000000000000e+04
-4.739000000000000000e+03 1.312800000000000000e+04
-3.614000000000000000e+03 1.500400000000000000e+04
-3.068000000000000000e+03 1.612900000000000000e+04
-2.079000000000000000e+03 1.309400000000000000e+04
-2.455000000000000000e+03 1.411700000000000000e+04
6.800000000000000000e+01 1.568600000000000000e+04
1.125000000000000000e+03 1.660700000000000000e+04
3.683000000000000000e+03 1.466300000000000000e+04
2.114000000000000000e+03 1.514000000000000000e+04
3.171000000000000000e+03 1.698100000000000000e+04
4.229000000000000000e+03 1.466200000000000000e+04
5.149000000000000000e+03 1.391300000000000000e+04
5.729000000000000000e+03 1.558300000000000000e+04
6.581000000000000000e+03 1.486700000000000000e+04
8.047000000000000000e+03 1.323000000000000000e+04
9.957000000000000000e+03 1.483200000000000000e+04
1.159400000000000000e+04 1.360500000000000000e+04
1.104800000000000000e+04 1.292300000000000000e+04
1.176400000000000000e+04 1.060500000000000000e+04
1.289000000000000000e+04 9.820000000000000000e+03
1.435600000000000000e+04 6.786000000000000000e+03
1.210500000000000000e+04 7.570000000000000000e+03
1.459400000000000000e+04 4.637000000000000000e+03
1.602600000000000000e+04 3.989000000000000000e+03
1.664000000000000000e+04 1.944000000000000000e+03
1.650400000000000000e+04 1.500000000000000000e+03
1.473000000000000000e+04 2.387000000000000000e+03
1.599300000000000000e+04 -5.110000000000000000e+02
1.694700000000000000e+04 -1.603000000000000000e+03
1.885700000000000000e+04 -2.933000000000000000e+03
1.425400000000000000e+04 -3.138000000000000000e+03
1.456000000000000000e+04 -4.399000000000000000e+03
1.653800000000000000e+04 -5.831000000000000000e+03
1.629900000000000000e+04 -7.604000000000000000e+03
1.575400000000000000e+04 -8.286000000000000000e+03
1.537900000000000000e+04 -9.276000000000000000e+03
1.408300000000000000e+04 -9.923000000000000000e+03
1.268600000000000000e+04 -1.224200000000000000e+04
1.288900000000000000e+04 -1.060400000000000000e+04
1.207100000000000000e+04 -1.142300000000000000e+04
1.067300000000000000e+04 -1.466300000000000000e+04
1.016200000000000000e+04 -1.524200000000000000e+04
8.968000000000000000e+03 -1.500400000000000000e+04
8.559000000000000000e+03 -1.606100000000000000e+04
5.934000000000000000e+03 -1.623100000000000000e+04
7.707000000000000000e+03 -1.609400000000000000e+04
5.354000000000000000e+03 -1.803900000000000000e+04
4.536000000000000000e+03 -1.786800000000000000e+04
1.057000000000000000e+03 -1.933400000000000000e+04
2.182000000000000000e+03 -1.769700000000000000e+04
-1.705000000000000000e+03 -1.824300000000000000e+04
-6.140000000000000000e+02 -1.756100000000000000e+04
-2.387000000000000000e+03 -1.868600000000000000e+04
-2.967000000000000000e+03 -1.780000000000000000e+04
-5.831000000000000000e+03 -1.892500000000000000e+04
-5.762000000000000000e+03 -1.875400000000000000e+04
-5.319000000000000000e+03 -1.766400000000000000e+04
-6.956000000000000000e+03 -1.578800000000000000e+04
-5.933000000000000000e+03 -1.824300000000000000e+04
-8.081000000000000000e+03 -1.514000000000000000e+04
-9.616000000000000000e+03 -1.585600000000000000e+04
-8.422000000000000000e+03 -1.445900000000000000e+04
-8.285000000000000000e+03 -1.333300000000000000e+04
-9.956000000000000000e+03 -1.186700000000000000e+04
-9.479000000000000000e+03 -1.196900000000000000e+04
-9.753000000000000000e+03 -1.173000000000000000e+04
-1.002500000000000000e+04 -1.040000000000000000e+04
-1.040000000000000000e+04 -1.023000000000000000e+04
-8.627000000000000000e+03 -8.901000000000000000e+03
-8.422000000000000000e+03 -6.513000000000000000e+03
-8.081000000000000000e+03 -5.694000000000000000e+03
-8.695000000000000000e+03 -5.627000000000000000e+03
-8.456000000000000000e+03 -4.671000000000000000e+03
-7.877000000000000000e+03 -2.216000000000000000e+03
-6.206000000000000000e+03 -1.705000000000000000e+03
-7.433000000000000000e+03 -1.910000000000000000e+03
-6.342000000000000000e+03 -2.040000000000000000e+02
-7.093000000000000000e+03 -1.710000000000000000e+02
-5.217000000000000000e+03 3.750000000000000000e+02
-5.012000000000000000e+03 1.909000000000000000e+03
-6.377000000000000000e+03 1.500000000000000000e+03
-5.387000000000000000e+03 2.558000000000000000e+03
-2.932000000000000000e+03 3.546000000000000000e+03
-3.580000000000000000e+03 5.149000000000000000e+03
-4.467000000000000000e+03 5.627000000000000000e+03
-2.727000000000000000e+03 6.546000000000000000e+03
-3.717000000000000000e+03 4.159000000000000000e+03
-1.364000000000000000e+03 5.046000000000000000e+03
-2.933000000000000000e+03 5.899000000000000000e+03
-4.433000000000000000e+03 9.274000000000000000e+03
-4.842000000000000000e+03 7.604000000000000000e+03
-3.512000000000000000e+03 5.626000000000000000e+03
-3.955000000000000000e+03 8.251000000000000000e+03
-5.489000000000000000e+03 7.024000000000000000e+03
-4.637000000000000000e+03 5.865000000000000000e+03
-6.274000000000000000e+03 8.627000000000000000e+03
-4.910000000000000000e+03 8.013000000000000000e+03
-6.513000000000000000e+03 7.399000000000000000e+03
-8.047000000000000000e+03 7.740000000000000000e+03
-6.921000000000000000e+03 7.228000000000000000e+03
-5.217000000000000000e+03 8.866000000000000000e+03
-8.286000000000000000e+03 6.035000000000000000e+03
-8.149000000000000000e+03 1.026300000000000000e+04
-7.025000000000000000e+03 8.422000000000000000e+03
-8.150000000000000000e+03 7.604000000000000000e+03
-8.832000000000000000e+03 7.603000000000000000e+03
-1.050200000000000000e+04 7.809000000000000000e+03
-9.377000000000000000e+03 7.263000000000000000e+03
-1.009300000000000000e+04 7.195000000000000000e+03
-9.991000000000000000e+03 1.135500000000000000e+04
-1.036600000000000000e+04 9.274000000000000000e+03
-1.016200000000000000e+04 8.763000000000000000e+03
-9.207000000000000000e+03 8.661000000000000000e+03
-1.026400000000000000e+04 7.263000000000000000e+03
-1.022900000000000000e+04 8.558000000000000000e+03
-8.865000000000000000e+03 7.775000000000000000e+03
-7.740000000000000000e+03 9.309000000000000000e+03
-9.753000000000000000e+03 8.251000000000000000e+03
-7.706000000000000000e+03 1.108200000000000000e+04
-7.535000000000000000e+03 9.479000000000000000e+03
-6.070000000000000000e+03 1.162700000000000000e+04
-7.228000000000000000e+03 9.991000000000000000e+03
-5.148000000000000000e+03 1.139000000000000000e+04
-4.910000000000000000e+03 8.763000000000000000e+03
-3.717000000000000000e+03 9.445000000000000000e+03
-2.933000000000000000e+03 1.312800000000000000e+04
-2.353000000000000000e+03 1.159400000000000000e+04
-1.807000000000000000e+03 1.234400000000000000e+04
-2.319000000000000000e+03 1.248000000000000000e+04
-1.360000000000000000e+02 1.019500000000000000e+04
3.400000000000000000e+02 1.234400000000000000e+04
1.466000000000000000e+03 1.370800000000000000e+04
2.728000000000000000e+03 1.067300000000000000e+04
2.591000000000000000e+03 1.115000000000000000e+04
3.854000000000000000e+03 1.033200000000000000e+04
5.865000000000000000e+03 1.173000000000000000e+04
7.161000000000000000e+03 9.855000000000000000e+03
7.979000000000000000e+03 8.866000000000000000e+03
8.696000000000000000e+03 1.009300000000000000e+04
9.684000000000000000e+03 9.479000000000000000e+03
1.190000000000000000e+04 7.877000000000000000e+03
1.193500000000000000e+04 8.047000000000000000e+03
1.200300000000000000e+04 6.854000000000000000e+03
1.268600000000000000e+04 7.434000000000000000e+03
1.387900000000000000e+04 5.831000000000000000e+03
1.326500000000000000e+04 5.148000000000000000e+03
1.312800000000000000e+04 4.706000000000000000e+03
1.609400000000000000e+04 7.160000000000000000e+02
1.681000000000000000e+04 1.126000000000000000e+03
1.684500000000000000e+04 1.710000000000000000e+02
1.650400000000000000e+04 -5.110000000000000000e+02
1.578800000000000000e+04 -1.944000000000000000e+03
1.647100000000000000e+04 -1.944000000000000000e+03
1.698200000000000000e+04 -5.490000000000000000e+03
1.589000000000000000e+04 -5.933000000000000000e+03
1.667500000000000000e+04 -5.150000000000000000e+03
1.524200000000000000e+04 -7.672000000000000000e+03
1.469700000000000000e+04 -8.627000000000000000e+03
1.517400000000000000e+04 -1.012800000000000000e+04
1.469600000000000000e+04 -1.145800000000000000e+04
1.312800000000000000e+04 -1.026400000000000000e+04
1.401500000000000000e+04 -1.326400000000000000e+04
1.138900000000000000e+04 -1.248100000000000000e+04
1.224200000000000000e+04 -1.350400000000000000e+04
9.821000000000000000e+03 -1.398100000000000000e+04
1.050300000000000000e+04 -1.554900000000000000e+04
7.468000000000000000e+03 -1.531100000000000000e+04
7.570000000000000000e+03 -1.575400000000000000e+04
5.729000000000000000e+03 -1.432100000000000000e+04
5.968000000000000000e+03 -1.691400000000000000e+04
5.217000000000000000e+03 -1.541300000000000000e+04
2.251000000000000000e+03 -1.606100000000000000e+04
1.363000000000000000e+03 -1.694800000000000000e+04
5.450000000000000000e+02 -1.623200000000000000e+04
6.820000000000000000e+02 -1.629900000000000000e+04
-2.080000000000000000e+03 -1.524200000000000000e+04
-1.193000000000000000e+03 -1.667400000000000000e+04
-2.693000000000000000e+03 -1.595900000000000000e+04
-4.227000000000000000e+03 -1.534500000000000000e+04
-4.637000000000000000e+03 -1.575400000000000000e+04
-3.546000000000000000e+03 -1.452600000000000000e+04
-7.195000000000000000e+03 -1.319700000000000000e+04
-5.865000000000000000e+03 -1.169700000000000000e+04
-5.967000000000000000e+03 -1.415100000000000000e+04
-6.547000000000000000e+03 -1.254800000000000000e+04
-8.354000000000000000e+03 -1.118500000000000000e+04
-7.365000000000000000e+03 -9.684000000000000000e+03
-8.286000000000000000e+03 -8.013000000000000000e+03
-8.286000000000000000e+03 -9.753000000000000000e+03
-8.491000000000000000e+03 -8.457000000000000000e+03
-1.012700000000000000e+04 -7.945000000000000000e+03
-8.593000000000000000e+03 -7.570000000000000000e+03
-7.945000000000000000e+03 -6.241000000000000000e+03
-1.118400000000000000e+04 -5.184000000000000000e+03
-7.502000000000000000e+03 -3.477000000000000000e+03
-8.660000000000000000e+03 -3.478000000000000000e+03
-8.593000000000000000e+03 -1.704000000000000000e+03
-7.570000000000000000e+03 -3.034000000000000000e+03
-7.467000000000000000e+03 6.800000000000000000e+01
-9.138000000000000000e+03 7.500000000000000000e+02
-5.933000000000000000e+03 -1.364000000000000000e+03
-6.615000000000000000e+03 2.216000000000000000e+03
-7.672000000000000000e+03 2.421000000000000000e+03
-6.888000000000000000e+03 2.147000000000000000e+03
-7.092000000000000000e+03 2.762000000000000000e+03
-7.195000000000000000e+03 -7.160000000000000000e+02
-5.524000000000000000e+03 2.319000000000000000e+03
-6.206000000000000000e+03 3.615000000000000000e+03
-4.364000000000000000e+03 2.421000000000000000e+03
-6.376000000000000000e+03 4.740000000000000000e+03
-3.717000000000000000e+03 5.695000000000000000e+03
-5.455000000000000000e+03 4.672000000000000000e+03
-5.013000000000000000e+03 4.638000000000000000e+03
-4.024000000000000000e+03 5.933000000000000000e+03
-3.648000000000000000e+03 3.887000000000000000e+03
-3.444000000000000000e+03 4.058000000000000000e+03
-2.761000000000000000e+03 2.148000000000000000e+03
-4.774000000000000000e+03 4.023000000000000000e+03
-5.217000000000000000e+03 4.228000000000000000e+03
-2.966000000000000000e+03 4.638000000000000000e+03
-3.068000000000000000e+03 3.785000000000000000e+03
-3.068000000000000000e+03 3.341000000000000000e+03
-5.523000000000000000e+03 4.842000000000000000e+03
-4.876000000000000000e+03 4.705000000000000000e+03
-2.523000000000000000e+03 2.830000000000000000e+03
-5.012000000000000000e+03 4.092000000000000000e+03
-3.887000000000000000e+03 2.421000000000000000e+03
-2.727000000000000000e+03 2.421000000000000000e+03
-4.228000000000000000e+03 4.160000000000000000e+03
-2.455000000000000000e+03 3.614000000000000000e+03
-5.830000000000000000e+03 5.456000000000000000e+03
-5.966000000000000000e+03 2.967000000000000000e+03
-3.239000000000000000e+03 9.200000000000000000e+02
-3.716000000000000000e+03 4.262000000000000000e+03
-3.546000000000000000e+03 5.490000000000000000e+03
-3.648000000000000000e+03 5.115000000000000000e+03
-4.773000000000000000e+03 4.365000000000000000e+03
-2.420000000000000000e+03 5.047000000000000000e+03
-4.433000000000000000e+03 4.160000000000000000e+03
-2.045000000000000000e+03 3.239000000000000000e+03
-3.102000000000000000e+03 4.978000000000000000e+03
-1.295000000000000000e+03 5.593000000000000000e+03
-5.800000000000000000e+02 5.967000000000000000e+03
-2.050000000000000000e+02 4.774000000000000000e+03
1.466000000000000000e+03 7.400000000000000000e+03
1.227000000000000000e+03 5.217000000000000000e+03
5.800000000000000000e+02 5.899000000000000000e+03
2.114000000000000000e+03 5.694000000000000000e+03
2.660000000000000000e+03 6.069000000000000000e+03
4.808000000000000000e+03 4.978000000000000000e+03
4.672000000000000000e+03 7.808000000000000000e+03
5.832000000000000000e+03 7.741000000000000000e+03
6.172000000000000000e+03 6.172000000000000000e+03
8.218000000000000000e+03 5.899000000000000000e+03
6.547000000000000000e+03 7.194000000000000000e+03
1.087800000000000000e+04 5.490000000000000000e+03
1.087800000000000000e+04 7.434000000000000000e+03
1.196800000000000000e+04 7.501000000000000000e+03
1.159400000000000000e+04 6.172000000000000000e+03
1.578800000000000000e+04 7.843000000000000000e+03
1.759600000000000000e+04 6.036000000000000000e+03
1.749300000000000000e+04 7.979000000000000000e+03
1.739100000000000000e+04 7.194000000000000000e+03
1.838000000000000000e+04 4.433000000000000000e+03
1.936900000000000000e+04 5.592000000000000000e+03
2.059600000000000000e+04 6.172000000000000000e+03
2.175600000000000000e+04 7.433000000000000000e+03
2.185800000000000000e+04 8.319000000000000000e+03
2.233500000000000000e+04 6.035000000000000000e+03
2.134700000000000000e+04 6.547000000000000000e+03
2.206200000000000000e+04 5.831000000000000000e+03
2.329000000000000000e+04 6.207000000000000000e+03
2.253900000000000000e+04 5.252000000000000000e+03
2.192600000000000000e+04 4.092000000000000000e+03
2.311900000000000000e+04 4.263000000000000000e+03
2.175500000000000000e+04 5.762000000000000000e+03
2.011900000000000000e+04 4.945000000000000000e+03
2.001600000000000000e+04 3.682000000000000000e+03
1.752700000000000000e+04 3.512000000000000000e+03
1.810700000000000000e+04 2.183000000000000000e+03
1.691300000000000000e+04 2.932000000000000000e+03
1.531100000000000000e+04 -2.380000000000000000e+02
1.115100000000000000e+04 1.876000000000000000e+03
1.220800000000000000e+04 3.034000000000000000e+03
1.057100000000000000e+04 -0.000000000000000000e+00
9.275000000000000000e+03 -1.330000000000000000e+03
4.876000000000000000e+03 -1.944000000000000000e+03
7.263000000000000000e+03 -2.933000000000000000e+03
3.648000000000000000e+03 -3.819000000000000000e+03
1.432000000000000000e+03 -4.262000000000000000e+03
1.705000000000000000e+03 -4.433000000000000000e+03
9.210000000000000000e+02 -4.433000000000000000e+03
-1.159000000000000000e+03 -6.513000000000000000e+03
-3.000000000000000000e+03 -7.059000000000000000e+03
-2.421000000000000000e+03 -8.627000000000000000e+03
-5.729000000000000000e+03 -7.570000000000000000e+03
-5.285000000000000000e+03 -7.126000000000000000e+03
-9.207000000000000000e+03 -9.070000000000000000e+03
-8.661000000000000000e+03 -9.922000000000000000e+03
-9.241000000000000000e+03 -8.491000000000000000e+03
-1.220700000000000000e+04 -1.230900000000000000e+04
-1.176400000000000000e+04 -7.604000000000000000e+03
-1.333300000000000000e+04 -8.968000000000000000e+03
-1.483300000000000000e+04 -7.672000000000000000e+03
-1.278800000000000000e+04 -8.320000000000000000e+03
-1.391200000000000000e+04 -6.513000000000000000e+03
-1.425400000000000000e+04 -8.524000000000000000e+03
-1.541300000000000000e+04 -7.263000000000000000e+03
-1.449300000000000000e+04 -6.308000000000000000e+03
-1.616300000000000000e+04 -4.398000000000000000e+03
-1.473100000000000000e+04 -6.956000000000000000e+03
-1.381000000000000000e+04 -4.876000000000000000e+03
-1.415200000000000000e+04 -3.819000000000000000e+03
-1.353800000000000000e+04 -4.194000000000000000e+03
-1.517400000000000000e+04 -3.308000000000000000e+03
-1.445800000000000000e+04 -3.444000000000000000e+03
-1.449300000000000000e+04 -2.012000000000000000e+03
-1.254900000000000000e+04 -1.909000000000000000e+03
-1.398100000000000000e+04 -1.910000000000000000e+03
-1.220800000000000000e+04 1.568000000000000000e+03
-1.166200000000000000e+04 1.700000000000000000e+02
-1.439000000000000000e+04 3.500000000000000000e+01
-1.115000000000000000e+04 6.470000000000000000e+02
-1.026400000000000000e+04 2.387000000000000000e+03
-8.730000000000000000e+03 2.149000000000000000e+03
-8.525000000000000000e+03 4.057000000000000000e+03
-9.139000000000000000e+03 2.251000000000000000e+03
-5.763000000000000000e+03 3.648000000000000000e+03
-6.718000000000000000e+03 1.637000000000000000e+03
-7.570000000000000000e+03 4.058000000000000000e+03
-5.694000000000000000e+03 4.330000000000000000e+03
-7.195000000000000000e+03 3.819000000000000000e+03
-4.228000000000000000e+03 3.069000000000000000e+03
-3.853000000000000000e+03 5.013000000000000000e+03
-3.547000000000000000e+03 6.138000000000000000e+03
-5.252000000000000000e+03 5.626000000000000000e+03
-4.467000000000000000e+03 7.434000000000000000e+03
-2.285000000000000000e+03 5.763000000000000000e+03
-1.910000000000000000e+03 7.127000000000000000e+03
-4.090000000000000000e+02 6.342000000000000000e+03
-2.625000000000000000e+03 6.922000000000000000e+03
-7.500000000000000000e+02 6.103000000000000000e+03
-1.159000000000000000e+03 7.229000000000000000e+03
-4.780000000000000000e+02 7.502000000000000000e+03
-1.330000000000000000e+03 6.240000000000000000e+03
-1.432000000000000000e+03 6.547000000000000000e+03
2.730000000000000000e+02 7.877000000000000000e+03
-3.750000000000000000e+02 7.365000000000000000e+03
-1.295000000000000000e+03 5.558000000000000000e+03
-1.603000000000000000e+03 8.899000000000000000e+03
-1.020000000000000000e+02 8.013000000000000000e+03
-4.430000000000000000e+02 8.150000000000000000e+03
-8.860000000000000000e+02 6.240000000000000000e+03
1.399000000000000000e+03 6.922000000000000000e+03
-1.261000000000000000e+03 8.490000000000000000e+03
-2.380000000000000000e+02 6.137000000000000000e+03
-1.125000000000000000e+03 8.217000000000000000e+03
-4.770000000000000000e+02 6.240000000000000000e+03
-1.364000000000000000e+03 8.013000000000000000e+03
-1.808000000000000000e+03 6.888000000000000000e+03
-5.800000000000000000e+02 7.365000000000000000e+03
5.450000000000000000e+02 7.911000000000000000e+03
-1.296000000000000000e+03 7.740000000000000000e+03
-1.466000000000000000e+03 7.263000000000000000e+03
-2.050000000000000000e+02 8.525000000000000000e+03
2.284000000000000000e+03 8.695000000000000000e+03
1.432000000000000000e+03 9.718000000000000000e+03
4.430000000000000000e+02 9.275000000000000000e+03
8.860000000000000000e+02 9.513000000000000000e+03
3.307000000000000000e+03 9.445000000000000000e+03
1.432000000000000000e+03 9.343000000000000000e+03
3.887000000000000000e+03 9.411000000000000000e+03
2.864000000000000000e+03 1.046800000000000000e+04
4.433000000000000000e+03 1.070700000000000000e+04
3.581000000000000000e+03 1.005900000000000000e+04
4.058000000000000000e+03 9.855000000000000000e+03
5.831000000000000000e+03 1.053700000000000000e+04
6.615000000000000000e+03 1.046800000000000000e+04
7.161000000000000000e+03 7.979000000000000000e+03
8.423000000000000000e+03 1.060500000000000000e+04
8.116000000000000000e+03 1.009300000000000000e+04
7.706000000000000000e+03 9.548000000000000000e+03
1.046800000000000000e+04 9.207000000000000000e+03
1.033200000000000000e+04 8.013000000000000000e+03
9.650000000000000000e+03 7.638000000000000000e+03
1.098000000000000000e+04 7.740000000000000000e+03
1.108200000000000000e+04 7.025000000000000000e+03
1.145700000000000000e+04 6.479000000000000000e+03
1.302600000000000000e+04 5.490000000000000000e+03
1.237800000000000000e+04 5.320000000000000000e+03
1.067400000000000000e+04 4.979000000000000000e+03
1.282100000000000000e+04 3.444000000000000000e+03
1.193400000000000000e+04 3.683000000000000000e+03
1.295800000000000000e+04 2.762000000000000000e+03
1.275300000000000000e+04 2.250000000000000000e+03
1.179800000000000000e+04 1.057000000000000000e+03
1.213900000000000000e+04 1.398000000000000000e+03
1.091200000000000000e+04 5.120000000000000000e+02
1.203700000000000000e+04 -2.284000000000000000e+03
1.115100000000000000e+04 -8.520000000000000000e+02
1.104800000000000000e+04 -3.171000000000000000e+03
1.046800000000000000e+04 -2.523000000000000000e+03
9.105000000000000000e+03 -3.444000000000000000e+03
8.286000000000000000e+03 -3.751000000000000000e+03
8.423000000000000000e+03 -5.047000000000000000e+03
6.172000000000000000e+03 -6.582000000000000000e+03
6.684000000000000000e+03 -7.741000000000000000e+03
4.569000000000000000e+03 -7.467000000000000000e+03
4.705000000000000000e+03 -7.399000000000000000e+03
4.535000000000000000e+03 -8.048000000000000000e+03
3.478000000000000000e+03 -9.242000000000000000e+03
3.375000000000000000e+03 -8.081000000000000000e+03
1.091000000000000000e+03 -8.594000000000000000e+03
1.023000000000000000e+03 -9.786000000000000000e+03
-4.780000000000000000e+02 -9.173000000000000000e+03
-7.160000000000000000e+02 -1.019600000000000000e+04
-2.318000000000000000e+03 -1.203700000000000000e+04
-3.750000000000000000e+02 -1.176400000000000000e+04
-3.069000000000000000e+03 -1.220800000000000000e+04
-2.421000000000000000e+03 -1.183300000000000000e+04
-2.864000000000000000e+03 -1.292400000000000000e+04
-3.205000000000000000e+03 -1.251400000000000000e+04
-3.921000000000000000e+03 -1.183200000000000000e+04
-3.648000000000000000e+03 -1.166200000000000000e+04
-8.047000000000000000e+03 -1.220700000000000000e+04
-5.831000000000000000e+03 -1.196900000000000000e+04
-6.956000000000000000e+03 -1.183300000000000000e+04
-9.275000000000000000e+03 -1.091200000000000000e+04
-5.967000000000000000e+03 -1.224200000000000000e+04
-6.990000000000000000e+03 -1.050200000000000000e+04
-5.899000000000000000e+03 -1.186600000000000000e+04
-8.116000000000000000e+03 -1.213900000000000000e+04
-8.082000000000000000e+03 -1.050200000000000000e+04
-9.139000000000000000e+03 -1.023000000000000000e+04
-7.263000000000000000e+03 -1.033200000000000000e+04
-8.457000000000000000e+03 -8.900000000000000000e+03
-8.559000000000000000e+03 -8.900000000000000000e+03
-7.161000000000000000e+03 -7.706000000000000000e+03
-8.048000000000000000e+03 -7.331000000000000000e+03
-7.297000000000000000e+03 -7.774000000000000000e+03
-7.604000000000000000e+03 -6.001000000000000000e+03
-6.479000000000000000e+03 -4.978000000000000000e+03
-7.400000000000000000e+03 -4.978000000000000000e+03
-6.070000000000000000e+03 -3.785000000000000000e+03
-5.797000000000000000e+03 -4.536000000000000000e+03
-5.661000000000000000e+03 -4.536000000000000000e+03
-5.558000000000000000e+03 -3.444000000000000000e+03
-6.036000000000000000e+03 -2.761000000000000000e+03
-4.775000000000000000e+03 -1.433000000000000000e+03
-4.467000000000000000e+03 -1.159000000000000000e+03
-4.297000000000000000e+03 -3.400000000000000000e+01
-3.990000000000000000e+03 8.180000000000000000e+02
-4.910000000000000000e+03 -1.705000000000000000e+03
-3.546000000000000000e+03 -1.091000000000000000e+03
-3.955000000000000000e+03 -3.750000000000000000e+02
-1.637000000000000000e+03 -3.400000000000000000e+01
-2.557000000000000000e+03 8.180000000000000000e+02
-2.319000000000000000e+03 2.524000000000000000e+03
-1.978000000000000000e+03 2.762000000000000000e+03
-1.466000000000000000e+03 1.125000000000000000e+03
-5.120000000000000000e+02 1.876000000000000000e+03
-1.603000000000000000e+03 3.035000000000000000e+03
-1.431000000000000000e+03 2.933000000000000000e+03
-2.251000000000000000e+03 1.978000000000000000e+03
-1.091000000000000000e+03 1.568000000000000000e+03
-1.227000000000000000e+03 2.183000000000000000e+03
-1.261000000000000000e+03 2.865000000000000000e+03
-1.370000000000000000e+02 2.421000000000000000e+03
2.390000000000000000e+02 2.012000000000000000e+03
-3.274000000000000000e+03 2.558000000000000000e+03
-1.637000000000000000e+03 1.944000000000000000e+03
-9.550000000000000000e+02 2.455000000000000000e+03
-3.034000000000000000e+03 3.614000000000000000e+03
-7.160000000000000000e+02 -6.830000000000000000e+02
-1.364000000000000000e+03 2.183000000000000000e+03
-1.296000000000000000e+03 3.410000000000000000e+03
-3.478000000000000000e+03 3.819000000000000000e+03
-2.489000000000000000e+03 1.944000000000000000e+03
-8.870000000000000000e+02 2.421000000000000000e+03
-3.400000000000000000e+01 3.853000000000000000e+03
-2.319000000000000000e+03 2.455000000000000000e+03
-2.182000000000000000e+03 4.092000000000000000e+03
-9.550000000000000000e+02 3.137000000000000000e+03
-2.421000000000000000e+03 2.967000000000000000e+03
-2.455000000000000000e+03 4.536000000000000000e+03
-2.386000000000000000e+03 4.502000000000000000e+03
-2.353000000000000000e+03 5.627000000000000000e+03
-2.284000000000000000e+03 3.854000000000000000e+03
8.530000000000000000e+02 4.092000000000000000e+03
-2.523000000000000000e+03 1.876000000000000000e+03
-1.360000000000000000e+02 4.330000000000000000e+03
-1.705000000000000000e+03 3.955000000000000000e+03
-4.770000000000000000e+02 4.398000000000000000e+03
-1.705000000000000000e+03 6.274000000000000000e+03
-1.568000000000000000e+03 6.308000000000000000e+03
-1.637000000000000000e+03 4.740000000000000000e+03
-1.057000000000000000e+03 5.455000000000000000e+03
3.070000000000000000e+02 5.865000000000000000e+03
-1.228000000000000000e+03 4.842000000000000000e+03
6.130000000000000000e+02 5.898000000000000000e+03
4.100000000000000000e+02 5.796000000000000000e+03
8.530000000000000000e+02 5.899000000000000000e+03
3.375000000000000000e+03 6.377000000000000000e+03
1.193000000000000000e+03 5.933000000000000000e+03
9.210000000000000000e+02 5.422000000000000000e+03
4.570000000000000000e+03 5.660000000000000000e+03
3.103000000000000000e+03 7.297000000000000000e+03
3.478000000000000000e+03 5.251000000000000000e+03
3.205000000000000000e+03 4.706000000000000000e+03
3.785000000000000000e+03 7.229000000000000000e+03
7.092000000000000000e+03 6.615000000000000000e+03
4.945000000000000000e+03 6.957000000000000000e+03
6.138000000000000000e+03 6.718000000000000000e+03
6.445000000000000000e+03 4.808000000000000000e+03
7.604000000000000000e+03 6.240000000000000000e+03
7.332000000000000000e+03 3.819000000000000000e+03
6.957000000000000000e+03 5.558000000000000000e+03
5.694000000000000000e+03 5.524000000000000000e+03
6.513000000000000000e+03 4.671000000000000000e+03
6.752000000000000000e+03 4.876000000000000000e+03
7.570000000000000000e+03 2.285000000000000000e+03
7.570000000000000000e+03 3.478000000000000000e+03
6.957000000000000000e+03 3.035000000000000000e+03
5.694000000000000000e+03 1.705000000000000000e+03
8.355000000000000000e+03 1.262000000000000000e+03
8.934000000000000000e+03 2.728000000000000000e+03
7.025000000000000000e+03 1.262000000000000000e+03
5.865000000000000000e+03 7.500000000000000000e+02
6.172000000000000000e+03 2.390000000000000000e+02
5.251000000000000000e+03 -8.180000000000000000e+02
5.593000000000000000e+03 4.090000000000000000e+02
4.944000000000000000e+03 -3.478000000000000000e+03
4.535000000000000000e+03 -2.967000000000000000e+03
4.536000000000000000e+03 -3.751000000000000000e+03
4.161000000000000000e+03 -3.000000000000000000e+03
2.728000000000000000e+03 -7.605000000000000000e+03
1.875000000000000000e+03 -4.024000000000000000e+03
9.200000000000000000e+02 -4.740000000000000000e+03
-2.182000000000000000e+03 -4.808000000000000000e+03
3.410000000000000000e+02 -7.468000000000000000e+03
-1.023000000000000000e+03 -5.525000000000000000e+03
-1.023000000000000000e+03 -7.332000000000000000e+03
-5.081000000000000000e+03 -6.172000000000000000e+03
-3.682000000000000000e+03 -7.092000000000000000e+03
-5.525000000000000000e+03 -9.275000000000000000e+03
-5.353000000000000000e+03 -9.003000000000000000e+03
-7.024000000000000000e+03 -7.502000000000000000e+03
-6.888000000000000000e+03 -8.013000000000000000e+03
-7.092000000000000000e+03 -7.366000000000000000e+03
-5.831000000000000000e+03 -9.105000000000000000e+03
-7.672000000000000000e+03 -1.074200000000000000e+04
-8.115000000000000000e+03 -8.729000000000000000e+03
-7.876000000000000000e+03 -1.121800000000000000e+04
-8.048000000000000000e+03 -8.900000000000000000e+03
-1.036600000000000000e+04 -8.149000000000000000e+03
-1.087700000000000000e+04 -1.033100000000000000e+04
-1.019500000000000000e+04 -1.019500000000000000e+04
-7.774000000000000000e+03 -9.173000000000000000e+03
-1.111600000000000000e+04 -8.900000000000000000e+03
-1.155900000000000000e+04 -1.220800000000000000e+04
-1.046800000000000000e+04 -9.855000000000000000e+03
-1.040000000000000000e+04 -7.980000000000000000e+03
-1.077500000000000000e+04 -9.309000000000000000e+03
-1.074100000000000000e+04 -9.343000000000000000e+03
-1.009300000000000000e+04 -8.627000000000000000e+03
-1.101400000000000000e+04 -6.410000000000000000e+03
-6.922000000000000000e+03 -6.649000000000000000e+03
-9.342000000000000000e+03 -7.672000000000000000e+03
-8.115000000000000000e+03 -6.343000000000000000e+03
-1.094600000000000000e+04 -5.490000000000000000e+03
-9.616000000000000000e+03 -6.172000000000000000e+03
-9.751000000000000000e+03 -5.695000000000000000e+03
-8.968000000000000000e+03 -5.115000000000000000e+03
-6.888000000000000000e+03 -6.138000000000000000e+03
-7.809000000000000000e+03 -4.297000000000000000e+03
-7.774000000000000000e+03 -3.990000000000000000e+03
-5.217000000000000000e+03 -4.603000000000000000e+03
-6.069000000000000000e+03 -2.489000000000000000e+03
-6.445000000000000000e+03 -4.058000000000000000e+03
-4.330000000000000000e+03 -2.830000000000000000e+03
-4.603000000000000000e+03 -1.808000000000000000e+03
-3.786000000000000000e+03 -3.001000000000000000e+03
-3.819000000000000000e+03 -2.114000000000000000e+03
-3.956000000000000000e+03 -6.820000000000000000e+02
-4.365000000000000000e+03 -3.751000000000000000e+03
-3.785000000000000000e+03 -1.024000000000000000e+03
-5.422000000000000000e+03 -2.899000000000000000e+03
-2.933000000000000000e+03 -1.262000000000000000e+03
-3.512000000000000000e+03 -7.840000000000000000e+02
-2.319000000000000000e+03 -3.750000000000000000e+02
-1.569000000000000000e+03 -4.440000000000000000e+02
-1.092000000000000000e+03 -1.057000000000000000e+03
-1.398000000000000000e+03 -6.480000000000000000e+02
-1.636000000000000000e+03 -1.125000000000000000e+03
-1.944000000000000000e+03 -8.530000000000000000e+02
-6.820000000000000000e+02 -1.125000000000000000e+03
-2.148000000000000000e+03 -3.069000000000000000e+03
4.090000000000000000e+02 -1.091000000000000000e+03
-1.501000000000000000e+03 -1.978000000000000000e+03
3.410000000000000000e+02 -6.480000000000000000e+02
-2.353000000000000000e+03 -8.870000000000000000e+02
-2.050000000000000000e+02 1.432000000000000000e+03
-1.978000000000000000e+03 -3.300000000000000000e+01
-1.773000000000000000e+03 -4.090000000000000000e+02
-1.193000000000000000e+03 -2.080000000000000000e+03
-4.440000000000000000e+02 -1.398000000000000000e+03
-1.023000000000000000e+03 -5.110000000000000000e+02
-3.410000000000000000e+02 -1.125000000000000000e+03
7.500000000000000000e+02 -1.603000000000000000e+03
1.023000000000000000e+03 -8.180000000000000000e+02
-7.160000000000000000e+02 -4.770000000000000000e+02
9.880000000000000000e+02 -4.430000000000000000e+02
-6.800000000000000000e+01 -1.467000000000000000e+03
2.040000000000000000e+02 -1.710000000000000000e+02
1.432000000000000000e+03 -6.470000000000000000e+02
-2.046000000000000000e+03 4.090000000000000000e+02
6.140000000000000000e+02 -2.040000000000000000e+02
-1.194000000000000000e+03 -4.090000000000000000e+02
1.671000000000000000e+03 6.800000000000000000e+01
5.110000000000000000e+02 1.637000000000000000e+03
1.671000000000000000e+03 -1.091000000000000000e+03
1.160000000000000000e+03 -8.870000000000000000e+02
2.114000000000000000e+03 8.870000000000000000e+02
3.990000000000000000e+03 -7.160000000000000000e+02
3.751000000000000000e+03 4.770000000000000000e+02
2.796000000000000000e+03 1.432000000000000000e+03
3.956000000000000000e+03 8.860000000000000000e+02
4.569000000000000000e+03 -2.730000000000000000e+02
4.058000000000000000e+03 1.910000000000000000e+03
4.876000000000000000e+03 1.603000000000000000e+03
5.831000000000000000e+03 6.800000000000000000e+01
7.672000000000000000e+03 -1.602000000000000000e+03
5.865000000000000000e+03 6.830000000000000000e+02
5.865000000000000000e+03 4.770000000000000000e+02
6.616000000000000000e+03 7.840000000000000000e+02
8.048000000000000000e+03 1.020000000000000000e+02
9.480000000000000000e+03 1.432000000000000000e+03
8.422000000000000000e+03 8.180000000000000000e+02
9.786000000000000000e+03 -1.710000000000000000e+02
9.548000000000000000e+03 2.694000000000000000e+03
8.218000000000000000e+03 -5.450000000000000000e+02
1.033200000000000000e+04 4.090000000000000000e+02
1.190100000000000000e+04 3.410000000000000000e+02
1.176400000000000000e+04 1.671000000000000000e+03
1.118400000000000000e+04 1.500000000000000000e+03
1.302600000000000000e+04 4.090000000000000000e+02
1.329800000000000000e+04 1.534000000000000000e+03
1.234400000000000000e+04 6.800000000000000000e+01
1.271900000000000000e+04 1.944000000000000000e+03
1.261600000000000000e+04 8.530000000000000000e+02
1.183200000000000000e+04 7.850000000000000000e+02
1.391200000000000000e+04 1.091000000000000000e+03
1.439000000000000000e+04 1.841000000000000000e+03
1.271900000000000000e+04 2.080000000000000000e+03
1.490200000000000000e+04 9.550000000000000000e+02
1.326500000000000000e+04 1.330000000000000000e+03
1.343500000000000000e+04 2.933000000000000000e+03
1.292300000000000000e+04 3.376000000000000000e+03
1.231000000000000000e+04 2.558000000000000000e+03
1.166100000000000000e+04 3.376000000000000000e+03
1.220800000000000000e+04 4.638000000000000000e+03
1.043400000000000000e+04 3.035000000000000000e+03
1.060500000000000000e+04 4.740000000000000000e+03
1.063900000000000000e+04 5.047000000000000000e+03
9.991000000000000000e+03 5.967000000000000000e+03
5.660000000000000000e+03 6.069000000000000000e+03
5.252000000000000000e+03 4.774000000000000000e+03
5.047000000000000000e+03 5.490000000000000000e+03
3.035000000000000000e+03 5.627000000000000000e+03
3.070000000000000000e+02 7.093000000000000000e+03
8.860000000000000000e+02 6.548000000000000000e+03
-3.580000000000000000e+03 7.161000000000000000e+03
-3.307000000000000000e+03 6.718000000000000000e+03
-5.592000000000000000e+03 6.308000000000000000e+03
-7.024000000000000000e+03 5.695000000000000000e+03
-9.888000000000000000e+03 7.263000000000000000e+03
-1.040000000000000000e+04 6.581000000000000000e+03
-1.097900000000000000e+04 5.422000000000000000e+03
-1.282100000000000000e+04 5.763000000000000000e+03
-1.715200000000000000e+04 4.399000000000000000e+03
-1.790200000000000000e+04 4.978000000000000000e+03
-2.008400000000000000e+04 3.137000000000000000e+03
-1.998200000000000000e+04 3.103000000000000000e+03
-2.141400000000000000e+04 3.376000000000000000e+03
-2.226700000000000000e+04 1.126000000000000000e+03
-2.335700000000000000e+04 1.057000000000000000e+03
-2.577800000000000000e+04 -5.120000000000000000e+02
-2.683600000000000000e+04 -8.520000000000000000e+02
-2.605200000000000000e+04 -2.489000000000000000e+03
-2.666600000000000000e+04 -1.671000000000000000e+03
-2.656300000000000000e+04 -3.683000000000000000e+03
-2.806300000000000000e+04 -4.672000000000000000e+03
-2.806300000000000000e+04 -7.366000000000000000e+03
-2.697200000000000000e+04 -6.854000000000000000e+03
-2.571100000000000000e+04 -5.695000000000000000e+03
-2.635800000000000000e+04 -8.116000000000000000e+03
-2.700700000000000000e+04 -1.077500000000000000e+04
-2.479000000000000000e+04 -9.820000000000000000e+03
-2.560800000000000000e+04 -1.053600000000000000e+04
-2.315400000000000000e+04 -1.162700000000000000e+04
-2.383500000000000000e+04 -1.404800000000000000e+04
-2.144900000000000000e+04 -1.190100000000000000e+04
-2.049300000000000000e+04 -1.503800000000000000e+04
-1.936800000000000000e+04 -1.490000000000000000e+04
-1.544600000000000000e+04 -1.500400000000000000e+04
-1.612800000000000000e+04 -1.670800000000000000e+04
-1.558300000000000000e+04 -1.541300000000000000e+04
-1.469700000000000000e+04 -1.786800000000000000e+04
-1.084400000000000000e+04 -1.670800000000000000e+04
-1.057100000000000000e+04 -1.711800000000000000e+04
-8.865000000000000000e+03 -1.708300000000000000e+04
-7.535000000000000000e+03 -1.810600000000000000e+04
-8.082000000000000000e+03 -1.882200000000000000e+04
-2.592000000000000000e+03 -1.718600000000000000e+04
-1.398000000000000000e+03 -1.691300000000000000e+04
-2.558000000000000000e+03 -1.698100000000000000e+04
6.810000000000000000e+02 -1.548100000000000000e+04
2.285000000000000000e+03 -1.640200000000000000e+04
3.921000000000000000e+03 -1.616300000000000000e+04
5.217000000000000000e+03 -1.589000000000000000e+04
5.183000000000000000e+03 -1.357100000000000000e+04
5.934000000000000000e+03 -1.381000000000000000e+04
6.581000000000000000e+03 -1.169700000000000000e+04
7.877000000000000000e+03 -1.067300000000000000e+04
7.741000000000000000e+03 -1.036600000000000000e+04
6.922000000000000000e+03 -1.046800000000000000e+04
8.388000000000000000e+03 -1.043400000000000000e+04
8.763000000000000000e+03 -9.309000000000000000e+03
8.559000000000000000e+03 -9.069000000000000000e+03
7.570000000000000000e+03 -6.649000000000000000e+03
9.685000000000000000e+03 -8.149000000000000000e+03
1.060500000000000000e+04 -7.638000000000000000e+03
8.866000000000000000e+03 -7.262000000000000000e+03
1.006000000000000000e+04 -6.342000000000000000e+03
1.125200000000000000e+04 -5.762000000000000000e+03
9.446000000000000000e+03 -6.479000000000000000e+03
1.019500000000000000e+04 -5.319000000000000000e+03
9.958000000000000000e+03 -5.490000000000000000e+03
1.084300000000000000e+04 -4.911000000000000000e+03
1.029800000000000000e+04 -4.365000000000000000e+03
1.186700000000000000e+04 -3.341000000000000000e+03
1.261600000000000000e+04 -4.843000000000000000e+03
1.111700000000000000e+04 -4.910000000000000000e+03
1.340100000000000000e+04 -2.660000000000000000e+03
1.176400000000000000e+04 -2.421000000000000000e+03
1.367400000000000000e+04 -1.875000000000000000e+03
1.459400000000000000e+04 -2.762000000000000000e+03
1.531100000000000000e+04 -1.433000000000000000e+03
1.548100000000000000e+04 1.370000000000000000e+02
1.647000000000000000e+04 -1.000000000000000000e+00
1.674300000000000000e+04 -2.390000000000000000e+02
1.718600000000000000e+04 -6.800000000000000000e+01
1.766400000000000000e+04 1.092000000000000000e+03
2.052800000000000000e+04 1.568000000000000000e+03
2.240300000000000000e+04 3.785000000000000000e+03
2.005000000000000000e+04 1.978000000000000000e+03
2.274500000000000000e+04 4.842000000000000000e+03
2.202800000000000000e+04 5.490000000000000000e+03
2.370000000000000000e+04 5.865000000000000000e+03
2.465400000000000000e+04 7.469000000000000000e+03
2.537100000000000000e+04 8.662000000000000000e+03
2.745000000000000000e+04 1.128800000000000000e+04
2.588100000000000000e+04 1.053700000000000000e+04
2.748300000000000000e+04 1.374200000000000000e+04
2.741500000000000000e+04 1.541300000000000000e+04
2.779000000000000000e+04 1.612900000000000000e+04
2.680200000000000000e+04 1.930000000000000000e+04
2.502900000000000000e+04 1.885700000000000000e+04
2.925700000000000000e+04 2.066400000000000000e+04
2.700600000000000000e+04 2.298300000000000000e+04
2.629000000000000000e+04 2.383600000000000000e+04
2.492600000000000000e+04 2.550600000000000000e+04
2.329000000000000000e+04 2.768900000000000000e+04
2.240400000000000000e+04 3.161000000000000000e+04
1.882300000000000000e+04 3.307500000000000000e+04
1.865200000000000000e+04 3.154100000000000000e+04
1.814100000000000000e+04 3.369000000000000000e+04
1.483300000000000000e+04 3.488300000000000000e+04
1.067300000000000000e+04 3.767900000000000000e+04
1.118400000000000000e+04 3.774700000000000000e+04
7.298000000000000000e+03 3.822600000000000000e+04
4.501000000000000000e+03 3.955500000000000000e+04
2.831000000000000000e+03 3.972500000000000000e+04
-1.671000000000000000e+03 4.006700000000000000e+04
-2.932000000000000000e+03 4.016800000000000000e+04
-6.887000000000000000e+03 4.044100000000000000e+04
-1.097900000000000000e+04 3.768000000000000000e+04
-1.336600000000000000e+04 3.945200000000000000e+04
-1.766400000000000000e+04 3.839500000000000000e+04
-1.950400000000000000e+04 3.764500000000000000e+04
-2.383600000000000000e+04 3.757800000000000000e+04
-2.895000000000000000e+04 3.553100000000000000e+04
-3.126900000000000000e+04 3.662300000000000000e+04
-3.444000000000000000e+04 3.430300000000000000e+04
-3.757700000000000000e+04 3.106400000000000000e+04
-4.313500000000000000e+04 2.837000000000000000e+04
-4.531800000000000000e+04 2.932600000000000000e+04
-4.882900000000000000e+04 2.431300000000000000e+04
-5.002300000000000000e+04 2.185800000000000000e+04
-5.350100000000000000e+04 2.093700000000000000e+04
-5.663800000000000000e+04 1.657200000000000000e+04
-6.021900000000000000e+04 1.299200000000000000e+04
-6.315200000000000000e+04 7.127000000000000000e+03
-6.516300000000000000e+04 3.785000000000000000e+03
-6.703800000000000000e+04 1.466000000000000000e+03
-6.768700000000000000e+04 -3.546000000000000000e+03
-6.918700000000000000e+04 -1.057100000000000000e+04
-7.000500000000000000e+04 -1.319600000000000000e+04
-6.918600000000000000e+04 -1.841300000000000000e+04
-6.830000000000000000e+04 -2.189200000000000000e+04
-6.663000000000000000e+04 -2.690400000000000000e+04
-6.666300000000000000e+04 -3.092800000000000000e+04
-6.468600000000000000e+04 -3.635000000000000000e+04
-6.192400000000000000e+04 -4.153200000000000000e+04
-5.701300000000000000e+04 -4.313500000000000000e+04
-5.459200000000000000e+04 -4.541900000000000000e+04
-5.070500000000000000e+04 -5.155800000000000000e+04
-4.715900000000000000e+04 -5.415000000000000000e+04
-4.013400000000000000e+04 -5.500300000000000000e+04
-3.764500000000000000e+04 -5.854800000000000000e+04
-3.392800000000000000e+04 -5.919600000000000000e+04
-2.881400000000000000e+04 -5.950200000000000000e+04
-2.315300000000000000e+04 -6.107100000000000000e+04
-1.807300000000000000e+04 -6.236600000000000000e+04
-1.486700000000000000e+04 -6.226500000000000000e+04
-9.274000000000000000e+03 -6.158200000000000000e+04
-3.750000000000000000e+03 -6.059400000000000000e+04
-1.057000000000000000e+03 -6.137800000000000000e+04
5.934000000000000000e+03 -5.933200000000000000e+04
9.752000000000000000e+03 -5.663800000000000000e+04
1.350300000000000000e+04 -5.674100000000000000e+04
1.711800000000000000e+04 -5.333100000000000000e+04
