1.478190000000000000e+05 -9.248340000000000000e+05
-5.591900000000000000e+05 -8.411890000000000000e+05
-8.752870000000000000e+05 -5.654640000000000000e+05
-1.015162000000000000e+06 -2.748040000000000000e+05
-1.058571000000000000e+06 -1.091000000000000000e+03
-1.030541000000000000e+06 2.693480000000000000e+05
-9.414740000000000000e+05 5.102580000000000000e+05
-7.948150000000000000e+05 7.287980000000000000e+05
-5.981660000000000000e+05 9.058070000000000000e+05
-3.466160000000000000e+05 1.032962000000000000e+06
-3.266700000000000000e+04 1.077461000000000000e+06
3.121090000000000000e+05 9.818470000000000000e+05
5.718060000000000000e+05 6.862090000000000000e+05
5.788990000000000000e+05 2.915810000000000000e+05
3.556870000000000000e+05 3.737200000000000000e+04
1.127300000000000000e+05 1.040100000000000000e+04
-3.300800000000000000e+04 1.050590000000000000e+05
-8.248500000000000000e+04 2.275770000000000000e+05
-6.553900000000000000e+04 3.386380000000000000e+05
-7.502000000000000000e+03 4.244640000000000000e+05
7.443800000000000000e+04 4.871380000000000000e+05
1.735300000000000000e+05 5.234880000000000000e+05
2.803620000000000000e+05 5.399240000000000000e+05
3.959230000000000000e+05 5.325240000000000000e+05
5.131900000000000000e+05 4.983570000000000000e+05
6.259890000000000000e+05 4.423320000000000000e+05
7.333670000000000000e+05 3.539820000000000000e+05
8.312320000000000000e+05 2.335100000000000000e+05
9.037260000000000000e+05 8.211100000000000000e+04
9.415080000000000000e+05 -9.755800000000000000e+04
9.296410000000000000e+05 -3.000720000000000000e+05
8.590910000000000000e+05 -5.051430000000000000e+05
7.272300000000000000e+05 -7.023030000000000000e+05
5.387990000000000000e+05 -8.486230000000000000e+05
3.227470000000000000e+05 -9.334270000000000000e+05
1.044790000000000000e+05 -9.453610000000000000e+05
-9.036300000000000000e+04 -8.954410000000000000e+05
-2.411830000000000000e+05 -8.024860000000000000e+05
-3.597790000000000000e+05 -6.881870000000000000e+05
-4.282160000000000000e+05 -5.619180000000000000e+05
-4.615640000000000000e+05 -4.394340000000000000e+05
-4.628260000000000000e+05 -3.284760000000000000e+05
-4.421630000000000000e+05 -2.275430000000000000e+05
-4.047220000000000000e+05 -1.450230000000000000e+05
-3.517310000000000000e+05 -7.812100000000000000e+04
-2.881710000000000000e+05 -3.167800000000000000e+04
-2.095720000000000000e+05 -9.412000000000000000e+03
-1.270880000000000000e+05 -2.465400000000000000e+04
-5.128500000000000000e+04 -8.265600000000000000e+04
-6.036000000000000000e+03 -1.999570000000000000e+05
-3.993000000000000000e+04 -3.633600000000000000e+05
-1.961030000000000000e+05 -5.237610000000000000e+05
-4.501070000000000000e+05 -5.695570000000000000e+05
-6.909150000000000000e+05 -4.552560000000000000e+05
-8.196050000000000000e+05 -2.514460000000000000e+05
-8.513170000000000000e+05 -4.364700000000000000e+04
-8.204230000000000000e+05 1.349990000000000000e+05
-7.581230000000000000e+05 2.800210000000000000e+05
-6.833110000000000000e+05 3.949690000000000000e+05
-6.017800000000000000e+05 4.935830000000000000e+05
-5.122690000000000000e+05 5.699310000000000000e+05
-4.218390000000000000e+05 6.374470000000000000e+05
-3.255100000000000000e+05 6.936090000000000000e+05
-2.267250000000000000e+05 7.390280000000000000e+05
-1.233360000000000000e+05 7.699560000000000000e+05
-2.069800000000000000e+04 7.920180000000000000e+05
9.046500000000000000e+04 8.012930000000000000e+05
2.040820000000000000e+05 7.963140000000000000e+05
3.185190000000000000e+05 7.742190000000000000e+05
4.277380000000000000e+05 7.358910000000000000e+05
5.370940000000000000e+05 6.756390000000000000e+05
6.371060000000000000e+05 5.905610000000000000e+05
7.263430000000000000e+05 4.774540000000000000e+05
7.911310000000000000e+05 3.434450000000000000e+05
8.255710000000000000e+05 1.833160000000000000e+05
8.108750000000000000e+05 1.029800000000000000e+04
7.426420000000000000e+05 -1.637090000000000000e+05
6.063830000000000000e+05 -3.018790000000000000e+05
4.261360000000000000e+05 -3.651330000000000000e+05
2.641990000000000000e+05 -3.174280000000000000e+05
1.931370000000000000e+05 -1.916030000000000000e+05
2.422740000000000000e+05 -8.947600000000000000e+04
3.344420000000000000e+05 -6.567500000000000000e+04
4.117460000000000000e+05 -1.106850000000000000e+05
4.553240000000000000e+05 -1.976380000000000000e+05
4.522210000000000000e+05 -2.919220000000000000e+05
4.236460000000000000e+05 -3.875350000000000000e+05
3.829660000000000000e+05 -4.843420000000000000e+05
3.011280000000000000e+05 -5.463690000000000000e+05
2.196650000000000000e+05 -6.053940000000000000e+05
1.325420000000000000e+05 -6.502690000000000000e+05
3.849800000000000000e+04 -6.835490000000000000e+05
-6.039000000000000000e+04 -7.026110000000000000e+05
-1.626190000000000000e+05 -7.075210000000000000e+05
-2.680190000000000000e+05 -6.962340000000000000e+05
-3.721230000000000000e+05 -6.704210000000000000e+05
-4.710780000000000000e+05 -6.260920000000000000e+05
-5.645780000000000000e+05 -5.620880000000000000e+05
-6.438910000000000000e+05 -4.790570000000000000e+05
-7.091580000000000000e+05 -3.775780000000000000e+05
-7.531450000000000000e+05 -2.562540000000000000e+05
-7.697170000000000000e+05 -1.265410000000000000e+05
-7.565550000000000000e+05 1.391200000000000000e+04
-7.134200000000000000e+05 1.459440000000000000e+05
-6.400040000000000000e+05 2.639610000000000000e+05
-5.480400000000000000e+05 3.617220000000000000e+05
-4.394690000000000000e+05 4.300230000000000000e+05
-3.267370000000000000e+05 4.704980000000000000e+05
-2.115500000000000000e+05 4.798750000000000000e+05
-1.105830000000000000e+05 4.585980000000000000e+05
-2.352900000000000000e+04 4.087790000000000000e+05
2.567600000000000000e+04 3.320900000000000000e+05
3.594100000000000000e+04 2.497750000000000000e+05
-1.323100000000000000e+04 1.904090000000000000e+05
-6.874300000000000000e+04 1.940910000000000000e+05
-9.401100000000000000e+04 2.362380000000000000e+05
-8.050800000000000000e+04 2.872850000000000000e+05
-4.381700000000000000e+04 3.274530000000000000e+05
6.683000000000000000e+03 3.454570000000000000e+05
5.585400000000000000e+04 3.504020000000000000e+05
1.021610000000000000e+05 3.448090000000000000e+05
1.445450000000000000e+05 3.331810000000000000e+05
1.831790000000000000e+05 3.152450000000000000e+05
2.144150000000000000e+05 2.969010000000000000e+05
2.438080000000000000e+05 2.734740000000000000e+05
2.706780000000000000e+05 2.504240000000000000e+05
2.980930000000000000e+05 2.229730000000000000e+05
3.218260000000000000e+05 1.930340000000000000e+05
3.429340000000000000e+05 1.620050000000000000e+05
3.633590000000000000e+05 1.277340000000000000e+05
3.818760000000000000e+05 8.620200000000000000e+04
3.997770000000000000e+05 4.351000000000000000e+04
4.111320000000000000e+05 -1.125300000000000000e+04
4.180540000000000000e+05 -6.806100000000000000e+04
4.157700000000000000e+05 -1.385440000000000000e+05
3.998450000000000000e+05 -2.155060000000000000e+05
3.625070000000000000e+05 -2.958430000000000000e+05
2.943430000000000000e+05 -3.748170000000000000e+05
1.991390000000000000e+05 -4.393320000000000000e+05
7.911000000000000000e+04 -4.631670000000000000e+05
-4.006600000000000000e+04 -4.379000000000000000e+05
-1.271890000000000000e+05 -3.694970000000000000e+05
-1.678350000000000000e+05 -2.784180000000000000e+05
-1.650730000000000000e+05 -1.927280000000000000e+05
-1.359190000000000000e+05 -1.361230000000000000e+05
-9.264700000000000000e+04 -1.018530000000000000e+05
-5.210300000000000000e+04 -9.909200000000000000e+04
-2.253900000000000000e+04 -1.102430000000000000e+05
-5.046000000000000000e+03 -1.360550000000000000e+05
-2.591000000000000000e+03 -1.719610000000000000e+05
-1.803800000000000000e+04 -2.071510000000000000e+05
-4.736400000000000000e+04 -2.371930000000000000e+05
-8.930600000000000000e+04 -2.589140000000000000e+05
-1.387830000000000000e+05 -2.645740000000000000e+05
-1.890450000000000000e+05 -2.580280000000000000e+05
-2.403640000000000000e+05 -2.362720000000000000e+05
-2.770210000000000000e+05 -2.004000000000000000e+05
-3.078460000000000000e+05 -1.400450000000000000e+05
-3.312040000000000000e+05 -1.043430000000000000e+05
-3.407510000000000000e+05 -5.104700000000000000e+04
-3.429670000000000000e+05 -5.800000000000000000e+02
-3.279300000000000000e+05 5.370500000000000000e+04
-3.105400000000000000e+05 1.066270000000000000e+05
-2.814190000000000000e+05 1.512280000000000000e+05
-2.461950000000000000e+05 1.922850000000000000e+05
-2.062310000000000000e+05 2.224960000000000000e+05
-1.613910000000000000e+05 2.456830000000000000e+05
-1.151520000000000000e+05 2.636880000000000000e+05
-6.441300000000000000e+04 2.676770000000000000e+05
-1.858400000000000000e+04 2.653920000000000000e+05
2.779100000000000000e+04 2.532190000000000000e+05
7.164300000000000000e+04 2.297590000000000000e+05
1.084690000000000000e+05 1.963080000000000000e+05
1.323390000000000000e+05 1.525590000000000000e+05
1.423290000000000000e+05 1.034220000000000000e+05
1.267800000000000000e+05 5.715000000000000000e+04
9.691000000000000000e+04 2.236900000000000000e+04
6.693600000000000000e+04 1.050200000000000000e+04
4.248800000000000000e+04 1.398000000000000000e+04
2.830300000000000000e+04 2.052800000000000000e+04
2.434700000000000000e+04 2.690500000000000000e+04
2.059600000000000000e+04 3.167800000000000000e+04
2.039200000000000000e+04 3.553200000000000000e+04
1.964100000000000000e+04 3.597400000000000000e+04
2.199400000000000000e+04 3.658800000000000000e+04
2.322200000000000000e+04 3.624700000000000000e+04
2.189200000000000000e+04 3.757700000000000000e+04
2.373300000000000000e+04 3.904400000000000000e+04
2.502800000000000000e+04 3.890700000000000000e+04
2.513200000000000000e+04 4.023600000000000000e+04
2.690400000000000000e+04 4.293000000000000000e+04
2.925700000000000000e+04 4.190800000000000000e+04
3.427000000000000000e+04 4.439700000000000000e+04
3.675800000000000000e+04 4.777300000000000000e+04
4.153200000000000000e+04 5.104700000000000000e+04
4.664700000000000000e+04 5.425100000000000000e+04
5.626300000000000000e+04 5.595600000000000000e+04
6.557200000000000000e+04 5.728600000000000000e+04
8.180400000000000000e+04 5.489900000000000000e+04
9.496600000000000000e+04 4.944400000000000000e+04
1.096960000000000000e+05 3.648600000000000000e+04
1.172670000000000000e+05 1.803900000000000000e+04
1.204370000000000000e+05 -7.945000000000000000e+03
1.100040000000000000e+05 -2.850700000000000000e+04
9.445400000000000000e+04 -4.545400000000000000e+04
7.426700000000000000e+04 -5.080700000000000000e+04
5.694500000000000000e+04 -5.275100000000000000e+04
4.545300000000000000e+04 -4.923900000000000000e+04
3.454200000000000000e+04 -4.180600000000000000e+04
2.714200000000000000e+04 -3.314400000000000000e+04
2.594900000000000000e+04 -2.482400000000000000e+04
2.424400000000000000e+04 -1.333300000000000000e+04
2.775600000000000000e+04 -3.956000000000000000e+03
3.597500000000000000e+04 6.547000000000000000e+03
4.750000000000000000e+04 1.285500000000000000e+04
6.260600000000000000e+04 1.793600000000000000e+04
8.538400000000000000e+04 1.728800000000000000e+04
1.094920000000000000e+05 1.040000000000000000e+04
1.390900000000000000e+05 -7.400000000000000000e+03
1.648340000000000000e+05 -3.832800000000000000e+04
1.833510000000000000e+05 -8.043900000000000000e+04
1.851240000000000000e+05 -1.392260000000000000e+05
1.695740000000000000e+05 -2.009460000000000000e+05
1.311440000000000000e+05 -2.555720000000000000e+05
7.566500000000000000e+04 -2.998320000000000000e+05
1.019500000000000000e+04 -3.268730000000000000e+05
-6.161700000000000000e+04 -3.354660000000000000e+05
-1.313500000000000000e+05 -3.249300000000000000e+05
-1.950130000000000000e+05 -3.014690000000000000e+05
-2.486160000000000000e+05 -2.650180000000000000e+05
-2.958780000000000000e+05 -2.162900000000000000e+05
-3.300110000000000000e+05 -1.623460000000000000e+05
-3.513570000000000000e+05 -1.029100000000000000e+05
-3.635640000000000000e+05 -4.126000000000000000e+04
-3.641780000000000000e+05 2.356200000000000000e+04
-3.477760000000000000e+05 8.531600000000000000e+04
-3.241110000000000000e+05 1.430800000000000000e+05
-2.825100000000000000e+05 1.935800000000000000e+05
-2.351460000000000000e+05 2.328280000000000000e+05
-1.801450000000000000e+05 2.561180000000000000e+05
-1.240520000000000000e+05 2.639940000000000000e+05
-7.133500000000000000e+04 2.544130000000000000e+05
-2.765400000000000000e+04 2.323170000000000000e+05
-5.012000000000000000e+03 1.982850000000000000e+05
0.000000000000000000e+00 1.660270000000000000e+05
-1.241200000000000000e+04 1.492170000000000000e+05
-2.659700000000000000e+04 1.485010000000000000e+05
-3.512200000000000000e+04 1.619710000000000000e+05
-3.300800000000000000e+04 1.783720000000000000e+05
-1.732200000000000000e+04 1.983200000000000000e+05
2.455000000000000000e+03 2.115500000000000000e+05
2.731400000000000000e+04 2.221890000000000000e+05
5.500200000000000000e+04 2.284290000000000000e+05
8.098600000000000000e+04 2.288390000000000000e+05
1.109580000000000000e+05 2.267590000000000000e+05
1.385440000000000000e+05 2.199730000000000000e+05
1.692000000000000000e+05 2.102200000000000000e+05
1.988650000000000000e+05 1.966830000000000000e+05
2.288390000000000000e+05 1.800090000000000000e+05
2.594940000000000000e+05 1.576050000000000000e+05
2.868070000000000000e+05 1.276660000000000000e+05
3.175300000000000000e+05 9.292000000000000000e+04
3.512880000000000000e+05 4.538600000000000000e+04
3.595400000000000000e+05 -6.138000000000000000e+03
3.677930000000000000e+05 -6.908400000000000000e+04
3.560960000000000000e+05 -1.406920000000000000e+05
3.254070000000000000e+05 -2.144490000000000000e+05
2.681210000000000000e+05 -2.812490000000000000e+05
1.911940000000000000e+05 -3.242480000000000000e+05
1.044460000000000000e+05 -3.357050000000000000e+05
2.656400000000000000e+04 -3.213150000000000000e+05
-3.171100000000000000e+04 -2.842150000000000000e+05
-6.717500000000000000e+04 -2.386600000000000000e+05
-8.313300000000000000e+04 -1.932050000000000000e+05
-8.262200000000000000e+04 -1.560720000000000000e+05
-7.208500000000000000e+04 -1.251780000000000000e+05
-5.657000000000000000e+04 -1.043780000000000000e+05
-3.635000000000000000e+04 -9.309100000000000000e+04
-1.217300000000000000e+04 -9.104500000000000000e+04
7.332000000000000000e+03 -1.021270000000000000e+05
2.237000000000000000e+04 -1.218010000000000000e+05
3.293900000000000000e+04 -1.541280000000000000e+05
3.178000000000000000e+04 -1.963770000000000000e+05
1.381000000000000000e+04 -2.422050000000000000e+05
-2.625600000000000000e+04 -2.944110000000000000e+05
-8.858900000000000000e+04 -3.351590000000000000e+05
-1.747570000000000000e+05 -3.590960000000000000e+05
-2.687680000000000000e+05 -3.535050000000000000e+05
-3.600860000000000000e+05 -3.168480000000000000e+05
-4.351720000000000000e+05 -2.514130000000000000e+05
-4.837630000000000000e+05 -1.695750000000000000e+05
-5.095420000000000000e+05 -8.057600000000000000e+04
-5.124060000000000000e+05 4.842000000000000000e+03
-4.975040000000000000e+05 8.872600000000000000e+04
-4.710100000000000000e+05 1.624130000000000000e+05
-4.373200000000000000e+05 2.317710000000000000e+05
-3.931620000000000000e+05 2.892280000000000000e+05
-3.430700000000000000e+05 3.414670000000000000e+05
-2.870800000000000000e+05 3.868540000000000000e+05
-2.250540000000000000e+05 4.266800000000000000e+05
-1.591400000000000000e+05 4.537210000000000000e+05
-8.548700000000000000e+04 4.705660000000000000e+05
-1.442300000000000000e+04 4.755440000000000000e+05
5.936700000000000000e+04 4.641900000000000000e+05
1.282810000000000000e+05 4.368430000000000000e+05
1.813730000000000000e+05 3.971520000000000000e+05
2.215420000000000000e+05 3.448780000000000000e+05
2.462630000000000000e+05 2.890230000000000000e+05
2.415240000000000000e+05 2.375340000000000000e+05
2.244400000000000000e+05 1.997520000000000000e+05
2.008100000000000000e+05 1.834190000000000000e+05
1.812360000000000000e+05 1.916700000000000000e+05
1.805540000000000000e+05 2.216090000000000000e+05
2.128460000000000000e+05 2.566970000000000000e+05
2.720080000000000000e+05 2.768840000000000000e+05
3.464120000000000000e+05 2.681200000000000000e+05
4.185650000000000000e+05 2.274750000000000000e+05
4.737370000000000000e+05 1.608790000000000000e+05
5.041200000000000000e+05 8.245100000000000000e+04
5.158500000000000000e+05 -1.671000000000000000e+03
5.062340000000000000e+05 -8.006500000000000000e+04
4.870700000000000000e+05 -1.541960000000000000e+05
4.557670000000000000e+05 -2.210640000000000000e+05
4.182250000000000000e+05 -2.803620000000000000e+05
3.734530000000000000e+05 -3.325340000000000000e+05
3.244190000000000000e+05 -3.815680000000000000e+05
2.685640000000000000e+05 -4.206450000000000000e+05
2.109700000000000000e+05 -4.574040000000000000e+05
1.445800000000000000e+05 -4.874120000000000000e+05
7.699600000000000000e+04 -5.123040000000000000e+05
3.682000000000000000e+03 -5.276140000000000000e+05
-7.829200000000000000e+04 -5.307180000000000000e+05
-1.618340000000000000e+05 -5.243410000000000000e+05
-2.506620000000000000e+05 -4.969930000000000000e+05
-3.348190000000000000e+05 -4.503120000000000000e+05
-4.074830000000000000e+05 -3.797610000000000000e+05
-4.567560000000000000e+05 -2.890920000000000000e+05
-4.801480000000000000e+05 -1.922510000000000000e+05
-4.615650000000000000e+05 -8.708900000000000000e+04
-4.184290000000000000e+05 -6.752000000000000000e+03
-3.565390000000000000e+05 4.637400000000000000e+04
-2.967630000000000000e+05 6.847100000000000000e+04
-2.450020000000000000e+05 6.547000000000000000e+04
-2.128120000000000000e+05 4.613600000000000000e+04
-2.017980000000000000e+05 1.838000000000000000e+04
-2.079700000000000000e+05 -9.207000000000000000e+03
-2.337820000000000000e+05 -2.612000000000000000e+04
-2.711210000000000000e+05 -3.348500000000000000e+04
-3.148360000000000000e+05 -1.827700000000000000e+04
-3.547660000000000000e+05 1.708300000000000000e+04
-3.892400000000000000e+05 6.768700000000000000e+04
-4.027090000000000000e+05 1.375220000000000000e+05
-3.965040000000000000e+05 2.107320000000000000e+05
-3.682010000000000000e+05 2.846920000000000000e+05
-3.217920000000000000e+05 3.514930000000000000e+05
-2.615050000000000000e+05 4.048240000000000000e+05
-1.907160000000000000e+05 4.452310000000000000e+05
-1.197220000000000000e+05 4.707370000000000000e+05
-4.470400000000000000e+04 4.821260000000000000e+05
2.816600000000000000e+04 4.838650000000000000e+05
9.847800000000000000e+04 4.743860000000000000e+05
1.637770000000000000e+05 4.566890000000000000e+05
2.262140000000000000e+05 4.274990000000000000e+05
2.836360000000000000e+05 3.913890000000000000e+05
3.353300000000000000e+05 3.480830000000000000e+05
3.823870000000000000e+05 2.974800000000000000e+05
4.212250000000000000e+05 2.386250000000000000e+05
4.496970000000000000e+05 1.739050000000000000e+05
4.683500000000000000e+05 1.012740000000000000e+05
4.695780000000000000e+05 2.421000000000000000e+04
4.541650000000000000e+05 -5.176300000000000000e+04
4.185650000000000000e+05 -1.207110000000000000e+05
3.655420000000000000e+05 -1.754060000000000000e+05
3.062090000000000000e+05 -2.108000000000000000e+05
2.458880000000000000e+05 -2.183020000000000000e+05
1.982170000000000000e+05 -2.083790000000000000e+05
1.752350000000000000e+05 -1.853970000000000000e+05
1.705300000000000000e+05 -1.636760000000000000e+05
1.838960000000000000e+05 -1.518780000000000000e+05
2.133910000000000000e+05 -1.585610000000000000e+05
2.417280000000000000e+05 -1.859770000000000000e+05
2.628350000000000000e+05 -2.340210000000000000e+05
2.658030000000000000e+05 -3.004810000000000000e+05
2.440800000000000000e+05 -3.786360000000000000e+05
1.941940000000000000e+05 -4.582570000000000000e+05
1.189380000000000000e+05 -5.241700000000000000e+05
1.824300000000000000e+04 -5.727960000000000000e+05
-9.479500000000000000e+04 -5.890950000000000000e+05
-2.074580000000000000e+05 -5.787620000000000000e+05
-3.086980000000000000e+05 -5.365830000000000000e+05
-3.955480000000000000e+05 -4.780000000000000000e+05
-4.628940000000000000e+05 -4.050630000000000000e+05
-5.095760000000000000e+05 -3.234980000000000000e+05
-5.422430000000000000e+05 -2.408760000000000000e+05
-5.564620000000000000e+05 -1.591060000000000000e+05
-5.612360000000000000e+05 -7.788200000000000000e+04
-5.559850000000000000e+05 -7.500000000000000000e+02
-5.404350000000000000e+05 7.307400000000000000e+04
-5.165660000000000000e+05 1.416470000000000000e+05
-4.863880000000000000e+05 2.095050000000000000e+05
-4.465260000000000000e+05 2.676780000000000000e+05
-3.993340000000000000e+05 3.267710000000000000e+05
-3.448780000000000000e+05 3.760780000000000000e+05
-2.811460000000000000e+05 4.159060000000000000e+05
-2.082090000000000000e+05 4.461520000000000000e+05
-1.327130000000000000e+05 4.567220000000000000e+05
-5.599000000000000000e+04 4.508230000000000000e+05
9.173000000000000000e+03 4.226910000000000000e+05
5.162600000000000000e+04 3.802720000000000000e+05
7.102800000000000000e+04 3.389780000000000000e+05
7.038000000000000000e+04 3.103010000000000000e+05
6.441300000000000000e+04 3.022880000000000000e+05
6.751600000000000000e+04 3.135400000000000000e+05
8.552100000000000000e+04 3.334890000000000000e+05
1.208460000000000000e+05 3.543560000000000000e+05
1.683470000000000000e+05 3.625750000000000000e+05
2.267240000000000000e+05 3.639730000000000000e+05
2.844200000000000000e+05 3.438200000000000000e+05
3.417750000000000000e+05 3.122450000000000000e+05
3.894450000000000000e+05 2.690070000000000000e+05
4.268860000000000000e+05 2.157440000000000000e+05
4.552900000000000000e+05 1.579470000000000000e+05
4.730560000000000000e+05 9.288600000000000000e+04
4.756810000000000000e+05 3.311000000000000000e+04
4.700210000000000000e+05 -3.212100000000000000e+04
4.572000000000000000e+05 -8.988500000000000000e+04
4.377290000000000000e+05 -1.468650000000000000e+05
4.124620000000000000e+05 -1.977400000000000000e+05
3.812950000000000000e+05 -2.460930000000000000e+05
3.440250000000000000e+05 -2.912390000000000000e+05
3.050160000000000000e+05 -3.300110000000000000e+05
2.592890000000000000e+05 -3.639390000000000000e+05
2.100500000000000000e+05 -3.961970000000000000e+05
1.550150000000000000e+05 -4.207480000000000000e+05
8.910100000000000000e+04 -4.368770000000000000e+05
2.332500000000000000e+04 -4.414120000000000000e+05
-4.340800000000000000e+04 -4.311140000000000000e+05
-1.074800000000000000e+05 -4.051310000000000000e+05
-1.619020000000000000e+05 -3.584490000000000000e+05
-1.952500000000000000e+05 -2.996630000000000000e+05
-2.024460000000000000e+05 -2.404670000000000000e+05
-1.913300000000000000e+05 -1.907500000000000000e+05
-1.672900000000000000e+05 -1.589700000000000000e+05
-1.411020000000000000e+05 -1.459100000000000000e+05
-1.215970000000000000e+05 -1.473760000000000000e+05
-1.133790000000000000e+05 -1.590380000000000000e+05
-1.120140000000000000e+05 -1.779970000000000000e+05
-1.205050000000000000e+05 -1.968530000000000000e+05
-1.426700000000000000e+05 -2.144150000000000000e+05
-1.765650000000000000e+05 -2.282590000000000000e+05
-2.146870000000000000e+05 -2.340900000000000000e+05
-2.595280000000000000e+05 -2.337490000000000000e+05
-3.118360000000000000e+05 -2.190860000000000000e+05
-3.663600000000000000e+05 -1.925570000000000000e+05
-4.170650000000000000e+05 -1.486040000000000000e+05
-4.596890000000000000e+05 -8.981700000000000000e+04
-4.895600000000000000e+05 -1.653900000000000000e+04
-4.992430000000000000e+05 6.775500000000000000e+04
-4.877180000000000000e+05 1.574690000000000000e+05
-4.570970000000000000e+05 2.376020000000000000e+05
-4.048910000000000000e+05 3.133020000000000000e+05
-3.415010000000000000e+05 3.714740000000000000e+05
-2.718710000000000000e+05 4.157350000000000000e+05
-1.969210000000000000e+05 4.394000000000000000e+05
-1.292010000000000000e+05 4.529370000000000000e+05
-6.410500000000000000e+04 4.516410000000000000e+05
-1.193000000000000000e+03 4.409680000000000000e+05
5.029600000000000000e+04 4.243280000000000000e+05
9.803500000000000000e+04 3.981400000000000000e+05
1.385110000000000000e+05 3.725320000000000000e+05
1.710740000000000000e+05 3.421840000000000000e+05
1.948420000000000000e+05 3.067890000000000000e+05
2.119590000000000000e+05 2.746000000000000000e+05
2.216440000000000000e+05 2.411140000000000000e+05
2.248150000000000000e+05 2.129140000000000000e+05
2.224960000000000000e+05 1.939560000000000000e+05
2.198360000000000000e+05 1.860440000000000000e+05
2.228030000000000000e+05 1.867950000000000000e+05
2.401260000000000000e+05 1.926940000000000000e+05
2.720080000000000000e+05 1.973650000000000000e+05
3.143590000000000000e+05 1.861460000000000000e+05
3.588250000000000000e+05 1.606400000000000000e+05
3.966400000000000000e+05 1.189030000000000000e+05
4.273980000000000000e+05 6.468600000000000000e+04
4.453680000000000000e+05 5.251000000000000000e+03
4.502100000000000000e+05 -6.236700000000000000e+04
4.399800000000000000e+05 -1.262690000000000000e+05
4.235440000000000000e+05 -1.954900000000000000e+05
3.907760000000000000e+05 -2.542430000000000000e+05
3.496520000000000000e+05 -3.123810000000000000e+05
2.993210000000000000e+05 -3.589270000000000000e+05
2.438770000000000000e+05 -4.005270000000000000e+05
1.837250000000000000e+05 -4.312850000000000000e+05
1.216650000000000000e+05 -4.547780000000000000e+05
5.680900000000000000e+04 -4.654860000000000000e+05
-6.785000000000000000e+03 -4.729870000000000000e+05
-7.198300000000000000e+04 -4.648040000000000000e+05
-1.314510000000000000e+05 -4.521870000000000000e+05
-1.916700000000000000e+05 -4.282160000000000000e+05
-2.451040000000000000e+05 -3.969810000000000000e+05
