-6.342000000000000000e+03 -3.921000000000000000e+03
-9.479000000000000000e+03 -2.387000000000000000e+03
-1.445800000000000000e+04 4.604000000000000000e+03
-1.360600000000000000e+04 1.261600000000000000e+04
-3.478000000000000000e+03 2.042600000000000000e+04
8.968000000000000000e+03 1.718600000000000000e+04
1.575400000000000000e+04 1.009400000000000000e+04
1.517400000000000000e+04 -1.501000000000000000e+03
9.308000000000000000e+03 -9.445000000000000000e+03
1.023000000000000000e+03 -1.118500000000000000e+04
-3.070000000000000000e+02 -9.445000000000000000e+03
-1.774000000000000000e+03 -5.728000000000000000e+03
-1.807000000000000000e+03 -3.921000000000000000e+03
-5.592000000000000000e+03 -2.966000000000000000e+03
-1.036700000000000000e+04 7.160000000000000000e+02
-1.248100000000000000e+04 7.741000000000000000e+03
-8.832000000000000000e+03 1.561800000000000000e+04
1.840000000000000000e+03 1.568600000000000000e+04
1.319700000000000000e+04 1.370800000000000000e+04
1.660600000000000000e+04 3.546000000000000000e+03
9.412000000000000000e+03 -8.184000000000000000e+03
2.659000000000000000e+03 -1.425300000000000000e+04
-3.341000000000000000e+03 -1.381100000000000000e+04
-2.762000000000000000e+03 -1.026400000000000000e+04
5.120000000000000000e+02 -3.444000000000000000e+03
-3.376000000000000000e+03 -7.500000000000000000e+02
-9.548000000000000000e+03 2.114000000000000000e+03
-1.319700000000000000e+04 6.138000000000000000e+03
-1.074100000000000000e+04 1.196800000000000000e+04
-1.432000000000000000e+03 1.749300000000000000e+04
8.797000000000000000e+03 1.360600000000000000e+04
1.585600000000000000e+04 4.228000000000000000e+03
1.343500000000000000e+04 -9.547000000000000000e+03
4.535000000000000000e+03 -1.432100000000000000e+04
-7.170000000000000000e+02 -1.398100000000000000e+04
-2.761000000000000000e+03 -8.593000000000000000e+03
-3.069000000000000000e+03 -3.068000000000000000e+03
-2.591000000000000000e+03 -8.180000000000000000e+02
-5.523000000000000000e+03 -1.057000000000000000e+03
-8.184000000000000000e+03 1.159000000000000000e+03
-7.740000000000000000e+03 6.956000000000000000e+03
-3.750000000000000000e+02 1.115100000000000000e+04
9.855000000000000000e+03 7.843000000000000000e+03
2.158500000000000000e+04 3.615000000000000000e+03
2.305100000000000000e+04 1.944000000000000000e+03
9.037000000000000000e+03 -1.637000000000000000e+03
-8.798000000000000000e+03 -5.864000000000000000e+03
-1.292400000000000000e+04 -5.864000000000000000e+03
-1.132100000000000000e+04 -1.432000000000000000e+03
-6.036000000000000000e+03 -6.800000000000000000e+01
-4.807000000000000000e+03 6.470000000000000000e+02
-6.615000000000000000e+03 2.865000000000000000e+03
-6.752000000000000000e+03 6.717000000000000000e+03
-4.780000000000000000e+02 1.186600000000000000e+04
5.626000000000000000e+03 1.370800000000000000e+04
1.306100000000000000e+04 9.718000000000000000e+03
1.268500000000000000e+04 3.410000000000000000e+03
6.479000000000000000e+03 -7.605000000000000000e+03
-1.023000000000000000e+03 -1.029800000000000000e+04
-4.944000000000000000e+03 -9.889000000000000000e+03
-8.149000000000000000e+03 -7.741000000000000000e+03
-3.000000000000000000e+03 -3.648000000000000000e+03
-1.739000000000000000e+03 -1.841000000000000000e+03
-4.160000000000000000e+03 -1.602000000000000000e+03
-3.683000000000000000e+03 -0.000000000000000000e+00
-3.103000000000000000e+03 3.239000000000000000e+03
-2.285000000000000000e+03 6.479000000000000000e+03
4.944000000000000000e+03 7.365000000000000000e+03
9.036000000000000000e+03 4.364000000000000000e+03
6.785000000000000000e+03 1.568000000000000000e+03
-5.450000000000000000e+02 -4.740000000000000000e+03
-7.024000000000000000e+03 -1.029800000000000000e+04
-8.013000000000000000e+03 -7.468000000000000000e+03
-7.808000000000000000e+03 -6.956000000000000000e+03
-5.626000000000000000e+03 -4.296000000000000000e+03
-3.137000000000000000e+03 -2.319000000000000000e+03
-4.058000000000000000e+03 -3.683000000000000000e+03
-3.649000000000000000e+03 -3.444000000000000000e+03
-2.762000000000000000e+03 -2.050000000000000000e+02
3.922000000000000000e+03 6.800000000000000000e+01
1.043400000000000000e+04 6.480000000000000000e+02
1.408300000000000000e+04 7.840000000000000000e+02
1.350300000000000000e+04 3.342000000000000000e+03
4.330000000000000000e+03 4.569000000000000000e+03
-9.241000000000000000e+03 5.525000000000000000e+03
-2.025500000000000000e+04 9.550000000000000000e+02
-2.151700000000000000e+04 -6.138000000000000000e+03
-1.449100000000000000e+04 -1.302600000000000000e+04
-6.172000000000000000e+03 -1.295700000000000000e+04
-6.104000000000000000e+03 -1.159300000000000000e+04
2.899000000000000000e+03 -1.115000000000000000e+04
1.534500000000000000e+04 -8.797000000000000000e+03
2.915400000000000000e+04 -0.000000000000000000e+00
3.542900000000000000e+04 2.046000000000000000e+04
2.144800000000000000e+04 3.890700000000000000e+04
-1.565100000000000000e+04 4.143000000000000000e+04
-4.470300000000000000e+04 1.960700000000000000e+04
-5.012600000000000000e+04 -9.923000000000000000e+03
-3.863400000000000000e+04 -3.263200000000000000e+04
-1.350300000000000000e+04 -4.013500000000000000e+04
