-1.046800000000000000e+04 -8.661000000000000000e+03
-1.466200000000000000e+04 -6.922000000000000000e+03
-1.650400000000000000e+04 9.890000000000000000e+02
-1.793600000000000000e+04 4.399000000000000000e+03
-1.841300000000000000e+04 7.741000000000000000e+03
-1.640200000000000000e+04 1.190100000000000000e+04
-1.571900000000000000e+04 1.609500000000000000e+04
-1.190100000000000000e+04 1.895900000000000000e+04
-7.263000000000000000e+03 1.878800000000000000e+04
-3.922000000000000000e+03 2.008400000000000000e+04
1.978000000000000000e+03 1.762900000000000000e+04
5.490000000000000000e+03 1.646900000000000000e+04
8.968000000000000000e+03 1.363900000000000000e+04
9.718000000000000000e+03 1.115000000000000000e+04
1.169500000000000000e+04 9.343000000000000000e+03
1.145700000000000000e+04 4.024000000000000000e+03
9.445000000000000000e+03 9.550000000000000000e+02
6.786000000000000000e+03 -1.125000000000000000e+03
7.980000000000000000e+03 -1.636000000000000000e+03
5.660000000000000000e+03 -3.274000000000000000e+03
6.650000000000000000e+03 -2.523000000000000000e+03
6.035000000000000000e+03 -3.205000000000000000e+03
5.455000000000000000e+03 -2.864000000000000000e+03
8.252000000000000000e+03 -4.433000000000000000e+03
8.593000000000000000e+03 -7.911000000000000000e+03
8.695000000000000000e+03 -8.388000000000000000e+03
7.297000000000000000e+03 -1.060500000000000000e+04
3.990000000000000000e+03 -9.821000000000000000e+03
3.103000000000000000e+03 -1.340100000000000000e+04
-1.296000000000000000e+03 -1.346900000000000000e+04
-6.206000000000000000e+03 -1.142300000000000000e+04
-7.843000000000000000e+03 -9.343000000000000000e+03
-1.087800000000000000e+04 -6.377000000000000000e+03
-1.411700000000000000e+04 -4.433000000000000000e+03
-1.619700000000000000e+04 2.216000000000000000e+03
-1.428700000000000000e+04 4.638000000000000000e+03
-1.476500000000000000e+04 1.091200000000000000e+04
-1.302600000000000000e+04 1.248000000000000000e+04
-1.169600000000000000e+04 1.728900000000000000e+04
-5.388000000000000000e+03 1.943600000000000000e+04
-1.091000000000000000e+03 2.151600000000000000e+04
3.239000000000000000e+03 1.752700000000000000e+04
7.877000000000000000e+03 1.367400000000000000e+04
9.343000000000000000e+03 1.316300000000000000e+04
1.074100000000000000e+04 7.025000000000000000e+03
1.152500000000000000e+04 5.490000000000000000e+03
9.888000000000000000e+03 3.103000000000000000e+03
9.275000000000000000e+03 -0.000000000000000000e+00
8.456000000000000000e+03 -1.296000000000000000e+03
4.944000000000000000e+03 -4.637000000000000000e+03
3.478000000000000000e+03 -4.808000000000000000e+03
2.386000000000000000e+03 -4.671000000000000000e+03
3.716000000000000000e+03 -4.092000000000000000e+03
3.375000000000000000e+03 -5.251000000000000000e+03
3.955000000000000000e+03 -8.081000000000000000e+03
5.967000000000000000e+03 -1.009300000000000000e+04
6.581000000000000000e+03 -9.752000000000000000e+03
7.535000000000000000e+03 -9.275000000000000000e+03
6.171000000000000000e+03 -1.258300000000000000e+04
2.966000000000000000e+03 -1.329800000000000000e+04
-1.030000000000000000e+02 -1.374200000000000000e+04
-5.592000000000000000e+03 -1.254800000000000000e+04
-1.074200000000000000e+04 -1.111600000000000000e+04
-1.323100000000000000e+04 -6.819000000000000000e+03
-1.425300000000000000e+04 -2.040000000000000000e+02
-1.630000000000000000e+04 5.729000000000000000e+03
-1.769700000000000000e+04 8.389000000000000000e+03
-1.554900000000000000e+04 1.445800000000000000e+04
-1.415200000000000000e+04 1.575400000000000000e+04
-1.169600000000000000e+04 1.838000000000000000e+04
-7.263000000000000000e+03 1.953800000000000000e+04
-3.752000000000000000e+03 1.964200000000000000e+04
2.050000000000000000e+02 1.578700000000000000e+04
6.309000000000000000e+03 1.401500000000000000e+04
8.899000000000000000e+03 1.077600000000000000e+04
1.203700000000000000e+04 6.991000000000000000e+03
1.268400000000000000e+04 1.569000000000000000e+03
1.132100000000000000e+04 -2.148000000000000000e+03
1.029800000000000000e+04 -5.557000000000000000e+03
8.388000000000000000e+03 -5.182000000000000000e+03
6.001000000000000000e+03 -6.580000000000000000e+03
5.319000000000000000e+03 -7.535000000000000000e+03
4.058000000000000000e+03 -5.115000000000000000e+03
2.967000000000000000e+03 -7.024000000000000000e+03
3.614000000000000000e+03 -7.160000000000000000e+03
6.922000000000000000e+03 -6.410000000000000000e+03
3.410000000000000000e+03 -7.332000000000000000e+03
3.750000000000000000e+03 -7.535000000000000000e+03
4.159000000000000000e+03 -8.525000000000000000e+03
3.410000000000000000e+03 -1.016100000000000000e+04
1.603000000000000000e+03 -1.067300000000000000e+04
-1.364000000000000000e+03 -1.087800000000000000e+04
-5.763000000000000000e+03 -8.933000000000000000e+03
-8.492000000000000000e+03 -9.309000000000000000e+03
-1.271900000000000000e+04 -6.103000000000000000e+03
-1.551500000000000000e+04 -2.353000000000000000e+03
-1.503700000000000000e+04 7.160000000000000000e+02
-1.554900000000000000e+04 5.320000000000000000e+03
-1.377600000000000000e+04 1.026400000000000000e+04
-9.071000000000000000e+03 1.364000000000000000e+04
-4.058000000000000000e+03 1.357100000000000000e+04
-1.296000000000000000e+03 1.367400000000000000e+04
3.819000000000000000e+03 1.299100000000000000e+04
6.990000000000000000e+03 9.650000000000000000e+03
1.248000000000000000e+04 7.161000000000000000e+03
1.483300000000000000e+04 3.683000000000000000e+03
1.831200000000000000e+04 2.694000000000000000e+03
2.110700000000000000e+04 6.130000000000000000e+02
2.175500000000000000e+04 -1.705000000000000000e+03
2.267600000000000000e+04 -2.080000000000000000e+03
1.452700000000000000e+04 9.880000000000000000e+02
1.094600000000000000e+04 3.001000000000000000e+03
5.934000000000000000e+03 3.274000000000000000e+03
-1.360000000000000000e+02 5.388000000000000000e+03
-2.353000000000000000e+03 2.524000000000000000e+03
-4.058000000000000000e+03 2.694000000000000000e+03
-5.933000000000000000e+03 -1.432000000000000000e+03
-4.365000000000000000e+03 -8.860000000000000000e+02
-6.888000000000000000e+03 -3.070000000000000000e+03
-5.660000000000000000e+03 -2.762000000000000000e+03
-4.161000000000000000e+03 -5.388000000000000000e+03
-4.911000000000000000e+03 -5.729000000000000000e+03
-5.149000000000000000e+03 -6.411000000000000000e+03
-7.434000000000000000e+03 -6.888000000000000000e+03
-1.111700000000000000e+04 -4.773000000000000000e+03
-1.288900000000000000e+04 -5.626000000000000000e+03
-1.271900000000000000e+04 -6.130000000000000000e+02
-1.094600000000000000e+04 2.693000000000000000e+03
-1.285500000000000000e+04 5.559000000000000000e+03
-1.043500000000000000e+04 1.084400000000000000e+04
-4.092000000000000000e+03 1.425300000000000000e+04
-3.580000000000000000e+03 1.565100000000000000e+04
2.558000000000000000e+03 1.882200000000000000e+04
7.570000000000000000e+03 1.759500000000000000e+04
7.978000000000000000e+03 1.534500000000000000e+04
1.299200000000000000e+04 1.329900000000000000e+04
1.275300000000000000e+04 1.012700000000000000e+04
1.149200000000000000e+04 5.967000000000000000e+03
1.203700000000000000e+04 1.159000000000000000e+03
1.040000000000000000e+04 -5.460000000000000000e+02
9.309000000000000000e+03 -2.830000000000000000e+03
6.615000000000000000e+03 -3.888000000000000000e+03
4.331000000000000000e+03 -6.171000000000000000e+03
-1.700000000000000000e+02 -5.898000000000000000e+03
-1.534000000000000000e+03 -8.388000000000000000e+03
-2.149000000000000000e+03 -6.547000000000000000e+03
-3.955000000000000000e+03 -7.228000000000000000e+03
-2.251000000000000000e+03 -8.387000000000000000e+03
-9.550000000000000000e+02 -6.615000000000000000e+03
-7.840000000000000000e+02 -7.740000000000000000e+03
-1.330000000000000000e+03 -7.808000000000000000e+03
-2.318000000000000000e+03 -9.207000000000000000e+03
-1.433000000000000000e+03 -8.457000000000000000e+03
-1.194000000000000000e+03 -8.832000000000000000e+03
-4.262000000000000000e+03 -7.502000000000000000e+03
-4.126000000000000000e+03 -6.819000000000000000e+03
-4.638000000000000000e+03 -3.921000000000000000e+03
-5.115000000000000000e+03 -2.148000000000000000e+03
-6.582000000000000000e+03 1.700000000000000000e+02
-7.912000000000000000e+03 3.205000000000000000e+03
-6.922000000000000000e+03 3.648000000000000000e+03
-4.330000000000000000e+03 5.217000000000000000e+03
-3.513000000000000000e+03 7.126000000000000000e+03
-1.296000000000000000e+03 1.005900000000000000e+04
2.455000000000000000e+03 8.422000000000000000e+03
5.182000000000000000e+03 1.142300000000000000e+04
4.739000000000000000e+03 1.002500000000000000e+04
6.956000000000000000e+03 7.877000000000000000e+03
6.581000000000000000e+03 6.513000000000000000e+03
4.467000000000000000e+03 3.308000000000000000e+03
5.695000000000000000e+03 8.860000000000000000e+02
4.194000000000000000e+03 1.030000000000000000e+02
2.762000000000000000e+03 -1.978000000000000000e+03
9.890000000000000000e+02 -2.762000000000000000e+03
9.540000000000000000e+02 -3.069000000000000000e+03
-7.840000000000000000e+02 -3.683000000000000000e+03
-3.717000000000000000e+03 -5.456000000000000000e+03
-3.035000000000000000e+03 -3.888000000000000000e+03
-4.705000000000000000e+03 -5.592000000000000000e+03
-5.695000000000000000e+03 -4.705000000000000000e+03
-3.750000000000000000e+03 -5.388000000000000000e+03
-4.603000000000000000e+03 -8.321000000000000000e+03
-4.944000000000000000e+03 -7.365000000000000000e+03
-2.285000000000000000e+03 -6.001000000000000000e+03
-4.194000000000000000e+03 -9.003000000000000000e+03
-4.297000000000000000e+03 -8.661000000000000000e+03
-5.081000000000000000e+03 -9.684000000000000000e+03
-5.251000000000000000e+03 -6.002000000000000000e+03
-7.535000000000000000e+03 -5.661000000000000000e+03
-5.523000000000000000e+03 -5.592000000000000000e+03
-7.365000000000000000e+03 -2.319000000000000000e+03
-7.160000000000000000e+03 -3.400000000000000000e+01
-4.296000000000000000e+03 2.730000000000000000e+02
-4.262000000000000000e+03 3.103000000000000000e+03
-9.890000000000000000e+02 2.380000000000000000e+02
2.046000000000000000e+03 2.012000000000000000e+03
5.183000000000000000e+03 2.933000000000000000e+03
7.024000000000000000e+03 1.534000000000000000e+03
7.195000000000000000e+03 1.637000000000000000e+03
8.047000000000000000e+03 1.910000000000000000e+03
1.019600000000000000e+04 -6.800000000000000000e+01
1.138900000000000000e+04 1.700000000000000000e+02
1.166200000000000000e+04 -1.360000000000000000e+02
1.162800000000000000e+04 -4.090000000000000000e+02
8.422000000000000000e+03 -2.380000000000000000e+02
6.683000000000000000e+03 -0.000000000000000000e+00
4.126000000000000000e+03 4.430000000000000000e+02
3.137000000000000000e+03 2.660000000000000000e+03
9.210000000000000000e+02 2.591000000000000000e+03
-1.432000000000000000e+03 3.580000000000000000e+03
-3.922000000000000000e+03 3.580000000000000000e+03
-7.160000000000000000e+03 2.898000000000000000e+03
-9.854000000000000000e+03 3.922000000000000000e+03
-1.138900000000000000e+04 3.069000000000000000e+03
-1.524300000000000000e+04 -2.080000000000000000e+03
-1.394700000000000000e+04 -2.899000000000000000e+03
-1.612900000000000000e+04 -7.161000000000000000e+03
-1.687900000000000000e+04 -1.046900000000000000e+04
-1.551500000000000000e+04 -1.125200000000000000e+04
-1.346900000000000000e+04 -1.374100000000000000e+04
-1.439000000000000000e+04 -1.391200000000000000e+04
-1.043400000000000000e+04 -1.664000000000000000e+04
-8.013000000000000000e+03 -1.684500000000000000e+04
-2.421000000000000000e+03 -1.797000000000000000e+04
2.660000000000000000e+03 -1.367400000000000000e+04
1.006000000000000000e+04 -1.104800000000000000e+04
1.520800000000000000e+04 -8.150000000000000000e+03
2.025500000000000000e+04 -4.024000000000000000e+03
2.247200000000000000e+04 -3.400000000000000000e+01
2.533500000000000000e+04 2.660000000000000000e+03
2.820100000000000000e+04 8.217000000000000000e+03
2.881400000000000000e+04 1.268400000000000000e+04
2.775700000000000000e+04 1.793600000000000000e+04
2.448300000000000000e+04 2.366500000000000000e+04
1.643600000000000000e+04 2.802900000000000000e+04
6.717000000000000000e+03 3.256400000000000000e+04
-7.910000000000000000e+03 3.109800000000000000e+04
-1.783300000000000000e+04 2.591500000000000000e+04
-2.264200000000000000e+04 1.998200000000000000e+04
-2.779100000000000000e+04 1.510600000000000000e+04
-2.649500000000000000e+04 1.155900000000000000e+04
-2.765400000000000000e+04 6.240000000000000000e+03
-3.065500000000000000e+04 5.320000000000000000e+03
-3.495100000000000000e+04 1.710000000000000000e+02
-3.556500000000000000e+04 -5.797000000000000000e+03
-3.904300000000000000e+04 -1.179800000000000000e+04
-3.938500000000000000e+04 -2.011800000000000000e+04
-3.430300000000000000e+04 -3.133700000000000000e+04
-2.611900000000000000e+04 -4.143000000000000000e+04
-1.650400000000000000e+04 -4.903400000000000000e+04
