-5.268300000000000000e+04 2.908600000000000000e+04
-4.767100000000000000e+04 6.308400000000000000e+04
-1.569000000000000000e+03 9.813700000000000000e+04
7.726800000000000000e+04 9.356800000000000000e+04
1.502740000000000000e+05 2.230100000000000000e+04
1.344520000000000000e+05 -6.137800000000000000e+04
5.500200000000000000e+04 -1.167210000000000000e+05
-4.091900000000000000e+04 -1.226540000000000000e+05
-8.654300000000000000e+04 -5.871800000000000000e+04
-1.062180000000000000e+05 -1.237800000000000000e+04
-7.968900000000000000e+04 1.660600000000000000e+04
-7.559800000000000000e+04 2.359700000000000000e+04
-5.715000000000000000e+04 5.909400000000000000e+04
-5.469500000000000000e+04 1.074800000000000000e+05
8.184000000000000000e+03 1.435230000000000000e+05
1.278710000000000000e+05 1.320660000000000000e+05
2.679500000000000000e+05 7.757600000000000000e+04
2.761350000000000000e+05 -6.403800000000000000e+04
1.568560000000000000e+05 -2.308850000000000000e+05
-1.004890000000000000e+05 -3.085960000000000000e+05
-2.475940000000000000e+05 -1.379990000000000000e+05
-3.261230000000000000e+05 6.800000000000000000e+01
-2.078000000000000000e+05 9.053300000000000000e+04
-1.085370000000000000e+05 1.175400000000000000e+05
-1.310770000000000000e+05 2.075270000000000000e+05
-9.718200000000000000e+04 2.598680000000000000e+05
1.281440000000000000e+05 3.476740000000000000e+05
4.292040000000000000e+05 1.924550000000000000e+05
4.643260000000000000e+05 -1.023990000000000000e+05
2.836010000000000000e+05 -4.053010000000000000e+05
2.898400000000000000e+04 -4.962780000000000000e+05
-2.907620000000000000e+05 -3.688150000000000000e+05
-4.702600000000000000e+05 -1.374200000000000000e+04
-3.492420000000000000e+05 2.063330000000000000e+05
-1.157650000000000000e+05 2.822030000000000000e+05
1.330000000000000000e+03 2.441490000000000000e+05
5.247800000000000000e+04 2.237920000000000000e+05
1.589690000000000000e+05 1.731210000000000000e+05
3.333860000000000000e+05 9.933100000000000000e+04
4.559040000000000000e+05 -1.436930000000000000e+05
3.108810000000000000e+05 -4.960390000000000000e+05
-1.645960000000000000e+05 -5.679200000000000000e+05
-4.874450000000000000e+05 -2.229060000000000000e+05
-5.070860000000000000e+05 1.205050000000000000e+05
-3.570500000000000000e+05 3.493440000000000000e+05
-6.843700000000000000e+04 4.065970000000000000e+05
1.799060000000000000e+05 2.860220000000000000e+05
2.218490000000000000e+05 1.189030000000000000e+05
1.927960000000000000e+05 5.435400000000000000e+04
2.312590000000000000e+05 1.210500000000000000e+04
2.958090000000000000e+05 -6.588000000000000000e+04
2.971390000000000000e+05 -2.182330000000000000e+05
1.746210000000000000e+05 -4.050620000000000000e+05
-1.372820000000000000e+05 -5.105650000000000000e+05
-5.303090000000000000e+05 -3.145980000000000000e+05
-6.466540000000000000e+05 1.570610000000000000e+05
-3.351940000000000000e+05 4.886040000000000000e+05
4.552300000000000000e+04 4.909580000000000000e+05
3.038560000000000000e+05 2.993210000000000000e+05
3.591310000000000000e+05 5.462700000000000000e+04
2.519920000000000000e+05 -8.463400000000000000e+04
1.748930000000000000e+05 -1.034230000000000000e+05
1.952170000000000000e+05 -1.446130000000000000e+05
1.721990000000000000e+05 -2.447290000000000000e+05
8.627000000000000000e+03 -3.726690000000000000e+05
-3.012990000000000000e+05 -3.908090000000000000e+05
-5.832640000000000000e+05 -1.149820000000000000e+05
-5.911070000000000000e+05 3.068230000000000000e+05
-2.353510000000000000e+05 6.032800000000000000e+05
2.767820000000000000e+05 5.451410000000000000e+05
5.504600000000000000e+05 1.870340000000000000e+05
4.603030000000000000e+05 -1.442390000000000000e+05
2.207570000000000000e+05 -2.661430000000000000e+05
5.036400000000000000e+04 -2.247470000000000000e+05
-2.182000000000000000e+03 -1.792580000000000000e+05
-5.394500000000000000e+04 -1.965810000000000000e+05
-1.746550000000000000e+05 -2.188810000000000000e+05
-3.320220000000000000e+05 -1.603340000000000000e+05
-4.413780000000000000e+05 2.230100000000000000e+04
-3.658490000000000000e+05 2.763390000000000000e+05
-5.660500000000000000e+04 4.264760000000000000e+05
2.761680000000000000e+05 3.351940000000000000e+05
4.282490000000000000e+05 1.029110000000000000e+05
3.685770000000000000e+05 -1.188350000000000000e+05
1.663010000000000000e+05 -2.358630000000000000e+05
9.207000000000000000e+03 -2.033330000000000000e+05
-5.554700000000000000e+04 -1.257570000000000000e+05
-9.264700000000000000e+04 -1.017850000000000000e+05
-1.613560000000000000e+05 -1.085380000000000000e+05
-2.023780000000000000e+05 -6.512900000000000000e+04
-2.065720000000000000e+05 7.529100000000000000e+04
-1.519790000000000000e+05 2.224280000000000000e+05
2.022100000000000000e+04 2.865000000000000000e+05
2.183020000000000000e+05 2.177900000000000000e+05
3.096880000000000000e+05 3.103100000000000000e+04
2.286340000000000000e+05 -1.238820000000000000e+05
8.572500000000000000e+04 -1.761210000000000000e+05
-2.472200000000000000e+04 -1.532410000000000000e+05
-7.389300000000000000e+04 -1.028420000000000000e+05
-9.015700000000000000e+04 -7.351700000000000000e+04
