-1.567870000000000000e+05 6.148100000000000000e+04
-1.207450000000000000e+05 7.593800000000000000e+04
-9.295400000000000000e+04 7.907600000000000000e+04
-7.215400000000000000e+04 7.604000000000000000e+04
-6.165100000000000000e+04 7.276700000000000000e+04
-5.588800000000000000e+04 7.338100000000000000e+04
-5.179600000000000000e+04 7.818900000000000000e+04
-4.463600000000000000e+04 8.968000000000000000e+04
-3.161000000000000000e+04 1.014450000000000000e+05
-1.292300000000000000e+04 1.149140000000000000e+05
1.459400000000000000e+04 1.253820000000000000e+05
4.814800000000000000e+04 1.302590000000000000e+05
8.333800000000000000e+04 1.263370000000000000e+05
1.218020000000000000e+05 1.099700000000000000e+05
1.583210000000000000e+05 8.333800000000000000e+04
1.866240000000000000e+05 4.743200000000000000e+04
2.055150000000000000e+05 5.559000000000000000e+03
2.074250000000000000e+05 -4.112300000000000000e+04
1.906810000000000000e+05 -8.685000000000000000e+04
1.611860000000000000e+05 -1.313150000000000000e+05
1.144360000000000000e+05 -1.645280000000000000e+05
5.745700000000000000e+04 -1.828040000000000000e+05
-2.762000000000000000e+03 -1.824980000000000000e+05
-6.011600000000000000e+04 -1.677330000000000000e+05
-1.074800000000000000e+05 -1.379990000000000000e+05
-1.346240000000000000e+05 -1.001830000000000000e+05
-1.505820000000000000e+05 -5.987800000000000000e+04
-1.507530000000000000e+05 -2.011800000000000000e+04
-1.394660000000000000e+05 1.394700000000000000e+04
-1.211540000000000000e+05 4.033900000000000000e+04
-9.858100000000000000e+04 5.547900000000000000e+04
-7.304000000000000000e+04 6.492400000000000000e+04
-5.094400000000000000e+04 6.669700000000000000e+04
-3.386100000000000000e+04 6.192400000000000000e+04
-2.151600000000000000e+04 5.513800000000000000e+04
-1.456100000000000000e+04 4.848800000000000000e+04
-1.681100000000000000e+04 4.494200000000000000e+04
-1.074200000000000000e+04 4.569300000000000000e+04
-3.785000000000000000e+03 5.200100000000000000e+04
3.887000000000000000e+03 5.912800000000000000e+04
2.131200000000000000e+04 6.543600000000000000e+04
3.938400000000000000e+04 7.048300000000000000e+04
6.032100000000000000e+04 7.000600000000000000e+04
8.245100000000000000e+04 6.114000000000000000e+04
1.022980000000000000e+05 4.177100000000000000e+04
1.188700000000000000e+05 1.906100000000000000e+04
1.246660000000000000e+05 -7.058000000000000000e+03
1.231650000000000000e+05 -3.641800000000000000e+04
1.106850000000000000e+05 -6.741400000000000000e+04
8.841900000000000000e+04 -8.678200000000000000e+04
5.612700000000000000e+04 -1.019560000000000000e+05
2.424500000000000000e+04 -1.093220000000000000e+05
-7.809000000000000000e+03 -1.124580000000000000e+05
-3.843000000000000000e+04 -1.029800000000000000e+05
-6.485700000000000000e+04 -8.882800000000000000e+04
-8.736200000000000000e+04 -6.761900000000000000e+04
-9.919500000000000000e+04 -4.395400000000000000e+04
-9.997900000000000000e+04 -1.756000000000000000e+04
-9.472700000000000000e+04 5.899000000000000000e+03
-8.149700000000000000e+04 2.308600000000000000e+04
-6.693700000000000000e+04 3.474700000000000000e+04
-5.060300000000000000e+04 4.115800000000000000e+04
-3.505400000000000000e+04 4.433000000000000000e+04
-2.138000000000000000e+04 4.126000000000000000e+04
-1.115000000000000000e+04 3.761100000000000000e+04
-6.445000000000000000e+03 3.174600000000000000e+04
-1.705000000000000000e+03 2.710900000000000000e+04
1.671000000000000000e+03 2.629000000000000000e+04
1.261000000000000000e+03 2.714400000000000000e+04
-3.133800000000000000e+04 4.058000000000000000e+03
-3.065500000000000000e+04 1.415100000000000000e+04
-3.311000000000000000e+04 2.291500000000000000e+04
-2.676800000000000000e+04 3.277000000000000000e+04
-2.097100000000000000e+04 4.282900000000000000e+04
-1.125300000000000000e+04 5.186500000000000000e+04
2.694000000000000000e+03 5.963900000000000000e+04
1.967600000000000000e+04 6.035600000000000000e+04
3.883800000000000000e+04 5.919600000000000000e+04
5.510400000000000000e+04 5.305800000000000000e+04
7.171000000000000000e+04 3.938400000000000000e+04
8.064400000000000000e+04 2.069800000000000000e+04
8.432700000000000000e+04 3.887000000000000000e+03
7.992800000000000000e+04 -1.923100000000000000e+04
6.888000000000000000e+04 -3.907700000000000000e+04
5.394400000000000000e+04 -5.217200000000000000e+04
3.365500000000000000e+04 -6.076500000000000000e+04
1.265100000000000000e+04 -6.557200000000000000e+04
-5.320000000000000000e+03 -6.154900000000000000e+04
-2.393700000000000000e+04 -6.045700000000000000e+04
-3.696300000000000000e+04 -4.848900000000000000e+04
-4.524900000000000000e+04 -3.873700000000000000e+04
-5.077400000000000000e+04 -2.499400000000000000e+04
-5.108000000000000000e+04 -1.418500000000000000e+04
-4.675000000000000000e+04 -4.774000000000000000e+03
-4.446500000000000000e+04 1.910000000000000000e+03
-3.788300000000000000e+04 7.366000000000000000e+03
-3.242800000000000000e+04 9.104000000000000000e+03
-2.878000000000000000e+04 1.237800000000000000e+04
-2.833600000000000000e+04 8.797000000000000000e+03
-2.843900000000000000e+04 9.616000000000000000e+03
-2.765400000000000000e+04 9.241000000000000000e+03
-2.779100000000000000e+04 1.336700000000000000e+04
-2.888200000000000000e+04 1.851600000000000000e+04
-2.823300000000000000e+04 2.485800000000000000e+04
-2.114200000000000000e+04 3.348500000000000000e+04
-1.623100000000000000e+04 3.979400000000000000e+04
-5.524000000000000000e+03 4.548900000000000000e+04
5.081000000000000000e+03 4.702200000000000000e+04
1.647000000000000000e+04 4.668200000000000000e+04
3.041600000000000000e+04 4.446500000000000000e+04
4.388500000000000000e+04 3.614500000000000000e+04
5.012600000000000000e+04 2.567700000000000000e+04
5.745700000000000000e+04 1.271900000000000000e+04
6.154900000000000000e+04 -7.170000000000000000e+02
5.623000000000000000e+04 -1.759600000000000000e+04
4.913700000000000000e+04 -3.249700000000000000e+04
3.791800000000000000e+04 -4.576100000000000000e+04
1.912900000000000000e+04 -5.087600000000000000e+04
1.671000000000000000e+03 -5.350100000000000000e+04
-1.548100000000000000e+04 -4.896600000000000000e+04
-2.768800000000000000e+04 -4.245300000000000000e+04
-4.010000000000000000e+04 -3.420200000000000000e+04
-4.576100000000000000e+04 -2.612000000000000000e+04
-4.378300000000000000e+04 -1.476500000000000000e+04
-4.518100000000000000e+04 -4.398000000000000000e+03
-4.371500000000000000e+04 3.376000000000000000e+03
-3.566700000000000000e+04 8.730000000000000000e+03
-2.956300000000000000e+04 1.248000000000000000e+04
-2.482400000000000000e+04 1.490200000000000000e+04
-2.407300000000000000e+04 1.336700000000000000e+04
-1.988000000000000000e+04 1.394600000000000000e+04
-2.032300000000000000e+04 1.595800000000000000e+04
-1.899300000000000000e+04 1.889100000000000000e+04
-2.103900000000000000e+04 2.247200000000000000e+04
-1.711700000000000000e+04 2.670000000000000000e+04
-1.196900000000000000e+04 3.382600000000000000e+04
-3.614000000000000000e+03 3.781600000000000000e+04
6.036000000000000000e+03 4.040700000000000000e+04
1.640100000000000000e+04 4.272600000000000000e+04
2.912000000000000000e+04 4.112400000000000000e+04
4.139600000000000000e+04 3.546300000000000000e+04
4.637400000000000000e+04 2.816500000000000000e+04
5.363800000000000000e+04 1.912900000000000000e+04
5.568400000000000000e+04 8.764000000000000000e+03
5.241000000000000000e+04 1.262000000000000000e+03
5.043300000000000000e+04 -3.955000000000000000e+03
4.470400000000000000e+04 -1.012700000000000000e+04
4.146400000000000000e+04 -1.295800000000000000e+04
3.502000000000000000e+04 -1.974300000000000000e+04
3.236100000000000000e+04 -2.404000000000000000e+04
2.792800000000000000e+04 -2.993900000000000000e+04
2.332400000000000000e+04 -3.607600000000000000e+04
1.537900000000000000e+04 -4.409100000000000000e+04
8.116000000000000000e+03 -5.271700000000000000e+04
-1.466000000000000000e+03 -6.359500000000000000e+04
-1.282200000000000000e+04 -7.737000000000000000e+04
-7.962200000000000000e+04 -1.095600000000000000e+05
-1.475810000000000000e+05 -9.015800000000000000e+04
-1.378620000000000000e+05 -7.399000000000000000e+03
-1.071390000000000000e+05 4.364800000000000000e+04
-7.314200000000000000e+04 7.171000000000000000e+04
-4.316900000000000000e+04 8.920300000000000000e+04
-4.024000000000000000e+03 9.605700000000000000e+04
5.551400000000000000e+04 4.709100000000000000e+04
3.791800000000000000e+04 3.478100000000000000e+04
3.723600000000000000e+04 2.762100000000000000e+04
3.788400000000000000e+04 1.950500000000000000e+04
3.873600000000000000e+04 1.340100000000000000e+04
3.781500000000000000e+04 3.989000000000000000e+03
3.594000000000000000e+04 -7.059000000000000000e+03
3.201900000000000000e+04 -1.353700000000000000e+04
2.953000000000000000e+04 -2.192600000000000000e+04
2.414200000000000000e+04 -2.847300000000000000e+04
1.711800000000000000e+04 -2.813200000000000000e+04
9.923000000000000000e+03 -3.045100000000000000e+04
2.421000000000000000e+03 -2.942700000000000000e+04
-5.455000000000000000e+03 -3.092800000000000000e+04
-1.070700000000000000e+04 -2.659800000000000000e+04
-1.742500000000000000e+04 -2.240300000000000000e+04
-1.977700000000000000e+04 -1.779900000000000000e+04
-2.114100000000000000e+04 -1.254900000000000000e+04
-2.305100000000000000e+04 -7.468000000000000000e+03
-2.011700000000000000e+04 -2.011000000000000000e+03
-1.855000000000000000e+04 1.670000000000000000e+03
-1.558300000000000000e+04 4.023000000000000000e+03
-1.036500000000000000e+04 8.354000000000000000e+03
-9.445000000000000000e+03 1.057000000000000000e+04
-4.978000000000000000e+03 9.548000000000000000e+03
-4.433000000000000000e+03 1.118500000000000000e+04
-1.671000000000000000e+03 8.968000000000000000e+03
-1.360000000000000000e+02 6.308000000000000000e+03
-2.380000000000000000e+02 5.899000000000000000e+03
-1.126000000000000000e+03 4.638000000000000000e+03
-1.194000000000000000e+03 5.354000000000000000e+03
-2.730000000000000000e+02 5.763000000000000000e+03
-1.569000000000000000e+03 6.002000000000000000e+03
-3.580000000000000000e+03 4.672000000000000000e+03
-3.070000000000000000e+02 8.763000000000000000e+03
1.020000000000000000e+02 8.627000000000000000e+03
1.773000000000000000e+03 8.525000000000000000e+03
6.479000000000000000e+03 8.525000000000000000e+03
8.218000000000000000e+03 7.297000000000000000e+03
9.275000000000000000e+03 4.843000000000000000e+03
9.173000000000000000e+03 -2.380000000000000000e+02
1.343500000000000000e+04 -2.250000000000000000e+03
1.152600000000000000e+04 -3.819000000000000000e+03
1.057100000000000000e+04 -7.673000000000000000e+03
8.696000000000000000e+03 -1.023000000000000000e+04
4.842000000000000000e+03 -1.104800000000000000e+04
3.649000000000000000e+03 -1.343500000000000000e+04
-1.159000000000000000e+03 -1.442400000000000000e+04
-4.058000000000000000e+03 -1.278800000000000000e+04
-5.115000000000000000e+03 -1.067300000000000000e+04
-8.695000000000000000e+03 -9.513000000000000000e+03
-1.251300000000000000e+04 -5.934000000000000000e+03
-1.166200000000000000e+04 -3.649000000000000000e+03
-1.121900000000000000e+04 -1.057000000000000000e+03
-1.070700000000000000e+04 3.750000000000000000e+02
-9.513000000000000000e+03 4.262000000000000000e+03
-6.513000000000000000e+03 3.750000000000000000e+03
-3.035000000000000000e+03 4.331000000000000000e+03
-3.888000000000000000e+03 5.422000000000000000e+03
-3.853000000000000000e+03 5.217000000000000000e+03
-1.296000000000000000e+03 6.274000000000000000e+03
-2.557000000000000000e+03 4.432000000000000000e+03
-3.000000000000000000e+03 4.807000000000000000e+03
-1.228000000000000000e+03 4.876000000000000000e+03
-3.274000000000000000e+03 5.250000000000000000e+03
-2.694000000000000000e+03 7.263000000000000000e+03
-4.501000000000000000e+03 7.638000000000000000e+03
-2.796000000000000000e+03 7.433000000000000000e+03
-3.750000000000000000e+02 9.752000000000000000e+03
1.125000000000000000e+03 1.128700000000000000e+04
6.308000000000000000e+03 8.900000000000000000e+03
8.082000000000000000e+03 8.797000000000000000e+03
9.411000000000000000e+03 6.956000000000000000e+03
1.251500000000000000e+04 4.024000000000000000e+03
1.459500000000000000e+04 -1.160000000000000000e+03
1.302500000000000000e+04 -5.421000000000000000e+03
1.179900000000000000e+04 -8.082000000000000000e+03
1.036700000000000000e+04 -8.594000000000000000e+03
7.229000000000000000e+03 -1.234400000000000000e+04
2.762000000000000000e+03 -1.340100000000000000e+04
-5.790000000000000000e+02 -1.497000000000000000e+04
-4.535000000000000000e+03 -1.370800000000000000e+04
-6.342000000000000000e+03 -1.142400000000000000e+04
-1.217300000000000000e+04 -9.923000000000000000e+03
-1.346900000000000000e+04 -7.263000000000000000e+03
-1.261600000000000000e+04 -3.921000000000000000e+03
-1.142300000000000000e+04 -3.307000000000000000e+03
