-8.559000000000000000e+03 -6.513000000000000000e+03
-9.002000000000000000e+03 -7.331000000000000000e+03
-8.832000000000000000e+03 -7.263000000000000000e+03
-9.922000000000000000e+03 -5.184000000000000000e+03
-1.053600000000000000e+04 -3.955000000000000000e+03
-1.149100000000000000e+04 -4.364000000000000000e+03
-1.193400000000000000e+04 -6.820000000000000000e+03
-1.220700000000000000e+04 -5.251000000000000000e+03
-1.213900000000000000e+04 -4.126000000000000000e+03
-1.384400000000000000e+04 -5.110000000000000000e+02
-1.312800000000000000e+04 -1.670000000000000000e+03
-1.394700000000000000e+04 -8.870000000000000000e+02
-1.599300000000000000e+04 -2.388000000000000000e+03
-1.408300000000000000e+04 2.080000000000000000e+03
-1.541300000000000000e+04 3.546000000000000000e+03
-1.442400000000000000e+04 2.933000000000000000e+03
-1.742500000000000000e+04 4.092000000000000000e+03
-1.650400000000000000e+04 5.490000000000000000e+03
-1.742500000000000000e+04 8.047000000000000000e+03
-1.735600000000000000e+04 8.525000000000000000e+03
-1.715100000000000000e+04 8.797000000000000000e+03
-1.599200000000000000e+04 9.854000000000000000e+03
-1.623100000000000000e+04 1.036600000000000000e+04
-1.677700000000000000e+04 1.145800000000000000e+04
-1.302500000000000000e+04 1.145700000000000000e+04
-1.398000000000000000e+04 1.343500000000000000e+04
-1.425300000000000000e+04 1.377600000000000000e+04
-1.288900000000000000e+04 1.633300000000000000e+04
-1.299200000000000000e+04 1.449300000000000000e+04
-1.067300000000000000e+04 1.592400000000000000e+04
-1.087800000000000000e+04 1.701500000000000000e+04
-1.196800000000000000e+04 1.667500000000000000e+04
-9.002000000000000000e+03 1.827700000000000000e+04
-6.989000000000000000e+03 1.957300000000000000e+04
-6.581000000000000000e+03 1.800400000000000000e+04
-5.762000000000000000e+03 2.035700000000000000e+04
-6.342000000000000000e+03 1.865200000000000000e+04
-5.285000000000000000e+03 1.739000000000000000e+04
-2.420000000000000000e+03 2.213000000000000000e+04
-3.409000000000000000e+03 2.086900000000000000e+04
-9.540000000000000000e+02 2.080100000000000000e+04
2.730000000000000000e+02 2.165300000000000000e+04
1.227000000000000000e+03 1.988000000000000000e+04
4.740000000000000000e+03 2.121000000000000000e+04
2.830000000000000000e+03 1.889000000000000000e+04
5.899000000000000000e+03 1.960700000000000000e+04
6.137000000000000000e+03 1.803900000000000000e+04
7.297000000000000000e+03 1.923200000000000000e+04
9.718000000000000000e+03 1.885800000000000000e+04
9.309000000000000000e+03 1.810600000000000000e+04
9.071000000000000000e+03 1.674200000000000000e+04
1.398000000000000000e+04 1.742500000000000000e+04
1.295700000000000000e+04 1.544700000000000000e+04
1.394700000000000000e+04 1.565100000000000000e+04
1.115000000000000000e+04 1.271900000000000000e+04
1.438900000000000000e+04 1.108200000000000000e+04
1.473100000000000000e+04 1.135500000000000000e+04
1.541300000000000000e+04 1.033200000000000000e+04
1.612900000000000000e+04 8.354000000000000000e+03
1.510600000000000000e+04 6.376000000000000000e+03
1.503800000000000000e+04 7.161000000000000000e+03
1.387900000000000000e+04 5.729000000000000000e+03
1.619700000000000000e+04 2.318000000000000000e+03
1.585600000000000000e+04 4.125000000000000000e+03
1.544600000000000000e+04 1.978000000000000000e+03
1.421900000000000000e+04 2.251000000000000000e+03
1.626500000000000000e+04 -6.830000000000000000e+02
1.421900000000000000e+04 -1.671000000000000000e+03
1.411700000000000000e+04 -3.922000000000000000e+03
1.248000000000000000e+04 -1.875000000000000000e+03
1.288900000000000000e+04 -3.955000000000000000e+03
1.070700000000000000e+04 -5.967000000000000000e+03
1.138900000000000000e+04 -3.615000000000000000e+03
1.009400000000000000e+04 -7.059000000000000000e+03
9.990000000000000000e+03 -5.559000000000000000e+03
9.173000000000000000e+03 -7.809000000000000000e+03
7.434000000000000000e+03 -7.707000000000000000e+03
6.171000000000000000e+03 -7.195000000000000000e+03
6.410000000000000000e+03 -7.740000000000000000e+03
6.205000000000000000e+03 -7.264000000000000000e+03
5.387000000000000000e+03 -7.741000000000000000e+03
5.251000000000000000e+03 -8.593000000000000000e+03
5.148000000000000000e+03 -7.741000000000000000e+03
4.978000000000000000e+03 -6.513000000000000000e+03
4.637000000000000000e+03 -6.922000000000000000e+03
4.091000000000000000e+03 -6.547000000000000000e+03
5.149000000000000000e+03 -8.218000000000000000e+03
3.205000000000000000e+03 -8.831000000000000000e+03
3.239000000000000000e+03 -8.218000000000000000e+03
4.739000000000000000e+03 -6.650000000000000000e+03
4.091000000000000000e+03 -5.933000000000000000e+03
1.807000000000000000e+03 -7.672000000000000000e+03
3.444000000000000000e+03 -8.968000000000000000e+03
3.205000000000000000e+03 -8.115000000000000000e+03
1.602000000000000000e+03 -6.819000000000000000e+03
2.182000000000000000e+03 -7.229000000000000000e+03
1.739000000000000000e+03 -7.434000000000000000e+03
2.251000000000000000e+03 -6.820000000000000000e+03
2.830000000000000000e+03 -6.444000000000000000e+03
1.602000000000000000e+03 -7.058000000000000000e+03
3.443000000000000000e+03 -7.604000000000000000e+03
3.682000000000000000e+03 -7.025000000000000000e+03
2.079000000000000000e+03 -5.388000000000000000e+03
1.739000000000000000e+03 -7.195000000000000000e+03
2.285000000000000000e+03 -7.502000000000000000e+03
2.933000000000000000e+03 -7.843000000000000000e+03
4.603000000000000000e+03 -7.399000000000000000e+03
2.660000000000000000e+03 -8.218000000000000000e+03
2.967000000000000000e+03 -8.422000000000000000e+03
1.704000000000000000e+03 -7.979000000000000000e+03
2.898000000000000000e+03 -6.786000000000000000e+03
7.500000000000000000e+02 -7.877000000000000000e+03
2.353000000000000000e+03 -8.524000000000000000e+03
-7.840000000000000000e+02 -7.366000000000000000e+03
9.540000000000000000e+02 -8.321000000000000000e+03
-3.410000000000000000e+02 -9.513000000000000000e+03
-5.120000000000000000e+02 -9.991000000000000000e+03
1.363000000000000000e+03 -7.741000000000000000e+03
-1.030000000000000000e+02 -8.968000000000000000e+03
-4.023000000000000000e+03 -8.559000000000000000e+03
-4.160000000000000000e+03 -8.593000000000000000e+03
-4.944000000000000000e+03 -7.400000000000000000e+03
-2.795000000000000000e+03 -7.672000000000000000e+03
-4.672000000000000000e+03 -8.661000000000000000e+03
-5.933000000000000000e+03 -8.218000000000000000e+03
-5.967000000000000000e+03 -7.843000000000000000e+03
-7.262000000000000000e+03 -7.331000000000000000e+03
-6.854000000000000000e+03 -5.251000000000000000e+03
-8.524000000000000000e+03 -6.854000000000000000e+03
-8.013000000000000000e+03 -5.559000000000000000e+03
-9.343000000000000000e+03 -4.297000000000000000e+03
-8.354000000000000000e+03 -3.103000000000000000e+03
-1.128700000000000000e+04 -3.001000000000000000e+03
-1.125300000000000000e+04 -3.308000000000000000e+03
-1.101400000000000000e+04 -9.550000000000000000e+02
-1.275300000000000000e+04 3.070000000000000000e+02
-1.214000000000000000e+04 1.160000000000000000e+03
-1.316200000000000000e+04 1.710000000000000000e+02
-1.200300000000000000e+04 1.398000000000000000e+03
-1.404900000000000000e+04 1.636000000000000000e+03
-1.299200000000000000e+04 2.455000000000000000e+03
-1.377600000000000000e+04 2.625000000000000000e+03
-1.418500000000000000e+04 4.807000000000000000e+03
-1.415100000000000000e+04 6.103000000000000000e+03
-1.442400000000000000e+04 6.513000000000000000e+03
-1.428800000000000000e+04 6.888000000000000000e+03
-1.442400000000000000e+04 8.184000000000000000e+03
-1.493600000000000000e+04 8.900000000000000000e+03
-1.421900000000000000e+04 9.378000000000000000e+03
-1.343600000000000000e+04 1.132200000000000000e+04
-1.251500000000000000e+04 1.445800000000000000e+04
-1.138900000000000000e+04 1.278700000000000000e+04
-1.135600000000000000e+04 1.466300000000000000e+04
-1.166200000000000000e+04 1.568600000000000000e+04
-1.149200000000000000e+04 1.520800000000000000e+04
-8.525000000000000000e+03 1.701600000000000000e+04
-9.718000000000000000e+03 1.817500000000000000e+04
-8.831000000000000000e+03 1.677700000000000000e+04
-6.615000000000000000e+03 1.902700000000000000e+04
-6.206000000000000000e+03 2.015200000000000000e+04
-5.319000000000000000e+03 2.076600000000000000e+04
-3.410000000000000000e+03 1.953900000000000000e+04
-1.774000000000000000e+03 1.919800000000000000e+04
-1.637000000000000000e+03 1.913000000000000000e+04
-1.360000000000000000e+02 1.817500000000000000e+04
1.091000000000000000e+03 1.790300000000000000e+04
4.262000000000000000e+03 1.773100000000000000e+04
5.387000000000000000e+03 1.783400000000000000e+04
6.888000000000000000e+03 1.844700000000000000e+04
5.285000000000000000e+03 1.606000000000000000e+04
6.581000000000000000e+03 1.585600000000000000e+04
7.979000000000000000e+03 1.527700000000000000e+04
1.080900000000000000e+04 1.357100000000000000e+04
1.091200000000000000e+04 1.541300000000000000e+04
9.854000000000000000e+03 1.312800000000000000e+04
1.377600000000000000e+04 1.244600000000000000e+04
1.278700000000000000e+04 1.231000000000000000e+04
1.377600000000000000e+04 1.193400000000000000e+04
1.387800000000000000e+04 8.388000000000000000e+03
1.469600000000000000e+04 7.946000000000000000e+03
1.401500000000000000e+04 7.092000000000000000e+03
1.268500000000000000e+04 6.853000000000000000e+03
1.490200000000000000e+04 5.933000000000000000e+03
1.531000000000000000e+04 5.592000000000000000e+03
1.479900000000000000e+04 5.115000000000000000e+03
1.415100000000000000e+04 3.614000000000000000e+03
1.319600000000000000e+04 1.500000000000000000e+03
1.408200000000000000e+04 1.637000000000000000e+03
1.384400000000000000e+04 7.160000000000000000e+02
1.541200000000000000e+04 -6.140000000000000000e+02
1.377700000000000000e+04 -1.228000000000000000e+03
1.230900000000000000e+04 -4.467000000000000000e+03
1.138900000000000000e+04 -3.683000000000000000e+03
9.684000000000000000e+03 -2.660000000000000000e+03
1.108300000000000000e+04 -6.752000000000000000e+03
9.855000000000000000e+03 -5.319000000000000000e+03
8.525000000000000000e+03 -5.047000000000000000e+03
7.399000000000000000e+03 -8.968000000000000000e+03
9.649000000000000000e+03 -8.593000000000000000e+03
5.593000000000000000e+03 -9.479000000000000000e+03
9.820000000000000000e+03 -1.033200000000000000e+04
6.036000000000000000e+03 -9.855000000000000000e+03
5.115000000000000000e+03 -9.548000000000000000e+03
4.194000000000000000e+03 -1.019600000000000000e+04
4.774000000000000000e+03 -9.787000000000000000e+03
3.580000000000000000e+03 -1.081000000000000000e+04
1.670000000000000000e+03 -1.057100000000000000e+04
1.433000000000000000e+03 -1.132100000000000000e+04
3.341000000000000000e+03 -1.080900000000000000e+04
2.148000000000000000e+03 -9.241000000000000000e+03
1.159000000000000000e+03 -1.098100000000000000e+04
2.045000000000000000e+03 -1.057100000000000000e+04
3.410000000000000000e+02 -1.248000000000000000e+04
1.602000000000000000e+03 -1.067300000000000000e+04
-1.030000000000000000e+02 -9.411000000000000000e+03
9.880000000000000000e+02 -9.241000000000000000e+03
6.800000000000000000e+01 -9.002000000000000000e+03
6.470000000000000000e+02 -8.832000000000000000e+03
5.800000000000000000e+02 -1.040000000000000000e+04
3.070000000000000000e+02 -1.070700000000000000e+04
-1.603000000000000000e+03 -9.104000000000000000e+03
1.193000000000000000e+03 -9.888000000000000000e+03
7.160000000000000000e+02 -7.468000000000000000e+03
1.159000000000000000e+03 -8.763000000000000000e+03
-2.390000000000000000e+02 -9.241000000000000000e+03
5.120000000000000000e+02 -9.105000000000000000e+03
1.500000000000000000e+03 -9.104000000000000000e+03
1.227000000000000000e+03 -9.991000000000000000e+03
-2.390000000000000000e+02 -9.172000000000000000e+03
2.390000000000000000e+02 -6.820000000000000000e+03
-5.790000000000000000e+02 -7.571000000000000000e+03
1.030000000000000000e+02 -9.138000000000000000e+03
-1.710000000000000000e+02 -9.036000000000000000e+03
1.023000000000000000e+03 -9.240000000000000000e+03
1.535000000000000000e+03 -8.252000000000000000e+03
-6.480000000000000000e+02 -9.037000000000000000e+03
1.160000000000000000e+03 -9.173000000000000000e+03
1.057000000000000000e+03 -8.900000000000000000e+03
1.705000000000000000e+03 -7.434000000000000000e+03
4.090000000000000000e+02 -7.264000000000000000e+03
-1.193000000000000000e+03 -9.650000000000000000e+03
-1.057000000000000000e+03 -8.491000000000000000e+03
-1.568000000000000000e+03 -8.593000000000000000e+03
-2.591000000000000000e+03 -7.229000000000000000e+03
-3.750000000000000000e+03 -8.559000000000000000e+03
-2.285000000000000000e+03 -7.672000000000000000e+03
-3.479000000000000000e+03 -8.218000000000000000e+03
-5.115000000000000000e+03 -7.741000000000000000e+03
-6.172000000000000000e+03 -7.979000000000000000e+03
-5.080000000000000000e+03 -8.047000000000000000e+03
-7.296000000000000000e+03 -7.059000000000000000e+03
-8.933000000000000000e+03 -5.968000000000000000e+03
-8.013000000000000000e+03 -5.319000000000000000e+03
-9.957000000000000000e+03 -5.660000000000000000e+03
-1.023000000000000000e+04 -3.717000000000000000e+03
-9.548000000000000000e+03 -4.262000000000000000e+03
-1.159300000000000000e+04 -2.660000000000000000e+03
-1.046800000000000000e+04 -7.840000000000000000e+02
-1.230900000000000000e+04 -5.800000000000000000e+02
-1.217400000000000000e+04 4.100000000000000000e+02
-1.466200000000000000e+04 2.182000000000000000e+03
-1.360600000000000000e+04 2.455000000000000000e+03
-1.531100000000000000e+04 4.091000000000000000e+03
-1.725400000000000000e+04 5.012000000000000000e+03
-1.360500000000000000e+04 4.160000000000000000e+03
-1.326500000000000000e+04 7.706000000000000000e+03
-1.408300000000000000e+04 9.241000000000000000e+03
-1.422000000000000000e+04 9.411000000000000000e+03
-1.432200000000000000e+04 9.820000000000000000e+03
-1.452600000000000000e+04 1.224100000000000000e+04
-1.271900000000000000e+04 1.234400000000000000e+04
-1.554900000000000000e+04 1.098000000000000000e+04
-1.394600000000000000e+04 1.435600000000000000e+04
-1.432200000000000000e+04 1.248000000000000000e+04
-1.268500000000000000e+04 1.514000000000000000e+04
-1.193500000000000000e+04 1.626500000000000000e+04
-1.227600000000000000e+04 1.537900000000000000e+04
-1.023000000000000000e+04 1.582200000000000000e+04
-1.036700000000000000e+04 1.827600000000000000e+04
-1.050300000000000000e+04 1.657200000000000000e+04
-9.207000000000000000e+03 1.739100000000000000e+04
-8.150000000000000000e+03 1.762900000000000000e+04
-8.422000000000000000e+03 1.957300000000000000e+04
-7.501000000000000000e+03 1.817500000000000000e+04
-5.353000000000000000e+03 1.807200000000000000e+04
-5.558000000000000000e+03 1.882200000000000000e+04
-3.444000000000000000e+03 1.803800000000000000e+04
-6.130000000000000000e+02 1.943600000000000000e+04
-1.364000000000000000e+03 1.889000000000000000e+04
3.750000000000000000e+02 1.779900000000000000e+04
2.380000000000000000e+02 1.660600000000000000e+04
2.011000000000000000e+03 1.708400000000000000e+04
2.182000000000000000e+03 1.728800000000000000e+04
5.592000000000000000e+03 1.595800000000000000e+04
6.241000000000000000e+03 1.510600000000000000e+04
5.695000000000000000e+03 1.237800000000000000e+04
8.218000000000000000e+03 1.183300000000000000e+04
1.084400000000000000e+04 1.254900000000000000e+04
1.029800000000000000e+04 1.043400000000000000e+04
1.026400000000000000e+04 7.843000000000000000e+03
1.118500000000000000e+04 9.036000000000000000e+03
1.217400000000000000e+04 7.092000000000000000e+03
1.469700000000000000e+04 6.820000000000000000e+03
1.602700000000000000e+04 6.990000000000000000e+03
1.551500000000000000e+04 5.421000000000000000e+03
1.462900000000000000e+04 2.557000000000000000e+03
1.534400000000000000e+04 3.273000000000000000e+03
1.718600000000000000e+04 2.284000000000000000e+03
1.674300000000000000e+04 -8.530000000000000000e+02
1.500300000000000000e+04 6.800000000000000000e+01
1.510500000000000000e+04 -2.864000000000000000e+03
1.616300000000000000e+04 -2.387000000000000000e+03
1.398100000000000000e+04 -4.808000000000000000e+03
1.421900000000000000e+04 -5.012000000000000000e+03
1.418500000000000000e+04 -4.364000000000000000e+03
1.203600000000000000e+04 -7.570000000000000000e+03
1.108200000000000000e+04 -6.649000000000000000e+03
1.217400000000000000e+04 -7.774000000000000000e+03
1.019500000000000000e+04 -6.581000000000000000e+03
1.040000000000000000e+04 -8.832000000000000000e+03
1.108300000000000000e+04 -9.138000000000000000e+03
7.332000000000000000e+03 -9.651000000000000000e+03
9.104000000000000000e+03 -8.968000000000000000e+03
7.331000000000000000e+03 -8.423000000000000000e+03
5.285000000000000000e+03 -1.057000000000000000e+04
6.002000000000000000e+03 -1.149100000000000000e+04
4.398000000000000000e+03 -1.016200000000000000e+04
3.444000000000000000e+03 -1.125300000000000000e+04
4.160000000000000000e+03 -1.203700000000000000e+04
3.717000000000000000e+03 -1.166200000000000000e+04
1.534000000000000000e+03 -1.128600000000000000e+04
2.353000000000000000e+03 -9.753000000000000000e+03
1.092000000000000000e+03 -1.101400000000000000e+04
2.380000000000000000e+02 -1.162800000000000000e+04
6.140000000000000000e+02 -1.026300000000000000e+04
-9.200000000000000000e+02 -9.923000000000000000e+03
-4.430000000000000000e+02 -7.604000000000000000e+03
9.890000000000000000e+02 -1.053700000000000000e+04
-1.091000000000000000e+03 -8.593000000000000000e+03
-1.227000000000000000e+03 -8.525000000000000000e+03
1.228000000000000000e+03 -1.097900000000000000e+04
-1.710000000000000000e+02 -7.673000000000000000e+03
6.820000000000000000e+02 -8.934000000000000000e+03
-6.140000000000000000e+02 -7.877000000000000000e+03
-6.470000000000000000e+02 -6.921000000000000000e+03
5.800000000000000000e+02 -7.366000000000000000e+03
-1.360000000000000000e+02 -7.400000000000000000e+03
4.780000000000000000e+02 -6.377000000000000000e+03
-9.890000000000000000e+02 -6.581000000000000000e+03
1.773000000000000000e+03 -5.319000000000000000e+03
-1.261000000000000000e+03 -6.343000000000000000e+03
1.023000000000000000e+03 -6.786000000000000000e+03
-3.400000000000000000e+01 -7.194000000000000000e+03
8.520000000000000000e+02 -5.456000000000000000e+03
8.530000000000000000e+02 -5.421000000000000000e+03
-6.470000000000000000e+02 -5.251000000000000000e+03
-1.397000000000000000e+03 -6.956000000000000000e+03
-1.466000000000000000e+03 -6.172000000000000000e+03
1.030000000000000000e+02 -4.432000000000000000e+03
-3.750000000000000000e+02 -6.990000000000000000e+03
5.800000000000000000e+02 -6.240000000000000000e+03
4.770000000000000000e+02 -5.626000000000000000e+03
-8.870000000000000000e+02 -8.592000000000000000e+03
4.430000000000000000e+02 -7.979000000000000000e+03
-2.659000000000000000e+03 -6.615000000000000000e+03
-2.387000000000000000e+03 -6.547000000000000000e+03
-1.432000000000000000e+03 -5.796000000000000000e+03
-1.875000000000000000e+03 -3.683000000000000000e+03
-3.069000000000000000e+03 -5.933000000000000000e+03
-3.103000000000000000e+03 -6.615000000000000000e+03
-3.308000000000000000e+03 -6.342000000000000000e+03
-4.296000000000000000e+03 -5.456000000000000000e+03
-6.001000000000000000e+03 -6.956000000000000000e+03
-4.569000000000000000e+03 -6.410000000000000000e+03
-5.967000000000000000e+03 -7.911000000000000000e+03
-5.012000000000000000e+03 -4.910000000000000000e+03
-8.866000000000000000e+03 -7.536000000000000000e+03
-6.854000000000000000e+03 -3.818000000000000000e+03
-8.832000000000000000e+03 -4.024000000000000000e+03
-9.343000000000000000e+03 -4.911000000000000000e+03
-9.855000000000000000e+03 -3.819000000000000000e+03
-1.016200000000000000e+04 -2.319000000000000000e+03
-1.138900000000000000e+04 -1.705000000000000000e+03
-1.036600000000000000e+04 -1.534000000000000000e+03
-1.186600000000000000e+04 9.890000000000000000e+02
-1.173000000000000000e+04 6.480000000000000000e+02
-1.227600000000000000e+04 1.807000000000000000e+03
-1.237700000000000000e+04 1.534000000000000000e+03
-1.203700000000000000e+04 1.637000000000000000e+03
-1.374200000000000000e+04 5.320000000000000000e+03
-1.159400000000000000e+04 4.433000000000000000e+03
-1.309400000000000000e+04 5.047000000000000000e+03
-1.299200000000000000e+04 6.785000000000000000e+03
-1.094600000000000000e+04 6.548000000000000000e+03
-1.159400000000000000e+04 8.594000000000000000e+03
-8.354000000000000000e+03 9.582000000000000000e+03
-9.718000000000000000e+03 1.063900000000000000e+04
-8.934000000000000000e+03 9.309000000000000000e+03
-9.445000000000000000e+03 1.026400000000000000e+04
-7.025000000000000000e+03 1.169700000000000000e+04
-8.354000000000000000e+03 1.091200000000000000e+04
-8.286000000000000000e+03 1.186700000000000000e+04
-6.820000000000000000e+03 1.261700000000000000e+04
-4.467000000000000000e+03 1.231000000000000000e+04
-2.762000000000000000e+03 1.248100000000000000e+04
-3.682000000000000000e+03 1.292400000000000000e+04
-2.795000000000000000e+03 1.241200000000000000e+04
-1.360000000000000000e+02 1.309400000000000000e+04
1.710000000000000000e+02 1.364000000000000000e+04
1.568000000000000000e+03 1.442400000000000000e+04
2.898000000000000000e+03 1.278700000000000000e+04
4.569000000000000000e+03 1.176400000000000000e+04
6.819000000000000000e+03 1.101400000000000000e+04
4.364000000000000000e+03 1.108200000000000000e+04
9.104000000000000000e+03 1.108300000000000000e+04
7.604000000000000000e+03 8.764000000000000000e+03
7.979000000000000000e+03 8.764000000000000000e+03
1.179800000000000000e+04 8.287000000000000000e+03
1.098000000000000000e+04 9.719000000000000000e+03
1.193500000000000000e+04 8.252000000000000000e+03
1.548100000000000000e+04 6.717000000000000000e+03
1.452600000000000000e+04 5.729000000000000000e+03
1.803900000000000000e+04 5.899000000000000000e+03
1.793600000000000000e+04 3.717000000000000000e+03
1.780000000000000000e+04 5.286000000000000000e+03
1.940200000000000000e+04 3.137000000000000000e+03
1.967500000000000000e+04 2.319000000000000000e+03
2.322100000000000000e+04 1.909000000000000000e+03
2.267600000000000000e+04 1.126000000000000000e+03
2.363100000000000000e+04 -7.840000000000000000e+02
2.652900000000000000e+04 -7.500000000000000000e+02
2.482500000000000000e+04 -2.040000000000000000e+02
2.417700000000000000e+04 1.126000000000000000e+03
2.547200000000000000e+04 3.400000000000000000e+01
2.772300000000000000e+04 1.193000000000000000e+03
2.363100000000000000e+04 -6.480000000000000000e+02
2.567700000000000000e+04 -1.603000000000000000e+03
2.543800000000000000e+04 4.090000000000000000e+02
2.216500000000000000e+04 -2.730000000000000000e+02
2.250500000000000000e+04 7.500000000000000000e+02
2.134600000000000000e+04 -1.330000000000000000e+03
1.926600000000000000e+04 -1.125000000000000000e+03
1.735700000000000000e+04 -3.070000000000000000e+02
1.493500000000000000e+04 -9.890000000000000000e+02
1.421900000000000000e+04 1.700000000000000000e+02
1.306000000000000000e+04 -1.705000000000000000e+03
1.087700000000000000e+04 -4.100000000000000000e+02
8.797000000000000000e+03 1.671000000000000000e+03
6.444000000000000000e+03 -2.114000000000000000e+03
5.558000000000000000e+03 -1.330000000000000000e+03
4.194000000000000000e+03 -6.820000000000000000e+02
3.341000000000000000e+03 -1.360000000000000000e+02
-2.730000000000000000e+02 -4.780000000000000000e+02
-1.262000000000000000e+03 -2.489000000000000000e+03
-1.841000000000000000e+03 -2.114000000000000000e+03
-2.592000000000000000e+03 -7.160000000000000000e+02
-6.002000000000000000e+03 -4.440000000000000000e+02
-4.604000000000000000e+03 -6.480000000000000000e+02
-6.819000000000000000e+03 -7.500000000000000000e+02
-6.922000000000000000e+03 -1.700000000000000000e+02
-6.922000000000000000e+03 -1.875000000000000000e+03
-7.843000000000000000e+03 -1.296000000000000000e+03
-9.412000000000000000e+03 -9.200000000000000000e+02
-8.525000000000000000e+03 -2.114000000000000000e+03
-8.730000000000000000e+03 -8.530000000000000000e+02
-1.033200000000000000e+04 7.840000000000000000e+02
-1.057100000000000000e+04 -1.125000000000000000e+03
-9.104000000000000000e+03 -1.739000000000000000e+03
-8.252000000000000000e+03 1.637000000000000000e+03
-9.343000000000000000e+03 -1.739000000000000000e+03
-8.014000000000000000e+03 -2.114000000000000000e+03
-1.063900000000000000e+04 -2.046000000000000000e+03
-9.889000000000000000e+03 -1.295000000000000000e+03
-8.559000000000000000e+03 -1.296000000000000000e+03
-9.616000000000000000e+03 -1.841000000000000000e+03
-8.047000000000000000e+03 -2.557000000000000000e+03
-7.331000000000000000e+03 8.530000000000000000e+02
-8.013000000000000000e+03 -1.466000000000000000e+03
-6.444000000000000000e+03 -1.909000000000000000e+03
-7.025000000000000000e+03 -6.820000000000000000e+02
-8.627000000000000000e+03 -1.228000000000000000e+03
-6.479000000000000000e+03 -2.216000000000000000e+03
-6.206000000000000000e+03 -1.739000000000000000e+03
-8.081000000000000000e+03 -1.534000000000000000e+03
-5.422000000000000000e+03 -2.659000000000000000e+03
-6.649000000000000000e+03 -1.739000000000000000e+03
-6.342000000000000000e+03 -1.023000000000000000e+03
-5.422000000000000000e+03 -2.489000000000000000e+03
-5.592000000000000000e+03 -4.194000000000000000e+03
-6.445000000000000000e+03 -1.944000000000000000e+03
-5.252000000000000000e+03 -3.035000000000000000e+03
-5.694000000000000000e+03 -1.875000000000000000e+03
-5.763000000000000000e+03 -3.444000000000000000e+03
-5.729000000000000000e+03 -2.353000000000000000e+03
-4.228000000000000000e+03 -3.307000000000000000e+03
-7.503000000000000000e+03 -2.387000000000000000e+03
-4.569000000000000000e+03 -1.603000000000000000e+03
-6.036000000000000000e+03 -2.216000000000000000e+03
-6.956000000000000000e+03 -2.865000000000000000e+03
-6.854000000000000000e+03 -3.000000000000000000e+03
-6.616000000000000000e+03 -1.636000000000000000e+03
-6.786000000000000000e+03 -3.819000000000000000e+03
-8.491000000000000000e+03 -2.284000000000000000e+03
-7.604000000000000000e+03 -9.890000000000000000e+02
-8.423000000000000000e+03 1.057000000000000000e+03
-5.729000000000000000e+03 1.739000000000000000e+03
-6.956000000000000000e+03 8.860000000000000000e+02
-7.230000000000000000e+03 2.625000000000000000e+03
-9.991000000000000000e+03 1.944000000000000000e+03
-7.775000000000000000e+03 5.460000000000000000e+02
-8.320000000000000000e+03 2.864000000000000000e+03
-1.019600000000000000e+04 3.887000000000000000e+03
-8.729000000000000000e+03 3.580000000000000000e+03
-7.638000000000000000e+03 4.671000000000000000e+03
-6.616000000000000000e+03 5.422000000000000000e+03
-7.740000000000000000e+03 4.569000000000000000e+03
-7.331000000000000000e+03 4.603000000000000000e+03
-6.377000000000000000e+03 6.376000000000000000e+03
-6.752000000000000000e+03 7.298000000000000000e+03
-7.195000000000000000e+03 8.388000000000000000e+03
-6.172000000000000000e+03 6.990000000000000000e+03
-4.467000000000000000e+03 9.070000000000000000e+03
-4.296000000000000000e+03 1.179900000000000000e+04
-3.376000000000000000e+03 1.254900000000000000e+04
-3.512000000000000000e+03 1.121800000000000000e+04
-1.944000000000000000e+03 1.033200000000000000e+04
-9.550000000000000000e+02 1.398100000000000000e+04
-9.890000000000000000e+02 1.288900000000000000e+04
-1.700000000000000000e+02 1.295700000000000000e+04
1.020000000000000000e+02 1.524200000000000000e+04
3.716000000000000000e+03 1.565100000000000000e+04
1.432000000000000000e+03 1.633400000000000000e+04
3.751000000000000000e+03 1.554900000000000000e+04
4.193000000000000000e+03 1.657200000000000000e+04
6.513000000000000000e+03 1.735600000000000000e+04
6.922000000000000000e+03 1.660600000000000000e+04
7.024000000000000000e+03 1.418500000000000000e+04
7.843000000000000000e+03 1.582200000000000000e+04
8.252000000000000000e+03 1.326400000000000000e+04
1.125300000000000000e+04 1.630000000000000000e+04
1.162700000000000000e+04 1.357200000000000000e+04
1.145700000000000000e+04 1.565100000000000000e+04
1.166200000000000000e+04 1.261600000000000000e+04
1.271900000000000000e+04 1.179800000000000000e+04
1.425400000000000000e+04 1.063900000000000000e+04
1.336700000000000000e+04 1.063900000000000000e+04
1.415200000000000000e+04 1.050200000000000000e+04
1.173000000000000000e+04 9.480000000000000000e+03
1.425400000000000000e+04 7.502000000000000000e+03
1.452600000000000000e+04 5.354000000000000000e+03
1.336700000000000000e+04 8.082000000000000000e+03
1.469700000000000000e+04 5.183000000000000000e+03
1.415100000000000000e+04 4.160000000000000000e+03
1.251500000000000000e+04 4.672000000000000000e+03
1.401400000000000000e+04 2.864000000000000000e+03
1.275300000000000000e+04 1.909000000000000000e+03
1.244600000000000000e+04 4.780000000000000000e+02
1.231000000000000000e+04 -1.262000000000000000e+03
9.889000000000000000e+03 -6.480000000000000000e+02
1.046800000000000000e+04 -9.200000000000000000e+02
1.029800000000000000e+04 -2.966000000000000000e+03
9.138000000000000000e+03 -1.909000000000000000e+03
9.957000000000000000e+03 -2.899000000000000000e+03
8.183000000000000000e+03 -3.717000000000000000e+03
8.832000000000000000e+03 -6.001000000000000000e+03
8.764000000000000000e+03 -3.103000000000000000e+03
6.240000000000000000e+03 -5.455000000000000000e+03
5.490000000000000000e+03 -7.160000000000000000e+03
6.002000000000000000e+03 -7.229000000000000000e+03
5.047000000000000000e+03 -8.388000000000000000e+03
1.398000000000000000e+03 -9.957000000000000000e+03
3.478000000000000000e+03 -7.706000000000000000e+03
1.944000000000000000e+03 -8.286000000000000000e+03
1.943000000000000000e+03 -7.877000000000000000e+03
1.700000000000000000e+02 -7.877000000000000000e+03
-7.850000000000000000e+02 -8.525000000000000000e+03
-8.860000000000000000e+02 -1.019500000000000000e+04
-2.390000000000000000e+02 -8.627000000000000000e+03
-3.274000000000000000e+03 -9.854000000000000000e+03
-2.728000000000000000e+03 -1.043400000000000000e+04
-2.830000000000000000e+03 -8.081000000000000000e+03
-3.819000000000000000e+03 -8.286000000000000000e+03
-3.649000000000000000e+03 -9.172000000000000000e+03
-4.807000000000000000e+03 -8.695000000000000000e+03
-4.466000000000000000e+03 -9.956000000000000000e+03
-4.432000000000000000e+03 -7.740000000000000000e+03
-6.001000000000000000e+03 -7.876000000000000000e+03
-5.422000000000000000e+03 -9.855000000000000000e+03
-4.194000000000000000e+03 -7.126000000000000000e+03
-5.627000000000000000e+03 -6.240000000000000000e+03
-5.422000000000000000e+03 -7.467000000000000000e+03
-4.979000000000000000e+03 -6.035000000000000000e+03
-4.603000000000000000e+03 -6.853000000000000000e+03
-4.433000000000000000e+03 -5.285000000000000000e+03
-5.422000000000000000e+03 -5.796000000000000000e+03
-5.149000000000000000e+03 -5.558000000000000000e+03
-4.842000000000000000e+03 -5.489000000000000000e+03
-3.751000000000000000e+03 -6.888000000000000000e+03
-4.024000000000000000e+03 -5.388000000000000000e+03
-4.774000000000000000e+03 -5.796000000000000000e+03
-3.035000000000000000e+03 -5.763000000000000000e+03
-4.842000000000000000e+03 -7.570000000000000000e+03
-4.774000000000000000e+03 -6.479000000000000000e+03
-3.410000000000000000e+03 -5.456000000000000000e+03
-3.717000000000000000e+03 -5.729000000000000000e+03
-2.421000000000000000e+03 -4.603000000000000000e+03
-3.103000000000000000e+03 -4.058000000000000000e+03
-1.534000000000000000e+03 -5.934000000000000000e+03
-3.069000000000000000e+03 -6.956000000000000000e+03
-1.977000000000000000e+03 -4.945000000000000000e+03
-2.182000000000000000e+03 -5.660000000000000000e+03
-2.455000000000000000e+03 -7.058000000000000000e+03
-1.671000000000000000e+03 -6.411000000000000000e+03
-2.728000000000000000e+03 -5.082000000000000000e+03
-1.672000000000000000e+03 -5.729000000000000000e+03
-4.126000000000000000e+03 -6.172000000000000000e+03
-2.046000000000000000e+03 -5.661000000000000000e+03
-1.261000000000000000e+03 -5.729000000000000000e+03
-2.933000000000000000e+03 -5.422000000000000000e+03
-3.376000000000000000e+03 -4.774000000000000000e+03
-1.807000000000000000e+03 -3.512000000000000000e+03
-3.683000000000000000e+03 -4.467000000000000000e+03
-2.660000000000000000e+03 -4.433000000000000000e+03
-2.387000000000000000e+03 -5.661000000000000000e+03
-3.547000000000000000e+03 -3.819000000000000000e+03
-4.194000000000000000e+03 -2.148000000000000000e+03
-4.296000000000000000e+03 -3.444000000000000000e+03
-5.763000000000000000e+03 -2.387000000000000000e+03
-2.728000000000000000e+03 -3.240000000000000000e+03
-4.979000000000000000e+03 -3.206000000000000000e+03
-2.626000000000000000e+03 -2.762000000000000000e+03
-4.057000000000000000e+03 -2.796000000000000000e+03
-4.603000000000000000e+03 -3.921000000000000000e+03
-5.387000000000000000e+03 8.530000000000000000e+02
-5.729000000000000000e+03 -1.329000000000000000e+03
-4.910000000000000000e+03 3.400000000000000000e+01
-5.421000000000000000e+03 1.159000000000000000e+03
-5.182000000000000000e+03 7.510000000000000000e+02
-7.434000000000000000e+03 -1.710000000000000000e+02
-4.535000000000000000e+03 1.398000000000000000e+03
-6.377000000000000000e+03 2.114000000000000000e+03
-3.785000000000000000e+03 1.739000000000000000e+03
-5.354000000000000000e+03 2.591000000000000000e+03
-4.399000000000000000e+03 2.387000000000000000e+03
-3.887000000000000000e+03 3.001000000000000000e+03
-3.956000000000000000e+03 4.536000000000000000e+03
-3.955000000000000000e+03 4.911000000000000000e+03
-4.126000000000000000e+03 5.217000000000000000e+03
-4.501000000000000000e+03 3.921000000000000000e+03
-2.284000000000000000e+03 4.569000000000000000e+03
-3.342000000000000000e+03 5.353000000000000000e+03
-2.149000000000000000e+03 6.478000000000000000e+03
-7.150000000000000000e+02 7.604000000000000000e+03
-1.535000000000000000e+03 7.604000000000000000e+03
-9.880000000000000000e+02 7.638000000000000000e+03
-1.602000000000000000e+03 9.275000000000000000e+03
1.262000000000000000e+03 7.126000000000000000e+03
2.420000000000000000e+03 7.979000000000000000e+03
2.693000000000000000e+03 8.968000000000000000e+03
2.216000000000000000e+03 7.058000000000000000e+03
-1.700000000000000000e+02 9.821000000000000000e+03
2.353000000000000000e+03 8.934000000000000000e+03
2.625000000000000000e+03 9.718000000000000000e+03
3.614000000000000000e+03 1.070700000000000000e+04
4.706000000000000000e+03 8.388000000000000000e+03
3.853000000000000000e+03 1.070700000000000000e+04
5.421000000000000000e+03 1.138900000000000000e+04
5.216000000000000000e+03 9.956000000000000000e+03
5.762000000000000000e+03 9.923000000000000000e+03
5.285000000000000000e+03 9.786000000000000000e+03
6.001000000000000000e+03 8.934000000000000000e+03
6.240000000000000000e+03 7.877000000000000000e+03
7.297000000000000000e+03 7.536000000000000000e+03
7.842000000000000000e+03 8.354000000000000000e+03
5.285000000000000000e+03 7.468000000000000000e+03
8.286000000000000000e+03 9.820000000000000000e+03
7.809000000000000000e+03 7.058000000000000000e+03
6.957000000000000000e+03 3.989000000000000000e+03
6.616000000000000000e+03 6.445000000000000000e+03
8.354000000000000000e+03 3.103000000000000000e+03
7.945000000000000000e+03 2.831000000000000000e+03
8.082000000000000000e+03 4.160000000000000000e+03
7.127000000000000000e+03 1.364000000000000000e+03
5.899000000000000000e+03 1.773000000000000000e+03
6.854000000000000000e+03 4.090000000000000000e+02
5.728000000000000000e+03 1.602000000000000000e+03
5.558000000000000000e+03 -1.092000000000000000e+03
9.890000000000000000e+02 2.660000000000000000e+03
5.934000000000000000e+03 -1.023000000000000000e+03
5.149000000000000000e+03 -2.387000000000000000e+03
3.001000000000000000e+03 -2.182000000000000000e+03
3.614000000000000000e+03 -1.091000000000000000e+03
1.739000000000000000e+03 -4.160000000000000000e+03
2.557000000000000000e+03 -3.376000000000000000e+03
1.160000000000000000e+03 -3.206000000000000000e+03
2.148000000000000000e+03 -4.468000000000000000e+03
2.694000000000000000e+03 -5.353000000000000000e+03
-5.110000000000000000e+02 -5.695000000000000000e+03
3.750000000000000000e+02 -4.671000000000000000e+03
-1.091000000000000000e+03 -5.626000000000000000e+03
1.364000000000000000e+03 -5.524000000000000000e+03
-1.466000000000000000e+03 -5.660000000000000000e+03
-1.876000000000000000e+03 -5.831000000000000000e+03
-1.466000000000000000e+03 -6.240000000000000000e+03
-1.978000000000000000e+03 -6.070000000000000000e+03
-4.365000000000000000e+03 -5.695000000000000000e+03
-4.160000000000000000e+03 -6.956000000000000000e+03
-4.296000000000000000e+03 -5.831000000000000000e+03
-4.331000000000000000e+03 -4.808000000000000000e+03
-6.205000000000000000e+03 -6.616000000000000000e+03
-6.581000000000000000e+03 -6.377000000000000000e+03
-5.456000000000000000e+03 -6.002000000000000000e+03
-5.865000000000000000e+03 -6.480000000000000000e+03
-5.489000000000000000e+03 -6.035000000000000000e+03
-7.978000000000000000e+03 -6.104000000000000000e+03
-8.183000000000000000e+03 -6.069000000000000000e+03
-6.069000000000000000e+03 -6.650000000000000000e+03
-8.387000000000000000e+03 -5.729000000000000000e+03
-7.058000000000000000e+03 -4.399000000000000000e+03
-8.592000000000000000e+03 -5.456000000000000000e+03
-6.888000000000000000e+03 -6.274000000000000000e+03
-8.593000000000000000e+03 -6.104000000000000000e+03
-7.023000000000000000e+03 -6.138000000000000000e+03
-6.342000000000000000e+03 -5.763000000000000000e+03
-6.069000000000000000e+03 -5.150000000000000000e+03
-6.751000000000000000e+03 -5.899000000000000000e+03
-6.342000000000000000e+03 -7.127000000000000000e+03
-6.990000000000000000e+03 -4.672000000000000000e+03
-6.410000000000000000e+03 -6.342000000000000000e+03
-6.854000000000000000e+03 -5.968000000000000000e+03
-5.490000000000000000e+03 -6.547000000000000000e+03
-6.410000000000000000e+03 -7.059000000000000000e+03
-6.512000000000000000e+03 -5.388000000000000000e+03
-6.137000000000000000e+03 -6.411000000000000000e+03
-6.854000000000000000e+03 -3.683000000000000000e+03
-4.331000000000000000e+03 -6.820000000000000000e+03
-5.558000000000000000e+03 -6.854000000000000000e+03
-6.478000000000000000e+03 -7.059000000000000000e+03
-5.320000000000000000e+03 -6.411000000000000000e+03
-6.138000000000000000e+03 -7.502000000000000000e+03
-6.308000000000000000e+03 -7.775000000000000000e+03
-3.001000000000000000e+03 -6.172000000000000000e+03
-4.978000000000000000e+03 -5.695000000000000000e+03
-4.228000000000000000e+03 -6.854000000000000000e+03
-3.580000000000000000e+03 -6.444000000000000000e+03
-6.001000000000000000e+03 -6.649000000000000000e+03
-4.603000000000000000e+03 -8.286000000000000000e+03
-5.694000000000000000e+03 -6.274000000000000000e+03
-4.910000000000000000e+03 -6.002000000000000000e+03
-4.671000000000000000e+03 -4.808000000000000000e+03
-5.149000000000000000e+03 -5.661000000000000000e+03
-2.592000000000000000e+03 -6.070000000000000000e+03
-3.341000000000000000e+03 -5.286000000000000000e+03
-3.819000000000000000e+03 -6.342000000000000000e+03
-4.228000000000000000e+03 -5.695000000000000000e+03
-3.955000000000000000e+03 -5.832000000000000000e+03
-5.524000000000000000e+03 -4.433000000000000000e+03
-5.012000000000000000e+03 -2.967000000000000000e+03
-4.979000000000000000e+03 -4.740000000000000000e+03
-4.194000000000000000e+03 -2.762000000000000000e+03
-3.477000000000000000e+03 -3.717000000000000000e+03
-5.115000000000000000e+03 -2.524000000000000000e+03
-5.524000000000000000e+03 -3.273000000000000000e+03
-7.126000000000000000e+03 -2.694000000000000000e+03
-4.774000000000000000e+03 -4.296000000000000000e+03
-4.535000000000000000e+03 -1.228000000000000000e+03
-5.763000000000000000e+03 -9.550000000000000000e+02
-4.399000000000000000e+03 -8.520000000000000000e+02
-2.421000000000000000e+03 1.125000000000000000e+03
-3.921000000000000000e+03 -1.944000000000000000e+03
-3.683000000000000000e+03 -1.020000000000000000e+02
-3.580000000000000000e+03 1.295000000000000000e+03
-3.069000000000000000e+03 5.450000000000000000e+02
-9.550000000000000000e+02 1.364000000000000000e+03
-8.180000000000000000e+02 9.890000000000000000e+02
-1.433000000000000000e+03 -1.739000000000000000e+03
-2.694000000000000000e+03 3.400000000000000000e+02
4.780000000000000000e+02 -5.460000000000000000e+02
1.705000000000000000e+03 2.592000000000000000e+03
-1.160000000000000000e+03 2.115000000000000000e+03
1.569000000000000000e+03 1.705000000000000000e+03
1.841000000000000000e+03 3.819000000000000000e+03
5.120000000000000000e+02 3.035000000000000000e+03
2.557000000000000000e+03 1.091000000000000000e+03
2.898000000000000000e+03 2.183000000000000000e+03
4.536000000000000000e+03 1.228000000000000000e+03
5.592000000000000000e+03 3.308000000000000000e+03
5.422000000000000000e+03 4.126000000000000000e+03
6.137000000000000000e+03 2.319000000000000000e+03
5.592000000000000000e+03 2.557000000000000000e+03
5.660000000000000000e+03 2.864000000000000000e+03
7.808000000000000000e+03 2.114000000000000000e+03
8.082000000000000000e+03 3.683000000000000000e+03
7.195000000000000000e+03 3.069000000000000000e+03
7.468000000000000000e+03 9.200000000000000000e+02
7.365000000000000000e+03 1.364000000000000000e+03
9.037000000000000000e+03 -3.400000000000000000e+01
8.593000000000000000e+03 3.819000000000000000e+03
8.457000000000000000e+03 1.467000000000000000e+03
1.043500000000000000e+04 1.500000000000000000e+03
1.009400000000000000e+04 1.228000000000000000e+03
8.287000000000000000e+03 1.023000000000000000e+03
1.121900000000000000e+04 9.890000000000000000e+02
9.241000000000000000e+03 7.840000000000000000e+02
1.074100000000000000e+04 2.050000000000000000e+02
1.152500000000000000e+04 8.530000000000000000e+02
1.224200000000000000e+04 8.870000000000000000e+02
1.234400000000000000e+04 3.410000000000000000e+02
1.159400000000000000e+04 7.160000000000000000e+02
1.132100000000000000e+04 -3.400000000000000000e+01
1.333300000000000000e+04 3.400000000000000000e+01
1.138900000000000000e+04 -3.070000000000000000e+02
1.350300000000000000e+04 5.460000000000000000e+02
1.081000000000000000e+04 1.360000000000000000e+02
1.022900000000000000e+04 1.020000000000000000e+02
1.091200000000000000e+04 7.850000000000000000e+02
1.190100000000000000e+04 4.090000000000000000e+02
1.152500000000000000e+04 5.460000000000000000e+02
1.016200000000000000e+04 9.210000000000000000e+02
8.423000000000000000e+03 1.057000000000000000e+03
9.889000000000000000e+03 2.050000000000000000e+02
9.446000000000000000e+03 1.637000000000000000e+03
8.695000000000000000e+03 6.480000000000000000e+02
7.911000000000000000e+03 4.430000000000000000e+02
5.286000000000000000e+03 1.710000000000000000e+02
7.502000000000000000e+03 1.637000000000000000e+03
5.081000000000000000e+03 2.183000000000000000e+03
5.115000000000000000e+03 3.240000000000000000e+03
1.705000000000000000e+03 1.193000000000000000e+03
1.125000000000000000e+03 1.875000000000000000e+03
2.899000000000000000e+03 1.500000000000000000e+03
1.535000000000000000e+03 9.550000000000000000e+02
-7.160000000000000000e+02 3.649000000000000000e+03
-6.130000000000000000e+02 2.557000000000000000e+03
-1.535000000000000000e+03 2.966000000000000000e+03
-2.967000000000000000e+03 3.854000000000000000e+03
-2.558000000000000000e+03 2.012000000000000000e+03
-4.569000000000000000e+03 3.717000000000000000e+03
-4.501000000000000000e+03 3.785000000000000000e+03
-3.341000000000000000e+03 3.820000000000000000e+03
-6.376000000000000000e+03 4.399000000000000000e+03
-6.581000000000000000e+03 2.967000000000000000e+03
-8.900000000000000000e+03 2.080000000000000000e+03
-8.013000000000000000e+03 3.819000000000000000e+03
-9.411000000000000000e+03 3.035000000000000000e+03
-8.866000000000000000e+03 3.717000000000000000e+03
-1.179800000000000000e+04 2.830000000000000000e+03
-1.159400000000000000e+04 4.671000000000000000e+03
-1.125200000000000000e+04 3.205000000000000000e+03
-1.377600000000000000e+04 3.717000000000000000e+03
-1.483300000000000000e+04 2.489000000000000000e+03
-1.578800000000000000e+04 1.773000000000000000e+03
-1.554900000000000000e+04 2.353000000000000000e+03
-1.561700000000000000e+04 2.558000000000000000e+03
-1.660600000000000000e+04 5.460000000000000000e+02
-1.626500000000000000e+04 1.091000000000000000e+03
-1.803800000000000000e+04 -7.840000000000000000e+02
-1.779900000000000000e+04 -6.140000000000000000e+02
-2.005100000000000000e+04 -9.200000000000000000e+02
-1.841400000000000000e+04 -2.353000000000000000e+03
-1.940300000000000000e+04 -3.205000000000000000e+03
-1.872000000000000000e+04 -3.172000000000000000e+03
-1.814000000000000000e+04 -5.490000000000000000e+03
-1.912900000000000000e+04 -6.104000000000000000e+03
-1.902800000000000000e+04 -5.661000000000000000e+03
-1.763000000000000000e+04 -6.274000000000000000e+03
-1.783400000000000000e+04 -7.263000000000000000e+03
-1.773100000000000000e+04 -1.053600000000000000e+04
-1.674200000000000000e+04 -9.718000000000000000e+03
-1.773200000000000000e+04 -9.821000000000000000e+03
-1.476400000000000000e+04 -1.101400000000000000e+04
-1.708400000000000000e+04 -1.087700000000000000e+04
-1.742500000000000000e+04 -1.166200000000000000e+04
-1.346900000000000000e+04 -1.135500000000000000e+04
-1.476500000000000000e+04 -1.326400000000000000e+04
-1.384400000000000000e+04 -1.251400000000000000e+04
-1.258300000000000000e+04 -1.500300000000000000e+04
-1.268400000000000000e+04 -1.387800000000000000e+04
-1.309400000000000000e+04 -1.486700000000000000e+04
-1.217300000000000000e+04 -1.599300000000000000e+04
-1.050300000000000000e+04 -1.466200000000000000e+04
-1.098000000000000000e+04 -1.496900000000000000e+04
-9.513000000000000000e+03 -1.698200000000000000e+04
-9.377000000000000000e+03 -1.742500000000000000e+04
-7.093000000000000000e+03 -1.636700000000000000e+04
-5.114000000000000000e+03 -1.786800000000000000e+04
-4.944000000000000000e+03 -1.739100000000000000e+04
-4.024000000000000000e+03 -1.780000000000000000e+04
-4.024000000000000000e+03 -1.793600000000000000e+04
-3.307000000000000000e+03 -1.735700000000000000e+04
-3.070000000000000000e+02 -1.745900000000000000e+04
7.160000000000000000e+02 -1.722000000000000000e+04
-2.040000000000000000e+02 -1.756100000000000000e+04
1.228000000000000000e+03 -1.681000000000000000e+04
2.831000000000000000e+03 -1.660600000000000000e+04
3.887000000000000000e+03 -1.548100000000000000e+04
6.377000000000000000e+03 -1.374200000000000000e+04
6.070000000000000000e+03 -1.323000000000000000e+04
7.263000000000000000e+03 -1.473100000000000000e+04
8.389000000000000000e+03 -1.224100000000000000e+04
1.067400000000000000e+04 -1.098000000000000000e+04
1.063900000000000000e+04 -9.821000000000000000e+03
1.411700000000000000e+04 -8.831000000000000000e+03
1.445900000000000000e+04 -8.320000000000000000e+03
1.422000000000000000e+04 -6.650000000000000000e+03
1.606100000000000000e+04 -4.945000000000000000e+03
1.599300000000000000e+04 -3.888000000000000000e+03
1.933400000000000000e+04 -3.512000000000000000e+03
1.766300000000000000e+04 -1.194000000000000000e+03
1.977800000000000000e+04 -6.820000000000000000e+02
2.076700000000000000e+04 1.700000000000000000e+02
2.083500000000000000e+04 2.040000000000000000e+02
1.957300000000000000e+04 1.057000000000000000e+03
2.097100000000000000e+04 4.637000000000000000e+03
2.271000000000000000e+04 3.819000000000000000e+03
2.380200000000000000e+04 5.967000000000000000e+03
2.547200000000000000e+04 6.615000000000000000e+03
2.349400000000000000e+04 6.752000000000000000e+03
2.557400000000000000e+04 6.479000000000000000e+03
2.451700000000000000e+04 7.161000000000000000e+03
2.516600000000000000e+04 1.009300000000000000e+04
2.567700000000000000e+04 1.005900000000000000e+04
2.826800000000000000e+04 1.036700000000000000e+04
2.714300000000000000e+04 1.159400000000000000e+04
2.533700000000000000e+04 1.439000000000000000e+04
2.588100000000000000e+04 1.428700000000000000e+04
2.755300000000000000e+04 1.377600000000000000e+04
2.369900000000000000e+04 1.534500000000000000e+04
2.502900000000000000e+04 1.722000000000000000e+04
2.475600000000000000e+04 1.800500000000000000e+04
2.455200000000000000e+04 1.943700000000000000e+04
2.441500000000000000e+04 2.025500000000000000e+04
2.165300000000000000e+04 2.124400000000000000e+04
2.161900000000000000e+04 2.250500000000000000e+04
2.022100000000000000e+04 2.161900000000000000e+04
2.008500000000000000e+04 2.646000000000000000e+04
1.776600000000000000e+04 2.564300000000000000e+04
1.623100000000000000e+04 2.953000000000000000e+04
1.524300000000000000e+04 2.891600000000000000e+04
1.309500000000000000e+04 2.826900000000000000e+04
1.275400000000000000e+04 3.092700000000000000e+04
8.491000000000000000e+03 3.021200000000000000e+04
5.081000000000000000e+03 3.184800000000000000e+04
4.536000000000000000e+03 3.324700000000000000e+04
2.040000000000000000e+02 3.512200000000000000e+04
-4.501000000000000000e+03 3.229200000000000000e+04
-6.546000000000000000e+03 3.212100000000000000e+04
-9.207000000000000000e+03 3.167800000000000000e+04
-1.357100000000000000e+04 3.031400000000000000e+04
-1.432100000000000000e+04 2.796100000000000000e+04
-1.872100000000000000e+04 2.591500000000000000e+04
-2.052800000000000000e+04 2.400600000000000000e+04
-2.083400000000000000e+04 2.301700000000000000e+04
-2.349400000000000000e+04 2.271000000000000000e+04
-2.444900000000000000e+04 2.284700000000000000e+04
-2.584700000000000000e+04 2.093600000000000000e+04
-2.755100000000000000e+04 1.667500000000000000e+04
-2.871100000000000000e+04 1.565100000000000000e+04
-2.782500000000000000e+04 1.319600000000000000e+04
-2.953000000000000000e+04 1.278700000000000000e+04
-3.004200000000000000e+04 1.053600000000000000e+04
-3.045000000000000000e+04 1.040000000000000000e+04
-2.840400000000000000e+04 9.616000000000000000e+03
-3.147300000000000000e+04 7.741000000000000000e+03
-3.113300000000000000e+04 6.957000000000000000e+03
-3.410000000000000000e+04 4.638000000000000000e+03
-3.280300000000000000e+04 3.751000000000000000e+03
-3.420100000000000000e+04 4.843000000000000000e+03
-3.413300000000000000e+04 3.376000000000000000e+03
-3.495200000000000000e+04 1.705000000000000000e+03
-3.488400000000000000e+04 9.550000000000000000e+02
-3.710000000000000000e+04 1.126000000000000000e+03
-3.508800000000000000e+04 -9.550000000000000000e+02
-3.577000000000000000e+04 -3.546000000000000000e+03
-3.733900000000000000e+04 -3.513000000000000000e+03
-3.686100000000000000e+04 -7.059000000000000000e+03
-3.675800000000000000e+04 -4.330000000000000000e+03
-3.839500000000000000e+04 -7.876000000000000000e+03
-3.924800000000000000e+04 -1.009300000000000000e+04
-3.986200000000000000e+04 -1.152500000000000000e+04
-3.866900000000000000e+04 -1.333300000000000000e+04
-4.057800000000000000e+04 -1.578700000000000000e+04
-3.962300000000000000e+04 -1.643500000000000000e+04
-4.010000000000000000e+04 -1.807200000000000000e+04
-3.832700000000000000e+04 -2.175500000000000000e+04
-3.720200000000000000e+04 -2.434700000000000000e+04
-3.699800000000000000e+04 -2.530100000000000000e+04
-3.498500000000000000e+04 -2.973400000000000000e+04
-3.617900000000000000e+04 -3.147300000000000000e+04
-3.294000000000000000e+04 -3.587200000000000000e+04
-3.034800000000000000e+04 -3.461000000000000000e+04
-2.939300000000000000e+04 -4.010000000000000000e+04
-2.697200000000000000e+04 -4.033900000000000000e+04
-2.574400000000000000e+04 -4.105500000000000000e+04
-2.063000000000000000e+04 -4.593200000000000000e+04
-1.800400000000000000e+04 -4.494200000000000000e+04
-1.398100000000000000e+04 -4.780700000000000000e+04
-9.172000000000000000e+03 -4.559100000000000000e+04
-5.933000000000000000e+03 -4.807900000000000000e+04
-5.455000000000000000e+03 -4.988700000000000000e+04
