-6.407300000000000000e+04 4.613600000000000000e+04
-6.250400000000000000e+04 4.951200000000000000e+04
-5.892400000000000000e+04 5.636600000000000000e+04
-5.571800000000000000e+04 6.397100000000000000e+04
-5.084200000000000000e+04 7.099400000000000000e+04
-4.770500000000000000e+04 7.747300000000000000e+04
-3.860000000000000000e+04 8.763500000000000000e+04
-2.963200000000000000e+04 9.367000000000000000e+04
-1.916400000000000000e+04 1.022630000000000000e+05
-5.729000000000000000e+03 1.087080000000000000e+05
1.237700000000000000e+04 1.125270000000000000e+05
3.004100000000000000e+04 1.122880000000000000e+05
4.889800000000000000e+04 1.105500000000000000e+05
6.830000000000000000e+04 1.064230000000000000e+05
8.630400000000000000e+04 9.711400000000000000e+04
1.026720000000000000e+05 8.296300000000000000e+04
1.170280000000000000e+05 6.720900000000000000e+04
1.301220000000000000e+05 4.944400000000000000e+04
1.359530000000000000e+05 3.276900000000000000e+04
1.411020000000000000e+05 1.766300000000000000e+04
1.411700000000000000e+05 4.090000000000000000e+02
1.390900000000000000e+05 -1.520800000000000000e+04
1.370440000000000000e+05 -2.915500000000000000e+04
1.299860000000000000e+05 -4.047600000000000000e+04
1.220750000000000000e+05 -5.056900000000000000e+04
1.128330000000000000e+05 -6.243500000000000000e+04
1.023310000000000000e+05 -7.212000000000000000e+04
8.937300000000000000e+04 -8.136000000000000000e+04
7.474500000000000000e+04 -8.811100000000000000e+04
6.066200000000000000e+04 -9.540900000000000000e+04
4.381700000000000000e+04 -9.888800000000000000e+04
2.748400000000000000e+04 -1.037980000000000000e+05
8.967000000000000000e+03 -1.078890000000000000e+05
-6.172000000000000000e+03 -1.084350000000000000e+05
-1.677600000000000000e+04 -1.071390000000000000e+05
-2.816600000000000000e+04 -1.014110000000000000e+05
-3.819100000000000000e+04 -9.390800000000000000e+04
-4.293100000000000000e+04 -8.517900000000000000e+04
-4.716000000000000000e+04 -7.317700000000000000e+04
-5.285300000000000000e+04 -6.321900000000000000e+04
-5.595700000000000000e+04 -5.871900000000000000e+04
-5.588900000000000000e+04 -5.166000000000000000e+04
-6.083300000000000000e+04 -4.835200000000000000e+04
-6.236700000000000000e+04 -4.538600000000000000e+04
-6.380000000000000000e+04 -3.870300000000000000e+04
-7.525700000000000000e+04 -3.679300000000000000e+04
-8.654300000000000000e+04 -2.830200000000000000e+04
-7.645000000000000000e+04 -2.397100000000000000e+04
-8.211000000000000000e+04 -2.318800000000000000e+04
-8.582700000000000000e+04 -1.971000000000000000e+04
-9.305600000000000000e+04 -1.756100000000000000e+04
-9.875100000000000000e+04 -1.442400000000000000e+04
-1.059120000000000000e+05 -1.183200000000000000e+04
-1.245630000000000000e+05 -5.831000000000000000e+03
-1.173000000000000000e+05 1.807000000000000000e+03
-1.198920000000000000e+05 1.026400000000000000e+04
-1.204720000000000000e+05 1.964100000000000000e+04
-1.205740000000000000e+05 2.952900000000000000e+04
-1.151530000000000000e+05 5.742200000000000000e+04
-1.115730000000000000e+05 7.198300000000000000e+04
-9.377200000000000000e+04 9.097700000000000000e+04
-9.476200000000000000e+04 1.050250000000000000e+05
-8.197400000000000000e+04 1.183920000000000000e+05
-6.939100000000000000e+04 1.290300000000000000e+05
-5.629800000000000000e+04 1.387830000000000000e+05
-4.030600000000000000e+04 1.450910000000000000e+05
-2.496000000000000000e+04 1.522520000000000000e+05
-8.082000000000000000e+03 1.572650000000000000e+05
5.387000000000000000e+03 1.601970000000000000e+05
2.121000000000000000e+04 1.604700000000000000e+05
3.703100000000000000e+04 1.599930000000000000e+05
5.547900000000000000e+04 1.556970000000000000e+05
7.750700000000000000e+04 1.457390000000000000e+05
1.072750000000000000e+05 1.429090000000000000e+05
1.441360000000000000e+05 1.306330000000000000e+05
1.704950000000000000e+05 1.233020000000000000e+05
1.944320000000000000e+05 1.085030000000000000e+05
2.316340000000000000e+05 9.506800000000000000e+04
2.597320000000000000e+05 8.330400000000000000e+04
2.771230000000000000e+05 6.997100000000000000e+04
2.889880000000000000e+05 5.053500000000000000e+04
2.932170000000000000e+05 2.584700000000000000e+04
2.935580000000000000e+05 -5.183000000000000000e+03
2.889550000000000000e+05 -3.999900000000000000e+04
2.754510000000000000e+05 -7.464300000000000000e+04
2.597660000000000000e+05 -1.093220000000000000e+05
2.349760000000000000e+05 -1.411700000000000000e+05
2.045260000000000000e+05 -1.680740000000000000e+05
1.688580000000000000e+05 -1.909540000000000000e+05
1.275980000000000000e+05 -2.076630000000000000e+05
8.265600000000000000e+04 -2.243030000000000000e+05
3.911100000000000000e+04 -2.401940000000000000e+05
-5.460000000000000000e+02 -2.556750000000000000e+05
-7.805200000000000000e+04 -2.651540000000000000e+05
-8.367900000000000000e+04 -2.632780000000000000e+05
-8.545200000000000000e+04 -2.507640000000000000e+05
-9.602200000000000000e+04 -2.271680000000000000e+05
-1.132420000000000000e+05 -2.082770000000000000e+05
-1.334970000000000000e+05 -1.636080000000000000e+05
-1.592090000000000000e+05 -1.227910000000000000e+05
-1.836910000000000000e+05 -9.193100000000000000e+04
-2.098110000000000000e+05 -7.361900000000000000e+04
-2.260430000000000000e+05 -6.574300000000000000e+04
-2.310560000000000000e+05 -6.397000000000000000e+04
-2.257010000000000000e+05 -5.923000000000000000e+04
-2.217120000000000000e+05 -5.009100000000000000e+04
-2.203480000000000000e+05 -4.149800000000000000e+04
-2.205180000000000000e+05 -3.283700000000000000e+04
-2.261110000000000000e+05 -3.069000000000000000e+04
-2.283270000000000000e+05 -2.976900000000000000e+04
-2.262810000000000000e+05 -3.215500000000000000e+04
-2.177900000000000000e+05 -2.489300000000000000e+04
-2.072880000000000000e+05 -1.111600000000000000e+04
-1.998540000000000000e+05 8.218000000000000000e+03
-1.919090000000000000e+05 3.727000000000000000e+04
-1.894200000000000000e+05 7.160800000000000000e+04
-1.955240000000000000e+05 1.178120000000000000e+05
-2.137320000000000000e+05 1.609480000000000000e+05
-2.362720000000000000e+05 1.962740000000000000e+05
-2.541060000000000000e+05 2.249850000000000000e+05
-2.584030000000000000e+05 2.483440000000000000e+05
-2.512070000000000000e+05 2.783170000000000000e+05
-2.307140000000000000e+05 3.087660000000000000e+05
-2.033670000000000000e+05 3.413650000000000000e+05
-1.611860000000000000e+05 3.784310000000000000e+05
-1.124240000000000000e+05 4.115750000000000000e+05
-5.264900000000000000e+04 4.412070000000000000e+05
1.606000000000000000e+04 4.583930000000000000e+05
9.005600000000000000e+04 4.620760000000000000e+05
1.739390000000000000e+05 4.486750000000000000e+05
2.589830000000000000e+05 4.203050000000000000e+05
3.467190000000000000e+05 3.733500000000000000e+05
4.240210000000000000e+05 3.155530000000000000e+05
4.849220000000000000e+05 2.460250000000000000e+05
5.312280000000000000e+05 1.745530000000000000e+05
5.540070000000000000e+05 1.079230000000000000e+05
5.585760000000000000e+05 3.802000000000000000e+04
5.428560000000000000e+05 -3.416700000000000000e+04
5.148610000000000000e+05 -9.749000000000000000e+04
4.770800000000000000e+05 -1.609820000000000000e+05
4.318640000000000000e+05 -2.230070000000000000e+05
3.860010000000000000e+05 -2.830560000000000000e+05
3.445700000000000000e+05 -3.368300000000000000e+05
3.008560000000000000e+05 -3.788740000000000000e+05
2.549930000000000000e+05 -4.134850000000000000e+05
2.036730000000000000e+05 -4.370470000000000000e+05
1.526950000000000000e+05 -4.551540000000000000e+05
9.616000000000000000e+04 -4.653500000000000000e+05
3.979400000000000000e+04 -4.686220000000000000e+05
-1.694700000000000000e+04 -4.641900000000000000e+05
-7.276700000000000000e+04 -4.509260000000000000e+05
-1.234050000000000000e+05 -4.267150000000000000e+05
-1.739390000000000000e+05 -3.900240000000000000e+05
-2.203480000000000000e+05 -3.453550000000000000e+05
-2.575160000000000000e+05 -2.899100000000000000e+05
-2.891250000000000000e+05 -2.319420000000000000e+05
-3.144270000000000000e+05 -1.686880000000000000e+05
-3.332840000000000000e+05 -1.077870000000000000e+05
-3.461050000000000000e+05 -5.476300000000000000e+04
-3.491400000000000000e+05 -1.077600000000000000e+04
-3.401380000000000000e+05 1.987900000000000000e+04
-3.247250000000000000e+05 4.371500000000000000e+04
-3.033110000000000000e+05 6.379900000000000000e+04
-2.762360000000000000e+05 7.327800000000000000e+04
-2.543100000000000000e+05 8.326900000000000000e+04
-2.319420000000000000e+05 9.053300000000000000e+04
-2.146540000000000000e+05 9.701100000000000000e+04
-2.030940000000000000e+05 1.011370000000000000e+05
-1.963760000000000000e+05 1.053320000000000000e+05
-1.884990000000000000e+05 1.101390000000000000e+05
-1.858400000000000000e+05 1.227910000000000000e+05
-1.855660000000000000e+05 1.411690000000000000e+05
-1.838950000000000000e+05 1.664040000000000000e+05
-1.841010000000000000e+05 1.972970000000000000e+05
-1.862150000000000000e+05 2.314990000000000000e+05
-1.815770000000000000e+05 2.655640000000000000e+05
-1.708700000000000000e+05 3.018110000000000000e+05
-1.537530000000000000e+05 3.342390000000000000e+05
-1.275300000000000000e+05 3.632570000000000000e+05
-9.135100000000000000e+04 3.859670000000000000e+05
-4.521500000000000000e+04 3.975260000000000000e+05
1.162800000000000000e+04 4.003570000000000000e+05
7.655200000000000000e+04 3.913880000000000000e+05
1.467970000000000000e+05 3.792840000000000000e+05
2.157450000000000000e+05 3.521740000000000000e+05
2.832950000000000000e+05 3.240090000000000000e+05
3.450140000000000000e+05 2.798510000000000000e+05
4.026410000000000000e+05 2.282250000000000000e+05
4.539610000000000000e+05 1.709050000000000000e+05
4.977770000000000000e+05 1.070020000000000000e+05
5.332750000000000000e+05 3.590600000000000000e+04
5.591560000000000000e+05 -3.525800000000000000e+04
5.720110000000000000e+05 -1.087410000000000000e+05
5.749780000000000000e+05 -1.839980000000000000e+05
5.632470000000000000e+05 -2.608580000000000000e+05
5.310240000000000000e+05 -3.376830000000000000e+05
4.828760000000000000e+05 -4.134850000000000000e+05
4.182240000000000000e+05 -4.877520000000000000e+05
3.387400000000000000e+05 -5.507330000000000000e+05
2.442850000000000000e+05 -6.009280000000000000e+05
1.401810000000000000e+05 -6.321630000000000000e+05
2.820000000000000000e+04 -6.370380000000000000e+05
-8.224700000000000000e+04 -6.197500000000000000e+05
-1.834540000000000000e+05 -5.782840000000000000e+05
-2.752470000000000000e+05 -5.181690000000000000e+05
-3.515950000000000000e+05 -4.454700000000000000e+05
-4.099050000000000000e+05 -3.615860000000000000e+05
-4.518470000000000000e+05 -2.792720000000000000e+05
-4.773190000000000000e+05 -1.991040000000000000e+05
-4.873430000000000000e+05 -1.248020000000000000e+05
-4.856720000000000000e+05 -5.674100000000000000e+04
-4.711460000000000000e+05 5.967000000000000000e+03
-4.506860000000000000e+05 6.069700000000000000e+04
-4.237830000000000000e+05 1.131410000000000000e+05
-3.964700000000000000e+05 1.577430000000000000e+05
-3.654050000000000000e+05 1.930350000000000000e+05
-3.354330000000000000e+05 2.226670000000000000e+05
-3.083580000000000000e+05 2.448300000000000000e+05
-2.767480000000000000e+05 2.549580000000000000e+05
-2.428870000000000000e+05 2.633130000000000000e+05
-2.080040000000000000e+05 2.640970000000000000e+05
-1.720640000000000000e+05 2.610620000000000000e+05
-1.359870000000000000e+05 2.573450000000000000e+05
-1.065590000000000000e+05 2.522980000000000000e+05
-8.020100000000000000e+04 2.473540000000000000e+05
-5.449100000000000000e+04 2.413530000000000000e+05
-3.703200000000000000e+04 2.353510000000000000e+05
-2.404000000000000000e+04 2.303730000000000000e+05
-6.752000000000000000e+03 2.243030000000000000e+05
2.455000000000000000e+03 2.204500000000000000e+05
1.285500000000000000e+04 2.186090000000000000e+05
2.622200000000000000e+04 2.193590000000000000e+05
3.805500000000000000e+04 2.202790000000000000e+05
5.237600000000000000e+04 2.255990000000000000e+05
6.905000000000000000e+04 2.283610000000000000e+05
8.633900000000000000e+04 2.364430000000000000e+05
1.044450000000000000e+05 2.400570000000000000e+05
1.277010000000000000e+05 2.374650000000000000e+05
1.522870000000000000e+05 2.320100000000000000e+05
1.811340000000000000e+05 2.266900000000000000e+05
2.158130000000000000e+05 2.111410000000000000e+05
2.523670000000000000e+05 1.918750000000000000e+05
2.922970000000000000e+05 1.707000000000000000e+05
3.307950000000000000e+05 1.435910000000000000e+05
3.691220000000000000e+05 1.088100000000000000e+05
4.025730000000000000e+05 7.297200000000000000e+04
4.288630000000000000e+05 2.803000000000000000e+04
4.519150000000000000e+05 -1.923200000000000000e+04
4.644290000000000000e+05 -7.089200000000000000e+04
4.677360000000000000e+05 -1.249040000000000000e+05
4.622460000000000000e+05 -1.829750000000000000e+05
4.496990000000000000e+05 -2.381140000000000000e+05
4.233400000000000000e+05 -2.912730000000000000e+05
3.886270000000000000e+05 -3.411270000000000000e+05
3.467870000000000000e+05 -3.851820000000000000e+05
2.927410000000000000e+05 -4.214300000000000000e+05
2.387620000000000000e+05 -4.518120000000000000e+05
1.775530000000000000e+05 -4.758170000000000000e+05
1.109590000000000000e+05 -4.885020000000000000e+05
4.180500000000000000e+04 -4.962420000000000000e+05
-2.578000000000000000e+04 -5.005390000000000000e+05
-9.445500000000000000e+04 -4.934820000000000000e+05
-1.592430000000000000e+05 -4.825010000000000000e+05
-2.234850000000000000e+05 -4.595860000000000000e+05
-2.841470000000000000e+05 -4.283860000000000000e+05
-3.448770000000000000e+05 -3.876040000000000000e+05
-3.996060000000000000e+05 -3.375800000000000000e+05
-4.500050000000000000e+05 -2.779410000000000000e+05
-4.895250000000000000e+05 -2.151980000000000000e+05
-5.207940000000000000e+05 -1.401130000000000000e+05
-5.383210000000000000e+05 -6.403700000000000000e+04
-5.393450000000000000e+05 1.353700000000000000e+04
-5.243410000000000000e+05 8.814600000000000000e+04
-4.955620000000000000e+05 1.595160000000000000e+05
-4.523920000000000000e+05 2.183360000000000000e+05
-4.023000000000000000e+05 2.610620000000000000e+05
-3.421840000000000000e+05 2.990820000000000000e+05
-2.854090000000000000e+05 3.208380000000000000e+05
-2.293160000000000000e+05 3.349210000000000000e+05
-1.791900000000000000e+05 3.345110000000000000e+05
-1.344860000000000000e+05 3.297040000000000000e+05
-9.694400000000000000e+04 3.198830000000000000e+05
-6.407200000000000000e+04 3.056640000000000000e+05
-3.236000000000000000e+04 2.908990000000000000e+05
-1.036600000000000000e+04 2.777020000000000000e+05
1.156000000000000000e+04 2.645070000000000000e+05
2.912000000000000000e+04 2.536280000000000000e+05
4.681800000000000000e+04 2.455470000000000000e+05
6.182200000000000000e+04 2.400910000000000000e+05
7.505100000000000000e+04 2.353180000000000000e+05
8.876000000000000000e+04 2.272020000000000000e+05
1.036950000000000000e+05 2.243030000000000000e+05
1.223480000000000000e+05 2.202790000000000000e+05
1.383740000000000000e+05 2.132890000000000000e+05
1.610160000000000000e+05 2.080380000000000000e+05
1.841010000000000000e+05 1.993770000000000000e+05
2.061970000000000000e+05 1.900680000000000000e+05
2.325550000000000000e+05 1.757460000000000000e+05
2.559130000000000000e+05 1.601630000000000000e+05
2.810440000000000000e+05 1.407950000000000000e+05
2.998670000000000000e+05 1.164830000000000000e+05
3.206320000000000000e+05 8.698700000000000000e+04
3.363870000000000000e+05 5.469500000000000000e+04
3.504360000000000000e+05 1.626500000000000000e+04
3.609720000000000000e+05 -2.352800000000000000e+04
3.707930000000000000e+05 -6.639100000000000000e+04
3.755670000000000000e+05 -1.060480000000000000e+05
3.762150000000000000e+05 -1.468980000000000000e+05
3.715430000000000000e+05 -1.891130000000000000e+05
3.603590000000000000e+05 -2.283620000000000000e+05
3.423200000000000000e+05 -2.683930000000000000e+05
3.153140000000000000e+05 -3.094490000000000000e+05
2.866030000000000000e+05 -3.480830000000000000e+05
2.471500000000000000e+05 -3.835120000000000000e+05
2.030600000000000000e+05 -4.196220000000000000e+05
1.496610000000000000e+05 -4.457770000000000000e+05
9.199900000000000000e+04 -4.673960000000000000e+05
2.427900000000000000e+04 -4.766020000000000000e+05
-5.033000000000000000e+04 -4.782050000000000000e+05
-1.299170000000000000e+05 -4.703280000000000000e+05
-2.126750000000000000e+05 -4.564840000000000000e+05
-2.910010000000000000e+05 -4.384790000000000000e+05
-3.623700000000000000e+05 -4.078930000000000000e+05
-4.211910000000000000e+05 -3.606660000000000000e+05
-4.651780000000000000e+05 -2.951610000000000000e+05
-5.008800000000000000e+05 -2.189150000000000000e+05
-5.262500000000000000e+05 -1.371120000000000000e+05
-5.403330000000000000e+05 -5.793400000000000000e+04
-5.426180000000000000e+05 1.479900000000000000e+04
-5.329340000000000000e+05 8.456600000000000000e+04
-5.129510000000000000e+05 1.471710000000000000e+05
-4.839670000000000000e+05 2.041170000000000000e+05
-4.475500000000000000e+05 2.523670000000000000e+05
-4.056420000000000000e+05 2.966270000000000000e+05
-3.551410000000000000e+05 3.339990000000000000e+05
-3.043350000000000000e+05 3.631210000000000000e+05
-2.484450000000000000e+05 3.857970000000000000e+05
-1.922510000000000000e+05 3.990270000000000000e+05
-1.367370000000000000e+05 4.038350000000000000e+05
-8.081500000000000000e+04 3.992650000000000000e+05
-2.936000000000000000e+04 3.885580000000000000e+05
2.175600000000000000e+04 3.712700000000000000e+05
6.495800000000000000e+04 3.510150000000000000e+05
1.051950000000000000e+05 3.259190000000000000e+05
1.368060000000000000e+05 2.992530000000000000e+05
1.635050000000000000e+05 2.746330000000000000e+05
1.841690000000000000e+05 2.487530000000000000e+05
2.016960000000000000e+05 2.275090000000000000e+05
2.139370000000000000e+05 2.060600000000000000e+05
2.282930000000000000e+05 1.895220000000000000e+05
2.386930000000000000e+05 1.708360000000000000e+05
2.516860000000000000e+05 1.583220000000000000e+05
2.623920000000000000e+05 1.406920000000000000e+05
2.768840000000000000e+05 1.239490000000000000e+05
2.922970000000000000e+05 1.085710000000000000e+05
3.024580000000000000e+05 8.603200000000000000e+04
3.196100000000000000e+05 6.472000000000000000e+04
3.299080000000000000e+05 4.085000000000000000e+04
3.434790000000000000e+05 1.496900000000000000e+04
3.526860000000000000e+05 -1.483300000000000000e+04
3.575280000000000000e+05 -4.627200000000000000e+04
3.598460000000000000e+05 -7.979200000000000000e+04
3.572900000000000000e+05 -1.143340000000000000e+05
3.505720000000000000e+05 -1.530710000000000000e+05
3.375120000000000000e+05 -1.894540000000000000e+05
3.178020000000000000e+05 -2.264520000000000000e+05
2.886480000000000000e+05 -2.600740000000000000e+05
2.531850000000000000e+05 -2.937630000000000000e+05
2.101860000000000000e+05 -3.222020000000000000e+05
1.613900000000000000e+05 -3.437520000000000000e+05
1.070370000000000000e+05 -3.634620000000000000e+05
5.084100000000000000e+04 -3.733170000000000000e+05
-9.036000000000000000e+03 -3.767610000000000000e+05
-6.813000000000000000e+04 -3.748850000000000000e+05
-1.201310000000000000e+05 -3.673830000000000000e+05
-1.694380000000000000e+05 -3.518330000000000000e+05
-2.173130000000000000e+05 -3.352620000000000000e+05
-2.580960000000000000e+05 -3.140520000000000000e+05
-2.991170000000000000e+05 -2.898760000000000000e+05
-3.332150000000000000e+05 -2.614710000000000000e+05
-3.622340000000000000e+05 -2.327260000000000000e+05
-3.919010000000000000e+05 -1.996150000000000000e+05
-4.165200000000000000e+05 -1.653470000000000000e+05
-4.358530000000000000e+05 -1.283830000000000000e+05
-4.501750000000000000e+05 -8.858900000000000000e+04
-4.583930000000000000e+05 -4.586400000000000000e+04
-4.629630000000000000e+05 3.070000000000000000e+02
-4.575070000000000000e+05 5.026200000000000000e+04
-4.454010000000000000e+05 9.786400000000000000e+04
-4.227940000000000000e+05 1.508880000000000000e+05
-3.920710000000000000e+05 1.965130000000000000e+05
-3.538120000000000000e+05 2.392730000000000000e+05
-3.065160000000000000e+05 2.753840000000000000e+05
-2.525380000000000000e+05 3.046410000000000000e+05
-1.989340000000000000e+05 3.223730000000000000e+05
-1.395670000000000000e+05 3.319200000000000000e+05
-8.269000000000000000e+04 3.328410000000000000e+05
-2.758600000000000000e+04 3.257830000000000000e+05
2.131200000000000000e+04 3.122790000000000000e+05
5.977500000000000000e+04 2.933200000000000000e+05
9.704600000000000000e+04 2.723830000000000000e+05
1.256550000000000000e+05 2.470810000000000000e+05
1.487060000000000000e+05 2.216440000000000000e+05
1.655160000000000000e+05 1.965130000000000000e+05
1.767010000000000000e+05 1.739740000000000000e+05
1.864530000000000000e+05 1.495580000000000000e+05
1.929670000000000000e+05 1.293370000000000000e+05
1.980130000000000000e+05 1.108210000000000000e+05
1.986940000000000000e+05 9.575000000000000000e+04
2.025480000000000000e+05 8.555500000000000000e+04
2.044910000000000000e+05 7.385800000000000000e+04
2.073900000000000000e+05 6.567500000000000000e+04
2.134600000000000000e+05 6.032100000000000000e+04
2.164260000000000000e+05 5.193300000000000000e+04
2.207910000000000000e+05 4.419200000000000000e+04
2.267250000000000000e+05 3.716800000000000000e+04
2.350790000000000000e+05 2.523300000000000000e+04
2.430230000000000000e+05 1.111600000000000000e+04
2.515490000000000000e+05 -7.298000000000000000e+03
2.569020000000000000e+05 -2.809700000000000000e+04
2.613010000000000000e+05 -5.455900000000000000e+04
2.625290000000000000e+05 -7.846200000000000000e+04
2.578230000000000000e+05 -1.051610000000000000e+05
2.499460000000000000e+05 -1.351340000000000000e+05
2.378750000000000000e+05 -1.645620000000000000e+05
2.191550000000000000e+05 -1.886700000000000000e+05
2.001270000000000000e+05 -2.104250000000000000e+05
1.739050000000000000e+05 -2.335430000000000000e+05
1.459780000000000000e+05 -2.516160000000000000e+05
1.103790000000000000e+05 -2.693140000000000000e+05
7.171000000000000000e+04 -2.831570000000000000e+05
2.506200000000000000e+04 -2.930470000000000000e+05
-1.916300000000000000e+04 -2.972410000000000000e+05
-6.707200000000000000e+04 -2.930470000000000000e+05
-1.165510000000000000e+05 -2.815560000000000000e+05
-1.654150000000000000e+05 -2.624600000000000000e+05
-2.121300000000000000e+05 -2.391020000000000000e+05
-2.521630000000000000e+05 -2.119930000000000000e+05
-2.833630000000000000e+05 -1.811680000000000000e+05
-3.087670000000000000e+05 -1.485350000000000000e+05
-3.230880000000000000e+05 -1.174030000000000000e+05
-3.294310000000000000e+05 -8.374700000000000000e+04
-3.292610000000000000e+05 -5.268400000000000000e+04
-3.171550000000000000e+05 -2.196000000000000000e+04
-3.065500000000000000e+05 6.274000000000000000e+03
-2.849310000000000000e+05 3.791800000000000000e+04
-2.610960000000000000e+05 6.461700000000000000e+04
-2.350780000000000000e+05 9.370400000000000000e+04
-2.095730000000000000e+05 1.213580000000000000e+05
-1.854980000000000000e+05 1.485010000000000000e+05
-1.624130000000000000e+05 1.726100000000000000e+05
-1.417500000000000000e+05 1.965470000000000000e+05
-1.186300000000000000e+05 2.215080000000000000e+05
-9.199900000000000000e+04 2.543110000000000000e+05
-5.660400000000000000e+04 2.581640000000000000e+05
-2.182400000000000000e+04 2.573450000000000000e+05
1.425400000000000000e+04 2.579590000000000000e+05
4.889800000000000000e+04 2.502190000000000000e+05
8.272400000000000000e+04 2.376020000000000000e+05
1.123230000000000000e+05 2.219510000000000000e+05
1.366350000000000000e+05 2.025150000000000000e+05
1.575380000000000000e+05 1.791910000000000000e+05
1.743140000000000000e+05 1.536160000000000000e+05
1.849530000000000000e+05 1.260980000000000000e+05
1.903750000000000000e+05 1.015130000000000000e+05
1.902040000000000000e+05 7.389300000000000000e+04
1.878510000000000000e+05 5.281900000000000000e+04
1.801100000000000000e+05 3.031400000000000000e+04
1.716890000000000000e+05 1.213900000000000000e+04
1.620720000000000000e+05 1.057000000000000000e+03
1.535140000000000000e+05 -1.074200000000000000e+04
1.417840000000000000e+05 -1.820900000000000000e+04
1.336670000000000000e+05 -2.155000000000000000e+04
1.255520000000000000e+05 -2.482400000000000000e+04
1.202670000000000000e+05 -2.683600000000000000e+04
1.164480000000000000e+05 -2.721100000000000000e+04
1.159700000000000000e+05 -2.659700000000000000e+04
1.150150000000000000e+05 -3.007500000000000000e+04
1.176070000000000000e+05 -3.178000000000000000e+04
1.201990000000000000e+05 -3.679300000000000000e+04
1.258600000000000000e+05 -4.511300000000000000e+04
1.280760000000000000e+05 -5.449100000000000000e+04
1.311450000000000000e+05 -6.853900000000000000e+04
1.325080000000000000e+05 -8.214500000000000000e+04
1.309410000000000000e+05 -9.786400000000000000e+04
1.227570000000000000e+05 -1.191760000000000000e+05
1.157660000000000000e+05 -1.385790000000000000e+05
1.000130000000000000e+05 -1.568890000000000000e+05
8.102000000000000000e+04 -1.740420000000000000e+05
5.636600000000000000e+04 -1.899650000000000000e+05
2.966600000000000000e+04 -2.012530000000000000e+05
2.730000000000000000e+02 -2.093340000000000000e+05
-3.205400000000000000e+04 -2.133230000000000000e+05
-6.332200000000000000e+04 -2.102540000000000000e+05
-9.776200000000000000e+04 -2.073910000000000000e+05
-1.312470000000000000e+05 -1.961710000000000000e+05
-1.615950000000000000e+05 -1.830100000000000000e+05
-1.900680000000000000e+05 -1.653120000000000000e+05
-2.189160000000000000e+05 -1.417500000000000000e+05
-2.412170000000000000e+05 -1.168580000000000000e+05
