-9.820000000000000000e+03 -6.957000000000000000e+03
-1.050200000000000000e+04 -6.343000000000000000e+03
-1.074100000000000000e+04 -4.399000000000000000e+03
-1.282200000000000000e+04 -4.330000000000000000e+03
-1.486700000000000000e+04 -1.159000000000000000e+03
-1.490100000000000000e+04 2.390000000000000000e+02
-1.507200000000000000e+04 2.046000000000000000e+03
-1.616200000000000000e+04 4.023000000000000000e+03
-1.636700000000000000e+04 5.626000000000000000e+03
-1.657200000000000000e+04 6.581000000000000000e+03
-1.650300000000000000e+04 8.116000000000000000e+03
-1.824300000000000000e+04 1.043400000000000000e+04
-1.425300000000000000e+04 1.254800000000000000e+04
-1.377600000000000000e+04 1.647000000000000000e+04
-1.336700000000000000e+04 1.394600000000000000e+04
-1.026400000000000000e+04 1.824300000000000000e+04
-9.445000000000000000e+03 1.814100000000000000e+04
-7.296000000000000000e+03 1.957300000000000000e+04
-5.046000000000000000e+03 2.022100000000000000e+04
-2.285000000000000000e+03 2.039100000000000000e+04
2.390000000000000000e+02 2.185800000000000000e+04
2.080000000000000000e+03 1.909500000000000000e+04
3.649000000000000000e+03 1.991400000000000000e+04
6.547000000000000000e+03 1.803900000000000000e+04
9.376000000000000000e+03 1.664000000000000000e+04
1.159300000000000000e+04 1.544700000000000000e+04
1.176300000000000000e+04 1.370800000000000000e+04
1.435600000000000000e+04 1.377700000000000000e+04
1.578800000000000000e+04 9.581000000000000000e+03
1.462800000000000000e+04 8.013000000000000000e+03
1.483200000000000000e+04 7.877000000000000000e+03
1.435600000000000000e+04 4.432000000000000000e+03
1.445800000000000000e+04 2.762000000000000000e+03
1.319600000000000000e+04 7.850000000000000000e+02
1.306000000000000000e+04 -8.520000000000000000e+02
1.101400000000000000e+04 -3.410000000000000000e+03
1.033200000000000000e+04 -5.490000000000000000e+03
9.309000000000000000e+03 -5.729000000000000000e+03
7.603000000000000000e+03 -6.513000000000000000e+03
8.047000000000000000e+03 -6.036000000000000000e+03
5.728000000000000000e+03 -5.217000000000000000e+03
4.330000000000000000e+03 -7.263000000000000000e+03
4.057000000000000000e+03 -9.173000000000000000e+03
4.262000000000000000e+03 -8.150000000000000000e+03
3.069000000000000000e+03 -7.332000000000000000e+03
3.751000000000000000e+03 -8.116000000000000000e+03
4.092000000000000000e+03 -6.444000000000000000e+03
4.297000000000000000e+03 -7.809000000000000000e+03
4.364000000000000000e+03 -7.195000000000000000e+03
3.376000000000000000e+03 -5.831000000000000000e+03
2.455000000000000000e+03 -8.286000000000000000e+03
4.160000000000000000e+03 -7.365000000000000000e+03
3.614000000000000000e+03 -9.070000000000000000e+03
2.830000000000000000e+03 -8.252000000000000000e+03
3.410000000000000000e+03 -8.183000000000000000e+03
1.534000000000000000e+03 -9.412000000000000000e+03
2.830000000000000000e+03 -9.990000000000000000e+03
5.450000000000000000e+02 -8.695000000000000000e+03
-1.160000000000000000e+03 -9.513000000000000000e+03
-1.841000000000000000e+03 -1.029800000000000000e+04
-3.443000000000000000e+03 -8.082000000000000000e+03
-4.569000000000000000e+03 -8.422000000000000000e+03
-6.001000000000000000e+03 -7.297000000000000000e+03
-6.309000000000000000e+03 -7.093000000000000000e+03
-7.877000000000000000e+03 -5.183000000000000000e+03
-9.343000000000000000e+03 -4.501000000000000000e+03
-1.115000000000000000e+04 -3.410000000000000000e+03
-1.278700000000000000e+04 -2.319000000000000000e+03
-1.200300000000000000e+04 -1.159000000000000000e+03
-1.234400000000000000e+04 2.730000000000000000e+02
-1.445800000000000000e+04 4.466000000000000000e+03
-1.445900000000000000e+04 3.512000000000000000e+03
-1.357200000000000000e+04 6.274000000000000000e+03
-1.254800000000000000e+04 9.104000000000000000e+03
-1.302600000000000000e+04 9.070000000000000000e+03
-1.466300000000000000e+04 1.316200000000000000e+04
-1.333200000000000000e+04 1.599200000000000000e+04
-1.104800000000000000e+04 1.548200000000000000e+04
-9.786000000000000000e+03 1.766300000000000000e+04
-6.138000000000000000e+03 1.834500000000000000e+04
-3.410000000000000000e+03 2.011800000000000000e+04
-4.780000000000000000e+02 1.912900000000000000e+04
2.390000000000000000e+02 1.837900000000000000e+04
2.284000000000000000e+03 1.824200000000000000e+04
6.752000000000000000e+03 1.698200000000000000e+04
8.696000000000000000e+03 1.558300000000000000e+04
8.865000000000000000e+03 1.469700000000000000e+04
1.220700000000000000e+04 1.207100000000000000e+04
1.439000000000000000e+04 1.016100000000000000e+04
1.357200000000000000e+04 8.491000000000000000e+03
1.237900000000000000e+04 6.546000000000000000e+03
1.496900000000000000e+04 6.547000000000000000e+03
1.445800000000000000e+04 3.922000000000000000e+03
1.323100000000000000e+04 1.091000000000000000e+03
1.490100000000000000e+04 -6.900000000000000000e+01
1.394700000000000000e+04 3.750000000000000000e+02
1.268500000000000000e+04 -1.978000000000000000e+03
1.149100000000000000e+04 -3.615000000000000000e+03
7.502000000000000000e+03 -8.900000000000000000e+03
6.888000000000000000e+03 -7.775000000000000000e+03
4.468000000000000000e+03 -7.911000000000000000e+03
4.160000000000000000e+03 -9.241000000000000000e+03
3.853000000000000000e+03 -9.821000000000000000e+03
1.944000000000000000e+03 -1.108300000000000000e+04
-4.440000000000000000e+02 -1.009400000000000000e+04
1.262000000000000000e+03 -1.006000000000000000e+04
0.000000000000000000e+00 -1.098000000000000000e+04
6.140000000000000000e+02 -9.002000000000000000e+03
-6.480000000000000000e+02 -8.729000000000000000e+03
2.114000000000000000e+03 -8.797000000000000000e+03
-5.120000000000000000e+02 -9.479000000000000000e+03
2.011000000000000000e+03 -9.104000000000000000e+03
4.430000000000000000e+02 -8.628000000000000000e+03
1.978000000000000000e+03 -9.889000000000000000e+03
3.921000000000000000e+03 -8.525000000000000000e+03
1.501000000000000000e+03 -6.717000000000000000e+03
2.591000000000000000e+03 -7.468000000000000000e+03
1.193000000000000000e+03 -1.036600000000000000e+04
1.808000000000000000e+03 -1.046900000000000000e+04
-1.433000000000000000e+03 -1.173000000000000000e+04
-1.944000000000000000e+03 -8.048000000000000000e+03
-1.977000000000000000e+03 -9.241000000000000000e+03
-2.898000000000000000e+03 -1.077600000000000000e+04
-4.023000000000000000e+03 -8.287000000000000000e+03
-6.104000000000000000e+03 -6.786000000000000000e+03
-5.490000000000000000e+03 -5.729000000000000000e+03
-9.206000000000000000e+03 -4.502000000000000000e+03
-1.005900000000000000e+04 -2.455000000000000000e+03
-1.098000000000000000e+04 -9.200000000000000000e+02
-1.227500000000000000e+04 2.114000000000000000e+03
-1.183300000000000000e+04 1.943000000000000000e+03
-1.422000000000000000e+04 4.262000000000000000e+03
-1.568500000000000000e+04 5.762000000000000000e+03
-1.439000000000000000e+04 9.888000000000000000e+03
-1.415100000000000000e+04 9.820000000000000000e+03
-1.565200000000000000e+04 1.125300000000000000e+04
-1.207200000000000000e+04 1.391300000000000000e+04
-1.241200000000000000e+04 1.387900000000000000e+04
-1.237800000000000000e+04 1.602600000000000000e+04
-9.957000000000000000e+03 1.718600000000000000e+04
-7.707000000000000000e+03 1.875400000000000000e+04
-5.967000000000000000e+03 1.732300000000000000e+04
-5.626000000000000000e+03 1.698100000000000000e+04
-3.614000000000000000e+03 1.854900000000000000e+04
-2.319000000000000000e+03 1.728800000000000000e+04
2.864000000000000000e+03 1.619700000000000000e+04
3.854000000000000000e+03 1.681100000000000000e+04
8.252000000000000000e+03 1.527600000000000000e+04
8.184000000000000000e+03 1.275300000000000000e+04
1.043400000000000000e+04 9.411000000000000000e+03
1.295800000000000000e+04 8.218000000000000000e+03
1.374300000000000000e+04 6.240000000000000000e+03
1.483400000000000000e+04 5.660000000000000000e+03
1.364000000000000000e+04 1.739000000000000000e+03
1.479900000000000000e+04 -1.194000000000000000e+03
1.650300000000000000e+04 -1.159000000000000000e+03
1.401500000000000000e+04 -4.807000000000000000e+03
1.179800000000000000e+04 -5.422000000000000000e+03
1.200300000000000000e+04 -6.479000000000000000e+03
9.651000000000000000e+03 -7.945000000000000000e+03
7.400000000000000000e+03 -6.786000000000000000e+03
5.831000000000000000e+03 -9.991000000000000000e+03
4.910000000000000000e+03 -9.718000000000000000e+03
4.637000000000000000e+03 -9.344000000000000000e+03
2.967000000000000000e+03 -1.087800000000000000e+04
2.080000000000000000e+03 -1.087800000000000000e+04
-3.410000000000000000e+02 -1.084400000000000000e+04
4.430000000000000000e+02 -1.040000000000000000e+04
-5.800000000000000000e+02 -1.019600000000000000e+04
1.022000000000000000e+03 -9.275000000000000000e+03
-2.216000000000000000e+03 -1.070700000000000000e+04
-1.091000000000000000e+03 -8.150000000000000000e+03
-2.319000000000000000e+03 -8.320000000000000000e+03
1.125000000000000000e+03 -6.752000000000000000e+03
-5.450000000000000000e+02 -7.058000000000000000e+03
1.022000000000000000e+03 -5.387000000000000000e+03
-2.730000000000000000e+02 -7.910000000000000000e+03
-9.200000000000000000e+02 -7.059000000000000000e+03
-6.800000000000000000e+01 -6.649000000000000000e+03
-1.159000000000000000e+03 -5.525000000000000000e+03
-6.800000000000000000e+01 -7.434000000000000000e+03
-8.870000000000000000e+02 -6.854000000000000000e+03
3.400000000000000000e+01 -8.013000000000000000e+03
-5.110000000000000000e+02 -6.513000000000000000e+03
-3.852000000000000000e+03 -6.445000000000000000e+03
-3.956000000000000000e+03 -7.978000000000000000e+03
-5.285000000000000000e+03 -7.434000000000000000e+03
-6.956000000000000000e+03 -8.150000000000000000e+03
-7.332000000000000000e+03 -4.910000000000000000e+03
-1.016100000000000000e+04 -4.978000000000000000e+03
-1.026400000000000000e+04 -3.614000000000000000e+03
-1.203700000000000000e+04 -1.363000000000000000e+03
-1.292300000000000000e+04 -3.400000000000000000e+01
-1.121900000000000000e+04 -3.400000000000000000e+01
-1.323000000000000000e+04 2.932000000000000000e+03
-1.271900000000000000e+04 3.171000000000000000e+03
-1.237800000000000000e+04 7.195000000000000000e+03
-1.087700000000000000e+04 9.445000000000000000e+03
-9.957000000000000000e+03 1.111700000000000000e+04
-9.138000000000000000e+03 1.070700000000000000e+04
-8.013000000000000000e+03 1.200300000000000000e+04
-5.557000000000000000e+03 1.179900000000000000e+04
-3.989000000000000000e+03 1.173000000000000000e+04
7.500000000000000000e+02 1.394700000000000000e+04
3.750000000000000000e+02 1.224200000000000000e+04
4.910000000000000000e+03 1.108300000000000000e+04
6.717000000000000000e+03 1.203800000000000000e+04
8.764000000000000000e+03 9.718000000000000000e+03
1.118500000000000000e+04 9.173000000000000000e+03
1.370800000000000000e+04 7.877000000000000000e+03
1.555000000000000000e+04 7.025000000000000000e+03
1.780000000000000000e+04 5.217000000000000000e+03
1.807200000000000000e+04 4.057000000000000000e+03
2.288000000000000000e+04 2.933000000000000000e+03
2.107300000000000000e+04 -5.110000000000000000e+02
2.294900000000000000e+04 -6.480000000000000000e+02
2.421100000000000000e+04 1.370000000000000000e+02
2.618900000000000000e+04 3.400000000000000000e+01
2.472200000000000000e+04 -6.820000000000000000e+02
2.294900000000000000e+04 -4.430000000000000000e+02
2.121000000000000000e+04 6.140000000000000000e+02
1.807300000000000000e+04 4.090000000000000000e+02
1.459500000000000000e+04 -5.460000000000000000e+02
1.173000000000000000e+04 3.070000000000000000e+02
5.694000000000000000e+03 -8.180000000000000000e+02
2.353000000000000000e+03 3.750000000000000000e+02
-1.807000000000000000e+03 -5.110000000000000000e+02
-2.148000000000000000e+03 -6.480000000000000000e+02
-2.659000000000000000e+03 -9.890000000000000000e+02
-6.581000000000000000e+03 -3.410000000000000000e+02
-6.786000000000000000e+03 -4.770000000000000000e+02
-7.945000000000000000e+03 -1.432000000000000000e+03
-1.002500000000000000e+04 -3.000000000000000000e+03
-9.070000000000000000e+03 -6.130000000000000000e+02
-8.798000000000000000e+03 1.705000000000000000e+03
-8.695000000000000000e+03 -1.091000000000000000e+03
-9.070000000000000000e+03 -9.210000000000000000e+02
-9.616000000000000000e+03 -1.710000000000000000e+02
-7.775000000000000000e+03 -7.840000000000000000e+02
-7.058000000000000000e+03 -7.500000000000000000e+02
-8.150000000000000000e+03 -2.114000000000000000e+03
-6.752000000000000000e+03 -1.636000000000000000e+03
-7.434000000000000000e+03 -3.137000000000000000e+03
-4.638000000000000000e+03 -1.807000000000000000e+03
-4.876000000000000000e+03 -2.012000000000000000e+03
-5.149000000000000000e+03 -1.023000000000000000e+03
-6.035000000000000000e+03 -3.580000000000000000e+03
-5.149000000000000000e+03 -2.864000000000000000e+03
-7.161000000000000000e+03 -3.478000000000000000e+03
-5.967000000000000000e+03 -2.728000000000000000e+03
-7.843000000000000000e+03 -3.035000000000000000e+03
-7.912000000000000000e+03 -5.800000000000000000e+02
-7.093000000000000000e+03 -8.530000000000000000e+02
-9.548000000000000000e+03 2.050000000000000000e+02
-1.016200000000000000e+04 1.943000000000000000e+03
-9.036000000000000000e+03 1.603000000000000000e+03
-7.877000000000000000e+03 1.944000000000000000e+03
-9.003000000000000000e+03 4.194000000000000000e+03
-7.434000000000000000e+03 7.604000000000000000e+03
-5.626000000000000000e+03 7.093000000000000000e+03
-5.661000000000000000e+03 8.491000000000000000e+03
-5.252000000000000000e+03 1.162700000000000000e+04
-2.830000000000000000e+03 1.288900000000000000e+04
-1.671000000000000000e+03 1.360600000000000000e+04
9.210000000000000000e+02 1.459500000000000000e+04
2.796000000000000000e+03 1.428700000000000000e+04
3.751000000000000000e+03 1.551400000000000000e+04
7.126000000000000000e+03 1.517400000000000000e+04
8.082000000000000000e+03 1.353800000000000000e+04
8.832000000000000000e+03 1.486700000000000000e+04
1.118400000000000000e+04 1.599200000000000000e+04
1.176400000000000000e+04 1.271900000000000000e+04
1.282200000000000000e+04 1.135500000000000000e+04
1.323100000000000000e+04 8.184000000000000000e+03
1.302600000000000000e+04 6.479000000000000000e+03
1.418600000000000000e+04 4.433000000000000000e+03
1.462900000000000000e+04 4.365000000000000000e+03
1.210600000000000000e+04 3.171000000000000000e+03
1.329900000000000000e+04 1.125000000000000000e+03
1.231100000000000000e+04 -2.080000000000000000e+03
1.036600000000000000e+04 -3.000000000000000000e+03
9.616000000000000000e+03 -4.569000000000000000e+03
7.536000000000000000e+03 -6.615000000000000000e+03
6.922000000000000000e+03 -6.240000000000000000e+03
4.228000000000000000e+03 -6.820000000000000000e+03
3.955000000000000000e+03 -7.877000000000000000e+03
1.330000000000000000e+03 -8.252000000000000000e+03
-6.130000000000000000e+02 -8.253000000000000000e+03
-8.870000000000000000e+02 -1.002500000000000000e+04
-1.671000000000000000e+03 -9.002000000000000000e+03
-2.558000000000000000e+03 -8.286000000000000000e+03
-3.103000000000000000e+03 -7.741000000000000000e+03
-4.842000000000000000e+03 -7.639000000000000000e+03
-4.501000000000000000e+03 -7.707000000000000000e+03
-3.342000000000000000e+03 -7.775000000000000000e+03
-5.251000000000000000e+03 -7.537000000000000000e+03
-5.046000000000000000e+03 -6.445000000000000000e+03
-5.217000000000000000e+03 -6.649000000000000000e+03
-4.398000000000000000e+03 -6.615000000000000000e+03
-3.716000000000000000e+03 -5.285000000000000000e+03
-2.626000000000000000e+03 -4.126000000000000000e+03
-3.000000000000000000e+03 -5.353000000000000000e+03
-3.580000000000000000e+03 -6.956000000000000000e+03
-3.477000000000000000e+03 -4.705000000000000000e+03
-1.602000000000000000e+03 -4.569000000000000000e+03
-1.909000000000000000e+03 -7.228000000000000000e+03
-2.046000000000000000e+03 -4.365000000000000000e+03
-1.193000000000000000e+03 -6.001000000000000000e+03
-2.050000000000000000e+02 -4.058000000000000000e+03
-2.045000000000000000e+03 -8.013000000000000000e+03
-1.467000000000000000e+03 -3.922000000000000000e+03
-2.114000000000000000e+03 -2.387000000000000000e+03
-3.921000000000000000e+03 -5.593000000000000000e+03
-3.444000000000000000e+03 -2.932000000000000000e+03
-4.909000000000000000e+03 -2.352000000000000000e+03
-4.535000000000000000e+03 -3.000000000000000000e+03
-5.455000000000000000e+03 -1.125000000000000000e+03
-6.479000000000000000e+03 -1.092000000000000000e+03
-5.081000000000000000e+03 -3.070000000000000000e+02
-4.773000000000000000e+03 1.943000000000000000e+03
-5.626000000000000000e+03 1.091000000000000000e+03
-4.944000000000000000e+03 3.342000000000000000e+03
-4.603000000000000000e+03 4.467000000000000000e+03
-3.444000000000000000e+03 2.524000000000000000e+03
-4.262000000000000000e+03 6.547000000000000000e+03
-2.557000000000000000e+03 6.889000000000000000e+03
-1.057000000000000000e+03 7.570000000000000000e+03
5.120000000000000000e+02 8.081000000000000000e+03
1.370000000000000000e+02 8.013000000000000000e+03
1.467000000000000000e+03 7.706000000000000000e+03
2.489000000000000000e+03 8.524000000000000000e+03
4.570000000000000000e+03 9.787000000000000000e+03
4.467000000000000000e+03 9.445000000000000000e+03
5.183000000000000000e+03 9.138000000000000000e+03
6.513000000000000000e+03 1.050200000000000000e+04
6.070000000000000000e+03 1.016100000000000000e+04
6.479000000000000000e+03 9.616000000000000000e+03
6.581000000000000000e+03 7.638000000000000000e+03
6.957000000000000000e+03 4.944000000000000000e+03
8.354000000000000000e+03 6.308000000000000000e+03
7.229000000000000000e+03 2.387000000000000000e+03
7.911000000000000000e+03 1.534000000000000000e+03
7.570000000000000000e+03 6.470000000000000000e+02
6.172000000000000000e+03 5.460000000000000000e+02
5.661000000000000000e+03 -1.534000000000000000e+03
3.273000000000000000e+03 -3.580000000000000000e+03
3.649000000000000000e+03 -3.035000000000000000e+03
1.774000000000000000e+03 -4.195000000000000000e+03
2.796000000000000000e+03 -6.070000000000000000e+03
6.800000000000000000e+01 -5.729000000000000000e+03
-3.410000000000000000e+02 -5.047000000000000000e+03
-1.773000000000000000e+03 -5.353000000000000000e+03
-2.864000000000000000e+03 -5.319000000000000000e+03
-3.683000000000000000e+03 -6.820000000000000000e+03
-4.502000000000000000e+03 -5.524000000000000000e+03
-6.581000000000000000e+03 -6.240000000000000000e+03
-6.684000000000000000e+03 -5.080000000000000000e+03
-6.649000000000000000e+03 -6.377000000000000000e+03
-8.764000000000000000e+03 -5.388000000000000000e+03
-7.877000000000000000e+03 -5.558000000000000000e+03
-6.206000000000000000e+03 -5.899000000000000000e+03
-8.798000000000000000e+03 -5.933000000000000000e+03
-6.990000000000000000e+03 -5.559000000000000000e+03
-6.070000000000000000e+03 -5.285000000000000000e+03
-7.229000000000000000e+03 -6.786000000000000000e+03
-6.274000000000000000e+03 -4.228000000000000000e+03
-5.558000000000000000e+03 -4.910000000000000000e+03
-4.842000000000000000e+03 -7.024000000000000000e+03
-4.434000000000000000e+03 -6.309000000000000000e+03
-5.865000000000000000e+03 -7.297000000000000000e+03
-4.706000000000000000e+03 -3.887000000000000000e+03
-4.467000000000000000e+03 -4.706000000000000000e+03
-3.410000000000000000e+03 -5.831000000000000000e+03
-3.580000000000000000e+03 -4.808000000000000000e+03
-4.501000000000000000e+03 -7.058000000000000000e+03
-5.252000000000000000e+03 -6.445000000000000000e+03
-6.411000000000000000e+03 -3.478000000000000000e+03
-5.217000000000000000e+03 -3.819000000000000000e+03
-5.183000000000000000e+03 -3.615000000000000000e+03
-5.182000000000000000e+03 -3.581000000000000000e+03
-5.081000000000000000e+03 -1.978000000000000000e+03
-5.081000000000000000e+03 -3.854000000000000000e+03
-4.466000000000000000e+03 -8.530000000000000000e+02
-4.739000000000000000e+03 -2.762000000000000000e+03
-4.365000000000000000e+03 -1.261000000000000000e+03
-2.490000000000000000e+03 3.070000000000000000e+02
-1.534000000000000000e+03 7.160000000000000000e+02
-2.216000000000000000e+03 6.140000000000000000e+02
-1.364000000000000000e+03 2.489000000000000000e+03
6.480000000000000000e+02 1.739000000000000000e+03
-1.261000000000000000e+03 3.069000000000000000e+03
2.422000000000000000e+03 2.455000000000000000e+03
4.364000000000000000e+03 2.387000000000000000e+03
4.092000000000000000e+03 3.682000000000000000e+03
5.626000000000000000e+03 2.762000000000000000e+03
7.502000000000000000e+03 2.080000000000000000e+03
7.673000000000000000e+03 3.342000000000000000e+03
9.173000000000000000e+03 1.739000000000000000e+03
8.866000000000000000e+03 2.694000000000000000e+03
9.548000000000000000e+03 3.581000000000000000e+03
1.074100000000000000e+04 1.091000000000000000e+03
1.019600000000000000e+04 -1.023000000000000000e+03
9.104000000000000000e+03 1.637000000000000000e+03
1.125200000000000000e+04 -6.140000000000000000e+02
1.251500000000000000e+04 1.159000000000000000e+03
1.227500000000000000e+04 1.194000000000000000e+03
1.162700000000000000e+04 1.370000000000000000e+02
9.650000000000000000e+03 -0.000000000000000000e+00
9.854000000000000000e+03 1.261000000000000000e+03
1.108200000000000000e+04 1.568000000000000000e+03
7.809000000000000000e+03 -1.092000000000000000e+03
6.172000000000000000e+03 -2.050000000000000000e+02
4.672000000000000000e+03 1.433000000000000000e+03
4.637000000000000000e+03 -6.800000000000000000e+01
3.035000000000000000e+03 1.467000000000000000e+03
2.284000000000000000e+03 1.705000000000000000e+03
-5.120000000000000000e+02 1.978000000000000000e+03
-2.148000000000000000e+03 1.943000000000000000e+03
-2.353000000000000000e+03 2.353000000000000000e+03
-5.286000000000000000e+03 3.307000000000000000e+03
-7.775000000000000000e+03 4.024000000000000000e+03
-7.331000000000000000e+03 5.047000000000000000e+03
-8.968000000000000000e+03 2.967000000000000000e+03
-9.411000000000000000e+03 4.433000000000000000e+03
-1.203600000000000000e+04 3.377000000000000000e+03
-1.534400000000000000e+04 4.638000000000000000e+03
-1.326400000000000000e+04 2.796000000000000000e+03
-1.619700000000000000e+04 4.770000000000000000e+02
-1.827700000000000000e+04 -1.360000000000000000e+02
-1.722000000000000000e+04 -1.024000000000000000e+03
-1.793600000000000000e+04 -3.410000000000000000e+03
-1.837900000000000000e+04 -6.309000000000000000e+03
-1.756100000000000000e+04 -8.491000000000000000e+03
-1.667500000000000000e+04 -7.536000000000000000e+03
-1.657200000000000000e+04 -9.786000000000000000e+03
-1.786800000000000000e+04 -9.991000000000000000e+03
-1.670800000000000000e+04 -1.251400000000000000e+04
-1.503700000000000000e+04 -1.364000000000000000e+04
-1.435500000000000000e+04 -1.268400000000000000e+04
-1.142300000000000000e+04 -1.343500000000000000e+04
-1.145700000000000000e+04 -1.704900000000000000e+04
-9.650000000000000000e+03 -1.633400000000000000e+04
-9.753000000000000000e+03 -1.585600000000000000e+04
-8.525000000000000000e+03 -1.756100000000000000e+04
-2.660000000000000000e+03 -1.650400000000000000e+04
-5.460000000000000000e+02 -1.814000000000000000e+04
-1.364000000000000000e+03 -1.848200000000000000e+04
3.581000000000000000e+03 -1.575400000000000000e+04
4.706000000000000000e+03 -1.367400000000000000e+04
7.672000000000000000e+03 -1.306000000000000000e+04
1.115100000000000000e+04 -1.057100000000000000e+04
1.398100000000000000e+04 -9.173000000000000000e+03
1.479900000000000000e+04 -4.979000000000000000e+03
1.708400000000000000e+04 -3.443000000000000000e+03
1.773200000000000000e+04 -2.420000000000000000e+03
2.168700000000000000e+04 -4.090000000000000000e+02
2.294900000000000000e+04 3.138000000000000000e+03
2.298300000000000000e+04 3.103000000000000000e+03
2.230100000000000000e+04 4.330000000000000000e+03
2.332300000000000000e+04 5.456000000000000000e+03
2.629100000000000000e+04 9.650000000000000000e+03
2.530200000000000000e+04 1.002500000000000000e+04
2.632400000000000000e+04 1.340100000000000000e+04
2.687000000000000000e+04 1.551500000000000000e+04
2.843900000000000000e+04 1.595800000000000000e+04
2.410800000000000000e+04 1.882300000000000000e+04
2.359700000000000000e+04 2.161900000000000000e+04
2.086900000000000000e+04 2.393800000000000000e+04
1.875500000000000000e+04 2.615400000000000000e+04
1.391200000000000000e+04 2.789400000000000000e+04
1.074100000000000000e+04 3.103000000000000000e+04
5.387000000000000000e+03 3.150700000000000000e+04
-8.860000000000000000e+02 3.184900000000000000e+04
-7.331000000000000000e+03 3.031400000000000000e+04
-1.155900000000000000e+04 3.014300000000000000e+04
-1.684500000000000000e+04 2.642700000000000000e+04
-2.141400000000000000e+04 2.404000000000000000e+04
-2.458500000000000000e+04 2.032300000000000000e+04
-2.567700000000000000e+04 1.520800000000000000e+04
-2.864300000000000000e+04 1.377600000000000000e+04
-2.976900000000000000e+04 1.118400000000000000e+04
-2.973500000000000000e+04 7.571000000000000000e+03
-3.058700000000000000e+04 6.445000000000000000e+03
-3.150700000000000000e+04 5.831000000000000000e+03
-3.334900000000000000e+04 2.353000000000000000e+03
-3.556500000000000000e+04 2.081000000000000000e+03
-3.478000000000000000e+04 -2.216000000000000000e+03
-3.791800000000000000e+04 -3.683000000000000000e+03
-3.873600000000000000e+04 -5.592000000000000000e+03
-3.965700000000000000e+04 -7.842000000000000000e+03
-4.040700000000000000e+04 -1.111600000000000000e+04
-4.286300000000000000e+04 -1.766400000000000000e+04
-3.955500000000000000e+04 -1.998200000000000000e+04
-3.686100000000000000e+04 -2.656300000000000000e+04
-3.515600000000000000e+04 -3.034800000000000000e+04
-3.198500000000000000e+04 -3.577000000000000000e+04
-2.632400000000000000e+04 -3.890700000000000000e+04
-2.257300000000000000e+04 -4.446500000000000000e+04
-1.329800000000000000e+04 -4.606700000000000000e+04
-6.752000000000000000e+03 -4.852300000000000000e+04
