-8.832000000000000000e+03 -5.120000000000000000e+02
-7.024000000000000000e+03 -9.890000000000000000e+02
-7.809000000000000000e+03 1.671000000000000000e+03
-6.922000000000000000e+03 1.710000000000000000e+02
-5.285000000000000000e+03 -1.710000000000000000e+02
-7.569000000000000000e+03 4.430000000000000000e+02
-7.501000000000000000e+03 2.046000000000000000e+03
-6.717000000000000000e+03 9.210000000000000000e+02
-7.126000000000000000e+03 -1.700000000000000000e+02
-6.138000000000000000e+03 2.251000000000000000e+03
-6.035000000000000000e+03 1.603000000000000000e+03
-6.138000000000000000e+03 1.193000000000000000e+03
-7.160000000000000000e+03 1.228000000000000000e+03
-9.377000000000000000e+03 2.831000000000000000e+03
-6.683000000000000000e+03 1.944000000000000000e+03
-8.626000000000000000e+03 2.592000000000000000e+03
-9.479000000000000000e+03 3.342000000000000000e+03
-8.558000000000000000e+03 3.683000000000000000e+03
-1.002500000000000000e+04 2.558000000000000000e+03
-7.808000000000000000e+03 2.353000000000000000e+03
-9.616000000000000000e+03 4.229000000000000000e+03
-9.650000000000000000e+03 4.126000000000000000e+03
-1.019500000000000000e+04 5.354000000000000000e+03
-9.377000000000000000e+03 5.626000000000000000e+03
-1.080900000000000000e+04 5.115000000000000000e+03
-1.145700000000000000e+04 6.001000000000000000e+03
-1.009300000000000000e+04 7.537000000000000000e+03
-1.012700000000000000e+04 7.127000000000000000e+03
-8.320000000000000000e+03 7.604000000000000000e+03
-9.513000000000000000e+03 1.009300000000000000e+04
-1.016100000000000000e+04 9.855000000000000000e+03
-1.063900000000000000e+04 9.821000000000000000e+03
-9.820000000000000000e+03 1.149200000000000000e+04
-9.240000000000000000e+03 1.162800000000000000e+04
-9.821000000000000000e+03 1.312800000000000000e+04
-1.012700000000000000e+04 1.353800000000000000e+04
-1.108100000000000000e+04 1.227500000000000000e+04
-1.043400000000000000e+04 1.404800000000000000e+04
-7.843000000000000000e+03 1.527600000000000000e+04
-7.365000000000000000e+03 1.456000000000000000e+04
-6.752000000000000000e+03 1.490100000000000000e+04
-7.195000000000000000e+03 1.834500000000000000e+04
-4.603000000000000000e+03 1.855000000000000000e+04
-4.876000000000000000e+03 1.756100000000000000e+04
-2.387000000000000000e+03 1.803900000000000000e+04
-2.898000000000000000e+03 1.831200000000000000e+04
-2.352000000000000000e+03 1.820900000000000000e+04
-8.870000000000000000e+02 1.865200000000000000e+04
8.520000000000000000e+02 1.872100000000000000e+04
1.808000000000000000e+03 2.063000000000000000e+04
4.535000000000000000e+03 2.015300000000000000e+04
3.785000000000000000e+03 1.899300000000000000e+04
3.546000000000000000e+03 1.923100000000000000e+04
4.501000000000000000e+03 1.841300000000000000e+04
7.160000000000000000e+03 1.793600000000000000e+04
8.593000000000000000e+03 1.807300000000000000e+04
8.559000000000000000e+03 1.544700000000000000e+04
1.145700000000000000e+04 1.582300000000000000e+04
1.084300000000000000e+04 1.421900000000000000e+04
1.196900000000000000e+04 1.517400000000000000e+04
1.305900000000000000e+04 1.439000000000000000e+04
1.510600000000000000e+04 1.251500000000000000e+04
1.629900000000000000e+04 1.254800000000000000e+04
1.517400000000000000e+04 1.026400000000000000e+04
1.643500000000000000e+04 9.479000000000000000e+03
1.732200000000000000e+04 9.547000000000000000e+03
1.677700000000000000e+04 5.661000000000000000e+03
1.868600000000000000e+04 6.103000000000000000e+03
1.650400000000000000e+04 5.013000000000000000e+03
1.909500000000000000e+04 5.320000000000000000e+03
1.759400000000000000e+04 3.547000000000000000e+03
1.803800000000000000e+04 1.705000000000000000e+03
2.059600000000000000e+04 1.909000000000000000e+03
1.998200000000000000e+04 -3.172000000000000000e+03
1.851500000000000000e+04 -2.932000000000000000e+03
1.940300000000000000e+04 -3.921000000000000000e+03
1.745800000000000000e+04 -6.104000000000000000e+03
1.647000000000000000e+04 -6.650000000000000000e+03
1.711800000000000000e+04 -6.581000000000000000e+03
1.636700000000000000e+04 -9.344000000000000000e+03
1.558300000000000000e+04 -9.548000000000000000e+03
1.231000000000000000e+04 -9.889000000000000000e+03
1.196900000000000000e+04 -1.138900000000000000e+04
1.299200000000000000e+04 -1.135500000000000000e+04
1.142300000000000000e+04 -1.377600000000000000e+04
9.650000000000000000e+03 -1.268600000000000000e+04
8.320000000000000000e+03 -1.445800000000000000e+04
8.933000000000000000e+03 -1.384400000000000000e+04
5.626000000000000000e+03 -1.292400000000000000e+04
6.683000000000000000e+03 -1.565100000000000000e+04
4.501000000000000000e+03 -1.452600000000000000e+04
3.239000000000000000e+03 -1.421900000000000000e+04
1.807000000000000000e+03 -1.459500000000000000e+04
1.466000000000000000e+03 -1.544700000000000000e+04
-1.636000000000000000e+03 -1.626600000000000000e+04
1.807000000000000000e+03 -1.377700000000000000e+04
-2.420000000000000000e+03 -1.479900000000000000e+04
-6.140000000000000000e+02 -1.336700000000000000e+04
-3.001000000000000000e+03 -1.220700000000000000e+04
-3.307000000000000000e+03 -1.299200000000000000e+04
-3.205000000000000000e+03 -1.261700000000000000e+04
-5.217000000000000000e+03 -1.060500000000000000e+04
-5.046000000000000000e+03 -1.302600000000000000e+04
-4.944000000000000000e+03 -1.166200000000000000e+04
-5.353000000000000000e+03 -9.377000000000000000e+03
-4.331000000000000000e+03 -9.752000000000000000e+03
-6.445000000000000000e+03 -8.695000000000000000e+03
-5.660000000000000000e+03 -8.764000000000000000e+03
-7.741000000000000000e+03 -7.809000000000000000e+03
-6.444000000000000000e+03 -7.878000000000000000e+03
-6.172000000000000000e+03 -7.809000000000000000e+03
-7.843000000000000000e+03 -6.001000000000000000e+03
-7.127000000000000000e+03 -6.786000000000000000e+03
-7.809000000000000000e+03 -5.661000000000000000e+03
-6.547000000000000000e+03 -4.739000000000000000e+03
-6.171000000000000000e+03 -5.422000000000000000e+03
-5.899000000000000000e+03 -3.478000000000000000e+03
-5.557000000000000000e+03 -5.422000000000000000e+03
-5.456000000000000000e+03 -3.751000000000000000e+03
-6.410000000000000000e+03 -1.160000000000000000e+03
-6.138000000000000000e+03 -3.887000000000000000e+03
-6.411000000000000000e+03 -1.603000000000000000e+03
-5.592000000000000000e+03 -1.466000000000000000e+03
-3.921000000000000000e+03 -4.430000000000000000e+02
-4.364000000000000000e+03 2.040000000000000000e+02
-4.569000000000000000e+03 8.870000000000000000e+02
-3.682000000000000000e+03 -7.500000000000000000e+02
-4.228000000000000000e+03 -1.534000000000000000e+03
-4.296000000000000000e+03 1.159000000000000000e+03
-3.546000000000000000e+03 -1.030000000000000000e+02
-1.466000000000000000e+03 1.126000000000000000e+03
-3.750000000000000000e+03 1.603000000000000000e+03
-4.023000000000000000e+03 1.943000000000000000e+03
-3.649000000000000000e+03 5.460000000000000000e+02
-4.058000000000000000e+03 -1.360000000000000000e+02
-2.557000000000000000e+03 2.182000000000000000e+03
-3.512000000000000000e+03 3.546000000000000000e+03
-3.887000000000000000e+03 2.829000000000000000e+03
-4.330000000000000000e+03 1.773000000000000000e+03
-3.308000000000000000e+03 3.955000000000000000e+03
-4.535000000000000000e+03 1.841000000000000000e+03
-4.433000000000000000e+03 1.671000000000000000e+03
-5.865000000000000000e+03 2.046000000000000000e+03
-5.968000000000000000e+03 4.023000000000000000e+03
-6.785000000000000000e+03 4.057000000000000000e+03
-6.274000000000000000e+03 4.296000000000000000e+03
-7.843000000000000000e+03 3.307000000000000000e+03
-7.059000000000000000e+03 4.773000000000000000e+03
-7.297000000000000000e+03 6.308000000000000000e+03
-6.853000000000000000e+03 6.479000000000000000e+03
-7.058000000000000000e+03 6.854000000000000000e+03
-9.854000000000000000e+03 6.342000000000000000e+03
-9.957000000000000000e+03 6.854000000000000000e+03
-8.593000000000000000e+03 6.888000000000000000e+03
-7.740000000000000000e+03 7.570000000000000000e+03
-8.524000000000000000e+03 8.593000000000000000e+03
-8.081000000000000000e+03 8.184000000000000000e+03
-7.603000000000000000e+03 9.547000000000000000e+03
-8.354000000000000000e+03 1.097900000000000000e+04
-7.842000000000000000e+03 1.087800000000000000e+04
-7.433000000000000000e+03 8.661000000000000000e+03
-7.058000000000000000e+03 1.050300000000000000e+04
-6.615000000000000000e+03 1.258200000000000000e+04
-5.216000000000000000e+03 1.094500000000000000e+04
-7.740000000000000000e+03 1.251400000000000000e+04
-5.421000000000000000e+03 1.309500000000000000e+04
-3.614000000000000000e+03 1.384400000000000000e+04
-3.546000000000000000e+03 1.664000000000000000e+04
-3.785000000000000000e+03 1.483300000000000000e+04
-2.046000000000000000e+03 1.602700000000000000e+04
-2.796000000000000000e+03 1.415100000000000000e+04
1.020000000000000000e+02 1.708300000000000000e+04
1.432000000000000000e+03 1.565200000000000000e+04
-8.520000000000000000e+02 1.462800000000000000e+04
1.364000000000000000e+03 1.643600000000000000e+04
2.387000000000000000e+03 1.647000000000000000e+04
4.978000000000000000e+03 1.575300000000000000e+04
4.058000000000000000e+03 1.565200000000000000e+04
6.206000000000000000e+03 1.592500000000000000e+04
6.718000000000000000e+03 1.415000000000000000e+04
6.786000000000000000e+03 1.452600000000000000e+04
7.912000000000000000e+03 1.244600000000000000e+04
1.040000000000000000e+04 1.449200000000000000e+04
1.179900000000000000e+04 1.398100000000000000e+04
1.186600000000000000e+04 1.186700000000000000e+04
1.190100000000000000e+04 1.196900000000000000e+04
1.398000000000000000e+04 1.022900000000000000e+04
1.203700000000000000e+04 9.173000000000000000e+03
1.398100000000000000e+04 7.263000000000000000e+03
1.479900000000000000e+04 5.899000000000000000e+03
1.595800000000000000e+04 4.262000000000000000e+03
1.595800000000000000e+04 3.205000000000000000e+03
1.551500000000000000e+04 9.880000000000000000e+02
1.520900000000000000e+04 1.910000000000000000e+03
1.684500000000000000e+04 4.430000000000000000e+02
1.496900000000000000e+04 -1.876000000000000000e+03
1.742500000000000000e+04 -2.796000000000000000e+03
1.718600000000000000e+04 -2.796000000000000000e+03
1.664000000000000000e+04 -4.740000000000000000e+03
1.572000000000000000e+04 -5.285000000000000000e+03
1.575400000000000000e+04 -7.332000000000000000e+03
1.374300000000000000e+04 -6.581000000000000000e+03
1.640200000000000000e+04 -8.115000000000000000e+03
1.312900000000000000e+04 -9.344000000000000000e+03
1.384400000000000000e+04 -1.091200000000000000e+04
1.258300000000000000e+04 -1.357100000000000000e+04
1.057100000000000000e+04 -1.285500000000000000e+04
1.029900000000000000e+04 -1.258300000000000000e+04
1.074100000000000000e+04 -1.428700000000000000e+04
9.480000000000000000e+03 -1.640100000000000000e+04
8.831000000000000000e+03 -1.578700000000000000e+04
7.434000000000000000e+03 -1.616300000000000000e+04
4.808000000000000000e+03 -1.756100000000000000e+04
4.671000000000000000e+03 -1.558300000000000000e+04
2.796000000000000000e+03 -1.715200000000000000e+04
1.296000000000000000e+03 -1.762900000000000000e+04
2.693000000000000000e+03 -1.769800000000000000e+04
-4.770000000000000000e+02 -1.715200000000000000e+04
-1.432000000000000000e+03 -1.981200000000000000e+04
-9.200000000000000000e+02 -1.841300000000000000e+04
-2.387000000000000000e+03 -1.797000000000000000e+04
-1.603000000000000000e+03 -1.646900000000000000e+04
-5.456000000000000000e+03 -1.749300000000000000e+04
-5.320000000000000000e+03 -1.674300000000000000e+04
-6.956000000000000000e+03 -1.681100000000000000e+04
-7.740000000000000000e+03 -1.619700000000000000e+04
-5.114000000000000000e+03 -1.442400000000000000e+04
-7.672000000000000000e+03 -1.476500000000000000e+04
-7.467000000000000000e+03 -1.442400000000000000e+04
-7.638000000000000000e+03 -1.292400000000000000e+04
-9.582000000000000000e+03 -1.295800000000000000e+04
-8.081000000000000000e+03 -1.306000000000000000e+04
-8.865000000000000000e+03 -1.159400000000000000e+04
-9.479000000000000000e+03 -9.752000000000000000e+03
-7.331000000000000000e+03 -7.400000000000000000e+03
-8.251000000000000000e+03 -8.048000000000000000e+03
-8.900000000000000000e+03 -8.457000000000000000e+03
-7.092000000000000000e+03 -7.161000000000000000e+03
-6.513000000000000000e+03 -6.479000000000000000e+03
-5.183000000000000000e+03 -3.615000000000000000e+03
-6.990000000000000000e+03 -3.888000000000000000e+03
-6.410000000000000000e+03 -1.329000000000000000e+03
-5.422000000000000000e+03 -1.466000000000000000e+03
-4.092000000000000000e+03 9.890000000000000000e+02
-5.251000000000000000e+03 7.850000000000000000e+02
-3.716000000000000000e+03 3.070000000000000000e+02
-6.206000000000000000e+03 2.523000000000000000e+03
-3.956000000000000000e+03 2.387000000000000000e+03
-3.103000000000000000e+03 1.739000000000000000e+03
-2.591000000000000000e+03 3.819000000000000000e+03
-1.500000000000000000e+03 3.478000000000000000e+03
-3.580000000000000000e+03 3.545000000000000000e+03
-4.603000000000000000e+03 5.353000000000000000e+03
-1.842000000000000000e+03 5.831000000000000000e+03
-3.443000000000000000e+03 5.455000000000000000e+03
-2.113000000000000000e+03 5.558000000000000000e+03
-2.421000000000000000e+03 7.501000000000000000e+03
-2.387000000000000000e+03 6.001000000000000000e+03
-3.308000000000000000e+03 5.558000000000000000e+03
-4.739000000000000000e+03 5.797000000000000000e+03
-4.671000000000000000e+03 5.899000000000000000e+03
-5.592000000000000000e+03 4.296000000000000000e+03
-4.944000000000000000e+03 5.933000000000000000e+03
-6.410000000000000000e+03 8.013000000000000000e+03
-6.171000000000000000e+03 5.353000000000000000e+03
-7.740000000000000000e+03 7.126000000000000000e+03
-6.718000000000000000e+03 7.808000000000000000e+03
-8.081000000000000000e+03 7.058000000000000000e+03
-8.730000000000000000e+03 7.706000000000000000e+03
-9.070000000000000000e+03 6.479000000000000000e+03
-1.016100000000000000e+04 8.320000000000000000e+03
-1.009300000000000000e+04 6.035000000000000000e+03
-9.377000000000000000e+03 7.741000000000000000e+03
-9.889000000000000000e+03 7.195000000000000000e+03
-8.865000000000000000e+03 8.286000000000000000e+03
-1.220700000000000000e+04 7.297000000000000000e+03
-1.012700000000000000e+04 7.979000000000000000e+03
-1.060500000000000000e+04 7.945000000000000000e+03
-9.310000000000000000e+03 8.081000000000000000e+03
-1.009400000000000000e+04 7.945000000000000000e+03
-1.077500000000000000e+04 9.377000000000000000e+03
-8.558000000000000000e+03 7.843000000000000000e+03
-1.132100000000000000e+04 8.183000000000000000e+03
-1.016200000000000000e+04 1.149100000000000000e+04
-8.900000000000000000e+03 1.016100000000000000e+04
-8.695000000000000000e+03 8.490000000000000000e+03
-8.934000000000000000e+03 1.145700000000000000e+04
-7.877000000000000000e+03 9.207000000000000000e+03
-7.569000000000000000e+03 1.118500000000000000e+04
-6.478000000000000000e+03 1.043400000000000000e+04
-3.512000000000000000e+03 9.991000000000000000e+03
-4.467000000000000000e+03 1.050300000000000000e+04
-4.807000000000000000e+03 1.237800000000000000e+04
-1.602000000000000000e+03 1.125200000000000000e+04
-1.944000000000000000e+03 1.316200000000000000e+04
-4.770000000000000000e+02 1.009300000000000000e+04
5.110000000000000000e+02 1.203700000000000000e+04
1.193000000000000000e+03 1.384400000000000000e+04
6.130000000000000000e+02 1.203700000000000000e+04
2.557000000000000000e+03 1.210500000000000000e+04
3.887000000000000000e+03 1.203600000000000000e+04
5.013000000000000000e+03 1.391200000000000000e+04
5.558000000000000000e+03 1.295800000000000000e+04
5.797000000000000000e+03 1.132100000000000000e+04
7.638000000000000000e+03 1.196900000000000000e+04
7.093000000000000000e+03 8.968000000000000000e+03
1.084300000000000000e+04 1.183300000000000000e+04
1.060500000000000000e+04 1.029800000000000000e+04
1.176400000000000000e+04 8.593000000000000000e+03
1.217400000000000000e+04 6.615000000000000000e+03
1.118400000000000000e+04 7.809000000000000000e+03
1.258300000000000000e+04 5.490000000000000000e+03
1.432200000000000000e+04 3.409000000000000000e+03
1.572000000000000000e+04 4.330000000000000000e+03
1.360600000000000000e+04 2.250000000000000000e+03
1.432200000000000000e+04 3.716000000000000000e+03
1.527600000000000000e+04 1.125000000000000000e+03
1.708400000000000000e+04 5.460000000000000000e+02
1.691300000000000000e+04 -2.592000000000000000e+03
1.810600000000000000e+04 -4.092000000000000000e+03
1.636800000000000000e+04 -4.433000000000000000e+03
1.599300000000000000e+04 -5.013000000000000000e+03
1.674200000000000000e+04 -6.956000000000000000e+03
1.589100000000000000e+04 -7.365000000000000000e+03
1.544700000000000000e+04 -7.605000000000000000e+03
1.606100000000000000e+04 -7.639000000000000000e+03
1.466300000000000000e+04 -1.046900000000000000e+04
1.323100000000000000e+04 -1.043500000000000000e+04
1.227600000000000000e+04 -1.428800000000000000e+04
1.289000000000000000e+04 -1.142400000000000000e+04
1.162800000000000000e+04 -1.435600000000000000e+04
1.159400000000000000e+04 -1.520900000000000000e+04
9.582000000000000000e+03 -1.316200000000000000e+04
8.559000000000000000e+03 -1.435600000000000000e+04
8.525000000000000000e+03 -1.408300000000000000e+04
5.899000000000000000e+03 -1.527700000000000000e+04
4.706000000000000000e+03 -1.558300000000000000e+04
3.956000000000000000e+03 -1.650400000000000000e+04
3.137000000000000000e+03 -1.531000000000000000e+04
5.460000000000000000e+02 -1.524300000000000000e+04
1.637000000000000000e+03 -1.701500000000000000e+04
-6.140000000000000000e+02 -1.698100000000000000e+04
3.500000000000000000e+01 -1.664100000000000000e+04
-1.568000000000000000e+03 -1.630000000000000000e+04
-2.727000000000000000e+03 -1.572000000000000000e+04
-2.080000000000000000e+03 -1.357100000000000000e+04
-2.728000000000000000e+03 -1.319600000000000000e+04
-5.217000000000000000e+03 -1.357200000000000000e+04
-4.194000000000000000e+03 -1.282100000000000000e+04
-7.262000000000000000e+03 -1.224200000000000000e+04
-6.478000000000000000e+03 -1.289000000000000000e+04
-5.831000000000000000e+03 -1.312800000000000000e+04
-7.944000000000000000e+03 -1.145800000000000000e+04
-9.173000000000000000e+03 -1.063900000000000000e+04
-6.717000000000000000e+03 -9.923000000000000000e+03
-7.161000000000000000e+03 -9.548000000000000000e+03
-8.389000000000000000e+03 -7.672000000000000000e+03
-7.229000000000000000e+03 -6.854000000000000000e+03
-6.035000000000000000e+03 -6.138000000000000000e+03
-7.706000000000000000e+03 -5.934000000000000000e+03
-7.571000000000000000e+03 -5.967000000000000000e+03
-8.389000000000000000e+03 -4.500000000000000000e+03
-8.184000000000000000e+03 -4.501000000000000000e+03
-9.513000000000000000e+03 -1.500000000000000000e+03
-8.150000000000000000e+03 -1.363000000000000000e+03
-5.831000000000000000e+03 -1.773000000000000000e+03
-8.559000000000000000e+03 -2.284000000000000000e+03
-8.593000000000000000e+03 -3.750000000000000000e+02
-7.809000000000000000e+03 -3.400000000000000000e+01
-7.877000000000000000e+03 1.710000000000000000e+02
-4.467000000000000000e+03 1.535000000000000000e+03
-6.307000000000000000e+03 1.808000000000000000e+03
-5.558000000000000000e+03 3.853000000000000000e+03
-6.274000000000000000e+03 2.796000000000000000e+03
-5.148000000000000000e+03 2.728000000000000000e+03
-5.285000000000000000e+03 3.273000000000000000e+03
-5.251000000000000000e+03 2.660000000000000000e+03
-3.989000000000000000e+03 3.853000000000000000e+03
-4.876000000000000000e+03 3.068000000000000000e+03
-6.547000000000000000e+03 6.308000000000000000e+03
-4.740000000000000000e+03 4.501000000000000000e+03
-3.989000000000000000e+03 2.182000000000000000e+03
-3.818000000000000000e+03 3.205000000000000000e+03
-3.375000000000000000e+03 3.615000000000000000e+03
-3.512000000000000000e+03 2.490000000000000000e+03
-3.819000000000000000e+03 2.319000000000000000e+03
-4.944000000000000000e+03 3.069000000000000000e+03
-4.057000000000000000e+03 5.183000000000000000e+03
-3.819000000000000000e+03 3.273000000000000000e+03
-3.171000000000000000e+03 2.421000000000000000e+03
-5.694000000000000000e+03 2.966000000000000000e+03
-4.398000000000000000e+03 4.433000000000000000e+03
-4.602000000000000000e+03 1.091000000000000000e+03
-8.286000000000000000e+03 1.370000000000000000e+02
-6.887000000000000000e+03 4.024000000000000000e+03
-3.341000000000000000e+03 3.171000000000000000e+03
-5.081000000000000000e+03 2.285000000000000000e+03
-6.001000000000000000e+03 3.307000000000000000e+03
-6.956000000000000000e+03 2.148000000000000000e+03
-6.035000000000000000e+03 2.524000000000000000e+03
-6.376000000000000000e+03 2.012000000000000000e+03
-5.285000000000000000e+03 3.375000000000000000e+03
-4.603000000000000000e+03 3.137000000000000000e+03
-4.671000000000000000e+03 2.183000000000000000e+03
-4.876000000000000000e+03 5.728000000000000000e+03
-5.183000000000000000e+03 3.410000000000000000e+03
-3.819000000000000000e+03 4.228000000000000000e+03
-4.398000000000000000e+03 7.297000000000000000e+03
-3.035000000000000000e+03 7.434000000000000000e+03
-2.489000000000000000e+03 6.819000000000000000e+03
-9.890000000000000000e+02 6.410000000000000000e+03
-5.800000000000000000e+02 7.093000000000000000e+03
9.550000000000000000e+02 6.683000000000000000e+03
-2.390000000000000000e+02 5.967000000000000000e+03
2.730000000000000000e+02 5.967000000000000000e+03
3.547000000000000000e+03 8.866000000000000000e+03
4.160000000000000000e+03 8.150000000000000000e+03
5.285000000000000000e+03 8.491000000000000000e+03
5.695000000000000000e+03 7.366000000000000000e+03
7.230000000000000000e+03 6.683000000000000000e+03
6.786000000000000000e+03 8.286000000000000000e+03
7.400000000000000000e+03 8.457000000000000000e+03
9.889000000000000000e+03 8.286000000000000000e+03
1.193500000000000000e+04 8.082000000000000000e+03
1.234400000000000000e+04 7.605000000000000000e+03
1.462800000000000000e+04 6.513000000000000000e+03
1.241200000000000000e+04 8.388000000000000000e+03
1.619700000000000000e+04 7.058000000000000000e+03
1.766300000000000000e+04 7.571000000000000000e+03
1.698100000000000000e+04 6.445000000000000000e+03
1.868700000000000000e+04 5.558000000000000000e+03
1.868600000000000000e+04 5.456000000000000000e+03
1.957300000000000000e+04 5.354000000000000000e+03
2.138000000000000000e+04 6.070000000000000000e+03
2.110700000000000000e+04 7.399000000000000000e+03
2.359700000000000000e+04 5.251000000000000000e+03
2.083500000000000000e+04 5.490000000000000000e+03
2.370000000000000000e+04 6.070000000000000000e+03
2.400600000000000000e+04 6.581000000000000000e+03
2.397200000000000000e+04 6.342000000000000000e+03
2.482300000000000000e+04 6.445000000000000000e+03
2.349400000000000000e+04 4.467000000000000000e+03
2.383500000000000000e+04 4.774000000000000000e+03
2.117600000000000000e+04 4.910000000000000000e+03
1.974400000000000000e+04 4.774000000000000000e+03
1.824300000000000000e+04 3.716000000000000000e+03
1.912900000000000000e+04 4.058000000000000000e+03
1.827700000000000000e+04 2.592000000000000000e+03
1.640200000000000000e+04 2.251000000000000000e+03
1.299100000000000000e+04 1.773000000000000000e+03
1.302600000000000000e+04 2.728000000000000000e+03
1.152500000000000000e+04 -9.560000000000000000e+02
9.888000000000000000e+03 -1.433000000000000000e+03
7.706000000000000000e+03 -4.090000000000000000e+02
5.558000000000000000e+03 -1.808000000000000000e+03
4.603000000000000000e+03 -4.331000000000000000e+03
2.251000000000000000e+03 -2.489000000000000000e+03
2.591000000000000000e+03 -5.660000000000000000e+03
1.364000000000000000e+03 -4.842000000000000000e+03
-6.800000000000000000e+01 -5.523000000000000000e+03
-6.130000000000000000e+02 -6.853000000000000000e+03
-3.103000000000000000e+03 -8.319000000000000000e+03
-6.376000000000000000e+03 -8.866000000000000000e+03
-8.354000000000000000e+03 -7.706000000000000000e+03
-9.820000000000000000e+03 -7.229000000000000000e+03
-8.286000000000000000e+03 -8.423000000000000000e+03
-1.135500000000000000e+04 -9.513000000000000000e+03
-1.125300000000000000e+04 -7.569000000000000000e+03
-1.135500000000000000e+04 -7.706000000000000000e+03
-1.353700000000000000e+04 -6.376000000000000000e+03
-1.452600000000000000e+04 -6.786000000000000000e+03
-1.432200000000000000e+04 -8.456000000000000000e+03
-1.364000000000000000e+04 -8.388000000000000000e+03
-1.176400000000000000e+04 -7.911000000000000000e+03
-1.258200000000000000e+04 -8.218000000000000000e+03
-1.565100000000000000e+04 -6.547000000000000000e+03
-1.510600000000000000e+04 -5.592000000000000000e+03
-1.398100000000000000e+04 -5.319000000000000000e+03
-1.439000000000000000e+04 -2.625000000000000000e+03
-1.439000000000000000e+04 -1.944000000000000000e+03
-1.517400000000000000e+04 -4.126000000000000000e+03
-1.295800000000000000e+04 -3.478000000000000000e+03
-1.306000000000000000e+04 -2.659000000000000000e+03
-1.288900000000000000e+04 -1.534000000000000000e+03
-1.234400000000000000e+04 -4.090000000000000000e+02
-1.278700000000000000e+04 -1.841000000000000000e+03
-1.155900000000000000e+04 -3.410000000000000000e+02
-1.132100000000000000e+04 9.540000000000000000e+02
-1.002500000000000000e+04 1.330000000000000000e+03
-8.900000000000000000e+03 2.390000000000000000e+02
-1.091200000000000000e+04 2.387000000000000000e+03
-9.684000000000000000e+03 2.045000000000000000e+03
-8.967000000000000000e+03 3.717000000000000000e+03
-8.968000000000000000e+03 3.376000000000000000e+03
-8.695000000000000000e+03 3.409000000000000000e+03
-8.695000000000000000e+03 3.989000000000000000e+03
-6.376000000000000000e+03 3.376000000000000000e+03
-6.683000000000000000e+03 4.194000000000000000e+03
-5.592000000000000000e+03 2.694000000000000000e+03
-4.807000000000000000e+03 4.126000000000000000e+03
-5.592000000000000000e+03 4.978000000000000000e+03
-3.887000000000000000e+03 3.614000000000000000e+03
-3.376000000000000000e+03 4.910000000000000000e+03
-3.478000000000000000e+03 6.376000000000000000e+03
-2.523000000000000000e+03 6.001000000000000000e+03
-3.922000000000000000e+03 4.262000000000000000e+03
-2.319000000000000000e+03 5.762000000000000000e+03
-1.602000000000000000e+03 5.149000000000000000e+03
6.480000000000000000e+02 6.342000000000000000e+03
-1.569000000000000000e+03 5.148000000000000000e+03
-2.114000000000000000e+03 4.637000000000000000e+03
-1.808000000000000000e+03 6.001000000000000000e+03
-2.489000000000000000e+03 6.172000000000000000e+03
-2.353000000000000000e+03 5.285000000000000000e+03
-4.780000000000000000e+02 7.979000000000000000e+03
-1.466000000000000000e+03 4.978000000000000000e+03
-7.170000000000000000e+02 7.127000000000000000e+03
-6.820000000000000000e+02 5.728000000000000000e+03
-1.501000000000000000e+03 6.069000000000000000e+03
-9.210000000000000000e+02 5.319000000000000000e+03
-3.205000000000000000e+03 7.263000000000000000e+03
-1.943000000000000000e+03 5.524000000000000000e+03
-2.762000000000000000e+03 6.547000000000000000e+03
-2.489000000000000000e+03 7.365000000000000000e+03
-1.193000000000000000e+03 7.775000000000000000e+03
4.780000000000000000e+02 7.774000000000000000e+03
-2.216000000000000000e+03 9.514000000000000000e+03
-1.909000000000000000e+03 8.149000000000000000e+03
-1.569000000000000000e+03 9.547000000000000000e+03
-1.568000000000000000e+03 7.263000000000000000e+03
-1.193000000000000000e+03 7.228000000000000000e+03
5.800000000000000000e+02 9.308000000000000000e+03
-2.523000000000000000e+03 7.911000000000000000e+03
-3.070000000000000000e+02 1.002500000000000000e+04
1.227000000000000000e+03 9.957000000000000000e+03
-5.800000000000000000e+02 6.786000000000000000e+03
2.080000000000000000e+03 9.548000000000000000e+03
2.387000000000000000e+03 1.063900000000000000e+04
3.956000000000000000e+03 1.016100000000000000e+04
4.228000000000000000e+03 8.150000000000000000e+03
4.195000000000000000e+03 9.753000000000000000e+03
1.671000000000000000e+03 9.070000000000000000e+03
4.091000000000000000e+03 1.115100000000000000e+04
5.388000000000000000e+03 1.101400000000000000e+04
6.513000000000000000e+03 1.108200000000000000e+04
7.331000000000000000e+03 1.084300000000000000e+04
7.468000000000000000e+03 1.036600000000000000e+04
9.275000000000000000e+03 1.002600000000000000e+04
1.023000000000000000e+04 8.457000000000000000e+03
1.036600000000000000e+04 1.043400000000000000e+04
9.889000000000000000e+03 9.275000000000000000e+03
1.053700000000000000e+04 7.945000000000000000e+03
1.002600000000000000e+04 7.604000000000000000e+03
1.241200000000000000e+04 7.570000000000000000e+03
1.268500000000000000e+04 6.854000000000000000e+03
1.316200000000000000e+04 6.206000000000000000e+03
1.217300000000000000e+04 6.376000000000000000e+03
1.439000000000000000e+04 4.467000000000000000e+03
1.254900000000000000e+04 3.581000000000000000e+03
1.418500000000000000e+04 2.933000000000000000e+03
1.210600000000000000e+04 2.318000000000000000e+03
1.364000000000000000e+04 1.772000000000000000e+03
1.190000000000000000e+04 3.239000000000000000e+03
1.118500000000000000e+04 2.898000000000000000e+03
1.190100000000000000e+04 6.140000000000000000e+02
1.363900000000000000e+04 -9.550000000000000000e+02
1.125200000000000000e+04 -3.000000000000000000e+03
9.377000000000000000e+03 -5.450000000000000000e+02
1.043400000000000000e+04 -3.785000000000000000e+03
1.029700000000000000e+04 -2.353000000000000000e+03
8.422000000000000000e+03 -4.398000000000000000e+03
9.241000000000000000e+03 -4.842000000000000000e+03
7.331000000000000000e+03 -5.183000000000000000e+03
6.478000000000000000e+03 -5.593000000000000000e+03
5.796000000000000000e+03 -7.127000000000000000e+03
5.899000000000000000e+03 -8.593000000000000000e+03
3.273000000000000000e+03 -9.412000000000000000e+03
1.364000000000000000e+03 -9.070000000000000000e+03
2.489000000000000000e+03 -8.798000000000000000e+03
1.364000000000000000e+03 -9.548000000000000000e+03
-3.750000000000000000e+02 -1.156000000000000000e+04
-3.410000000000000000e+02 -1.156000000000000000e+04
-7.160000000000000000e+02 -9.378000000000000000e+03
-2.217000000000000000e+03 -1.142400000000000000e+04
-1.603000000000000000e+03 -1.162800000000000000e+04
-6.140000000000000000e+02 -1.483400000000000000e+04
-4.058000000000000000e+03 -1.289000000000000000e+04
-5.012000000000000000e+03 -1.156000000000000000e+04
-3.512000000000000000e+03 -1.166200000000000000e+04
-5.012000000000000000e+03 -1.357200000000000000e+04
-5.831000000000000000e+03 -1.207200000000000000e+04
-5.831000000000000000e+03 -1.145800000000000000e+04
-6.206000000000000000e+03 -1.265100000000000000e+04
-5.797000000000000000e+03 -1.156000000000000000e+04
-6.717000000000000000e+03 -1.265200000000000000e+04
-6.172000000000000000e+03 -1.149200000000000000e+04
-7.673000000000000000e+03 -1.121900000000000000e+04
-7.263000000000000000e+03 -1.125200000000000000e+04
-7.331000000000000000e+03 -8.866000000000000000e+03
-6.275000000000000000e+03 -1.060500000000000000e+04
-9.820000000000000000e+03 -1.091200000000000000e+04
-8.968000000000000000e+03 -9.479000000000000000e+03
-7.161000000000000000e+03 -1.002500000000000000e+04
-7.570000000000000000e+03 -9.377000000000000000e+03
-7.673000000000000000e+03 -8.354000000000000000e+03
-6.274000000000000000e+03 -7.434000000000000000e+03
-7.672000000000000000e+03 -5.694000000000000000e+03
-7.298000000000000000e+03 -3.785000000000000000e+03
-6.002000000000000000e+03 -4.978000000000000000e+03
-6.308000000000000000e+03 -5.046000000000000000e+03
-7.024000000000000000e+03 -4.671000000000000000e+03
-6.205000000000000000e+03 -3.239000000000000000e+03
-5.899000000000000000e+03 -4.432000000000000000e+03
-4.195000000000000000e+03 -3.035000000000000000e+03
-3.819000000000000000e+03 -3.239000000000000000e+03
-3.853000000000000000e+03 -2.040000000000000000e+02
-6.342000000000000000e+03 -1.193000000000000000e+03
-4.126000000000000000e+03 -4.770000000000000000e+02
-2.694000000000000000e+03 3.410000000000000000e+02
-3.171000000000000000e+03 -7.160000000000000000e+02
-2.864000000000000000e+03 -1.091000000000000000e+03
-2.728000000000000000e+03 -2.390000000000000000e+02
-7.500000000000000000e+02 1.432000000000000000e+03
-1.943000000000000000e+03 3.070000000000000000e+02
-2.762000000000000000e+03 6.820000000000000000e+02
-5.800000000000000000e+02 3.274000000000000000e+03
-2.933000000000000000e+03 5.800000000000000000e+02
-1.568000000000000000e+03 4.430000000000000000e+02
-2.966000000000000000e+03 1.637000000000000000e+03
-1.125000000000000000e+03 1.398000000000000000e+03
-5.450000000000000000e+02 1.807000000000000000e+03
-1.023000000000000000e+03 1.700000000000000000e+02
-1.159000000000000000e+03 2.081000000000000000e+03
-1.295000000000000000e+03 2.728000000000000000e+03
-1.091000000000000000e+03 1.739000000000000000e+03
-1.842000000000000000e+03 1.467000000000000000e+03
-2.557000000000000000e+03 3.547000000000000000e+03
-2.693000000000000000e+03 3.376000000000000000e+03
-2.353000000000000000e+03 1.466000000000000000e+03
-4.090000000000000000e+02 2.592000000000000000e+03
-3.035000000000000000e+03 6.480000000000000000e+02
-2.011000000000000000e+03 2.831000000000000000e+03
-1.535000000000000000e+03 3.751000000000000000e+03
-1.534000000000000000e+03 3.547000000000000000e+03
-1.091000000000000000e+03 4.160000000000000000e+03
-3.785000000000000000e+03 1.808000000000000000e+03
-1.978000000000000000e+03 2.694000000000000000e+03
-2.490000000000000000e+03 3.375000000000000000e+03
-7.160000000000000000e+02 2.285000000000000000e+03
-9.210000000000000000e+02 2.217000000000000000e+03
-1.262000000000000000e+03 3.751000000000000000e+03
-3.750000000000000000e+03 2.387000000000000000e+03
-2.932000000000000000e+03 2.763000000000000000e+03
-1.807000000000000000e+03 5.013000000000000000e+03
-2.081000000000000000e+03 1.943000000000000000e+03
-3.342000000000000000e+03 3.001000000000000000e+03
-1.705000000000000000e+03 4.024000000000000000e+03
-1.672000000000000000e+03 3.717000000000000000e+03
-2.080000000000000000e+03 3.274000000000000000e+03
-2.387000000000000000e+03 5.251000000000000000e+03
-3.410000000000000000e+02 4.092000000000000000e+03
-2.387000000000000000e+03 5.729000000000000000e+03
-2.720000000000000000e+02 6.888000000000000000e+03
-1.159000000000000000e+03 6.002000000000000000e+03
1.360000000000000000e+02 5.354000000000000000e+03
-8.870000000000000000e+02 6.513000000000000000e+03
1.944000000000000000e+03 5.456000000000000000e+03
1.398000000000000000e+03 6.922000000000000000e+03
9.550000000000000000e+02 7.536000000000000000e+03
1.944000000000000000e+03 6.308000000000000000e+03
3.478000000000000000e+03 6.001000000000000000e+03
2.318000000000000000e+03 7.502000000000000000e+03
1.841000000000000000e+03 5.456000000000000000e+03
2.864000000000000000e+03 7.502000000000000000e+03
3.717000000000000000e+03 6.752000000000000000e+03
4.774000000000000000e+03 8.866000000000000000e+03
4.739000000000000000e+03 6.002000000000000000e+03
4.842000000000000000e+03 5.968000000000000000e+03
4.671000000000000000e+03 6.752000000000000000e+03
7.502000000000000000e+03 7.434000000000000000e+03
5.558000000000000000e+03 4.740000000000000000e+03
7.774000000000000000e+03 6.309000000000000000e+03
7.502000000000000000e+03 6.548000000000000000e+03
6.991000000000000000e+03 5.286000000000000000e+03
6.410000000000000000e+03 4.331000000000000000e+03
6.036000000000000000e+03 3.581000000000000000e+03
8.696000000000000000e+03 3.819000000000000000e+03
1.012800000000000000e+04 3.819000000000000000e+03
9.036000000000000000e+03 2.591000000000000000e+03
7.672000000000000000e+03 2.046000000000000000e+03
6.104000000000000000e+03 3.171000000000000000e+03
8.286000000000000000e+03 1.432000000000000000e+03
6.718000000000000000e+03 2.285000000000000000e+03
7.025000000000000000e+03 1.501000000000000000e+03
6.513000000000000000e+03 -4.430000000000000000e+02
7.058000000000000000e+03 -1.360000000000000000e+02
6.275000000000000000e+03 -5.460000000000000000e+02
5.933000000000000000e+03 -5.450000000000000000e+02
5.285000000000000000e+03 -1.466000000000000000e+03
4.160000000000000000e+03 -2.728000000000000000e+03
2.558000000000000000e+03 -4.024000000000000000e+03
2.967000000000000000e+03 -3.478000000000000000e+03
4.194000000000000000e+03 -4.194000000000000000e+03
5.110000000000000000e+02 -4.160000000000000000e+03
-4.090000000000000000e+02 -3.921000000000000000e+03
1.363000000000000000e+03 -6.241000000000000000e+03
-1.057000000000000000e+03 -6.377000000000000000e+03
-1.637000000000000000e+03 -6.376000000000000000e+03
-1.500000000000000000e+03 -8.082000000000000000e+03
-2.694000000000000000e+03 -7.024000000000000000e+03
-5.354000000000000000e+03 -6.547000000000000000e+03
-6.274000000000000000e+03 -8.593000000000000000e+03
-5.558000000000000000e+03 -7.673000000000000000e+03
-6.103000000000000000e+03 -9.002000000000000000e+03
-6.717000000000000000e+03 -9.514000000000000000e+03
-6.104000000000000000e+03 -8.559000000000000000e+03
-7.161000000000000000e+03 -8.900000000000000000e+03
-7.945000000000000000e+03 -9.479000000000000000e+03
-8.115000000000000000e+03 -1.121800000000000000e+04
-1.026400000000000000e+04 -8.457000000000000000e+03
-9.411000000000000000e+03 -9.922000000000000000e+03
-9.752000000000000000e+03 -8.525000000000000000e+03
-1.040000000000000000e+04 -9.343000000000000000e+03
-9.275000000000000000e+03 -9.343000000000000000e+03
-9.138000000000000000e+03 -9.855000000000000000e+03
-9.855000000000000000e+03 -9.684000000000000000e+03
-1.309400000000000000e+04 -1.022900000000000000e+04
-1.043400000000000000e+04 -8.729000000000000000e+03
-1.125200000000000000e+04 -7.365000000000000000e+03
-9.411000000000000000e+03 -9.547000000000000000e+03
-7.672000000000000000e+03 -7.230000000000000000e+03
-9.548000000000000000e+03 -7.638000000000000000e+03
-1.043500000000000000e+04 -1.043400000000000000e+04
-1.033100000000000000e+04 -5.899000000000000000e+03
-9.206000000000000000e+03 -7.741000000000000000e+03
-8.729000000000000000e+03 -6.990000000000000000e+03
-8.388000000000000000e+03 -4.637000000000000000e+03
-9.547000000000000000e+03 -5.524000000000000000e+03
-5.933000000000000000e+03 -5.490000000000000000e+03
-7.058000000000000000e+03 -4.944000000000000000e+03
-6.138000000000000000e+03 -3.206000000000000000e+03
-8.082000000000000000e+03 -4.399000000000000000e+03
-7.501000000000000000e+03 -6.479000000000000000e+03
-5.558000000000000000e+03 -4.774000000000000000e+03
-5.899000000000000000e+03 -2.899000000000000000e+03
-3.376000000000000000e+03 -4.399000000000000000e+03
-6.138000000000000000e+03 -3.580000000000000000e+03
-3.513000000000000000e+03 -2.659000000000000000e+03
-5.661000000000000000e+03 -3.206000000000000000e+03
-4.706000000000000000e+03 -3.342000000000000000e+03
-2.386000000000000000e+03 -1.875000000000000000e+03
-3.887000000000000000e+03 -1.807000000000000000e+03
-2.354000000000000000e+03 -8.860000000000000000e+02
-3.478000000000000000e+03 -1.023000000000000000e+03
-1.671000000000000000e+03 -1.331000000000000000e+03
-3.853000000000000000e+03 -9.890000000000000000e+02
-7.500000000000000000e+02 -1.159000000000000000e+03
-1.330000000000000000e+03 -3.410000000000000000e+02
-1.329000000000000000e+03 -1.398000000000000000e+03
-1.841000000000000000e+03 -2.421000000000000000e+03
-2.660000000000000000e+03 -3.750000000000000000e+02
-6.130000000000000000e+02 -3.000000000000000000e+03
-1.636000000000000000e+03 -1.023000000000000000e+03
-2.966000000000000000e+03 -1.637000000000000000e+03
-3.137000000000000000e+03 -1.091000000000000000e+03
3.500000000000000000e+01 -4.780000000000000000e+02
-1.841000000000000000e+03 -9.890000000000000000e+02
-1.261000000000000000e+03 -1.603000000000000000e+03
-1.773000000000000000e+03 -2.046000000000000000e+03
1.125000000000000000e+03 -1.399000000000000000e+03
-4.770000000000000000e+02 -1.671000000000000000e+03
-1.603000000000000000e+03 -3.410000000000000000e+02
-3.750000000000000000e+02 -7.160000000000000000e+02
-1.057000000000000000e+03 -1.876000000000000000e+03
-5.110000000000000000e+02 -1.227000000000000000e+03
-4.430000000000000000e+02 -3.400000000000000000e+01
-1.091000000000000000e+03 -1.125000000000000000e+03
-3.410000000000000000e+02 -0.000000000000000000e+00
-3.750000000000000000e+02 -2.730000000000000000e+02
-1.364000000000000000e+03 -3.750000000000000000e+02
1.057000000000000000e+03 -1.330000000000000000e+03
-1.227000000000000000e+03 -1.700000000000000000e+02
3.400000000000000000e+01 -3.400000000000000000e+01
1.432000000000000000e+03 -1.227000000000000000e+03
-3.070000000000000000e+02 -5.800000000000000000e+02
1.194000000000000000e+03 -2.390000000000000000e+02
2.390000000000000000e+02 -9.200000000000000000e+02
1.910000000000000000e+03 -1.364000000000000000e+03
2.864000000000000000e+03 -5.800000000000000000e+02
1.773000000000000000e+03 -3.060000000000000000e+02
1.671000000000000000e+03 -1.160000000000000000e+03
1.704000000000000000e+03 1.091000000000000000e+03
3.171000000000000000e+03 -5.120000000000000000e+02
3.614000000000000000e+03 8.520000000000000000e+02
4.399000000000000000e+03 -6.800000000000000000e+01
5.422000000000000000e+03 7.160000000000000000e+02
4.774000000000000000e+03 2.390000000000000000e+02
3.717000000000000000e+03 1.432000000000000000e+03
7.468000000000000000e+03 1.467000000000000000e+03
6.138000000000000000e+03 9.210000000000000000e+02
6.445000000000000000e+03 -1.501000000000000000e+03
7.092000000000000000e+03 1.125000000000000000e+03
6.956000000000000000e+03 1.227000000000000000e+03
7.809000000000000000e+03 1.807000000000000000e+03
1.026400000000000000e+04 -2.730000000000000000e+02
8.900000000000000000e+03 1.262000000000000000e+03
1.012700000000000000e+04 -2.040000000000000000e+02
9.446000000000000000e+03 -7.500000000000000000e+02
1.091100000000000000e+04 2.217000000000000000e+03
1.098000000000000000e+04 1.092000000000000000e+03
1.135500000000000000e+04 -7.500000000000000000e+02
1.309400000000000000e+04 -2.380000000000000000e+02
1.278700000000000000e+04 1.534000000000000000e+03
1.343500000000000000e+04 1.842000000000000000e+03
1.476500000000000000e+04 3.614000000000000000e+03
1.422000000000000000e+04 1.841000000000000000e+03
1.319600000000000000e+04 2.183000000000000000e+03
1.404800000000000000e+04 1.194000000000000000e+03
1.370700000000000000e+04 2.250000000000000000e+03
1.527700000000000000e+04 1.432000000000000000e+03
1.360500000000000000e+04 3.308000000000000000e+03
1.186700000000000000e+04 1.807000000000000000e+03
1.558400000000000000e+04 1.569000000000000000e+03
1.295800000000000000e+04 3.069000000000000000e+03
1.346900000000000000e+04 3.273000000000000000e+03
1.265100000000000000e+04 3.478000000000000000e+03
1.063900000000000000e+04 2.796000000000000000e+03
1.265100000000000000e+04 3.512000000000000000e+03
1.152500000000000000e+04 4.126000000000000000e+03
1.108300000000000000e+04 3.137000000000000000e+03
1.026400000000000000e+04 4.945000000000000000e+03
1.046900000000000000e+04 4.979000000000000000e+03
8.150000000000000000e+03 3.239000000000000000e+03
7.808000000000000000e+03 6.786000000000000000e+03
5.046000000000000000e+03 7.058000000000000000e+03
4.637000000000000000e+03 6.376000000000000000e+03
9.200000000000000000e+02 6.752000000000000000e+03
2.319000000000000000e+03 7.127000000000000000e+03
-1.228000000000000000e+03 7.434000000000000000e+03
-2.763000000000000000e+03 6.206000000000000000e+03
-6.956000000000000000e+03 6.377000000000000000e+03
-5.422000000000000000e+03 7.809000000000000000e+03
-8.048000000000000000e+03 5.013000000000000000e+03
-9.275000000000000000e+03 4.979000000000000000e+03
-1.132000000000000000e+04 4.706000000000000000e+03
-1.213900000000000000e+04 6.445000000000000000e+03
-1.578700000000000000e+04 5.763000000000000000e+03
-1.687900000000000000e+04 3.273000000000000000e+03
-1.820900000000000000e+04 4.160000000000000000e+03
-1.861800000000000000e+04 2.592000000000000000e+03
-2.120900000000000000e+04 2.455000000000000000e+03
-2.301700000000000000e+04 2.182000000000000000e+03
-2.329000000000000000e+04 7.160000000000000000e+02
-2.400600000000000000e+04 1.671000000000000000e+03
-2.649500000000000000e+04 -3.400000000000000000e+01
-2.533500000000000000e+04 -2.728000000000000000e+03
-2.557400000000000000e+04 -2.899000000000000000e+03
-2.492600000000000000e+04 -3.376000000000000000e+03
-2.680200000000000000e+04 -3.682000000000000000e+03
-2.577800000000000000e+04 -4.808000000000000000e+03
-2.601700000000000000e+04 -5.217000000000000000e+03
-2.577800000000000000e+04 -5.729000000000000000e+03
-2.550600000000000000e+04 -7.024000000000000000e+03
-2.404000000000000000e+04 -8.320000000000000000e+03
-2.513100000000000000e+04 -8.729000000000000000e+03
-2.410800000000000000e+04 -1.080900000000000000e+04
-2.329000000000000000e+04 -9.991000000000000000e+03
-2.243700000000000000e+04 -1.343500000000000000e+04
-2.076700000000000000e+04 -1.265000000000000000e+04
-2.015200000000000000e+04 -1.251400000000000000e+04
-1.984600000000000000e+04 -1.295700000000000000e+04
-1.841300000000000000e+04 -1.469700000000000000e+04
-1.592500000000000000e+04 -1.503800000000000000e+04
-1.520800000000000000e+04 -1.479900000000000000e+04
-1.220700000000000000e+04 -1.848100000000000000e+04
-1.138900000000000000e+04 -1.541200000000000000e+04
-9.752000000000000000e+03 -1.459400000000000000e+04
-8.388000000000000000e+03 -1.691300000000000000e+04
-6.479000000000000000e+03 -1.640200000000000000e+04
-7.298000000000000000e+03 -1.783400000000000000e+04
-4.706000000000000000e+03 -1.800500000000000000e+04
-2.080000000000000000e+03 -1.636800000000000000e+04
-1.705000000000000000e+03 -1.554900000000000000e+04
6.480000000000000000e+02 -1.445800000000000000e+04
1.023000000000000000e+03 -1.554900000000000000e+04
1.535000000000000000e+03 -1.469700000000000000e+04
2.148000000000000000e+03 -1.387800000000000000e+04
3.615000000000000000e+03 -1.278700000000000000e+04
3.171000000000000000e+03 -1.241200000000000000e+04
4.467000000000000000e+03 -1.289000000000000000e+04
4.263000000000000000e+03 -1.435500000000000000e+04
5.865000000000000000e+03 -1.098000000000000000e+04
5.388000000000000000e+03 -9.752000000000000000e+03
5.456000000000000000e+03 -1.060400000000000000e+04
6.684000000000000000e+03 -9.513000000000000000e+03
4.194000000000000000e+03 -7.706000000000000000e+03
6.309000000000000000e+03 -9.889000000000000000e+03
8.490000000000000000e+03 -9.991000000000000000e+03
7.297000000000000000e+03 -8.081000000000000000e+03
8.081000000000000000e+03 -8.968000000000000000e+03
9.650000000000000000e+03 -8.456000000000000000e+03
9.480000000000000000e+03 -8.661000000000000000e+03
8.252000000000000000e+03 -8.524000000000000000e+03
8.525000000000000000e+03 -6.820000000000000000e+03
8.150000000000000000e+03 -5.387000000000000000e+03
9.718000000000000000e+03 -7.297000000000000000e+03
1.040000000000000000e+04 -6.069000000000000000e+03
8.047000000000000000e+03 -3.682000000000000000e+03
1.060400000000000000e+04 -3.990000000000000000e+03
1.169600000000000000e+04 -4.773000000000000000e+03
1.179800000000000000e+04 -4.262000000000000000e+03
1.309400000000000000e+04 -5.353000000000000000e+03
1.432200000000000000e+04 -3.342000000000000000e+03
1.442400000000000000e+04 -2.660000000000000000e+03
1.432100000000000000e+04 -2.796000000000000000e+03
1.456000000000000000e+04 -3.171000000000000000e+03
1.732200000000000000e+04 -3.750000000000000000e+02
1.814000000000000000e+04 -1.534000000000000000e+03
1.589000000000000000e+04 -1.637000000000000000e+03
1.838000000000000000e+04 1.159000000000000000e+03
2.121000000000000000e+04 1.534000000000000000e+03
2.165400000000000000e+04 1.295000000000000000e+03
2.134700000000000000e+04 3.069000000000000000e+03
2.373300000000000000e+04 5.046000000000000000e+03
2.325600000000000000e+04 6.308000000000000000e+03
2.656300000000000000e+04 6.479000000000000000e+03
2.536900000000000000e+04 6.377000000000000000e+03
2.816500000000000000e+04 7.672000000000000000e+03
2.799500000000000000e+04 8.593000000000000000e+03
2.898400000000000000e+04 1.217400000000000000e+04
2.932500000000000000e+04 1.387900000000000000e+04
3.075800000000000000e+04 1.486700000000000000e+04
2.946100000000000000e+04 1.486800000000000000e+04
3.010900000000000000e+04 1.800400000000000000e+04
2.929100000000000000e+04 1.837900000000000000e+04
3.028000000000000000e+04 2.185800000000000000e+04
2.976800000000000000e+04 2.509800000000000000e+04
2.820000000000000000e+04 2.492600000000000000e+04
2.680200000000000000e+04 2.595000000000000000e+04
2.543800000000000000e+04 2.768900000000000000e+04
2.202800000000000000e+04 3.072300000000000000e+04
2.400600000000000000e+04 3.222400000000000000e+04
2.254000000000000000e+04 3.471300000000000000e+04
1.766300000000000000e+04 3.508800000000000000e+04
1.520900000000000000e+04 3.583900000000000000e+04
1.384400000000000000e+04 3.577000000000000000e+04
1.254900000000000000e+04 3.911200000000000000e+04
8.423000000000000000e+03 3.952100000000000000e+04
6.786000000000000000e+03 3.962300000000000000e+04
4.535000000000000000e+03 4.139700000000000000e+04
-9.890000000000000000e+02 3.996500000000000000e+04
-3.240000000000000000e+03 3.972600000000000000e+04
-6.615000000000000000e+03 3.928200000000000000e+04
-1.033200000000000000e+04 4.033900000000000000e+04
-1.418500000000000000e+04 4.081700000000000000e+04
-1.797000000000000000e+04 3.982700000000000000e+04
-2.202800000000000000e+04 3.911200000000000000e+04
-2.482500000000000000e+04 3.771400000000000000e+04
-2.642600000000000000e+04 3.805500000000000000e+04
-3.024500000000000000e+04 3.542900000000000000e+04
-3.471300000000000000e+04 3.427000000000000000e+04
-3.863400000000000000e+04 3.321200000000000000e+04
-4.139700000000000000e+04 3.045100000000000000e+04
-4.334000000000000000e+04 2.666500000000000000e+04
-4.647700000000000000e+04 2.509700000000000000e+04
-4.978400000000000000e+04 2.114200000000000000e+04
-5.384300000000000000e+04 2.022100000000000000e+04
-5.728600000000000000e+04 1.629900000000000000e+04
-6.059500000000000000e+04 1.193500000000000000e+04
-6.110500000000000000e+04 7.912000000000000000e+03
-6.267300000000000000e+04 3.819000000000000000e+03
-6.434500000000000000e+04 1.700000000000000000e+02
-6.591300000000000000e+04 -3.171000000000000000e+03
-6.673200000000000000e+04 -7.809000000000000000e+03
-6.697000000000000000e+04 -1.261600000000000000e+04
-6.601500000000000000e+04 -1.674300000000000000e+04
-6.666300000000000000e+04 -2.223200000000000000e+04
-6.676600000000000000e+04 -2.519900000000000000e+04
-6.451500000000000000e+04 -2.966600000000000000e+04
-6.185500000000000000e+04 -3.461000000000000000e+04
-5.991200000000000000e+04 -3.570200000000000000e+04
-5.865000000000000000e+04 -4.207800000000000000e+04
-5.213700000000000000e+04 -4.347700000000000000e+04
-4.896600000000000000e+04 -4.859100000000000000e+04
-4.695400000000000000e+04 -5.227400000000000000e+04
-4.279400000000000000e+04 -5.244400000000000000e+04
-3.832800000000000000e+04 -5.486500000000000000e+04
-3.392800000000000000e+04 -5.541100000000000000e+04
-3.024500000000000000e+04 -5.616100000000000000e+04
-2.376700000000000000e+04 -5.793400000000000000e+04
-1.984500000000000000e+04 -5.844600000000000000e+04
-1.537900000000000000e+04 -5.943400000000000000e+04
-9.956000000000000000e+03 -5.909300000000000000e+04
-5.865000000000000000e+03 -5.800200000000000000e+04
-6.800000000000000000e+01 -5.735500000000000000e+04
3.274000000000000000e+03 -5.391100000000000000e+04
6.956000000000000000e+03 -5.524100000000000000e+04
1.118500000000000000e+04 -5.432000000000000000e+04
1.568500000000000000e+04 -5.142200000000000000e+04
1.647000000000000000e+04 -4.985200000000000000e+04
