-2.368510000000000000e+05 7.147200000000000000e+04
-2.159840000000000000e+05 9.551100000000000000e+04
-1.904430000000000000e+05 1.145390000000000000e+05
-1.629590000000000000e+05 1.293040000000000000e+05
-1.354410000000000000e+05 1.396700000000000000e+05
-1.091510000000000000e+05 1.441030000000000000e+05
-8.320200000000000000e+04 1.455010000000000000e+05
-5.929900000000000000e+04 1.431140000000000000e+05
-4.023700000000000000e+04 1.354410000000000000e+05
-2.151600000000000000e+04 1.265420000000000000e+05
-8.150000000000000000e+03 1.194830000000000000e+05
1.194000000000000000e+03 1.103450000000000000e+05
1.036600000000000000e+04 1.016490000000000000e+05
1.800400000000000000e+04 9.523800000000000000e+04
1.899300000000000000e+04 8.736100000000000000e+04
2.332300000000000000e+04 8.425800000000000000e+04
2.366500000000000000e+04 8.037000000000000000e+04
2.693800000000000000e+04 7.737000000000000000e+04
2.888200000000000000e+04 7.709700000000000000e+04
3.137100000000000000e+04 7.658600000000000000e+04
3.628200000000000000e+04 7.583700000000000000e+04
4.081600000000000000e+04 7.798400000000000000e+04
4.719300000000000000e+04 7.839400000000000000e+04
5.442200000000000000e+04 7.904100000000000000e+04
6.151400000000000000e+04 7.849600000000000000e+04
7.331300000000000000e+04 7.805300000000000000e+04
8.204200000000000000e+04 7.505200000000000000e+04
9.455700000000000000e+04 7.235800000000000000e+04
1.056730000000000000e+05 6.765200000000000000e+04
1.181870000000000000e+05 5.974300000000000000e+04
1.309060000000000000e+05 5.336500000000000000e+04
1.424660000000000000e+05 3.921500000000000000e+04
1.540600000000000000e+05 2.751800000000000000e+04
1.634710000000000000e+05 1.214000000000000000e+04
1.709040000000000000e+05 -2.762000000000000000e+03
1.737010000000000000e+05 -2.148200000000000000e+04
1.736320000000000000e+05 -4.088500000000000000e+04
1.731890000000000000e+05 -6.100300000000000000e+04
1.670850000000000000e+05 -8.067800000000000000e+04
1.560030000000000000e+05 -9.892100000000000000e+04
1.433870000000000000e+05 -1.182550000000000000e+05
1.275300000000000000e+05 -1.354080000000000000e+05
1.081280000000000000e+05 -1.505470000000000000e+05
8.251900000000000000e+04 -1.643570000000000000e+05
5.640000000000000000e+04 -1.722000000000000000e+05
2.884700000000000000e+04 -1.799060000000000000e+05
-2.148000000000000000e+03 -1.826000000000000000e+05
-3.021300000000000000e+04 -1.810320000000000000e+05
-5.858200000000000000e+04 -1.748260000000000000e+05
-8.691900000000000000e+04 -1.641520000000000000e+05
-1.133110000000000000e+05 -1.509560000000000000e+05
-1.351350000000000000e+05 -1.312470000000000000e+05
-1.518090000000000000e+05 -1.114700000000000000e+05
-1.663010000000000000e+05 -8.903200000000000000e+04
-1.759170000000000000e+05 -6.519700000000000000e+04
-1.821580000000000000e+05 -3.928200000000000000e+04
-1.835550000000000000e+05 -1.742500000000000000e+04
-1.808950000000000000e+05 6.752000000000000000e+03
-1.736330000000000000e+05 2.697300000000000000e+04
-1.608790000000000000e+05 4.600000000000000000e+04
-1.500010000000000000e+05 6.171900000000000000e+04
-1.347590000000000000e+05 7.648400000000000000e+04
-1.158350000000000000e+05 8.797600000000000000e+04
-9.960300000000000000e+04 9.718300000000000000e+04
-8.105400000000000000e+04 1.019560000000000000e+05
-6.352700000000000000e+04 1.031500000000000000e+05
-4.518100000000000000e+04 1.037980000000000000e+05
-2.915400000000000000e+04 1.021260000000000000e+05
-1.640100000000000000e+04 9.718200000000000000e+04
1.700000000000000000e+02 9.305700000000000000e+04
1.309400000000000000e+04 8.422400000000000000e+04
1.415100000000000000e+04 7.123200000000000000e+04
2.284700000000000000e+04 6.949400000000000000e+04
3.140600000000000000e+04 6.236700000000000000e+04
3.481500000000000000e+04 5.275100000000000000e+04
3.921300000000000000e+04 4.565900000000000000e+04
3.825900000000000000e+04 4.010000000000000000e+04
4.040800000000000000e+04 3.652000000000000000e+04
3.894200000000000000e+04 3.437200000000000000e+04
4.061200000000000000e+04 3.195000000000000000e+04
4.078300000000000000e+04 3.311000000000000000e+04
4.170400000000000000e+04 3.253000000000000000e+04
4.467000000000000000e+04 3.242800000000000000e+04
4.644300000000000000e+04 3.276900000000000000e+04
4.995500000000000000e+04 3.433800000000000000e+04
5.282000000000000000e+04 3.423500000000000000e+04
5.814000000000000000e+04 3.099600000000000000e+04
6.212900000000000000e+04 3.021100000000000000e+04
6.547000000000000000e+04 2.840500000000000000e+04
7.116500000000000000e+04 2.390300000000000000e+04
7.764400000000000000e+04 1.725500000000000000e+04
8.371400000000000000e+04 1.197000000000000000e+04
8.760100000000000000e+04 7.809000000000000000e+03
9.234100000000000000e+04 -1.842000000000000000e+03
9.469300000000000000e+04 -1.173000000000000000e+04
9.673900000000000000e+04 -2.189200000000000000e+04
9.650100000000000000e+04 -3.178000000000000000e+04
9.421600000000000000e+04 -4.119200000000000000e+04
9.032900000000000000e+04 -5.326200000000000000e+04
8.521300000000000000e+04 -6.369600000000000000e+04
7.713200000000000000e+04 -7.477900000000000000e+04
6.458400000000000000e+04 -8.183700000000000000e+04
5.479700000000000000e+04 -9.216900000000000000e+04
3.986200000000000000e+04 -9.782900000000000000e+04
2.608600000000000000e+04 -1.025010000000000000e+05
9.377000000000000000e+03 -1.076170000000000000e+05
-5.456000000000000000e+03 -1.082630000000000000e+05
-2.090200000000000000e+04 -1.045140000000000000e+05
-3.638300000000000000e+04 -1.037300000000000000e+05
-5.060200000000000000e+04 -9.929600000000000000e+04
-6.284400000000000000e+04 -9.182800000000000000e+04
-7.859800000000000000e+04 -8.272500000000000000e+04
-8.824800000000000000e+04 -7.307400000000000000e+04
-9.827400000000000000e+04 -6.171900000000000000e+04
-1.045130000000000000e+05 -4.801100000000000000e+04
-1.092860000000000000e+05 -3.406500000000000000e+04
-1.122190000000000000e+05 -1.981100000000000000e+04
-1.120150000000000000e+05 -5.013000000000000000e+03
-1.117080000000000000e+05 6.854000000000000000e+03
-1.057070000000000000e+05 1.994800000000000000e+04
-9.929600000000000000e+04 3.109800000000000000e+04
-8.978300000000000000e+04 4.289600000000000000e+04
-8.125700000000000000e+04 5.155800000000000000e+04
-7.136900000000000000e+04 5.721900000000000000e+04
-5.906000000000000000e+04 6.076400000000000000e+04
-4.630600000000000000e+04 6.632300000000000000e+04
-3.512200000000000000e+04 6.710700000000000000e+04
-2.366400000000000000e+04 6.632300000000000000e+04
-1.565100000000000000e+04 6.506100000000000000e+04
-5.080000000000000000e+03 6.066200000000000000e+04
3.717000000000000000e+03 5.715000000000000000e+04
1.149200000000000000e+04 5.029600000000000000e+04
1.786800000000000000e+04 4.538600000000000000e+04
2.039100000000000000e+04 3.996400000000000000e+04
2.670000000000000000e+04 3.484900000000000000e+04
2.796200000000000000e+04 3.034800000000000000e+04
2.891600000000000000e+04 2.581300000000000000e+04
-1.278700000000000000e+04 2.710800000000000000e+04
-9.854000000000000000e+03 2.676800000000000000e+04
-7.707000000000000000e+03 2.414200000000000000e+04
-6.547000000000000000e+03 2.097100000000000000e+04
-5.354000000000000000e+03 2.018700000000000000e+04
-3.647000000000000000e+03 1.984500000000000000e+04
-3.000000000000000000e+03 1.960700000000000000e+04
-4.228000000000000000e+03 2.073200000000000000e+04
-2.864000000000000000e+03 2.219800000000000000e+04
-2.045000000000000000e+03 2.509700000000000000e+04
-9.890000000000000000e+02 2.748400000000000000e+04
-2.251000000000000000e+03 2.976900000000000000e+04
6.480000000000000000e+02 3.225800000000000000e+04
4.058000000000000000e+03 3.559900000000000000e+04
7.468000000000000000e+03 4.020200000000000000e+04
1.210600000000000000e+04 4.119100000000000000e+04
1.629900000000000000e+04 4.122600000000000000e+04
2.104000000000000000e+04 4.368100000000000000e+04
2.772300000000000000e+04 4.392000000000000000e+04
3.212200000000000000e+04 4.088400000000000000e+04
3.945300000000000000e+04 4.163500000000000000e+04
4.640900000000000000e+04 3.883800000000000000e+04
5.060300000000000000e+04 3.559900000000000000e+04
5.609400000000000000e+04 3.157600000000000000e+04
6.253800000000000000e+04 2.383500000000000000e+04
6.605000000000000000e+04 1.855100000000000000e+04
6.843700000000000000e+04 1.319600000000000000e+04
7.222200000000000000e+04 2.523000000000000000e+03
7.276700000000000000e+04 -4.774000000000000000e+03
7.164200000000000000e+04 -1.503800000000000000e+04
7.075500000000000000e+04 -2.349400000000000000e+04
6.543600000000000000e+04 -3.229200000000000000e+04
5.844600000000000000e+04 -4.074800000000000000e+04
5.312700000000000000e+04 -4.978500000000000000e+04
4.552200000000000000e+04 -5.609300000000000000e+04
3.628100000000000000e+04 -6.028700000000000000e+04
2.649500000000000000e+04 -6.455000000000000000e+04
1.718600000000000000e+04 -6.939100000000000000e+04
5.422000000000000000e+03 -7.150500000000000000e+04
-5.933000000000000000e+03 -6.881200000000000000e+04
-1.483300000000000000e+04 -6.990300000000000000e+04
-2.595000000000000000e+04 -6.567500000000000000e+04
-3.403100000000000000e+04 -6.137900000000000000e+04
-4.126000000000000000e+04 -5.691100000000000000e+04
-4.913700000000000000e+04 -5.118200000000000000e+04
-5.343300000000000000e+04 -4.446500000000000000e+04
-6.028700000000000000e+04 -3.822400000000000000e+04
-6.243500000000000000e+04 -3.014300000000000000e+04
-6.397000000000000000e+04 -2.322100000000000000e+04
-6.502600000000000000e+04 -1.479900000000000000e+04
-6.693600000000000000e+04 -8.525000000000000000e+03
-6.461700000000000000e+04 -1.227000000000000000e+03
-6.206000000000000000e+04 5.149000000000000000e+03
-5.643400000000000000e+04 1.040100000000000000e+04
-5.551300000000000000e+04 1.517500000000000000e+04
-5.002300000000000000e+04 2.025500000000000000e+04
-4.504400000000000000e+04 2.223200000000000000e+04
-4.183900000000000000e+04 2.513100000000000000e+04
-3.450800000000000000e+04 2.601700000000000000e+04
-3.171300000000000000e+04 2.663200000000000000e+04
-2.635900000000000000e+04 2.656400000000000000e+04
-1.984500000000000000e+04 2.513100000000000000e+04
-1.899300000000000000e+04 2.533600000000000000e+04
-1.507200000000000000e+04 2.274400000000000000e+04
-1.203700000000000000e+04 2.257300000000000000e+04
-1.023000000000000000e+04 2.063000000000000000e+04
-9.786000000000000000e+03 2.080000000000000000e+04
-9.343000000000000000e+03 2.069800000000000000e+04
-8.831000000000000000e+03 1.889100000000000000e+04
-6.820000000000000000e+03 1.902700000000000000e+04
-8.457000000000000000e+03 1.831200000000000000e+04
-8.831000000000000000e+03 2.032300000000000000e+04
-6.785000000000000000e+03 2.219900000000000000e+04
-5.933000000000000000e+03 2.530100000000000000e+04
-5.046000000000000000e+03 2.676800000000000000e+04
-4.603000000000000000e+03 2.792700000000000000e+04
-2.592000000000000000e+03 2.997400000000000000e+04
-1.227000000000000000e+03 3.498500000000000000e+04
1.603000000000000000e+03 3.484900000000000000e+04
5.968000000000000000e+03 3.525800000000000000e+04
1.166200000000000000e+04 3.689500000000000000e+04
1.394700000000000000e+04 3.655400000000000000e+04
1.885600000000000000e+04 3.559900000000000000e+04
2.383600000000000000e+04 3.399700000000000000e+04
3.017800000000000000e+04 3.232600000000000000e+04
3.416700000000000000e+04 2.799500000000000000e+04
3.781600000000000000e+04 2.540400000000000000e+04
4.351000000000000000e+04 2.141400000000000000e+04
4.644300000000000000e+04 1.616300000000000000e+04
4.975100000000000000e+04 1.292400000000000000e+04
5.094400000000000000e+04 5.934000000000000000e+03
5.220600000000000000e+04 -7.850000000000000000e+02
5.189900000000000000e+04 -7.570000000000000000e+03
5.415000000000000000e+04 -1.374200000000000000e+04
5.131900000000000000e+04 -2.213000000000000000e+04
4.910300000000000000e+04 -2.785900000000000000e+04
4.347700000000000000e+04 -3.672400000000000000e+04
3.815700000000000000e+04 -4.108900000000000000e+04
3.126900000000000000e+04 -4.825000000000000000e+04
2.533600000000000000e+04 -5.275100000000000000e+04
1.500400000000000000e+04 -5.496800000000000000e+04
4.399000000000000000e+03 -5.895800000000000000e+04
-3.785000000000000000e+03 -5.599000000000000000e+04
-1.445700000000000000e+04 -5.605900000000000000e+04
-2.386900000000000000e+04 -5.442200000000000000e+04
-3.259900000000000000e+04 -5.169400000000000000e+04
-3.900800000000000000e+04 -4.695500000000000000e+04
-4.610100000000000000e+04 -4.156600000000000000e+04
-4.954600000000000000e+04 -3.484900000000000000e+04
-5.322800000000000000e+04 -2.802900000000000000e+04
-5.698000000000000000e+04 -2.206200000000000000e+04
-5.745700000000000000e+04 -1.578800000000000000e+04
-5.912800000000000000e+04 -6.785000000000000000e+03
-5.820700000000000000e+04 -1.091000000000000000e+03
-5.650200000000000000e+04 4.876000000000000000e+03
-5.350100000000000000e+04 1.224100000000000000e+04
-5.016000000000000000e+04 1.551500000000000000e+04
-4.613600000000000000e+04 2.069800000000000000e+04
-4.095300000000000000e+04 2.386900000000000000e+04
-3.914600000000000000e+04 2.298300000000000000e+04
-3.317800000000000000e+04 2.864300000000000000e+04
-2.710900000000000000e+04 2.990500000000000000e+04
-2.363100000000000000e+04 2.997300000000000000e+04
-1.950400000000000000e+04 3.055300000000000000e+04
-1.486700000000000000e+04 2.922300000000000000e+04
-1.169600000000000000e+04 2.813200000000000000e+04
-6.309000000000000000e+03 2.830300000000000000e+04
-5.456000000000000000e+03 2.612000000000000000e+04
-3.683000000000000000e+03 2.458600000000000000e+04
-2.183000000000000000e+03 2.468800000000000000e+04
-1.501000000000000000e+03 2.397200000000000000e+04
1.262000000000000000e+03 2.417700000000000000e+04
7.510000000000000000e+02 2.530100000000000000e+04
3.136000000000000000e+03 2.571000000000000000e+04
1.535000000000000000e+03 2.615400000000000000e+04
3.273000000000000000e+03 2.632500000000000000e+04
6.819000000000000000e+03 2.942800000000000000e+04
7.775000000000000000e+03 2.983700000000000000e+04
1.046800000000000000e+04 2.823400000000000000e+04
1.145700000000000000e+04 3.068900000000000000e+04
1.575300000000000000e+04 3.017700000000000000e+04
2.045900000000000000e+04 3.280300000000000000e+04
2.339200000000000000e+04 3.058700000000000000e+04
2.533600000000000000e+04 2.976900000000000000e+04
3.096200000000000000e+04 2.673300000000000000e+04
3.413300000000000000e+04 2.656300000000000000e+04
3.597500000000000000e+04 2.475600000000000000e+04
3.952000000000000000e+04 2.209600000000000000e+04
4.057800000000000000e+04 1.810700000000000000e+04
4.456700000000000000e+04 1.490100000000000000e+04
4.593100000000000000e+04 1.135500000000000000e+04
4.589700000000000000e+04 9.377000000000000000e+03
4.808000000000000000e+04 7.297000000000000000e+03
5.005700000000000000e+04 3.478000000000000000e+03
4.842100000000000000e+04 2.081000000000000000e+03
4.610300000000000000e+04 -1.978000000000000000e+03
4.538600000000000000e+04 -3.478000000000000000e+03
4.354500000000000000e+04 -6.684000000000000000e+03
4.347700000000000000e+04 -8.968000000000000000e+03
4.242000000000000000e+04 -9.922000000000000000e+03
4.030500000000000000e+04 -1.207000000000000000e+04
4.081700000000000000e+04 -1.616200000000000000e+04
3.754300000000000000e+04 -2.008400000000000000e+04
3.798600000000000000e+04 -2.329000000000000000e+04
3.894100000000000000e+04 -2.946100000000000000e+04
3.607700000000000000e+04 -3.464500000000000000e+04
3.546200000000000000e+04 -3.887300000000000000e+04
3.652000000000000000e+04 -4.531700000000000000e+04
3.212100000000000000e+04 -5.377400000000000000e+04
2.898500000000000000e+04 -6.100400000000000000e+04
2.594900000000000000e+04 -6.898300000000000000e+04
2.049300000000000000e+04 -8.013300000000000000e+04
1.241200000000000000e+04 -9.271600000000000000e+04
3.682000000000000000e+03 -1.053660000000000000e+05
-7.399000000000000000e+03 -1.241540000000000000e+05
-7.331300000000000000e+04 -1.544350000000000000e+05
-1.794630000000000000e+05 -2.316690000000000000e+05
-2.215070000000000000e+05 -1.501040000000000000e+05
-2.324180000000000000e+05 -6.990400000000000000e+04
-2.238600000000000000e+05 -3.500000000000000000e+01
-1.971950000000000000e+05 6.011700000000000000e+04
-1.594810000000000000e+05 1.053670000000000000e+05
-1.175740000000000000e+05 1.376570000000000000e+05
-7.147200000000000000e+04 1.543670000000000000e+05
-2.758600000000000000e+04 1.545370000000000000e+05
1.227500000000000000e+04 1.449900000000000000e+05
4.821700000000000000e+04 1.223820000000000000e+05
7.522200000000000000e+04 8.968000000000000000e+04
9.697700000000000000e+04 3.907700000000000000e+04
8.797500000000000000e+04 3.785000000000000000e+03
5.946900000000000000e+04 2.694000000000000000e+03
4.320300000000000000e+04 6.130000000000000000e+02
3.512200000000000000e+04 7.160000000000000000e+02
3.021200000000000000e+04 1.364000000000000000e+03
2.663200000000000000e+04 3.750000000000000000e+02
2.417600000000000000e+04 3.445000000000000000e+03
2.155100000000000000e+04 2.216000000000000000e+03
2.008500000000000000e+04 -5.120000000000000000e+02
1.977700000000000000e+04 9.550000000000000000e+02
2.155100000000000000e+04 8.180000000000000000e+02
2.151700000000000000e+04 -1.296000000000000000e+03
2.035800000000000000e+04 -3.479000000000000000e+03
2.015200000000000000e+04 -3.342000000000000000e+03
1.947100000000000000e+04 -5.456000000000000000e+03
1.278700000000000000e+04 -1.394600000000000000e+04
2.018700000000000000e+04 -1.087800000000000000e+04
1.974300000000000000e+04 -1.503800000000000000e+04
1.936900000000000000e+04 -1.698100000000000000e+04
1.882300000000000000e+04 -1.848200000000000000e+04
1.722000000000000000e+04 -1.974300000000000000e+04
1.572000000000000000e+04 -2.247200000000000000e+04
1.329900000000000000e+04 -2.144800000000000000e+04
9.446000000000000000e+03 -2.264200000000000000e+04
8.593000000000000000e+03 -2.318800000000000000e+04
5.218000000000000000e+03 -2.659800000000000000e+04
1.875000000000000000e+03 -2.693900000000000000e+04
1.739000000000000000e+03 -2.608600000000000000e+04
-4.399000000000000000e+03 -2.625600000000000000e+04
-6.479000000000000000e+03 -2.680200000000000000e+04
-9.411000000000000000e+03 -2.475600000000000000e+04
-1.074100000000000000e+04 -2.369800000000000000e+04
-1.445800000000000000e+04 -2.063000000000000000e+04
-1.660600000000000000e+04 -2.165300000000000000e+04
-1.793600000000000000e+04 -2.015300000000000000e+04
-2.066400000000000000e+04 -1.483300000000000000e+04
-2.530100000000000000e+04 -1.439100000000000000e+04
-2.240300000000000000e+04 -1.023000000000000000e+04
-2.291400000000000000e+04 -1.009400000000000000e+04
-2.254000000000000000e+04 -6.615000000000000000e+03
-2.165300000000000000e+04 -3.035000000000000000e+03
-2.052800000000000000e+04 -2.353000000000000000e+03
-2.093700000000000000e+04 9.200000000000000000e+02
-1.974300000000000000e+04 3.273000000000000000e+03
-1.694800000000000000e+04 4.330000000000000000e+03
-1.578700000000000000e+04 6.069000000000000000e+03
-1.421900000000000000e+04 7.945000000000000000e+03
-1.384400000000000000e+04 1.016200000000000000e+04
-1.012800000000000000e+04 1.159300000000000000e+04
-1.060500000000000000e+04 1.176400000000000000e+04
-8.286000000000000000e+03 1.183200000000000000e+04
-5.388000000000000000e+03 1.302600000000000000e+04
-4.194000000000000000e+03 1.384400000000000000e+04
-3.001000000000000000e+03 1.292300000000000000e+04
-1.227000000000000000e+03 1.210500000000000000e+04
-7.510000000000000000e+02 1.183200000000000000e+04
1.705000000000000000e+03 1.155900000000000000e+04
1.500000000000000000e+03 1.111600000000000000e+04
2.421000000000000000e+03 9.957000000000000000e+03
4.125000000000000000e+03 9.956000000000000000e+03
3.342000000000000000e+03 6.478000000000000000e+03
2.967000000000000000e+03 7.195000000000000000e+03
4.535000000000000000e+03 6.001000000000000000e+03
2.217000000000000000e+03 6.001000000000000000e+03
2.933000000000000000e+03 5.183000000000000000e+03
3.409000000000000000e+03 5.114000000000000000e+03
3.785000000000000000e+03 2.625000000000000000e+03
2.796000000000000000e+03 3.887000000000000000e+03
1.602000000000000000e+03 3.375000000000000000e+03
1.977000000000000000e+03 3.887000000000000000e+03
2.694000000000000000e+03 3.785000000000000000e+03
1.057000000000000000e+03 3.307000000000000000e+03
2.080000000000000000e+03 5.081000000000000000e+03
2.012000000000000000e+03 4.569000000000000000e+03
2.421000000000000000e+03 3.853000000000000000e+03
3.717000000000000000e+03 3.614000000000000000e+03
3.273000000000000000e+03 4.534000000000000000e+03
4.876000000000000000e+03 4.569000000000000000e+03
4.604000000000000000e+03 4.944000000000000000e+03
4.331000000000000000e+03 4.944000000000000000e+03
7.639000000000000000e+03 2.625000000000000000e+03
7.127000000000000000e+03 1.705000000000000000e+03
9.583000000000000000e+03 1.057000000000000000e+03
9.889000000000000000e+03 -7.160000000000000000e+02
9.037000000000000000e+03 -2.830000000000000000e+03
8.491000000000000000e+03 -3.546000000000000000e+03
7.741000000000000000e+03 -5.183000000000000000e+03
9.276000000000000000e+03 -4.297000000000000000e+03
9.037000000000000000e+03 -6.819000000000000000e+03
7.025000000000000000e+03 -9.037000000000000000e+03
8.321000000000000000e+03 -1.012800000000000000e+04
8.696000000000000000e+03 -8.252000000000000000e+03
5.115000000000000000e+03 -1.121900000000000000e+04
3.376000000000000000e+03 -1.261700000000000000e+04
9.550000000000000000e+02 -1.319600000000000000e+04
2.251000000000000000e+03 -1.224200000000000000e+04
-4.430000000000000000e+02 -1.094500000000000000e+04
-1.773000000000000000e+03 -1.329800000000000000e+04
-4.160000000000000000e+03 -1.271900000000000000e+04
-4.706000000000000000e+03 -1.278800000000000000e+04
-8.047000000000000000e+03 -1.364000000000000000e+04
-8.661000000000000000e+03 -1.135500000000000000e+04
-1.108200000000000000e+04 -9.514000000000000000e+03
-1.237800000000000000e+04 -9.923000000000000000e+03
-1.268400000000000000e+04 -7.058000000000000000e+03
-1.404900000000000000e+04 -5.627000000000000000e+03
-1.282100000000000000e+04 -6.513000000000000000e+03
-1.500400000000000000e+04 -2.353000000000000000e+03
-1.469600000000000000e+04 -1.535000000000000000e+03
-1.367300000000000000e+04 -3.400000000000000000e+01
-1.278700000000000000e+04 1.160000000000000000e+03
-1.367400000000000000e+04 1.671000000000000000e+03
-9.854000000000000000e+03 4.331000000000000000e+03
-9.001000000000000000e+03 7.706000000000000000e+03
-7.161000000000000000e+03 6.751000000000000000e+03
-8.764000000000000000e+03 7.501000000000000000e+03
-6.239000000000000000e+03 7.468000000000000000e+03
-5.592000000000000000e+03 8.184000000000000000e+03
-4.398000000000000000e+03 1.023000000000000000e+04
-4.091000000000000000e+03 1.060400000000000000e+04
-3.170000000000000000e+03 9.889000000000000000e+03
-1.467000000000000000e+03 8.217000000000000000e+03
-6.800000000000000000e+01 7.876000000000000000e+03
2.050000000000000000e+02 7.229000000000000000e+03
-3.760000000000000000e+02 7.297000000000000000e+03
2.730000000000000000e+02 7.092000000000000000e+03
1.023000000000000000e+03 8.081000000000000000e+03
1.262000000000000000e+03 6.683000000000000000e+03
1.807000000000000000e+03 5.285000000000000000e+03
1.058000000000000000e+03 4.263000000000000000e+03
6.800000000000000000e+01 5.967000000000000000e+03
-1.705000000000000000e+03 4.774000000000000000e+03
1.700000000000000000e+02 6.035000000000000000e+03
-1.023000000000000000e+03 6.274000000000000000e+03
-2.080000000000000000e+03 4.705000000000000000e+03
-9.550000000000000000e+02 7.570000000000000000e+03
-1.636000000000000000e+03 4.910000000000000000e+03
-4.430000000000000000e+02 4.365000000000000000e+03
-6.800000000000000000e+01 6.479000000000000000e+03
1.126000000000000000e+03 4.160000000000000000e+03
1.876000000000000000e+03 7.229000000000000000e+03
2.558000000000000000e+03 5.148000000000000000e+03
4.024000000000000000e+03 7.399000000000000000e+03
4.433000000000000000e+03 7.808000000000000000e+03
4.672000000000000000e+03 5.694000000000000000e+03
6.104000000000000000e+03 5.967000000000000000e+03
8.048000000000000000e+03 3.478000000000000000e+03
8.116000000000000000e+03 2.353000000000000000e+03
1.074100000000000000e+04 3.513000000000000000e+03
1.282200000000000000e+04 2.720000000000000000e+02
1.210600000000000000e+04 -3.070000000000000000e+02
1.258300000000000000e+04 -2.899000000000000000e+03
1.210500000000000000e+04 -6.036000000000000000e+03
1.169600000000000000e+04 -7.298000000000000000e+03
9.889000000000000000e+03 -8.081000000000000000e+03
9.957000000000000000e+03 -9.991000000000000000e+03
9.173000000000000000e+03 -9.549000000000000000e+03
7.604000000000000000e+03 -1.111700000000000000e+04
6.104000000000000000e+03 -1.306000000000000000e+04
4.466000000000000000e+03 -1.207100000000000000e+04
1.637000000000000000e+03 -1.258300000000000000e+04
1.125000000000000000e+03 -1.377600000000000000e+04
-1.364000000000000000e+03 -1.415100000000000000e+04
-4.780000000000000000e+02 -1.387800000000000000e+04
-5.456000000000000000e+03 -1.282100000000000000e+04
-7.297000000000000000e+03 -1.394600000000000000e+04
-7.331000000000000000e+03 -1.207200000000000000e+04
-1.040000000000000000e+04 -1.214000000000000000e+04
-1.285500000000000000e+04 -1.248100000000000000e+04
-1.466200000000000000e+04 -9.514000000000000000e+03
-1.479900000000000000e+04 -7.298000000000000000e+03
-1.421900000000000000e+04 -6.786000000000000000e+03
-1.541200000000000000e+04 -3.581000000000000000e+03
-1.582200000000000000e+04 -3.307000000000000000e+03
