-9.663600000000000000e+04 -1.570940000000000000e+05
-1.423290000000000000e+05 -6.550500000000000000e+04
-1.206080000000000000e+05 -4.944000000000000000e+03
-1.154250000000000000e+05 2.332300000000000000e+04
-1.168570000000000000e+05 8.009800000000000000e+04
-5.923000000000000000e+04 1.620380000000000000e+05
5.513800000000000000e+04 1.732920000000000000e+05
1.337030000000000000e+05 1.079910000000000000e+05
1.569240000000000000e+05 2.332300000000000000e+04
1.441370000000000000e+05 -5.755900000000000000e+04
9.060100000000000000e+04 -1.313830000000000000e+05
3.785000000000000000e+03 -1.637770000000000000e+05
-9.056700000000000000e+04 -1.431820000000000000e+05
-1.616970000000000000e+05 -6.137900000000000000e+04
-1.467280000000000000e+05 5.142100000000000000e+04
-7.379000000000000000e+04 1.015130000000000000e+05
-2.632400000000000000e+04 1.043430000000000000e+05
1.271900000000000000e+04 1.155620000000000000e+05
7.573400000000000000e+04 1.177780000000000000e+05
1.452620000000000000e+05 6.492500000000000000e+04
1.484670000000000000e+05 -3.631600000000000000e+04
9.547800000000000000e+04 -9.803500000000000000e+04
4.409000000000000000e+04 -1.218360000000000000e+05
-1.919800000000000000e+04 -1.483650000000000000e+05
-1.145730000000000000e+05 -1.335320000000000000e+05
-1.728480000000000000e+05 -3.890600000000000000e+04
-1.598910000000000000e+05 7.334700000000000000e+04
-8.091700000000000000e+04 1.479560000000000000e+05
1.998300000000000000e+04 1.540260000000000000e+05
7.743900000000000000e+04 1.079570000000000000e+05
1.089460000000000000e+05 6.833500000000000000e+04
1.294410000000000000e+05 2.015200000000000000e+04
1.311450000000000000e+05 -4.736400000000000000e+04
8.027000000000000000e+04 -1.201990000000000000e+05
-5.387000000000000000e+03 -1.298830000000000000e+05
-5.639900000000000000e+04 -1.051270000000000000e+05
-9.605600000000000000e+04 -9.029400000000000000e+04
-1.442730000000000000e+05 -5.288800000000000000e+04
-1.633350000000000000e+05 5.370600000000000000e+04
-8.234800000000000000e+04 1.542300000000000000e+05
3.072300000000000000e+04 1.681760000000000000e+05
1.141300000000000000e+05 1.256560000000000000e+05
1.587310000000000000e+05 4.548800000000000000e+04
1.406590000000000000e+05 -5.012600000000000000e+04
7.975800000000000000e+04 -1.139250000000000000e+05
-8.520000000000000000e+02 -1.462850000000000000e+05
-8.835100000000000000e+04 -1.259970000000000000e+05
-1.402830000000000000e+05 -4.456700000000000000e+04
-1.156290000000000000e+05 3.164400000000000000e+04
-7.672200000000000000e+04 6.976700000000000000e+04
-3.993000000000000000e+04 1.099700000000000000e+05
3.232600000000000000e+04 1.508880000000000000e+05
1.383060000000000000e+05 1.179830000000000000e+05
1.667450000000000000e+05 -3.001000000000000000e+03
1.175050000000000000e+05 -7.549500000000000000e+04
6.202700000000000000e+04 -1.204380000000000000e+05
-1.333300000000000000e+04 -1.537190000000000000e+05
-1.005240000000000000e+05 -1.236090000000000000e+05
-1.369410000000000000e+05 -4.385200000000000000e+04
-1.279050000000000000e+05 3.079100000000000000e+04
-8.545300000000000000e+04 9.145300000000000000e+04
-1.510600000000000000e+04 1.096960000000000000e+05
3.266700000000000000e+04 9.247600000000000000e+04
5.909400000000000000e+04 7.488100000000000000e+04
8.395200000000000000e+04 5.476300000000000000e+04
1.128330000000000000e+05 8.661000000000000000e+03
9.541000000000000000e+04 -6.533400000000000000e+04
3.109800000000000000e+04 -8.180300000000000000e+04
-3.853000000000000000e+03 -7.327900000000000000e+04
-2.738100000000000000e+04 -6.727700000000000000e+04
5.592000000000000000e+03 -9.343000000000000000e+03
6.887000000000000000e+03 -1.251400000000000000e+04
-9.820000000000000000e+03 -1.203700000000000000e+04
-1.098100000000000000e+04 -8.763000000000000000e+03
-1.711800000000000000e+04 -3.300000000000000000e+01
-1.752700000000000000e+04 5.387000000000000000e+03
-9.514000000000000000e+03 1.346900000000000000e+04
-5.081000000000000000e+03 1.971000000000000000e+04
1.364000000000000000e+04 1.988000000000000000e+04
2.860900000000000000e+04 1.422000000000000000e+04
3.079200000000000000e+04 -8.286000000000000000e+03
1.892400000000000000e+04 -1.773200000000000000e+04
1.115100000000000000e+04 -2.564300000000000000e+04
-3.068000000000000000e+03 -3.017800000000000000e+04
-2.618800000000000000e+04 -3.147300000000000000e+04
-4.784000000000000000e+04 -9.991000000000000000e+03
-4.310100000000000000e+04 1.306000000000000000e+04
-3.341700000000000000e+04 3.096200000000000000e+04
-1.769700000000000000e+04 5.305800000000000000e+04
2.387000000000000000e+04 5.735500000000000000e+04
5.936700000000000000e+04 3.577000000000000000e+04
7.283500000000000000e+04 -1.330000000000000000e+03
6.417500000000000000e+04 -3.546300000000000000e+04
7.675700000000000000e+04 -2.543700000000000000e+04
3.918000000000000000e+04 -5.725200000000000000e+04
4.876000000000000000e+03 -5.544600000000000000e+04
-1.824300000000000000e+04 -5.391000000000000000e+04
-4.678400000000000000e+04 -4.661300000000000000e+04
-8.044000000000000000e+04 -1.503800000000000000e+04
-7.757500000000000000e+04 2.717700000000000000e+04
