-6.267400000000000000e+04 8.872600000000000000e+04
-5.530800000000000000e+04 8.927200000000000000e+04
-4.797800000000000000e+04 9.268100000000000000e+04
-4.320400000000000000e+04 9.575000000000000000e+04
-3.474700000000000000e+04 9.677400000000000000e+04
-2.942800000000000000e+04 9.919400000000000000e+04
-2.107400000000000000e+04 1.008310000000000000e+05
-1.565100000000000000e+04 1.022970000000000000e+05
-1.040100000000000000e+04 1.017860000000000000e+05
-9.550000000000000000e+02 1.028430000000000000e+05
7.194000000000000000e+03 1.032870000000000000e+05
1.227500000000000000e+04 1.035250000000000000e+05
1.889100000000000000e+04 1.017860000000000000e+05
2.755100000000000000e+04 1.010700000000000000e+05
3.488300000000000000e+04 9.946700000000000000e+04
4.241900000000000000e+04 9.943300000000000000e+04
4.589700000000000000e+04 9.360200000000000000e+04
5.196600000000000000e+04 9.138600000000000000e+04
5.922900000000000000e+04 8.852100000000000000e+04
6.557200000000000000e+04 8.698600000000000000e+04
7.038000000000000000e+04 7.914400000000000000e+04
7.634700000000000000e+04 7.566600000000000000e+04
8.081400000000000000e+04 7.027800000000000000e+04
8.719100000000000000e+04 6.605000000000000000e+04
8.794200000000000000e+04 5.974100000000000000e+04
9.135000000000000000e+04 5.159200000000000000e+04
9.152100000000000000e+04 4.385100000000000000e+04
9.431800000000000000e+04 3.740700000000000000e+04
9.677300000000000000e+04 2.898500000000000000e+04
9.718200000000000000e+04 2.400600000000000000e+04
9.827300000000000000e+04 1.820900000000000000e+04
9.892200000000000000e+04 1.292300000000000000e+04
9.687500000000000000e+04 7.740000000000000000e+03
9.776100000000000000e+04 1.330000000000000000e+03
9.336300000000000000e+04 -2.728000000000000000e+03
9.148800000000000000e+04 -6.751000000000000000e+03
8.947600000000000000e+04 -1.029800000000000000e+04
8.599800000000000000e+04 -1.493500000000000000e+04
8.442900000000000000e+04 -1.752700000000000000e+04
7.941600000000000000e+04 -2.018700000000000000e+04
7.617700000000000000e+04 -2.335700000000000000e+04
7.488100000000000000e+04 -2.564200000000000000e+04
7.290400000000000000e+04 -2.799500000000000000e+04
7.140400000000000000e+04 -3.072200000000000000e+04
6.956200000000000000e+04 -2.864300000000000000e+04
6.802700000000000000e+04 -3.113200000000000000e+04
6.533400000000000000e+04 -3.236000000000000000e+04
6.393600000000000000e+04 -3.235900000000000000e+04
6.277600000000000000e+04 -3.229200000000000000e+04
5.933200000000000000e+04 -3.075700000000000000e+04
5.745600000000000000e+04 -3.041600000000000000e+04
5.677400000000000000e+04 -3.062100000000000000e+04
5.425100000000000000e+04 -2.946200000000000000e+04
5.210300000000000000e+04 -3.085900000000000000e+04
4.900000000000000000e+04 -2.976900000000000000e+04
4.848800000000000000e+04 -3.154100000000000000e+04
4.487400000000000000e+04 -3.038200000000000000e+04
4.467000000000000000e+04 -3.256400000000000000e+04
4.146400000000000000e+04 -3.488400000000000000e+04
4.078200000000000000e+04 -3.733900000000000000e+04
4.040700000000000000e+04 -3.948600000000000000e+04
4.153200000000000000e+04 -4.405500000000000000e+04
4.180500000000000000e+04 -4.947700000000000000e+04
3.945200000000000000e+04 -5.097700000000000000e+04
4.040700000000000000e+04 -5.322900000000000000e+04
4.180500000000000000e+04 -5.592200000000000000e+04
4.047500000000000000e+04 -6.049100000000000000e+04
3.935000000000000000e+04 -6.393600000000000000e+04
4.109000000000000000e+04 -6.932400000000000000e+04
3.873600000000000000e+04 -7.160800000000000000e+04
3.754300000000000000e+04 -7.341500000000000000e+04
3.556500000000000000e+04 -7.805200000000000000e+04
3.304200000000000000e+04 -7.972300000000000000e+04
2.966600000000000000e+04 -8.269000000000000000e+04
2.496000000000000000e+04 -8.497500000000000000e+04
1.953900000000000000e+04 -8.824800000000000000e+04
1.261700000000000000e+04 -8.947600000000000000e+04
1.176400000000000000e+04 -9.298800000000000000e+04
4.671000000000000000e+03 -9.489800000000000000e+04
-1.360000000000000000e+02 -9.697800000000000000e+04
-5.490000000000000000e+03 -9.827400000000000000e+04
-1.326400000000000000e+04 -9.765900000000000000e+04
-1.926600000000000000e+04 -9.861400000000000000e+04
-2.502900000000000000e+04 -9.847800000000000000e+04
-3.154200000000000000e+04 -9.902300000000000000e+04
-3.849700000000000000e+04 -9.868200000000000000e+04
-4.316900000000000000e+04 -9.602200000000000000e+04
-4.753400000000000000e+04 -9.544300000000000000e+04
-5.534200000000000000e+04 -9.302200000000000000e+04
-6.260600000000000000e+04 -9.148700000000000000e+04
-8.923700000000000000e+04 -1.014110000000000000e+05
-1.056730000000000000e+05 -8.732800000000000000e+04
-1.002860000000000000e+05 -6.195800000000000000e+04
-1.023650000000000000e+05 -6.911900000000000000e+04
-1.097990000000000000e+05 -6.587900000000000000e+04
-1.172320000000000000e+05 -6.482100000000000000e+04
-1.266780000000000000e+05 -6.304900000000000000e+04
-1.330550000000000000e+05 -5.670700000000000000e+04
-1.408290000000000000e+05 -5.431900000000000000e+04
-1.457380000000000000e+05 -4.801200000000000000e+04
-1.538210000000000000e+05 -4.487400000000000000e+04
-1.593100000000000000e+05 -3.918000000000000000e+04
-1.653460000000000000e+05 -3.120100000000000000e+04
-1.703250000000000000e+05 -2.400500000000000000e+04
-1.769060000000000000e+05 -1.711800000000000000e+04
-1.750990000000000000e+05 -1.404900000000000000e+04
-1.834520000000000000e+05 1.098000000000000000e+04
-1.847490000000000000e+05 1.479900000000000000e+04
-1.847820000000000000e+05 2.642700000000000000e+04
-1.829750000000000000e+05 3.607700000000000000e+04
-1.824300000000000000e+05 4.818200000000000000e+04
-1.808270000000000000e+05 6.240100000000000000e+04
-1.782020000000000000e+05 7.406300000000000000e+04
-1.839980000000000000e+05 8.361100000000000000e+04
-1.616970000000000000e+05 1.129710000000000000e+05
-1.541280000000000000e+05 1.213240000000000000e+05
-1.450580000000000000e+05 1.344520000000000000e+05
-1.347600000000000000e+05 1.423300000000000000e+05
-1.282810000000000000e+05 1.484680000000000000e+05
-9.728500000000000000e+04 1.553550000000000000e+05
-8.146300000000000000e+04 1.635390000000000000e+05
-7.723400000000000000e+04 1.714840000000000000e+05
-6.141300000000000000e+04 1.756780000000000000e+05
-4.804600000000000000e+04 1.790880000000000000e+05
-3.092900000000000000e+04 1.806910000000000000e+05
-1.271900000000000000e+04 1.815780000000000000e+05
2.079000000000000000e+03 1.803160000000000000e+05
1.288900000000000000e+04 1.845100000000000000e+05
2.820000000000000000e+04 1.797700000000000000e+05
3.842900000000000000e+04 1.760530000000000000e+05
5.213800000000000000e+04 1.757120000000000000e+05
6.021800000000000000e+04 1.703930000000000000e+05
7.034600000000000000e+04 1.673580000000000000e+05
7.842700000000000000e+04 1.626190000000000000e+05
8.313400000000000000e+04 1.571280000000000000e+05
9.043100000000000000e+04 1.521490000000000000e+05
9.448900000000000000e+04 1.444780000000000000e+05
1.001150000000000000e+05 1.383730000000000000e+05
1.038320000000000000e+05 1.271560000000000000e+05
1.085360000000000000e+05 1.184940000000000000e+05
1.144370000000000000e+05 1.080940000000000000e+05
1.204720000000000000e+05 9.755700000000000000e+04
1.263030000000000000e+05 8.916900000000000000e+04
1.316570000000000000e+05 7.784800000000000000e+04
1.403520000000000000e+05 6.778800000000000000e+04
1.535820000000000000e+05 6.042300000000000000e+04
1.585600000000000000e+05 5.476300000000000000e+04
1.685510000000000000e+05 4.913600000000000000e+04
1.798050000000000000e+05 3.894100000000000000e+04
1.421920000000000000e+05 1.559690000000000000e+05
1.862820000000000000e+05 3.249600000000000000e+04
1.841690000000000000e+05 2.509700000000000000e+04
1.840320000000000000e+05 1.814000000000000000e+04
1.906810000000000000e+05 9.342000000000000000e+03
1.952170000000000000e+05 9.718000000000000000e+03
1.895570000000000000e+05 4.195000000000000000e+03
1.879540000000000000e+05 -2.660000000000000000e+03
1.872370000000000000e+05 -8.593000000000000000e+03
1.838610000000000000e+05 -1.387800000000000000e+04
1.826000000000000000e+05 -1.981100000000000000e+04
1.790540000000000000e+05 -2.410800000000000000e+04
1.751670000000000000e+05 -3.062100000000000000e+04
1.706660000000000000e+05 -3.478100000000000000e+04
1.706320000000000000e+05 -4.153300000000000000e+04
1.682450000000000000e+05 -4.473700000000000000e+04
1.646990000000000000e+05 -4.538600000000000000e+04
1.609140000000000000e+05 -4.657900000000000000e+04
1.553550000000000000e+05 -4.893200000000000000e+04
1.490130000000000000e+05 -4.862500000000000000e+04
1.406590000000000000e+05 -4.964800000000000000e+04
1.313500000000000000e+05 -5.131900000000000000e+04
1.237800000000000000e+05 -5.254600000000000000e+04
1.122540000000000000e+05 -5.680900000000000000e+04
1.024670000000000000e+05 -6.260600000000000000e+04
9.636400000000000000e+04 -6.860800000000000000e+04
9.104500000000000000e+04 -7.259700000000000000e+04
8.415600000000000000e+04 -7.798400000000000000e+04
7.941600000000000000e+04 -8.371300000000000000e+04
7.321000000000000000e+04 -9.152100000000000000e+04
6.717500000000000000e+04 -9.844400000000000000e+04
6.427700000000000000e+04 -1.080600000000000000e+05
6.049200000000000000e+04 -1.172660000000000000e+05
5.998100000000000000e+04 -1.286220000000000000e+05
6.448100000000000000e+04 -1.383060000000000000e+05
5.912800000000000000e+04 -1.465240000000000000e+05
6.587900000000000000e+04 -1.535140000000000000e+05
7.389300000000000000e+04 -1.574360000000000000e+05
8.446300000000000000e+04 -1.556960000000000000e+05
8.841900000000000000e+04 -1.566500000000000000e+05
8.702000000000000000e+04 -1.585950000000000000e+05
8.292900000000000000e+04 -1.597880000000000000e+05
7.832500000000000000e+04 -1.619370000000000000e+05
6.928900000000000000e+04 -1.701200000000000000e+05
5.987900000000000000e+04 -2.074580000000000000e+05
4.596500000000000000e+04 -2.121310000000000000e+05
3.740700000000000000e+04 -2.154040000000000000e+05
2.366500000000000000e+04 -2.193590000000000000e+05
1.145800000000000000e+04 -2.249180000000000000e+05
-2.319000000000000000e+03 -2.296580000000000000e+05
-1.629900000000000000e+04 -2.338180000000000000e+05
-3.389400000000000000e+04 -2.377050000000000000e+05
-5.186400000000000000e+04 -2.414210000000000000e+05
-7.075600000000000000e+04 -2.446950000000000000e+05
-9.186200000000000000e+04 -2.453760000000000000e+05
-1.149830000000000000e+05 -2.489220000000000000e+05
-1.390890000000000000e+05 -2.464340000000000000e+05
-1.654480000000000000e+05 -2.439780000000000000e+05
-1.924900000000000000e+05 -2.421370000000000000e+05
-2.219160000000000000e+05 -2.362730000000000000e+05
-2.474220000000000000e+05 -2.324190000000000000e+05
-2.769180000000000000e+05 -2.247120000000000000e+05
-3.024930000000000000e+05 -2.179950000000000000e+05
-3.296010000000000000e+05 -2.074930000000000000e+05
-3.522770000000000000e+05 -1.987630000000000000e+05
-3.722250000000000000e+05 -1.898640000000000000e+05
-3.882180000000000000e+05 -1.793270000000000000e+05
-3.995040000000000000e+05 -1.656190000000000000e+05
-4.068690000000000000e+05 -1.501380000000000000e+05
-4.094610000000000000e+05 -1.310420000000000000e+05
-4.100750000000000000e+05 -1.107880000000000000e+05
-4.080290000000000000e+05 -8.633900000000000000e+04
-4.051640000000000000e+05 -5.773000000000000000e+04
-3.986850000000000000e+05 -2.942700000000000000e+04
-3.909790000000000000e+05 -8.180000000000000000e+02
-3.851480000000000000e+05 3.137100000000000000e+04
-3.777830000000000000e+05 6.294700000000000000e+04
-3.695990000000000000e+05 9.442100000000000000e+04
-3.616200000000000000e+05 1.286220000000000000e+05
-3.544600000000000000e+05 1.613570000000000000e+05
-3.459350000000000000e+05 1.949440000000000000e+05
-3.404790000000000000e+05 2.274750000000000000e+05
-3.361480000000000000e+05 2.580270000000000000e+05
-3.306240000000000000e+05 2.864660000000000000e+05
-3.245890000000000000e+05 3.105060000000000000e+05
-3.174620000000000000e+05 3.338640000000000000e+05
-3.046750000000000000e+05 3.574610000000000000e+05
-2.909330000000000000e+05 3.772030000000000000e+05
-2.750420000000000000e+05 3.956170000000000000e+05
-2.543100000000000000e+05 4.133480000000000000e+05
-2.326240000000000000e+05 4.338080000000000000e+05
-2.080380000000000000e+05 4.517780000000000000e+05
-1.807250000000000000e+05 4.673950000000000000e+05
-1.533440000000000000e+05 4.844450000000000000e+05
-1.239160000000000000e+05 4.977430000000000000e+05
-9.312500000000000000e+04 5.080760000000000000e+05
-6.096900000000000000e+04 5.174870000000000000e+05
-2.537000000000000000e+04 5.209640000000000000e+05
9.650000000000000000e+03 5.235560000000000000e+05
4.688600000000000000e+04 5.210670000000000000e+05
8.565700000000000000e+04 5.145890000000000000e+05
1.283140000000000000e+05 5.026540000000000000e+05
1.666080000000000000e+05 4.868660000000000000e+05
2.066400000000000000e+05 4.665770000000000000e+05
2.468090000000000000e+05 4.401840000000000000e+05
2.885120000000000000e+05 4.114390000000000000e+05
3.234290000000000000e+05 3.801020000000000000e+05
3.590970000000000000e+05 3.447410000000000000e+05
3.912520000000000000e+05 3.055610000000000000e+05
4.178830000000000000e+05 2.646770000000000000e+05
4.440380000000000000e+05 2.217460000000000000e+05
4.648380000000000000e+05 1.815090000000000000e+05
4.788180000000000000e+05 1.396020000000000000e+05
4.910600000000000000e+05 1.022290000000000000e+05
4.980170000000000000e+05 6.379900000000000000e+04
4.989360000000000000e+05 2.990500000000000000e+04
4.941970000000000000e+05 -3.171000000000000000e+03
4.864900000000000000e+05 -3.454200000000000000e+04
4.745560000000000000e+05 -5.963900000000000000e+04
4.579150000000000000e+05 -8.245100000000000000e+04
4.394000000000000000e+05 -1.046840000000000000e+05
4.175770000000000000e+05 -1.234720000000000000e+05
3.986850000000000000e+05 -1.418180000000000000e+05
3.748160000000000000e+05 -1.559010000000000000e+05
3.509470000000000000e+05 -1.685510000000000000e+05
3.278970000000000000e+05 -1.792580000000000000e+05
3.023560000000000000e+05 -1.922160000000000000e+05
2.808050000000000000e+05 -2.010480000000000000e+05
2.586410000000000000e+05 -2.095380000000000000e+05
2.387950000000000000e+05 -2.176890000000000000e+05
2.197340000000000000e+05 -2.209950000000000000e+05
2.022410000000000000e+05 -2.261790000000000000e+05
1.848160000000000000e+05 -2.282250000000000000e+05
1.667780000000000000e+05 -2.317030000000000000e+05
1.519110000000000000e+05 -2.296570000000000000e+05
1.396700000000000000e+05 -2.328960000000000000e+05
1.261660000000000000e+05 -2.322480000000000000e+05
1.134140000000000000e+05 -2.329980000000000000e+05
9.813700000000000000e+04 -2.339190000000000000e+05
8.599800000000000000e+04 -2.365450000000000000e+05
7.696200000000000000e+04 -2.379770000000000000e+05
6.717500000000000000e+04 -2.388640000000000000e+05
5.871900000000000000e+04 -2.423080000000000000e+05
5.026300000000000000e+04 -2.455470000000000000e+05
4.630700000000000000e+04 -2.491620000000000000e+05
4.071400000000000000e+04 -2.499460000000000000e+05
3.662200000000000000e+04 -2.557760000000000000e+05
3.444000000000000000e+04 -2.577540000000000000e+05
3.106400000000000000e+04 -2.606530000000000000e+05
3.157600000000000000e+04 -2.613350000000000000e+05
2.884800000000000000e+04 -2.591190000000000000e+05
2.397200000000000000e+04 -2.620170000000000000e+05
2.042600000000000000e+04 -2.590160000000000000e+05
1.585600000000000000e+04 -2.574130000000000000e+05
1.118400000000000000e+04 -2.559470000000000000e+05
4.808000000000000000e+03 -2.538330000000000000e+05
-3.103000000000000000e+03 -2.488210000000000000e+05
-1.353700000000000000e+04 -2.484460000000000000e+05
-2.318800000000000000e+04 -2.436370000000000000e+05
-3.519100000000000000e+04 -2.379430000000000000e+05
-4.831800000000000000e+04 -2.355220000000000000e+05
-6.485600000000000000e+04 -2.306800000000000000e+05
-8.064400000000000000e+04 -2.289410000000000000e+05
-9.800000000000000000e+04 -2.252240000000000000e+05
-1.156300000000000000e+05 -2.214390000000000000e+05
-1.330540000000000000e+05 -2.184380000000000000e+05
-1.504100000000000000e+05 -2.175180000000000000e+05
-1.668130000000000000e+05 -2.145510000000000000e+05
-1.834870000000000000e+05 -2.108680000000000000e+05
-1.993770000000000000e+05 -2.077310000000000000e+05
-2.151650000000000000e+05 -2.007750000000000000e+05
-2.299640000000000000e+05 -1.958990000000000000e+05
-2.456150000000000000e+05 -1.879880000000000000e+05
-2.602430000000000000e+05 -1.764630000000000000e+05
-2.750770000000000000e+05 -1.666420000000000000e+05
-2.927050000000000000e+05 -1.530700000000000000e+05
-3.068230000000000000e+05 -1.431480000000000000e+05
-3.222360000000000000e+05 -1.296100000000000000e+05
-3.372060000000000000e+05 -1.139590000000000000e+05
-3.539480000000000000e+05 -9.564800000000000000e+04
-3.676890000000000000e+05 -8.374800000000000000e+04
-3.819770000000000000e+05 -6.390100000000000000e+04
-3.930250000000000000e+05 -4.808000000000000000e+04
-4.045500000000000000e+05 -2.997300000000000000e+04
-4.121880000000000000e+05 -7.433000000000000000e+03
-4.199300000000000000e+05 1.592400000000000000e+04
-4.236800000000000000e+05 3.948700000000000000e+04
-4.254880000000000000e+05 6.666400000000000000e+04
-4.255910000000000000e+05 9.639800000000000000e+04
-4.237140000000000000e+05 1.295760000000000000e+05
-4.177130000000000000e+05 1.644260000000000000e+05
-4.099720000000000000e+05 1.993420000000000000e+05
-4.033910000000000000e+05 2.367150000000000000e+05
-3.922070000000000000e+05 2.759630000000000000e+05
-3.823180000000000000e+05 3.171550000000000000e+05
-3.647910000000000000e+05 3.541190000000000000e+05
-3.473320000000000000e+05 3.905710000000000000e+05
-3.263950000000000000e+05 4.213960000000000000e+05
-3.044020000000000000e+05 4.515390000000000000e+05
-2.770200000000000000e+05 4.803880000000000000e+05
-2.472860000000000000e+05 5.004030000000000000e+05
-2.145510000000000000e+05 5.194300000000000000e+05
-1.827030000000000000e+05 5.359340000000000000e+05
-1.431140000000000000e+05 5.457890000000000000e+05
-1.043770000000000000e+05 5.511420000000000000e+05
-6.420800000000000000e+04 5.505970000000000000e+05
-2.277800000000000000e+04 5.449030000000000000e+05
1.943700000000000000e+04 5.389700000000000000e+05
6.284400000000000000e+04 5.278530000000000000e+05
1.025360000000000000e+05 5.128150000000000000e+05
1.430450000000000000e+05 4.970610000000000000e+05
1.832820000000000000e+05 4.750000000000000000e+05
2.214730000000000000e+05 4.521520000000000000e+05
2.587770000000000000e+05 4.282490000000000000e+05
2.915470000000000000e+05 4.011410000000000000e+05
3.248620000000000000e+05 3.717480000000000000e+05
3.546980000000000000e+05 3.433090000000000000e+05
3.784650000000000000e+05 3.106760000000000000e+05
4.055400000000000000e+05 2.782820000000000000e+05
4.275680000000000000e+05 2.468770000000000000e+05
4.467660000000000000e+05 2.106640000000000000e+05
4.655540000000000000e+05 1.744840000000000000e+05
4.819900000000000000e+05 1.354760000000000000e+05
4.938570000000000000e+05 9.690900000000000000e+04
5.079740000000000000e+05 5.926400000000000000e+04
5.168730000000000000e+05 2.090300000000000000e+04
5.265920000000000000e+05 -1.629900000000000000e+04
5.324910000000000000e+05 -5.541100000000000000e+04
5.369230000000000000e+05 -9.213600000000000000e+04
5.391400000000000000e+05 -1.292360000000000000e+05
5.376060000000000000e+05 -1.607770000000000000e+05
5.329340000000000000e+05 -1.948760000000000000e+05
5.243060000000000000e+05 -2.269980000000000000e+05
5.115880000000000000e+05 -2.580610000000000000e+05
4.967550000000000000e+05 -2.819990000000000000e+05
4.749650000000000000e+05 -3.117670000000000000e+05
4.502770000000000000e+05 -3.378870000000000000e+05
4.230670000000000000e+05 -3.594040000000000000e+05
3.902290000000000000e+05 -3.828980000000000000e+05
3.525500000000000000e+05 -4.016520000000000000e+05
3.170530000000000000e+05 -4.193840000000000000e+05
2.780780000000000000e+05 -4.358530000000000000e+05
2.362040000000000000e+05 -4.457770000000000000e+05
1.921820000000000000e+05 -4.566540000000000000e+05
1.540260000000000000e+05 -4.632690000000000000e+05
1.104130000000000000e+05 -4.648380000000000000e+05
6.997100000000000000e+04 -4.628940000000000000e+05
3.242800000000000000e+04 -4.580520000000000000e+05
-5.557000000000000000e+03 -4.484710000000000000e+05
-3.802100000000000000e+04 -4.355810000000000000e+05
-7.014100000000000000e+04 -4.173380000000000000e+05
-1.008310000000000000e+05 -3.994360000000000000e+05
-1.272920000000000000e+05 -3.792150000000000000e+05
-1.487050000000000000e+05 -3.586540000000000000e+05
-1.678010000000000000e+05 -3.336930000000000000e+05
-1.868960000000000000e+05 -3.117670000000000000e+05
-2.003320000000000000e+05 -2.871820000000000000e+05
-2.127780000000000000e+05 -2.654610000000000000e+05
-2.197000000000000000e+05 -2.439780000000000000e+05
-2.283610000000000000e+05 -2.253260000000000000e+05
-2.322140000000000000e+05 -2.059580000000000000e+05
-2.322820000000000000e+05 -1.882270000000000000e+05
-2.368860000000000000e+05 -1.727450000000000000e+05
-2.344990000000000000e+05 -1.580840000000000000e+05
-2.344310000000000000e+05 -1.466610000000000000e+05
-2.325890000000000000e+05 -1.346230000000000000e+05
-2.321110000000000000e+05 -1.266440000000000000e+05
-2.277810000000000000e+05 -1.175390000000000000e+05
-2.260430000000000000e+05 -1.095940000000000000e+05
-2.228030000000000000e+05 -1.010010000000000000e+05
-2.196990000000000000e+05 -9.551100000000000000e+04
-2.190520000000000000e+05 -8.695200000000000000e+04
-2.180290000000000000e+05 -7.992800000000000000e+04
-2.178580000000000000e+05 -7.355200000000000000e+04
-2.194610000000000000e+05 -6.250400000000000000e+04
-2.230420000000000000e+05 -5.414900000000000000e+04
-2.268610000000000000e+05 -4.617000000000000000e+04
-2.311920000000000000e+05 -3.784900000000000000e+04
-2.390340000000000000e+05 -2.830300000000000000e+04
-2.435350000000000000e+05 -2.015300000000000000e+04
-2.532870000000000000e+05 -1.333300000000000000e+04
-2.601420000000000000e+05 -3.410000000000000000e+03
-2.715650000000000000e+05 6.171000000000000000e+03
-2.757250000000000000e+05 1.578700000000000000e+04
-2.847610000000000000e+05 2.421000000000000000e+04
-2.922960000000000000e+05 3.154200000000000000e+04
-2.990140000000000000e+05 4.368100000000000000e+04
-3.038560000000000000e+05 5.220500000000000000e+04
-3.079820000000000000e+05 6.212800000000000000e+04
-3.106760000000000000e+05 7.355100000000000000e+04
-3.120060000000000000e+05 8.743000000000000000e+04
-3.130290000000000000e+05 1.001830000000000000e+05
-3.114260000000000000e+05 1.150160000000000000e+05
-3.093470000000000000e+05 1.322010000000000000e+05
-3.086310000000000000e+05 1.496940000000000000e+05
-3.046400000000000000e+05 1.669150000000000000e+05
-2.986050000000000000e+05 1.823950000000000000e+05
-2.948890000000000000e+05 1.995130000000000000e+05
-2.895680000000000000e+05 2.174490000000000000e+05
-2.797480000000000000e+05 2.342260000000000000e+05
-2.687000000000000000e+05 2.498090000000000000e+05
-2.585730000000000000e+05 2.642000000000000000e+05
-2.461270000000000000e+05 2.793040000000000000e+05
-2.321800000000000000e+05 2.950930000000000000e+05
-2.185750000000000000e+05 3.084940000000000000e+05
-1.996830000000000000e+05 3.199850000000000000e+05
-1.806570000000000000e+05 3.310330000000000000e+05
-1.594470000000000000e+05 3.430700000000000000e+05
-1.401480000000000000e+05 3.534020000000000000e+05
-1.195510000000000000e+05 3.629160000000000000e+05
-9.629600000000000000e+04 3.705880000000000000e+05
-7.300600000000000000e+04 3.768620000000000000e+05
-4.923900000000000000e+04 3.848760000000000000e+05
-2.359600000000000000e+04 3.876720000000000000e+05
1.466000000000000000e+03 3.928550000000000000e+05
2.400700000000000000e+04 3.953430000000000000e+05
4.964800000000000000e+04 3.959920000000000000e+05
7.525700000000000000e+04 3.960600000000000000e+05
9.970600000000000000e+04 3.936050000000000000e+05
1.237120000000000000e+05 3.916950000000000000e+05
1.475120000000000000e+05 3.859330000000000000e+05
1.723020000000000000e+05 3.796250000000000000e+05
1.981160000000000000e+05 3.693950000000000000e+05
2.223260000000000000e+05 3.576300000000000000e+05
2.445920000000000000e+05 3.431720000000000000e+05
2.691780000000000000e+05 3.310340000000000000e+05
2.937280000000000000e+05 3.120060000000000000e+05
3.195760000000000000e+05 2.943430000000000000e+05
3.429000000000000000e+05 2.723150000000000000e+05
3.642120000000000000e+05 2.529130000000000000e+05
3.873310000000000000e+05 2.275090000000000000e+05
4.073470000000000000e+05 2.034350000000000000e+05
4.285220000000000000e+05 1.759500000000000000e+05
4.487090000000000000e+05 1.502740000000000000e+05
4.621780000000000000e+05 1.203350000000000000e+05
4.790570000000000000e+05 8.876000000000000000e+04
4.897300000000000000e+05 6.035500000000000000e+04
4.991750000000000000e+05 2.990500000000000000e+04
5.049040000000000000e+05 -2.557000000000000000e+03
5.082800000000000000e+05 -3.382600000000000000e+04
5.098820000000000000e+05 -6.550400000000000000e+04
5.075300000000000000e+05 -9.718200000000000000e+04
5.022440000000000000e+05 -1.281100000000000000e+05
4.938220000000000000e+05 -1.570600000000000000e+05
4.855360000000000000e+05 -1.841010000000000000e+05
4.736010000000000000e+05 -2.144480000000000000e+05
4.577790000000000000e+05 -2.391700000000000000e+05
4.419910000000000000e+05 -2.610960000000000000e+05
4.258630000000000000e+05 -2.845560000000000000e+05
4.039710000000000000e+05 -3.062780000000000000e+05
3.859320000000000000e+05 -3.235660000000000000e+05
3.642120000000000000e+05 -3.408880000000000000e+05
3.424220000000000000e+05 -3.564720000000000000e+05
3.158930000000000000e+05 -3.703830000000000000e+05
2.924680000000000000e+05 -3.828640000000000000e+05
2.671660000000000000e+05 -3.917630000000000000e+05
2.410800000000000000e+05 -4.036640000000000000e+05
2.128800000000000000e+05 -4.104500000000000000e+05
1.863510000000000000e+05 -4.138260000000000000e+05
1.573330000000000000e+05 -4.186680000000000000e+05
1.292010000000000000e+05 -4.211910000000000000e+05
1.005580000000000000e+05 -4.231340000000000000e+05
7.167600000000000000e+04 -4.213280000000000000e+05
4.579500000000000000e+04 -4.187360000000000000e+05
1.585700000000000000e+04 -4.167240000000000000e+05
-1.278800000000000000e+04 -4.107570000000000000e+05
-3.941900000000000000e+04 -4.062560000000000000e+05
-6.632200000000000000e+04 -3.977990000000000000e+05
-9.145300000000000000e+04 -3.889000000000000000e+05
-1.152550000000000000e+05 -3.793520000000000000e+05
-1.382370000000000000e+05 -3.689850000000000000e+05
-1.592770000000000000e+05 -3.567430000000000000e+05
-1.793950000000000000e+05 -3.421840000000000000e+05
-1.972630000000000000e+05 -3.256110000000000000e+05
-2.129480000000000000e+05 -3.092780000000000000e+05
-2.294530000000000000e+05 -2.942400000000000000e+05
-2.431600000000000000e+05 -2.742240000000000000e+05
-2.539360000000000000e+05 -2.554700000000000000e+05
-2.650520000000000000e+05 -2.383850000000000000e+05
-2.758270000000000000e+05 -2.189840000000000000e+05
-2.826130000000000000e+05 -1.978770000000000000e+05
-2.885460000000000000e+05 -1.812370000000000000e+05
-2.918530000000000000e+05 -1.610160000000000000e+05
-2.942750000000000000e+05 -1.441710000000000000e+05
-2.966950000000000000e+05 -1.270530000000000000e+05
-2.959790000000000000e+05 -1.113340000000000000e+05
-2.942070000000000000e+05 -9.615900000000000000e+04
-2.919550000000000000e+05 -8.228100000000000000e+04
-2.907630000000000000e+05 -6.939100000000000000e+04
-2.865000000000000000e+05 -5.820700000000000000e+04
-2.827840000000000000e+05 -4.678400000000000000e+04
-2.786240000000000000e+05 -3.877100000000000000e+04
-2.747360000000000000e+05 -2.779000000000000000e+04
-2.703030000000000000e+05 -2.045900000000000000e+04
-2.702010000000000000e+05 -1.408300000000000000e+04
-2.679500000000000000e+05 -6.752000000000000000e+03
-2.645400000000000000e+05 3.400000000000000000e+01
-2.647110000000000000e+05 6.752000000000000000e+03
-2.624600000000000000e+05 1.404800000000000000e+04
-2.641990000000000000e+05 2.011800000000000000e+04
-2.637220000000000000e+05 2.779000000000000000e+04
-2.662800000000000000e+05 3.553100000000000000e+04
-2.702010000000000000e+05 4.528400000000000000e+04
-2.727580000000000000e+05 5.189800000000000000e+04
-2.765090000000000000e+05 6.267300000000000000e+04
-2.779750000000000000e+05 7.406300000000000000e+04
-2.810100000000000000e+05 8.545200000000000000e+04
-2.824420000000000000e+05 9.772800000000000000e+04
-2.880340000000000000e+05 1.099700000000000000e+05
-2.881710000000000000e+05 1.247350000000000000e+05
-2.865350000000000000e+05 1.367720000000000000e+05
-2.895350000000000000e+05 1.524910000000000000e+05
-2.861590000000000000e+05 1.665060000000000000e+05
-2.819650000000000000e+05 1.832820000000000000e+05
-2.805670000000000000e+05 2.002640000000000000e+05
-2.753830000000000000e+05 2.156420000000000000e+05
-2.660750000000000000e+05 2.333750000000000000e+05
-2.583000000000000000e+05 2.503890000000000000e+05
-2.475250000000000000e+05 2.669280000000000000e+05
-2.368170000000000000e+05 2.829190000000000000e+05
-2.220870000000000000e+05 2.994580000000000000e+05
-2.113110000000000000e+05 3.172240000000000000e+05
-1.946710000000000000e+05 3.311700000000000000e+05
-1.760870000000000000e+05 3.487650000000000000e+05
-1.564800000000000000e+05 3.621320000000000000e+05
-1.372490000000000000e+05 3.744070000000000000e+05
-1.145040000000000000e+05 3.886260000000000000e+05
-8.988500000000000000e+04 3.979700000000000000e+05
-6.785700000000000000e+04 4.081990000000000000e+05
-4.068000000000000000e+04 4.148830000000000000e+05
-1.340100000000000000e+04 4.208160000000000000e+05
1.670900000000000000e+04 4.259650000000000000e+05
4.794300000000000000e+04 4.249080000000000000e+05
7.583600000000000000e+04 4.256240000000000000e+05
1.059450000000000000e+05 4.221460000000000000e+05
1.401470000000000000e+05 4.180540000000000000e+05
1.709390000000000000e+05 4.107230000000000000e+05
2.005700000000000000e+05 4.027770000000000000e+05
2.323850000000000000e+05 3.891720000000000000e+05
2.618120000000000000e+05 3.760780000000000000e+05
2.934220000000000000e+05 3.601190000000000000e+05
3.183830000000000000e+05 3.420130000000000000e+05
3.436840000000000000e+05 3.220650000000000000e+05
3.692920000000000000e+05 3.010940000000000000e+05
3.899220000000000000e+05 2.764410000000000000e+05
4.127000000000000000e+05 2.531170000000000000e+05
4.286250000000000000e+05 2.271680000000000000e+05
4.432530000000000000e+05 2.006380000000000000e+05
4.570960000000000000e+05 1.709040000000000000e+05
4.689980000000000000e+05 1.419200000000000000e+05
4.766700000000000000e+05 1.107200000000000000e+05
4.840020000000000000e+05 8.078000000000000000e+04
4.895930000000000000e+05 4.985200000000000000e+04
4.924240000000000000e+05 1.970900000000000000e+04
4.970950000000000000e+05 -1.271900000000000000e+04
4.939930000000000000e+05 -4.368100000000000000e+04
4.938220000000000000e+05 -7.232400000000000000e+04
4.903780000000000000e+05 -1.042750000000000000e+05
4.849220000000000000e+05 -1.349650000000000000e+05
4.816150000000000000e+05 -1.648350000000000000e+05
4.730900000000000000e+05 -1.918410000000000000e+05
4.619740000000000000e+05 -2.209280000000000000e+05
4.502770000000000000e+05 -2.455810000000000000e+05
4.362630000000000000e+05 -2.717700000000000000e+05
4.196560000000000000e+05 -2.955360000000000000e+05
4.035620000000000000e+05 -3.207360000000000000e+05
3.806810000000000000e+05 -3.429340000000000000e+05
3.614500000000000000e+05 -3.632230000000000000e+05
3.373420000000000000e+05 -3.844660000000000000e+05
3.129260000000000000e+05 -4.051990000000000000e+05
2.882400000000000000e+05 -4.232030000000000000e+05
2.599710000000000000e+05 -4.396040000000000000e+05
2.288390000000000000e+05 -4.529720000000000000e+05
2.000250000000000000e+05 -4.636450000000000000e+05
1.692670000000000000e+05 -4.771820000000000000e+05
1.347940000000000000e+05 -4.843090000000000000e+05
1.015470000000000000e+05 -4.907530000000000000e+05
6.809600000000000000e+04 -4.916740000000000000e+05
3.430400000000000000e+04 -4.912640000000000000e+05
1.700000000000000000e+02 -4.861830000000000000e+05
-3.515700000000000000e+04 -4.802850000000000000e+05
-6.966500000000000000e+04 -4.704310000000000000e+05
-1.057410000000000000e+05 -4.566200000000000000e+05
-1.395330000000000000e+05 -4.422650000000000000e+05
-1.707000000000000000e+05 -4.235100000000000000e+05
-2.031960000000000000e+05 -4.042100000000000000e+05
-2.342260000000000000e+05 -3.819080000000000000e+05
-2.644380000000000000e+05 -3.592330000000000000e+05
-2.903540000000000000e+05 -3.358760000000000000e+05
-3.169510000000000000e+05 -3.153820000000000000e+05
-3.362500000000000000e+05 -2.940700000000000000e+05
-3.540160000000000000e+05 -2.736790000000000000e+05
-3.675880000000000000e+05 -2.541400000000000000e+05
-3.793170000000000000e+05 -2.326920000000000000e+05
-3.846030000000000000e+05 -2.085490000000000000e+05
-3.896150000000000000e+05 -1.849540000000000000e+05
-3.901610000000000000e+05 -1.578440000000000000e+05
-3.894110000000000000e+05 -1.304290000000000000e+05
-3.872630000000000000e+05 -1.017860000000000000e+05
-3.846710000000000000e+05 -7.375700000000000000e+04
-3.791130000000000000e+05 -4.569300000000000000e+04
-3.727710000000000000e+05 -2.165300000000000000e+04
-3.674510000000000000e+05 -6.800000000000000000e+01
-3.587550000000000000e+05 2.028900000000000000e+04
-3.516630000000000000e+05 3.986100000000000000e+04
-3.413310000000000000e+05 5.895700000000000000e+04
-3.324660000000000000e+05 7.089100000000000000e+04
-3.215540000000000000e+05 8.473600000000000000e+04
-3.086300000000000000e+05 9.575000000000000000e+04
-2.992870000000000000e+05 1.053320000000000000e+05
-2.871480000000000000e+05 1.163800000000000000e+05
-2.752470000000000000e+05 1.210180000000000000e+05
-2.641990000000000000e+05 1.267450000000000000e+05
-2.545500000000000000e+05 1.338040000000000000e+05
-2.447290000000000000e+05 1.387150000000000000e+05
-2.336810000000000000e+05 1.423290000000000000e+05
-2.268610000000000000e+05 1.433520000000000000e+05
-2.191880000000000000e+05 1.447160000000000000e+05
-2.127780000000000000e+05 1.495240000000000000e+05
-2.074920000000000000e+05 1.515360000000000000e+05
-2.032990000000000000e+05 1.504780000000000000e+05
-1.995470000000000000e+05 1.529680000000000000e+05
-1.970250000000000000e+05 1.564800000000000000e+05
-1.959670000000000000e+05 1.561400000000000000e+05
-1.926600000000000000e+05 1.610160000000000000e+05
-1.916370000000000000e+05 1.650400000000000000e+05
-1.917050000000000000e+05 1.686870000000000000e+05
-1.900690000000000000e+05 1.736670000000000000e+05
-1.884320000000000000e+05 1.808270000000000000e+05
-1.903410000000000000e+05 1.887040000000000000e+05
-1.866580000000000000e+05 1.976050000000000000e+05
-1.839650000000000000e+05 2.079020000000000000e+05
-1.826010000000000000e+05 2.191880000000000000e+05
-1.758490000000000000e+05 2.295890000000000000e+05
-1.713480000000000000e+05 2.442510000000000000e+05
-1.624130000000000000e+05 2.556400000000000000e+05
-1.535820000000000000e+05 2.717350000000000000e+05
-1.423640000000000000e+05 2.883760000000000000e+05
-1.310760000000000000e+05 3.035160000000000000e+05
-1.146750000000000000e+05 3.183140000000000000e+05
-9.530700000000000000e+04 3.323630000000000000e+05
-7.836000000000000000e+04 3.457640000000000000e+05
-5.640000000000000000e+04 3.602560000000000000e+05
-3.420200000000000000e+04 3.719860000000000000e+05
-9.377000000000000000e+03 3.836820000000000000e+05
1.742400000000000000e+04 3.932310000000000000e+05
4.415800000000000000e+04 3.986510000000000000e+05
7.256300000000000000e+04 4.031190000000000000e+05
1.011380000000000000e+05 4.059150000000000000e+05
1.322360000000000000e+05 4.077560000000000000e+05
1.656530000000000000e+05 4.042100000000000000e+05
1.983540000000000000e+05 4.022320000000000000e+05
2.307480000000000000e+05 3.920700000000000000e+05
2.625970000000000000e+05 3.839550000000000000e+05
2.965250000000000000e+05 3.713390000000000000e+05
3.274180000000000000e+05 3.572220000000000000e+05
3.589600000000000000e+05 3.404450000000000000e+05
3.903320000000000000e+05 3.213490000000000000e+05
4.194180000000000000e+05 2.999010000000000000e+05
4.497320000000000000e+05 2.764070000000000000e+05
4.761580000000000000e+05 2.501500000000000000e+05
5.037450000000000000e+05 2.207580000000000000e+05
5.241700000000000000e+05 1.902390000000000000e+05
5.456870000000000000e+05 1.597190000000000000e+05
5.630420000000000000e+05 1.238140000000000000e+05
5.752510000000000000e+05 8.858900000000000000e+04
5.864340000000000000e+05 4.998900000000000000e+04
5.944140000000000000e+05 1.295700000000000000e+04
5.981650000000000000e+05 -2.407400000000000000e+04
5.950960000000000000e+05 -6.594800000000000000e+04
5.936640000000000000e+05 -1.066280000000000000e+05
5.859230000000000000e+05 -1.446480000000000000e+05
5.732050000000000000e+05 -1.810660000000000000e+05
5.557120000000000000e+05 -2.180300000000000000e+05
5.368550000000000000e+05 -2.568010000000000000e+05
5.134290000000000000e+05 -2.892290000000000000e+05
4.862860000000000000e+05 -3.187920000000000000e+05
4.559720000000000000e+05 -3.484920000000000000e+05
4.234420000000000000e+05 -3.762830000000000000e+05
3.874330000000000000e+05 -3.977650000000000000e+05
3.540160000000000000e+05 -4.183600000000000000e+05
3.153820000000000000e+05 -4.353420000000000000e+05
2.742240000000000000e+05 -4.497660000000000000e+05
2.320090000000000000e+05 -4.621110000000000000e+05
1.935110000000000000e+05 -4.700890000000000000e+05
1.551510000000000000e+05 -4.759880000000000000e+05
1.116060000000000000e+05 -4.812400000000000000e+05
7.334700000000000000e+04 -4.808640000000000000e+05
3.300800000000000000e+04 -4.783080000000000000e+05
-5.661000000000000000e+03 -4.763290000000000000e+05
-4.269200000000000000e+04 -4.687590000000000000e+05
-7.979200000000000000e+04 -4.582910000000000000e+05
-1.152210000000000000e+05 -4.508570000000000000e+05
-1.485700000000000000e+05 -4.398090000000000000e+05
-1.802820000000000000e+05 -4.259990000000000000e+05
-2.098790000000000000e+05 -4.118140000000000000e+05
-2.403650000000000000e+05 -3.964350000000000000e+05
-2.673030000000000000e+05 -3.813970000000000000e+05
-2.942750000000000000e+05 -3.615520000000000000e+05
-3.141200000000000000e+05 -3.417060000000000000e+05
-3.364890000000000000e+05 -3.233950000000000000e+05
-3.572220000000000000e+05 -3.020490000000000000e+05
-3.727370000000000000e+05 -2.831930000000000000e+05
-3.854560000000000000e+05 -2.573790000000000000e+05
-3.996410000000000000e+05 -2.348740000000000000e+05
-4.105190000000000000e+05 -2.137320000000000000e+05
-4.198610000000000000e+05 -1.899310000000000000e+05
-4.260000000000000000e+05 -1.662330000000000000e+05
-4.308070000000000000e+05 -1.424660000000000000e+05
-4.315920000000000000e+05 -1.177790000000000000e+05
-4.324440000000000000e+05 -9.496600000000000000e+04
-4.310460000000000000e+05 -7.484700000000000000e+04
-4.277390000000000000e+05 -5.241000000000000000e+04
-4.213280000000000000e+05 -2.976900000000000000e+04
-4.152920000000000000e+05 -9.821000000000000000e+03
-4.070740000000000000e+05 9.889000000000000000e+03
-3.957540000000000000e+05 2.867700000000000000e+04
-3.860350000000000000e+05 4.392000000000000000e+04
-3.709630000000000000e+05 6.322000000000000000e+04
-3.574940000000000000e+05 7.798500000000000000e+04
-3.418440000000000000e+05 9.179400000000000000e+04
-3.279310000000000000e+05 1.047530000000000000e+05
-3.114260000000000000e+05 1.155960000000000000e+05
-2.952980000000000000e+05 1.256550000000000000e+05
-2.798850000000000000e+05 1.362260000000000000e+05
-2.607550000000000000e+05 1.440680000000000000e+05
-2.473550000000000000e+05 1.498660000000000000e+05
-2.332030000000000000e+05 1.563100000000000000e+05
-2.140060000000000000e+05 1.614250000000000000e+05
-2.009460000000000000e+05 1.641190000000000000e+05
-1.867260000000000000e+05 1.683470000000000000e+05
-1.734280000000000000e+05 1.706320000000000000e+05
-1.620050000000000000e+05 1.709040000000000000e+05
-1.512980000000000000e+05 1.707340000000000000e+05
-1.390210000000000000e+05 1.695070000000000000e+05
-1.292700000000000000e+05 1.701880000000000000e+05
-1.198590000000000000e+05 1.676650000000000000e+05
-1.101750000000000000e+05 1.658920000000000000e+05
-1.007970000000000000e+05 1.642890000000000000e+05
-9.302300000000000000e+04 1.626190000000000000e+05
-8.726000000000000000e+04 1.617990000000000000e+05
-8.061000000000000000e+04 1.600950000000000000e+05
-7.239300000000000000e+04 1.560710000000000000e+05
-6.997100000000000000e+04 1.526610000000000000e+05
-6.352600000000000000e+04 1.514670000000000000e+05
-6.028800000000000000e+04 1.508540000000000000e+05
-5.459300000000000000e+04 1.490120000000000000e+05
-5.251200000000000000e+04 1.507860000000000000e+05
-4.954600000000000000e+04 1.485690000000000000e+05
-4.852300000000000000e+04 1.492170000000000000e+05
-4.344300000000000000e+04 1.500690000000000000e+05
-4.098700000000000000e+04 1.493190000000000000e+05
-3.611100000000000000e+04 1.544350000000000000e+05
-3.532700000000000000e+04 1.535140000000000000e+05
-3.171200000000000000e+04 1.573330000000000000e+05
-2.745000000000000000e+04 1.612540000000000000e+05
-2.322200000000000000e+04 1.651070000000000000e+05
-1.892500000000000000e+04 1.685850000000000000e+05
-1.360500000000000000e+04 1.729160000000000000e+05
-7.912000000000000000e+03 1.755760000000000000e+05
-1.370000000000000000e+02 1.818150000000000000e+05
8.115000000000000000e+03 1.877150000000000000e+05
1.923200000000000000e+04 1.926930000000000000e+05
3.181400000000000000e+04 1.994110000000000000e+05
4.357900000000000000e+04 2.025820000000000000e+05
5.711600000000000000e+04 2.084810000000000000e+05
7.266600000000000000e+04 2.153700000000000000e+05
8.620300000000000000e+04 2.181310000000000000e+05
1.049560000000000000e+05 2.225990000000000000e+05
1.232000000000000000e+05 2.251890000000000000e+05
1.434550000000000000e+05 2.251220000000000000e+05
1.633690000000000000e+05 2.267590000000000000e+05
1.838620000000000000e+05 2.255650000000000000e+05
2.046970000000000000e+05 2.238600000000000000e+05
2.291790000000000000e+05 2.198700000000000000e+05
2.507640000000000000e+05 2.148240000000000000e+05
2.697240000000000000e+05 2.070160000000000000e+05
2.918530000000000000e+05 1.966490000000000000e+05
3.115960000000000000e+05 1.881250000000000000e+05
3.307260000000000000e+05 1.736660000000000000e+05
3.491400000000000000e+05 1.557300000000000000e+05
3.656780000000000000e+05 1.389880000000000000e+05
3.811930000000000000e+05 1.208470000000000000e+05
3.965720000000000000e+05 1.007290000000000000e+05
4.092910000000000000e+05 7.979200000000000000e+04
4.180890000000000000e+05 5.619500000000000000e+04
4.279420000000000000e+05 3.164400000000000000e+04
4.338070000000000000e+05 2.694000000000000000e+03
4.391620000000000000e+05 -2.199300000000000000e+04
4.400480000000000000e+05 -4.879500000000000000e+04
4.392630000000000000e+05 -7.849600000000000000e+04
4.355460000000000000e+05 -1.052290000000000000e+05
4.250450000000000000e+05 -1.332920000000000000e+05
4.166560000000000000e+05 -1.615950000000000000e+05
4.041070000000000000e+05 -1.894890000000000000e+05
3.897180000000000000e+05 -2.172100000000000000e+05
3.737930000000000000e+05 -2.438760000000000000e+05
3.522430000000000000e+05 -2.740870000000000000e+05
3.332840000000000000e+05 -2.969000000000000000e+05
3.102670000000000000e+05 -3.161660000000000000e+05
2.849660000000000000e+05 -3.321920000000000000e+05
2.586080000000000000e+05 -3.500950000000000000e+05
2.304070000000000000e+05 -3.660860000000000000e+05
2.000930000000000000e+05 -3.770670000000000000e+05
1.678020000000000000e+05 -3.895820000000000000e+05
1.352020000000000000e+05 -3.968790000000000000e+05
1.004900000000000000e+05 -4.020270000000000000e+05
6.390200000000000000e+04 -4.053350000000000000e+05
2.946200000000000000e+04 -4.056760000000000000e+05
-5.627000000000000000e+03 -4.020960000000000000e+05
-4.368100000000000000e+04 -3.955160000000000000e+05
-8.071200000000000000e+04 -3.886600000000000000e+05
-1.125950000000000000e+05 -3.773060000000000000e+05
-1.456020000000000000e+05 -3.648940000000000000e+05
-1.761550000000000000e+05 -3.502650000000000000e+05
-2.059240000000000000e+05 -3.284770000000000000e+05
-2.322140000000000000e+05 -3.091420000000000000e+05
-2.559470000000000000e+05 -2.845560000000000000e+05
-2.778050000000000000e+05 -2.632440000000000000e+05
-2.959110000000000000e+05 -2.400920000000000000e+05
-3.095510000000000000e+05 -2.123690000000000000e+05
-3.240440000000000000e+05 -1.898300000000000000e+05
-3.340340000000000000e+05 -1.648000000000000000e+05
-3.432760000000000000e+05 -1.436930000000000000e+05
-3.482870000000000000e+05 -1.194160000000000000e+05
-3.505380000000000000e+05 -9.755700000000000000e+04
-3.513910000000000000e+05 -7.682500000000000000e+04
-3.530610000000000000e+05 -5.749100000000000000e+04
-3.492080000000000000e+05 -4.020200000000000000e+04
-3.446040000000000000e+05 -2.202800000000000000e+04
-3.403080000000000000e+05 -7.228000000000000000e+03
-3.320560000000000000e+05 8.729000000000000000e+03
-3.238730000000000000e+05 2.230100000000000000e+04
-3.126200000000000000e+05 3.532700000000000000e+04
-2.993220000000000000e+05 4.787500000000000000e+04
-2.886140000000000000e+05 5.728600000000000000e+04
-2.716330000000000000e+05 6.710700000000000000e+04
-2.594930000000000000e+05 7.580300000000000000e+04
-2.399890000000000000e+05 8.436100000000000000e+04
-2.236210000000000000e+05 9.227200000000000000e+04
-2.060260000000000000e+05 9.967100000000000000e+04
-1.868960000000000000e+05 1.046160000000000000e+05
-1.705290000000000000e+05 1.101060000000000000e+05
-1.529000000000000000e+05 1.158000000000000000e+05
-1.325760000000000000e+05 1.228250000000000000e+05
-1.179830000000000000e+05 1.267800000000000000e+05
-1.021940000000000000e+05 1.319290000000000000e+05
-8.855500000000000000e+04 1.345540000000000000e+05
-7.351800000000000000e+04 1.380330000000000000e+05
-6.472000000000000000e+04 1.416820000000000000e+05
-5.271700000000000000e+04 1.430800000000000000e+05
-4.565900000000000000e+04 1.462170000000000000e+05
-3.692900000000000000e+04 1.467970000000000000e+05
-3.072300000000000000e+04 1.484000000000000000e+05
-2.209600000000000000e+04 1.506160000000000000e+05
-1.701600000000000000e+04 1.531390000000000000e+05
-9.104000000000000000e+03 1.645610000000000000e+05
-3.854000000000000000e+03 1.575030000000000000e+05
4.638000000000000000e+03 1.519110000000000000e+05
9.855000000000000000e+03 1.477170000000000000e+05
1.306000000000000000e+04 1.433180000000000000e+05
1.670800000000000000e+04 1.390560000000000000e+05
2.066400000000000000e+04 1.351000000000000000e+05
2.386900000000000000e+04 1.321000000000000000e+05
2.888300000000000000e+04 1.266440000000000000e+05
3.038300000000000000e+04 1.269850000000000000e+05
3.140600000000000000e+04 1.232340000000000000e+05
3.614400000000000000e+04 1.204370000000000000e+05
3.706600000000000000e+04 1.193810000000000000e+05
3.709900000000000000e+04 1.158350000000000000e+05
4.037300000000000000e+04 1.148800000000000000e+05
4.047500000000000000e+04 1.137540000000000000e+05
4.177200000000000000e+04 1.118790000000000000e+05
4.163600000000000000e+04 1.102760000000000000e+05
4.586300000000000000e+04 1.106180000000000000e+05
4.678300000000000000e+04 1.087080000000000000e+05
4.729600000000000000e+04 1.083330000000000000e+05
5.029600000000000000e+04 1.076860000000000000e+05
5.111500000000000000e+04 1.069680000000000000e+05
5.282000000000000000e+04 1.075830000000000000e+05
5.756000000000000000e+04 1.059120000000000000e+05
6.154900000000000000e+04 1.070030000000000000e+05
6.526500000000000000e+04 1.073780000000000000e+05
7.003900000000000000e+04 1.048210000000000000e+05
7.300600000000000000e+04 1.067640000000000000e+05
7.945000000000000000e+04 1.051270000000000000e+05
8.487300000000000000e+04 1.055710000000000000e+05
8.998700000000000000e+04 1.058440000000000000e+05
9.779500000000000000e+04 1.029110000000000000e+05
1.008310000000000000e+05 1.047870000000000000e+05
1.097640000000000000e+05 1.028420000000000000e+05
1.186300000000000000e+05 1.015810000000000000e+05
1.265070000000000000e+05 9.851200000000000000e+04
1.338380000000000000e+05 9.738700000000000000e+04
1.420910000000000000e+05 9.353400000000000000e+04
1.527970000000000000e+05 9.015800000000000000e+04
1.621750000000000000e+05 8.770200000000000000e+04
1.715870000000000000e+05 8.044000000000000000e+04
1.791560000000000000e+05 7.634900000000000000e+04
1.891810000000000000e+05 6.915300000000000000e+04
1.954900000000000000e+05 6.270900000000000000e+04
2.060610000000000000e+05 5.227300000000000000e+04
2.132220000000000000e+05 4.282900000000000000e+04
2.203820000000000000e+05 3.403100000000000000e+04
2.294180000000000000e+05 2.288000000000000000e+04
2.355220000000000000e+05 1.152500000000000000e+04
2.401250000000000000e+05 -2.966000000000000000e+03
2.447280000000000000e+05 -1.568600000000000000e+04
2.460920000000000000e+05 -2.997300000000000000e+04
2.504580000000000000e+05 -4.603400000000000000e+04
2.499800000000000000e+05 -6.001500000000000000e+04
2.494680000000000000e+05 -7.743900000000000000e+04
2.461950000000000000e+05 -9.302300000000000000e+04
2.409440000000000000e+05 -1.111290000000000000e+05
2.335110000000000000e+05 -1.277350000000000000e+05
2.282580000000000000e+05 -1.432500000000000000e+05
2.179610000000000000e+05 -1.589700000000000000e+05
2.070150000000000000e+05 -1.760190000000000000e+05
1.951140000000000000e+05 -1.909200000000000000e+05
1.795320000000000000e+05 -2.057190000000000000e+05
1.649030000000000000e+05 -2.166650000000000000e+05
1.472390000000000000e+05 -2.295890000000000000e+05
1.300540000000000000e+05 -2.418640000000000000e+05
1.099010000000000000e+05 -2.515490000000000000e+05
8.937400000000000000e+04 -2.603460000000000000e+05
6.737900000000000000e+04 -2.657680000000000000e+05
4.661300000000000000e+04 -2.706100000000000000e+05
2.745000000000000000e+04 -2.741220000000000000e+05
4.058000000000000000e+03 -2.765770000000000000e+05
-1.868600000000000000e+04 -2.768840000000000000e+05
-3.941900000000000000e+04 -2.743270000000000000e+05
-6.458300000000000000e+04 -2.732700000000000000e+05
-8.504300000000000000e+04 -2.677460000000000000e+05
-1.065930000000000000e+05 -2.630060000000000000e+05
-1.267800000000000000e+05 -2.533900000000000000e+05
-1.483650000000000000e+05 -2.455130000000000000e+05
-1.657550000000000000e+05 -2.357950000000000000e+05
-1.858740000000000000e+05 -2.238260000000000000e+05
-2.036050000000000000e+05 -2.110390000000000000e+05
-2.194950000000000000e+05 -1.963760000000000000e+05
-2.366470000000000000e+05 -1.821230000000000000e+05
-2.483430000000000000e+05 -1.652780000000000000e+05
-2.601760000000000000e+05 -1.474100000000000000e+05
-2.707460000000000000e+05 -1.287590000000000000e+05
-2.820330000000000000e+05 -1.111630000000000000e+05
-2.880690000000000000e+05 -9.271600000000000000e+04
-2.925700000000000000e+05 -7.334700000000000000e+04
-2.977520000000000000e+05 -5.305900000000000000e+04
-3.016060000000000000e+05 -3.375800000000000000e+04
-3.011280000000000000e+05 -1.391300000000000000e+04
-2.992870000000000000e+05 6.820000000000000000e+03
