1.465920000000000000e+05 -9.262320000000000000e+05
-2.943090000000000000e+05 -9.371770000000000000e+05
-5.624640000000000000e+05 -8.402680000000000000e+05
-7.436650000000000000e+05 -7.079980000000000000e+05
-8.759700000000000000e+05 -5.629410000000000000e+05
-9.602280000000000000e+05 -4.149860000000000000e+05
-1.017378000000000000e+06 -2.713950000000000000e+05
-1.047284000000000000e+06 -1.368400000000000000e+05
-1.057240000000000000e+06 1.030000000000000000e+02
-1.049226000000000000e+06 1.377950000000000000e+05
-1.025494000000000000e+06 2.707810000000000000e+05
-9.910550000000000000e+05 3.925470000000000000e+05
-9.384740000000000000e+05 5.087570000000000000e+05
-8.719120000000000000e+05 6.224430000000000000e+05
-7.921550000000000000e+05 7.263770000000000000e+05
-7.001890000000000000e+05 8.191600000000000000e+05
-5.936300000000000000e+05 9.018510000000000000e+05
-4.768070000000000000e+05 9.705260000000000000e+05
-3.441280000000000000e+05 1.023823000000000000e+06
-1.966150000000000000e+05 1.059388000000000000e+06
-3.556600000000000000e+04 1.065628000000000000e+06
1.336330000000000000e+05 1.038724000000000000e+06
2.997300000000000000e+05 9.659910000000000000e+05
4.454690000000000000e+05 8.458600000000000000e+05
5.485160000000000000e+05 6.818100000000000000e+05
5.842520000000000000e+05 4.929350000000000000e+05
5.548590000000000000e+05 3.084940000000000000e+05
4.666450000000000000e+05 1.590370000000000000e+05
3.486960000000000000e+05 6.226500000000000000e+04
2.263490000000000000e+05 2.704000000000000000e+04
1.176760000000000000e+05 3.467900000000000000e+04
3.723600000000000000e+04 6.683400000000000000e+04
-1.926600000000000000e+04 1.179490000000000000e+05
-5.241000000000000000e+04 1.778610000000000000e+05
-6.888000000000000000e+04 2.345330000000000000e+05
-6.819900000000000000e+04 2.916480000000000000e+05
-5.343300000000000000e+04 3.404780000000000000e+05
-2.946100000000000000e+04 3.861370000000000000e+05
-1.466000000000000000e+03 4.257260000000000000e+05
3.924700000000000000e+04 4.594160000000000000e+05
8.176900000000000000e+04 4.863890000000000000e+05
1.292350000000000000e+05 5.063700000000000000e+05
1.780640000000000000e+05 5.224320000000000000e+05
2.299970000000000000e+05 5.321830000000000000e+05
2.852720000000000000e+05 5.360360000000000000e+05
3.432070000000000000e+05 5.332740000000000000e+05
3.964690000000000000e+05 5.269320000000000000e+05
4.562440000000000000e+05 5.154400000000000000e+05
5.129170000000000000e+05 4.938560000000000000e+05
5.721130000000000000e+05 4.676340000000000000e+05
6.259560000000000000e+05 4.382410000000000000e+05
6.808890000000000000e+05 3.997770000000000000e+05
7.344920000000000000e+05 3.504020000000000000e+05
7.825390000000000000e+05 2.931840000000000000e+05
8.286740000000000000e+05 2.303050000000000000e+05
8.687070000000000000e+05 1.589700000000000000e+05
9.003170000000000000e+05 7.798400000000000000e+04
9.246290000000000000e+05 -9.173000000000000000e+03
9.363930000000000000e+05 -9.868200000000000000e+04
9.389850000000000000e+05 -1.989340000000000000e+05
9.264020000000000000e+05 -3.035160000000000000e+05
8.979300000000000000e+05 -4.075170000000000000e+05
8.572830000000000000e+05 -5.138730000000000000e+05
7.954960000000000000e+05 -6.102020000000000000e+05
7.216710000000000000e+05 -6.981440000000000000e+05
6.336280000000000000e+05 -7.781400000000000000e+05
5.341610000000000000e+05 -8.434740000000000000e+05
4.289310000000000000e+05 -8.952010000000000000e+05
3.190640000000000000e+05 -9.235720000000000000e+05
2.115840000000000000e+05 -9.384740000000000000e+05
1.056040000000000000e+05 -9.386780000000000000e+05
3.649000000000000000e+03 -9.194810000000000000e+05
-8.749800000000000000e+04 -8.884500000000000000e+05
-1.698820000000000000e+05 -8.473270000000000000e+05
-2.365450000000000000e+05 -8.006450000000000000e+05
-3.003440000000000000e+05 -7.411090000000000000e+05
-3.522090000000000000e+05 -6.844690000000000000e+05
-3.881500000000000000e+05 -6.230570000000000000e+05
-4.172020000000000000e+05 -5.620200000000000000e+05
-4.398090000000000000e+05 -5.001310000000000000e+05
-4.521530000000000000e+05 -4.404920000000000000e+05
-4.564150000000000000e+05 -3.835790000000000000e+05
-4.547450000000000000e+05 -3.310330000000000000e+05
-4.477890000000000000e+05 -2.789990000000000000e+05
-4.352410000000000000e+05 -2.330670000000000000e+05
-4.173040000000000000e+05 -1.901700000000000000e+05
-3.996070000000000000e+05 -1.512300000000000000e+05
-3.735900000000000000e+05 -1.151180000000000000e+05
-3.465830000000000000e+05 -8.456500000000000000e+04
-3.161320000000000000e+05 -6.233300000000000000e+04
-2.825440000000000000e+05 -4.211300000000000000e+04
-2.464330000000000000e+05 -2.704000000000000000e+04
-2.108000000000000000e+05 -2.366500000000000000e+04
-1.695750000000000000e+05 -2.748400000000000000e+04
-1.315890000000000000e+05 -3.870300000000000000e+04
-9.346600000000000000e+04 -6.137900000000000000e+04
-6.144600000000000000e+04 -9.493300000000000000e+04
-3.617900000000000000e+04 -1.453990000000000000e+05
-2.264200000000000000e+04 -2.042880000000000000e+05
-2.792800000000000000e+04 -2.819650000000000000e+05
-6.021900000000000000e+04 -3.602910000000000000e+05
-1.189040000000000000e+05 -4.393660000000000000e+05
-2.106640000000000000e+05 -5.044270000000000000e+05
-3.257480000000000000e+05 -5.421750000000000000e+05
-4.467650000000000000e+05 -5.433340000000000000e+05
-5.690450000000000000e+05 -5.104960000000000000e+05
-6.727740000000000000e+05 -4.430150000000000000e+05
-7.514060000000000000e+05 -3.514590000000000000e+05
-8.016680000000000000e+05 -2.526060000000000000e+05
-8.312320000000000000e+05 -1.492510000000000000e+05
-8.411550000000000000e+05 -5.200100000000000000e+04
-8.332440000000000000e+05 3.890600000000000000e+04
-8.146260000000000000e+05 1.242560000000000000e+05
-7.887100000000000000e+05 2.001600000000000000e+05
-7.579880000000000000e+05 2.702680000000000000e+05
-7.257630000000000000e+05 3.311010000000000000e+05
-6.850160000000000000e+05 3.858640000000000000e+05
-6.461090000000000000e+05 4.366380000000000000e+05
-6.052240000000000000e+05 4.823310000000000000e+05
-5.633160000000000000e+05 5.252270000000000000e+05
-5.190550000000000000e+05 5.623270000000000000e+05
-4.751700000000000000e+05 5.973810000000000000e+05
-4.280790000000000000e+05 6.312410000000000000e+05
-3.812960000000000000e+05 6.618620000000000000e+05
-3.338970000000000000e+05 6.888340000000000000e+05
-2.823070000000000000e+05 7.131470000000000000e+05
-2.333740000000000000e+05 7.335040000000000000e+05
-1.832140000000000000e+05 7.529060000000000000e+05
-1.306680000000000000e+05 7.664430000000000000e+05
-8.009900000000000000e+04 7.794010000000000000e+05
-2.690500000000000000e+04 7.886080000000000000e+05
2.932600000000000000e+04 7.957350000000000000e+05
8.183700000000000000e+04 8.011220000000000000e+05
1.386470000000000000e+05 7.983610000000000000e+05
1.957280000000000000e+05 7.953600000000000000e+05
2.528440000000000000e+05 7.870060000000000000e+05
3.077100000000000000e+05 7.745250000000000000e+05
3.649960000000000000e+05 7.580210000000000000e+05
4.203380000000000000e+05 7.364360000000000000e+05
4.748970000000000000e+05 7.090550000000000000e+05
5.291150000000000000e+05 6.742740000000000000e+05
5.819000000000000000e+05 6.375490000000000000e+05
6.299110000000000000e+05 5.908330000000000000e+05
6.756720000000000000e+05 5.393100000000000000e+05
7.159090000000000000e+05 4.808300000000000000e+05
7.542360000000000000e+05 4.155310000000000000e+05
7.827440000000000000e+05 3.458330000000000000e+05
8.028270000000000000e+05 2.704390000000000000e+05
8.133970000000000000e+05 1.890790000000000000e+05
8.136370000000000000e+05 1.069690000000000000e+05
7.982920000000000000e+05 1.984500000000000000e+04
7.721380000000000000e+05 -6.366300000000000000e+04
7.307760000000000000e+05 -1.429090000000000000e+05
6.740690000000000000e+05 -2.140730000000000000e+05
6.065190000000000000e+05 -2.721440000000000000e+05
5.232840000000000000e+05 -3.140520000000000000e+05
4.403210000000000000e+05 -3.334200000000000000e+05
3.619610000000000000e+05 -3.242140000000000000e+05
2.965930000000000000e+05 -2.961160000000000000e+05
2.539350000000000000e+05 -2.487190000000000000e+05
2.370570000000000000e+05 -1.950470000000000000e+05
2.425120000000000000e+05 -1.488430000000000000e+05
2.670630000000000000e+05 -1.129710000000000000e+05
3.037890000000000000e+05 -9.309100000000000000e+04
3.404440000000000000e+05 -9.309000000000000000e+04
3.766580000000000000e+05 -1.076160000000000000e+05
4.030510000000000000e+05 -1.330550000000000000e+05
4.251810000000000000e+05 -1.683470000000000000e+05
4.379340000000000000e+05 -2.091980000000000000e+05
4.396040000000000000e+05 -2.528790000000000000e+05
4.348990000000000000e+05 -2.961840000000000000e+05
4.234750000000000000e+05 -3.424230000000000000e+05
4.059140000000000000e+05 -3.860010000000000000e+05
3.841600000000000000e+05 -4.233390000000000000e+05
3.648600000000000000e+05 -4.734650000000000000e+05
3.263610000000000000e+05 -4.970620000000000000e+05
2.917850000000000000e+05 -5.296940000000000000e+05
2.549580000000000000e+05 -5.623610000000000000e+05
2.164600000000000000e+05 -5.867430000000000000e+05
1.762580000000000000e+05 -6.107140000000000000e+05
1.326110000000000000e+05 -6.301840000000000000e+05
8.988500000000000000e+04 -6.493820000000000000e+05
4.398700000000000000e+04 -6.647940000000000000e+05
-1.637000000000000000e+03 -6.740010000000000000e+05
-5.142100000000000000e+04 -6.817420000000000000e+05
-9.926300000000000000e+04 -6.855950000000000000e+05
-1.466260000000000000e+05 -6.862430000000000000e+05
-1.984570000000000000e+05 -6.838220000000000000e+05
-2.459900000000000000e+05 -6.776500000000000000e+05
-2.963890000000000000e+05 -6.681710000000000000e+05
-3.450480000000000000e+05 -6.530650000000000000e+05
-3.929920000000000000e+05 -6.369700000000000000e+05
-4.385130000000000000e+05 -6.152490000000000000e+05
-4.849570000000000000e+05 -5.893680000000000000e+05
-5.277850000000000000e+05 -5.582350000000000000e+05
-5.695900000000000000e+05 -5.228060000000000000e+05
-6.064850000000000000e+05 -4.849900000000000000e+05
-6.418460000000000000e+05 -4.411730000000000000e+05
-6.725350000000000000e+05 -3.910140000000000000e+05
-6.984500000000000000e+05 -3.374450000000000000e+05
-7.189430000000000000e+05 -2.794760000000000000e+05
-7.360610000000000000e+05 -2.194610000000000000e+05
-7.432560000000000000e+05 -1.568210000000000000e+05
-7.448250000000000000e+05 -9.186200000000000000e+04
-7.383130000000000000e+05 -2.506300000000000000e+04
-7.245370000000000000e+05 4.057800000000000000e+04
-7.038040000000000000e+05 1.038310000000000000e+05
-6.755020000000000000e+05 1.654140000000000000e+05
-6.417780000000000000e+05 2.219500000000000000e+05
-5.973470000000000000e+05 2.781120000000000000e+05
-5.566670000000000000e+05 3.200530000000000000e+05
-5.078370000000000000e+05 3.612110000000000000e+05
-4.562790000000000000e+05 3.943210000000000000e+05
-4.019250000000000000e+05 4.202020000000000000e+05
-3.468210000000000000e+05 4.375930000000000000e+05
-2.913430000000000000e+05 4.476170000000000000e+05
-2.387960000000000000e+05 4.496640000000000000e+05
-1.854300000000000000e+05 4.453670000000000000e+05
-1.409650000000000000e+05 4.327500000000000000e+05
-9.864900000000000000e+04 4.138600000000000000e+05
-6.226500000000000000e+04 3.889330000000000000e+05
-3.358800000000000000e+04 3.592680000000000000e+05
-1.258300000000000000e+04 3.241450000000000000e+05
-4.706000000000000000e+03 2.898070000000000000e+05
1.262000000000000000e+03 2.566630000000000000e+05
-1.647000000000000000e+04 2.281570000000000000e+05
-3.529300000000000000e+04 2.053780000000000000e+05
-5.837700000000000000e+04 1.998550000000000000e+05
-8.054200000000000000e+04 2.012520000000000000e+05
-9.728500000000000000e+04 2.153010000000000000e+05
-1.080260000000000000e+05 2.374650000000000000e+05
-1.084010000000000000e+05 2.614710000000000000e+05
-1.025710000000000000e+05 2.851700000000000000e+05
-8.565700000000000000e+04 3.088350000000000000e+05
-6.959600000000000000e+04 3.282370000000000000e+05
-4.644300000000000000e+04 3.423200000000000000e+05
-1.930000000000000000e+04 3.530950000000000000e+05
2.113000000000000000e+03 3.612790000000000000e+05
3.017800000000000000e+04 3.632910000000000000e+05
5.254600000000000000e+04 3.676560000000000000e+05
8.026800000000000000e+04 3.641430000000000000e+05
1.019220000000000000e+05 3.619270000000000000e+05
1.252110000000000000e+05 3.563350000000000000e+05
1.474100000000000000e+05 3.488680000000000000e+05
1.669490000000000000e+05 3.417070000000000000e+05
1.867600000000000000e+05 3.314080000000000000e+05
2.064700000000000000e+05 3.230210000000000000e+05
2.222920000000000000e+05 3.117330000000000000e+05
2.373630000000000000e+05 2.992540000000000000e+05
2.524690000000000000e+05 2.876260000000000000e+05
2.694160000000000000e+05 2.750080000000000000e+05
2.837720000000000000e+05 2.595620000000000000e+05
2.972070000000000000e+05 2.483770000000000000e+05
3.104030000000000000e+05 2.324870000000000000e+05
3.246570000000000000e+05 2.185740000000000000e+05
3.368640000000000000e+05 2.026510000000000000e+05
3.485950000000000000e+05 1.846120000000000000e+05
3.601890000000000000e+05 1.660960000000000000e+05
3.712700000000000000e+05 1.496950000000000000e+05
3.810900000000000000e+05 1.291670000000000000e+05
3.915250000000000000e+05 1.105150000000000000e+05
4.006980000000000000e+05 8.616800000000000000e+04
4.072110000000000000e+05 6.209400000000000000e+04
4.178160000000000000e+05 3.733800000000000000e+04
4.211570000000000000e+05 1.231000000000000000e+04
4.280790000000000000e+05 -1.694700000000000000e+04
4.305010000000000000e+05 -4.668100000000000000e+04
4.310120000000000000e+05 -7.904200000000000000e+04
4.316250000000000000e+05 -1.149140000000000000e+05
4.237140000000000000e+05 -1.500020000000000000e+05
4.166900000000000000e+05 -1.862830000000000000e+05
4.039030000000000000e+05 -2.257010000000000000e+05
3.851830000000000000e+05 -2.651540000000000000e+05
3.618930000000000000e+05 -3.056290000000000000e+05
3.329430000000000000e+05 -3.426610000000000000e+05
2.938320000000000000e+05 -3.777150000000000000e+05
2.486160000000000000e+05 -4.083020000000000000e+05
2.011840000000000000e+05 -4.296140000000000000e+05
1.449890000000000000e+05 -4.468340000000000000e+05
8.991900000000000000e+04 -4.502770000000000000e+05
3.539500000000000000e+04 -4.432870000000000000e+05
-1.527600000000000000e+04 -4.259310000000000000e+05
-6.154800000000000000e+04 -4.026750000000000000e+05
-9.575000000000000000e+04 -3.659500000000000000e+05
-1.191420000000000000e+05 -3.289530000000000000e+05
-1.339740000000000000e+05 -2.917510000000000000e+05
-1.394990000000000000e+05 -2.536960000000000000e+05
-1.357830000000000000e+05 -2.192230000000000000e+05
-1.267800000000000000e+05 -1.907500000000000000e+05
-1.125610000000000000e+05 -1.683810000000000000e+05
-9.803500000000000000e+04 -1.516730000000000000e+05
-8.084900000000000000e+04 -1.398060000000000000e+05
-6.427600000000000000e+04 -1.328500000000000000e+05
-4.763600000000000000e+04 -1.330200000000000000e+05
-3.355400000000000000e+04 -1.381350000000000000e+05
-2.342500000000000000e+04 -1.476490000000000000e+05
-1.493500000000000000e+04 -1.603330000000000000e+05
-1.145700000000000000e+04 -1.746550000000000000e+05
-1.067300000000000000e+04 -1.891470000000000000e+05
-1.623100000000000000e+04 -2.068450000000000000e+05
-2.120900000000000000e+04 -2.240640000000000000e+05
-3.311100000000000000e+04 -2.411150000000000000e+05
-5.080700000000000000e+04 -2.552310000000000000e+05
-6.720900000000000000e+04 -2.674390000000000000e+05
-8.944100000000000000e+04 -2.770210000000000000e+05
-1.140610000000000000e+05 -2.843520000000000000e+05
-1.389530000000000000e+05 -2.895010000000000000e+05
-1.637100000000000000e+05 -2.888870000000000000e+05
-1.930350000000000000e+05 -2.847610000000000000e+05
-2.184720000000000000e+05 -2.784190000000000000e+05
-2.435690000000000000e+05 -2.687680000000000000e+05
-2.654950000000000000e+05 -2.551630000000000000e+05
-2.876590000000000000e+05 -2.356580000000000000e+05
-3.090050000000000000e+05 -2.161200000000000000e+05
-3.248950000000000000e+05 -1.899310000000000000e+05
-3.401030000000000000e+05 -1.690630000000000000e+05
-3.526860000000000000e+05 -1.440350000000000000e+05
-3.624730000000000000e+05 -1.176420000000000000e+05
-3.695990000000000000e+05 -8.995400000000000000e+04
-3.745090000000000000e+05 -6.236700000000000000e+04
-3.764870000000000000e+05 -3.331500000000000000e+04
-3.771350000000000000e+05 -3.171000000000000000e+03
-3.724640000000000000e+05 2.496000000000000000e+04
-3.661210000000000000e+05 5.200100000000000000e+04
-3.579370000000000000e+05 7.805200000000000000e+04
-3.485940000000000000e+05 1.067300000000000000e+05
-3.362500000000000000e+05 1.339070000000000000e+05
-3.222020000000000000e+05 1.573660000000000000e+05
-3.057320000000000000e+05 1.812020000000000000e+05
-2.880010000000000000e+05 2.045600000000000000e+05
-2.674390000000000000e+05 2.259750000000000000e+05
-2.466380000000000000e+05 2.442170000000000000e+05
-2.237230000000000000e+05 2.598340000000000000e+05
-1.989000000000000000e+05 2.756910000000000000e+05
-1.734270000000000000e+05 2.905910000000000000e+05
-1.482620000000000000e+05 2.999350000000000000e+05
-1.199940000000000000e+05 3.074700000000000000e+05
-9.326100000000000000e+04 3.131310000000000000e+05
-6.570800000000000000e+04 3.185190000000000000e+05
-3.747400000000000000e+04 3.182120000000000000e+05
-7.127000000000000000e+03 3.155530000000000000e+05
2.059600000000000000e+04 3.078120000000000000e+05
4.675000000000000000e+04 2.996620000000000000e+05
7.341600000000000000e+04 2.861590000000000000e+05
9.800100000000000000e+04 2.694500000000000000e+05
1.209490000000000000e+05 2.511730000000000000e+05
1.384750000000000000e+05 2.276790000000000000e+05
1.522520000000000000e+05 2.008430000000000000e+05
1.605720000000000000e+05 1.709730000000000000e+05
1.691650000000000000e+05 1.433860000000000000e+05
1.605730000000000000e+05 1.133790000000000000e+05
1.508890000000000000e+05 8.238400000000000000e+04
1.369070000000000000e+05 6.206100000000000000e+04
1.215970000000000000e+05 4.395300000000000000e+04
1.024000000000000000e+05 3.604300000000000000e+04
8.705400000000000000e+04 2.823400000000000000e+04
7.198300000000000000e+04 2.741600000000000000e+04
5.987800000000000000e+04 2.857600000000000000e+04
5.438800000000000000e+04 3.215600000000000000e+04
4.869400000000000000e+04 3.311000000000000000e+04
4.323800000000000000e+04 3.515600000000000000e+04
4.129400000000000000e+04 3.935100000000000000e+04
3.941800000000000000e+04 4.504400000000000000e+04
4.112300000000000000e+04 4.422700000000000000e+04
3.989600000000000000e+04 4.675000000000000000e+04
4.112300000000000000e+04 4.709100000000000000e+04
4.467000000000000000e+04 4.668200000000000000e+04
4.463600000000000000e+04 4.889800000000000000e+04
4.736400000000000000e+04 4.838700000000000000e+04
4.729600000000000000e+04 4.729600000000000000e+04
5.012600000000000000e+04 4.743200000000000000e+04
5.053500000000000000e+04 4.559100000000000000e+04
5.285300000000000000e+04 4.436300000000000000e+04
5.425100000000000000e+04 4.559100000000000000e+04
5.681000000000000000e+04 4.112300000000000000e+04
5.810500000000000000e+04 4.241900000000000000e+04
5.619500000000000000e+04 4.255600000000000000e+04
5.946900000000000000e+04 4.262300000000000000e+04
6.069600000000000000e+04 4.112300000000000000e+04
6.148000000000000000e+04 3.785000000000000000e+04
6.345800000000000000e+04 3.675800000000000000e+04
6.441300000000000000e+04 3.420100000000000000e+04
6.356100000000000000e+04 3.423500000000000000e+04
6.622100000000000000e+04 3.478100000000000000e+04
6.908500000000000000e+04 3.358700000000000000e+04
7.072200000000000000e+04 3.324700000000000000e+04
7.218700000000000000e+04 3.143900000000000000e+04
7.119800000000000000e+04 2.973400000000000000e+04
7.556300000000000000e+04 3.058700000000000000e+04
7.709800000000000000e+04 2.891600000000000000e+04
7.600700000000000000e+04 2.799500000000000000e+04
8.166800000000000000e+04 2.448300000000000000e+04
8.432700000000000000e+04 2.022100000000000000e+04
8.354300000000000000e+04 2.199400000000000000e+04
8.787300000000000000e+04 1.776500000000000000e+04
9.111200000000000000e+04 1.568600000000000000e+04
9.445400000000000000e+04 1.023000000000000000e+04
9.493200000000000000e+04 6.922000000000000000e+03
9.714800000000000000e+04 8.520000000000000000e+02
9.963700000000000000e+04 -5.320000000000000000e+03
9.851300000000000000e+04 -1.196900000000000000e+04
1.009670000000000000e+05 -2.025500000000000000e+04
9.817100000000000000e+04 -2.820000000000000000e+04
9.779600000000000000e+04 -3.675800000000000000e+04
9.251000000000000000e+04 -4.282800000000000000e+04
8.405400000000000000e+04 -4.954600000000000000e+04
8.037100000000000000e+04 -5.650200000000000000e+04
7.252800000000000000e+04 -5.984400000000000000e+04
6.325400000000000000e+04 -6.448200000000000000e+04
5.449100000000000000e+04 -6.189000000000000000e+04
4.613600000000000000e+04 -6.356100000000000000e+04
3.972500000000000000e+04 -6.127700000000000000e+04
3.444000000000000000e+04 -5.991200000000000000e+04
2.775700000000000000e+04 -5.745700000000000000e+04
2.479000000000000000e+04 -5.183100000000000000e+04
1.827700000000000000e+04 -4.981900000000000000e+04
1.786800000000000000e+04 -4.572700000000000000e+04
1.599300000000000000e+04 -4.204400000000000000e+04
1.527700000000000000e+04 -3.802100000000000000e+04
1.336700000000000000e+04 -3.280300000000000000e+04
1.265100000000000000e+04 -2.833700000000000000e+04
1.415100000000000000e+04 -2.496100000000000000e+04
1.650400000000000000e+04 -2.202900000000000000e+04
1.708400000000000000e+04 -1.766400000000000000e+04
1.800400000000000000e+04 -1.302600000000000000e+04
2.274400000000000000e+04 -9.821000000000000000e+03
2.632400000000000000e+04 -8.559000000000000000e+03
2.918900000000000000e+04 -6.172000000000000000e+03
3.484900000000000000e+04 -4.194000000000000000e+03
4.143000000000000000e+04 -3.308000000000000000e+03
4.620400000000000000e+04 -2.318000000000000000e+03
5.414900000000000000e+04 -3.478000000000000000e+03
5.953700000000000000e+04 -4.774000000000000000e+03
6.993700000000000000e+04 -6.922000000000000000e+03
7.760900000000000000e+04 -1.057100000000000000e+04
8.623700000000000000e+04 -1.585600000000000000e+04
9.384000000000000000e+04 -2.168700000000000000e+04
1.022290000000000000e+05 -3.345100000000000000e+04
1.095940000000000000e+05 -4.340800000000000000e+04
1.163110000000000000e+05 -5.861700000000000000e+04
1.198240000000000000e+05 -7.276800000000000000e+04
1.225510000000000000e+05 -9.326100000000000000e+04
1.212900000000000000e+05 -1.097310000000000000e+05
1.185960000000000000e+05 -1.326120000000000000e+05
1.105820000000000000e+05 -1.519110000000000000e+05
9.950100000000000000e+04 -1.731210000000000000e+05
8.442900000000000000e+04 -1.941600000000000000e+05
6.714100000000000000e+04 -2.122670000000000000e+05
4.668100000000000000e+04 -2.278150000000000000e+05
2.039100000000000000e+04 -2.382500000000000000e+05
-2.040000000000000000e+02 -2.486160000000000000e+05
-2.724500000000000000e+04 -2.539690000000000000e+05
-5.510400000000000000e+04 -2.581980000000000000e+05
-7.986000000000000000e+04 -2.554700000000000000e+05
-1.069000000000000000e+05 -2.531170000000000000e+05
-1.322700000000000000e+05 -2.445580000000000000e+05
-1.552190000000000000e+05 -2.362050000000000000e+05
-1.789520000000000000e+05 -2.233830000000000000e+05
-2.009450000000000000e+05 -2.093000000000000000e+05
-2.212690000000000000e+05 -1.945690000000000000e+05
-2.393410000000000000e+05 -1.751330000000000000e+05
-2.532190000000000000e+05 -1.570600000000000000e+05
-2.668930000000000000e+05 -1.353730000000000000e+05
-2.804650000000000000e+05 -1.137210000000000000e+05
-2.887850000000000000e+05 -9.097700000000000000e+04
-2.992880000000000000e+05 -6.567500000000000000e+04
-3.052200000000000000e+05 -4.088500000000000000e+04
-3.070280000000000000e+05 -1.432100000000000000e+04
-3.071980000000000000e+05 1.186600000000000000e+04
-3.051860000000000000e+05 3.529300000000000000e+04
-2.979910000000000000e+05 6.243500000000000000e+04
-2.908990000000000000e+05 8.552000000000000000e+04
-2.808390000000000000e+05 1.107530000000000000e+05
-2.682230000000000000e+05 1.338040000000000000e+05
-2.544460000000000000e+05 1.528990000000000000e+05
-2.393070000000000000e+05 1.723030000000000000e+05
-2.191200000000000000e+05 1.921480000000000000e+05
-2.006380000000000000e+05 2.051400000000000000e+05
-1.761210000000000000e+05 2.176880000000000000e+05
-1.543320000000000000e+05 2.268600000000000000e+05
-1.302580000000000000e+05 2.328280000000000000e+05
-1.080600000000000000e+05 2.362040000000000000e+05
-8.511100000000000000e+04 2.357610000000000000e+05
-6.332100000000000000e+04 2.321120000000000000e+05
-4.258900000000000000e+04 2.242010000000000000e+05
-2.741500000000000000e+04 2.140740000000000000e+05
-1.374200000000000000e+04 2.054460000000000000e+05
-3.887000000000000000e+03 1.914660000000000000e+05
-4.090000000000000000e+02 1.792580000000000000e+05
2.899000000000000000e+03 1.675620000000000000e+05
2.762000000000000000e+03 1.594810000000000000e+05
-2.050000000000000000e+02 1.535820000000000000e+05
-3.068000000000000000e+03 1.505130000000000000e+05
-5.558000000000000000e+03 1.517740000000000000e+05
-8.047000000000000000e+03 1.529680000000000000e+05
-7.535000000000000000e+03 1.553890000000000000e+05
-4.808000000000000000e+03 1.607770000000000000e+05
-5.800000000000000000e+02 1.655160000000000000e+05
3.513000000000000000e+03 1.733260000000000000e+05
1.053700000000000000e+04 1.779290000000000000e+05
1.858400000000000000e+04 1.868970000000000000e+05
2.663200000000000000e+04 1.852940000000000000e+05
3.716800000000000000e+04 1.903410000000000000e+05
4.654500000000000000e+04 1.928640000000000000e+05
5.946900000000000000e+04 1.936820000000000000e+05
7.034700000000000000e+04 1.955580000000000000e+05
8.050800000000000000e+04 1.944670000000000000e+05
9.493200000000000000e+04 1.936820000000000000e+05
1.030130000000000000e+05 1.928980000000000000e+05
1.165170000000000000e+05 1.904770000000000000e+05
1.276320000000000000e+05 1.852250000000000000e+05
1.388860000000000000e+05 1.819190000000000000e+05
1.523550000000000000e+05 1.768040000000000000e+05
1.625510000000000000e+05 1.720300000000000000e+05
1.749620000000000000e+05 1.633000000000000000e+05
1.889760000000000000e+05 1.576060000000000000e+05
2.021400000000000000e+05 1.494220000000000000e+05
2.124370000000000000e+05 1.411010000000000000e+05
2.234850000000000000e+05 1.312120000000000000e+05
2.361700000000000000e+05 1.187330000000000000e+05
2.481730000000000000e+05 1.073430000000000000e+05
2.570390000000000000e+05 9.377200000000000000e+04
2.682230000000000000e+05 7.791600000000000000e+04
2.785900000000000000e+05 6.175300000000000000e+04
2.890910000000000000e+05 5.125100000000000000e+04
2.972070000000000000e+05 2.441500000000000000e+04
3.032430000000000000e+05 1.705000000000000000e+03
3.105390000000000000e+05 -2.332400000000000000e+04
3.114950000000000000e+05 -4.763700000000000000e+04
3.140180000000000000e+05 -7.566600000000000000e+04
3.094490000000000000e+05 -1.050930000000000000e+05
3.021860000000000000e+05 -1.353400000000000000e+05
2.906600000000000000e+05 -1.646310000000000000e+05
2.757590000000000000e+05 -1.960010000000000000e+05
2.510720000000000000e+05 -2.233500000000000000e+05
2.263500000000000000e+05 -2.485820000000000000e+05
1.960360000000000000e+05 -2.693140000000000000e+05
1.620050000000000000e+05 -2.842500000000000000e+05
1.273600000000000000e+05 -2.932180000000000000e+05
9.138500000000000000e+04 -2.968660000000000000e+05
5.906000000000000000e+04 -2.943080000000000000e+05
2.748400000000000000e+04 -2.863980000000000000e+05
-3.070000000000000000e+02 -2.737130000000000000e+05
-2.236900000000000000e+04 -2.563560000000000000e+05
-4.289700000000000000e+04 -2.392730000000000000e+05
-5.725200000000000000e+04 -2.201430000000000000e+05
-6.652700000000000000e+04 -2.014920000000000000e+05
-7.113100000000000000e+04 -1.819190000000000000e+05
-7.529000000000000000e+04 -1.642890000000000000e+05
-7.331200000000000000e+04 -1.491150000000000000e+05
-7.205100000000000000e+04 -1.356120000000000000e+05
-6.823200000000000000e+04 -1.243590000000000000e+05
-6.250300000000000000e+04 -1.138570000000000000e+05
-5.582000000000000000e+04 -1.036950000000000000e+05
-4.722700000000000000e+04 -1.003190000000000000e+05
-3.904300000000000000e+04 -9.735300000000000000e+04
-3.222300000000000000e+04 -9.336400000000000000e+04
-2.226600000000000000e+04 -9.336300000000000000e+04
-1.415100000000000000e+04 -9.677300000000000000e+04
-6.887000000000000000e+03 -1.004900000000000000e+05
-3.750000000000000000e+02 -1.096630000000000000e+05
4.876000000000000000e+03 -1.178810000000000000e+05
5.934000000000000000e+03 -1.309750000000000000e+05
9.411000000000000000e+03 -1.441710000000000000e+05
8.900000000000000000e+03 -1.600270000000000000e+05
6.206000000000000000e+03 -1.749960000000000000e+05
-1.569000000000000000e+03 -1.928650000000000000e+05
-1.261600000000000000e+04 -2.120960000000000000e+05
-2.687000000000000000e+04 -2.307480000000000000e+05
-4.337300000000000000e+04 -2.500820000000000000e+05
-6.901600000000000000e+04 -2.678130000000000000e+05
-9.547700000000000000e+04 -2.832600000000000000e+05
-1.278710000000000000e+05 -2.931840000000000000e+05
-1.614930000000000000e+05 -3.011280000000000000e+05
-2.011840000000000000e+05 -3.021860000000000000e+05
-2.402610000000000000e+05 -2.994230000000000000e+05
-2.793740000000000000e+05 -2.880690000000000000e+05
-3.173940000000000000e+05 -2.711550000000000000e+05
-3.519350000000000000e+05 -2.504580000000000000e+05
-3.836480000000000000e+05 -2.196320000000000000e+05
-4.096650000000000000e+05 -1.904780000000000000e+05
-4.316930000000000000e+05 -1.542640000000000000e+05
-4.472080000000000000e+05 -1.177450000000000000e+05
-4.564150000000000000e+05 -7.907500000000000000e+04
-4.650420000000000000e+05 -3.948600000000000000e+04
-4.682470000000000000e+05 3.410000000000000000e+02
-4.620760000000000000e+05 3.778100000000000000e+04
-4.576420000000000000e+05 7.587100000000000000e+04
-4.494250000000000000e+05 1.106170000000000000e+05
-4.370130000000000000e+05 1.458410000000000000e+05
-4.231680000000000000e+05 1.764280000000000000e+05
-4.036640000000000000e+05 2.067770000000000000e+05
-3.873990000000000000e+05 2.364770000000000000e+05
-3.667350000000000000e+05 2.658020000000000000e+05
-3.446730000000000000e+05 2.913080000000000000e+05
-3.197120000000000000e+05 3.158590000000000000e+05
-2.969350000000000000e+05 3.372730000000000000e+05
-2.700640000000000000e+05 3.560620000000000000e+05
-2.425460000000000000e+05 3.755670000000000000e+05
-2.139030000000000000e+05 3.934010000000000000e+05
-1.836570000000000000e+05 4.091540000000000000e+05
-1.528310000000000000e+05 4.208150000000000000e+05
-1.206070000000000000e+05 4.296810000000000000e+05
-8.862300000000000000e+04 4.383080000000000000e+05
-5.455800000000000000e+04 4.413440000000000000e+05
-2.393700000000000000e+04 4.439690000000000000e+05
9.616000000000000000e+03 4.427760000000000000e+05
4.327200000000000000e+04 4.359560000000000000e+05
7.610900000000000000e+04 4.298190000000000000e+05
1.039340000000000000e+05 4.175430000000000000e+05
1.313840000000000000e+05 4.042440000000000000e+05
1.556970000000000000e+05 3.867510000000000000e+05
1.800770000000000000e+05 3.677240000000000000e+05
1.996500000000000000e+05 3.454920000000000000e+05
2.140060000000000000e+05 3.207700000000000000e+05
2.265880000000000000e+05 2.985020000000000000e+05
2.324530000000000000e+05 2.768160000000000000e+05
2.355900000000000000e+05 2.531850000000000000e+05
2.347380000000000000e+05 2.341240000000000000e+05
2.320790000000000000e+05 2.178240000000000000e+05
2.269290000000000000e+05 2.068780000000000000e+05
2.212350000000000000e+05 1.976720000000000000e+05
2.133570000000000000e+05 1.929670000000000000e+05
2.106980000000000000e+05 1.938530000000000000e+05
2.087200000000000000e+05 1.988990000000000000e+05
2.129480000000000000e+05 2.079020000000000000e+05
2.234850000000000000e+05 2.164950000000000000e+05
2.355910000000000000e+05 2.262120000000000000e+05
2.577550000000000000e+05 2.333050000000000000e+05
2.817950000000000000e+05 2.427510000000000000e+05
3.127910000000000000e+05 2.332030000000000000e+05
3.411610000000000000e+05 2.249510000000000000e+05
3.715770000000000000e+05 2.090270000000000000e+05
3.994360000000000000e+05 1.875100000000000000e+05
4.223170000000000000e+05 1.602310000000000000e+05
4.431170000000000000e+05 1.280420000000000000e+05
4.598940000000000000e+05 9.408000000000000000e+04
4.705330000000000000e+05 5.946800000000000000e+04
4.755110000000000000e+05 2.281200000000000000e+04
4.790920000000000000e+05 -1.473100000000000000e+04
4.773860000000000000e+05 -5.193300000000000000e+04
4.725450000000000000e+05 -8.504300000000000000e+04
4.638840000000000000e+05 -1.212220000000000000e+05
4.528690000000000000e+05 -1.549130000000000000e+05
4.388890000000000000e+05 -1.871020000000000000e+05
4.233390000000000000e+05 -2.168020000000000000e+05
4.059840000000000000e+05 -2.468770000000000000e+05
3.888650000000000000e+05 -2.728610000000000000e+05
3.654060000000000000e+05 -2.989460000000000000e+05
3.449800000000000000e+05 -3.237700000000000000e+05
3.212810000000000000e+05 -3.469920000000000000e+05
2.960130000000000000e+05 -3.684060000000000000e+05
2.707460000000000000e+05 -3.858990000000000000e+05
2.419330000000000000e+05 -4.082330000000000000e+05
2.163920000000000000e+05 -4.233400000000000000e+05
1.867600000000000000e+05 -4.426400000000000000e+05
1.567190000000000000e+05 -4.526650000000000000e+05
1.254510000000000000e+05 -4.687600000000000000e+05
9.135200000000000000e+04 -4.790570000000000000e+05
6.052600000000000000e+04 -4.861840000000000000e+05
2.502900000000000000e+04 -4.948450000000000000e+05
-1.135500000000000000e+04 -5.023130000000000000e+05
-4.705700000000000000e+04 -5.057570000000000000e+05
-8.763400000000000000e+04 -5.031310000000000000e+05
-1.236080000000000000e+05 -5.020400000000000000e+05
-1.656530000000000000e+05 -4.951520000000000000e+05
-2.049350000000000000e+05 -4.837980000000000000e+05
-2.466040000000000000e+05 -4.665440000000000000e+05
-2.844540000000000000e+05 -4.476870000000000000e+05
-3.217920000000000000e+05 -4.243630000000000000e+05
-3.564370000000000000e+05 -3.929230000000000000e+05
-3.872280000000000000e+05 -3.587220000000000000e+05
-4.118480000000000000e+05 -3.204970000000000000e+05
-4.322730000000000000e+05 -2.770200000000000000e+05
-4.483000000000000000e+05 -2.322820000000000000e+05
-4.536880000000000000e+05 -1.852940000000000000e+05
-4.514710000000000000e+05 -1.384430000000000000e+05
-4.423660000000000000e+05 -9.673900000000000000e+04
-4.290000000000000000e+05 -5.469500000000000000e+04
-4.078920000000000000e+05 -1.950500000000000000e+04
-3.837160000000000000e+05 1.115000000000000000e+04
-3.574260000000000000e+05 3.512200000000000000e+04
-3.332160000000000000e+05 5.203500000000000000e+04
-3.049140000000000000e+05 6.202600000000000000e+04
-2.823400000000000000e+05 6.724300000000000000e+04
-2.606190000000000000e+05 7.000500000000000000e+04
-2.396810000000000000e+05 6.373100000000000000e+04
-2.256000000000000000e+05 5.786600000000000000e+04
-2.186430000000000000e+05 4.842100000000000000e+04
-2.109370000000000000e+05 3.972500000000000000e+04
-2.085840000000000000e+05 3.062100000000000000e+04
-2.110730000000000000e+05 2.117500000000000000e+04
-2.188140000000000000e+05 1.316200000000000000e+04
-2.267920000000000000e+05 9.821000000000000000e+03
-2.401250000000000000e+05 3.171000000000000000e+03
-2.505260000000000000e+05 3.273000000000000000e+03
-2.680520000000000000e+05 7.126000000000000000e+03
-2.845220000000000000e+05 1.128700000000000000e+04
-3.015710000000000000e+05 2.189100000000000000e+04
-3.161660000000000000e+05 3.587200000000000000e+04
-3.322260000000000000e+05 5.711600000000000000e+04
-3.438550000000000000e+05 7.958700000000000000e+04
-3.534360000000000000e+05 1.064910000000000000e+05
-3.613130000000000000e+05 1.338390000000000000e+05
-3.610060000000000000e+05 1.676650000000000000e+05
-3.555160000000000000e+05 1.987970000000000000e+05
-3.466510000000000000e+05 2.323500000000000000e+05
-3.344430000000000000e+05 2.646080000000000000e+05
-3.154500000000000000e+05 2.948540000000000000e+05
-2.962860000000000000e+05 3.260550000000000000e+05
-2.705750000000000000e+05 3.517660000000000000e+05
-2.416250000000000000e+05 3.763500000000000000e+05
-2.123690000000000000e+05 3.977310000000000000e+05
-1.808600000000000000e+05 4.150870000000000000e+05
-1.457050000000000000e+05 4.300910000000000000e+05
-1.121850000000000000e+05 4.405260000000000000e+05
-7.733600000000000000e+04 4.505160000000000000e+05
-4.187400000000000000e+04 4.558010000000000000e+05
-7.195000000000000000e+03 4.575750000000000000e+05
2.629000000000000000e+04 4.546420000000000000e+05
6.226500000000000000e+04 4.528350000000000000e+05
9.343200000000000000e+04 4.485050000000000000e+05
1.268480000000000000e+05 4.381390000000000000e+05
1.563100000000000000e+05 4.296810000000000000e+05
1.872380000000000000e+05 4.184300000000000000e+05
2.168020000000000000e+05 4.035960000000000000e+05
2.436030000000000000e+05 3.883200000000000000e+05
2.689050000000000000e+05 3.704860000000000000e+05
2.946840000000000000e+05 3.495830000000000000e+05
3.170190000000000000e+05 3.309310000000000000e+05
3.398650000000000000e+05 3.074700000000000000e+05
3.603930000000000000e+05 2.827150000000000000e+05
3.811940000000000000e+05 2.553680000000000000e+05
3.971170000000000000e+05 2.326920000000000000e+05
4.109960000000000000e+05 2.025480000000000000e+05
4.231010000000000000e+05 1.716540000000000000e+05
4.345240000000000000e+05 1.403520000000000000e+05
4.395700000000000000e+05 1.082990000000000000e+05
4.467990000000000000e+05 7.379000000000000000e+04
4.471740000000000000e+05 4.153200000000000000e+04
4.459130000000000000e+05 6.206000000000000000e+03
4.370480000000000000e+05 -2.683600000000000000e+04
4.263750000000000000e+05 -5.946900000000000000e+04
4.125300000000000000e+05 -9.162500000000000000e+04
3.969810000000000000e+05 -1.197220000000000000e+05
3.761130000000000000e+05 -1.471710000000000000e+05
3.510490000000000000e+05 -1.689610000000000000e+05
3.276240000000000000e+05 -1.872720000000000000e+05
3.015720000000000000e+05 -2.017640000000000000e+05
2.774640000000000000e+05 -2.117210000000000000e+05
2.534930000000000000e+05 -2.163580000000000000e+05
2.307830000000000000e+05 -2.185400000000000000e+05
2.136640000000000000e+05 -2.127440000000000000e+05
1.982860000000000000e+05 -2.104250000000000000e+05
1.887380000000000000e+05 -2.024110000000000000e+05
1.843400000000000000e+05 -1.953540000000000000e+05
1.829410000000000000e+05 -1.899320000000000000e+05
1.871020000000000000e+05 -1.865220000000000000e+05
1.906820000000000000e+05 -1.866240000000000000e+05
2.008100000000000000e+05 -1.884660000000000000e+05
2.091640000000000000e+05 -1.992060000000000000e+05
2.178590000000000000e+05 -2.095050000000000000e+05
2.249510000000000000e+05 -2.296230000000000000e+05
2.310210000000000000e+05 -2.482400000000000000e+05
2.323170000000000000e+05 -2.756560000000000000e+05
2.291800000000000000e+05 -3.061750000000000000e+05
2.217460000000000000e+05 -3.399330000000000000e+05
2.079010000000000000e+05 -3.720880000000000000e+05
1.890790000000000000e+05 -4.064600000000000000e+05
1.626520000000000000e+05 -4.421960000000000000e+05
1.294410000000000000e+05 -4.742490000000000000e+05
9.336300000000000000e+04 -5.016640000000000000e+05
4.910300000000000000e+04 -5.242050000000000000e+05
9.550000000000000000e+02 -5.448680000000000000e+05
-4.770400000000000000e+04 -5.556440000000000000e+05
-9.356800000000000000e+04 -5.615080000000000000e+05
-1.524560000000000000e+05 -5.592580000000000000e+05
-2.037760000000000000e+05 -5.515860000000000000e+05
-2.532190000000000000e+05 -5.360030000000000000e+05
-2.993900000000000000e+05 -5.161580000000000000e+05
-3.443650000000000000e+05 -4.903440000000000000e+05
-3.833410000000000000e+05 -4.607130000000000000e+05
-4.196220000000000000e+05 -4.306020000000000000e+05
-4.509260000000000000e+05 -3.924120000000000000e+05
-4.747260000000000000e+05 -3.566410000000000000e+05
-4.975380000000000000e+05 -3.158600000000000000e+05
-5.171110000000000000e+05 -2.769870000000000000e+05
-5.298300000000000000e+05 -2.369880000000000000e+05
-5.409130000000000000e+05 -1.981150000000000000e+05
-5.495400000000000000e+05 -1.563100000000000000e+05
-5.526420000000000000e+05 -1.184260000000000000e+05
-5.560180000000000000e+05 -7.726900000000000000e+04
-5.546200000000000000e+05 -3.849700000000000000e+04
-5.506310000000000000e+05 -2.660000000000000000e+03
-5.447660000000000000e+05 3.566800000000000000e+04
-5.385600000000000000e+05 7.177800000000000000e+04
-5.267620000000000000e+05 1.069000000000000000e+05
-5.148950000000000000e+05 1.415790000000000000e+05
-5.012220000000000000e+05 1.745870000000000000e+05
-4.848200000000000000e+05 2.083450000000000000e+05
-4.682820000000000000e+05 2.389310000000000000e+05
-4.468330000000000000e+05 2.667570000000000000e+05
-4.255550000000000000e+05 2.969000000000000000e+05
-4.027430000000000000e+05 3.250660000000000000e+05
-3.750550000000000000e+05 3.503670000000000000e+05
-3.464460000000000000e+05 3.759080000000000000e+05
-3.155870000000000000e+05 3.976630000000000000e+05
-2.858520000000000000e+05 4.162810000000000000e+05
-2.514800000000000000e+05 4.345580000000000000e+05
-2.143460000000000000e+05 4.479930000000000000e+05
-1.793610000000000000e+05 4.603370000000000000e+05
-1.416130000000000000e+05 4.644290000000000000e+05
-9.977300000000000000e+04 4.684870000000000000e+05
-6.376500000000000000e+04 4.645660000000000000e+05
-2.840400000000000000e+04 4.572680000000000000e+05
7.570000000000000000e+03 4.449240000000000000e+05
3.669100000000000000e+04 4.280800000000000000e+05
5.953700000000000000e+04 4.111660000000000000e+05
7.832500000000000000e+04 3.880120000000000000e+05
9.285200000000000000e+04 3.674170000000000000e+05
1.010690000000000000e+05 3.490720000000000000e+05
1.067990000000000000e+05 3.315450000000000000e+05
1.056050000000000000e+05 3.202910000000000000e+05
1.080600000000000000e+05 3.119030000000000000e+05
1.093220000000000000e+05 3.063450000000000000e+05
1.107540000000000000e+05 3.060050000000000000e+05
1.151870000000000000e+05 3.099940000000000000e+05
1.238140000000000000e+05 3.124500000000000000e+05
1.341460000000000000e+05 3.185180000000000000e+05
1.492520000000000000e+05 3.239070000000000000e+05
1.664030000000000000e+05 3.254070000000000000e+05
1.870330000000000000e+05 3.296690000000000000e+05
2.098120000000000000e+05 3.288510000000000000e+05
2.339190000000000000e+05 3.258850000000000000e+05
2.578230000000000000e+05 3.193370000000000000e+05
2.817260000000000000e+05 3.094150000000000000e+05
3.084610000000000000e+05 2.970370000000000000e+05
3.310330000000000000e+05 2.807710000000000000e+05
3.532660000000000000e+05 2.614370000000000000e+05
3.722590000000000000e+05 2.406370000000000000e+05
3.919340000000000000e+05 2.155730000000000000e+05
4.074490000000000000e+05 1.911930000000000000e+05
4.205770000000000000e+05 1.653120000000000000e+05
4.299210000000000000e+05 1.364300000000000000e+05
4.407640000000000000e+05 1.098320000000000000e+05
4.455720000000000000e+05 7.948500000000000000e+04
4.500730000000000000e+05 5.091000000000000000e+04
4.507210000000000000e+05 2.066400000000000000e+04
4.488120000000000000e+05 -7.911000000000000000e+03
4.459810000000000000e+05 -3.638300000000000000e+04
4.394690000000000000e+05 -6.250400000000000000e+04
4.336370000000000000e+05 -9.066900000000000000e+04
4.255560000000000000e+05 -1.152550000000000000e+05
4.157010000000000000e+05 -1.405220000000000000e+05
4.041750000000000000e+05 -1.667780000000000000e+05
3.915940000000000000e+05 -1.893180000000000000e+05
3.777150000000000000e+05 -2.112100000000000000e+05
3.615520000000000000e+05 -2.309180000000000000e+05
3.461390000000000000e+05 -2.519240000000000000e+05
3.311020000000000000e+05 -2.718720000000000000e+05
3.113240000000000000e+05 -2.914790000000000000e+05
2.933200000000000000e+05 -3.081540000000000000e+05
2.738500000000000000e+05 -3.250320000000000000e+05
2.529800000000000000e+05 -3.388080000000000000e+05
2.308510000000000000e+05 -3.555160000000000000e+05
2.084470000000000000e+05 -3.682010000000000000e+05
1.852600000000000000e+05 -3.786360000000000000e+05
1.599250000000000000e+05 -3.906380000000000000e+05
1.348620000000000000e+05 -3.993690000000000000e+05
1.071050000000000000e+05 -4.047210000000000000e+05
7.914400000000000000e+04 -4.104160000000000000e+05
5.039800000000000000e+04 -4.137240000000000000e+05
2.206200000000000000e+04 -4.172360000000000000e+05
-6.990000000000000000e+03 -4.119840000000000000e+05
-3.686100000000000000e+04 -4.103470000000000000e+05
-6.806200000000000000e+04 -3.981750000000000000e+05
-9.326100000000000000e+04 -3.842620000000000000e+05
-1.195170000000000000e+05 -3.698040000000000000e+05
-1.436250000000000000e+05 -3.510490000000000000e+05
-1.628570000000000000e+05 -3.279990000000000000e+05
-1.774850000000000000e+05 -3.041640000000000000e+05
-1.879190000000000000e+05 -2.806350000000000000e+05
-1.939890000000000000e+05 -2.542760000000000000e+05
-1.935460000000000000e+05 -2.340550000000000000e+05
-1.912270000000000000e+05 -2.094020000000000000e+05
-1.851920000000000000e+05 -1.937510000000000000e+05
-1.794630000000000000e+05 -1.780650000000000000e+05
-1.699830000000000000e+05 -1.683470000000000000e+05
-1.591060000000000000e+05 -1.602660000000000000e+05
-1.492510000000000000e+05 -1.558660000000000000e+05
-1.425000000000000000e+05 -1.559690000000000000e+05
-1.394650000000000000e+05 -1.604360000000000000e+05
-1.348960000000000000e+05 -1.622430000000000000e+05
-1.341790000000000000e+05 -1.675630000000000000e+05
-1.355770000000000000e+05 -1.742120000000000000e+05
-1.390560000000000000e+05 -1.807930000000000000e+05
-1.454660000000000000e+05 -1.906480000000000000e+05
-1.566850000000000000e+05 -1.955920000000000000e+05
-1.664720000000000000e+05 -2.037080000000000000e+05
-1.807590000000000000e+05 -2.087550000000000000e+05
-1.961030000000000000e+05 -2.120960000000000000e+05
-2.113120000000000000e+05 -2.161880000000000000e+05
-2.320770000000000000e+05 -2.163930000000000000e+05
-2.525710000000000000e+05 -2.144150000000000000e+05
-2.769530000000000000e+05 -2.114140000000000000e+05
-2.998330000000000000e+05 -2.031630000000000000e+05
-3.241100000000000000e+05 -1.968190000000000000e+05
-3.480140000000000000e+05 -1.834190000000000000e+05
-3.710310000000000000e+05 -1.664370000000000000e+05
-3.948670000000000000e+05 -1.482630000000000000e+05
-4.162460000000000000e+05 -1.220400000000000000e+05
-4.380700000000000000e+05 -9.510200000000000000e+04
-4.539950000000000000e+05 -6.390200000000000000e+04
-4.681120000000000000e+05 -3.048500000000000000e+04
-4.771470000000000000e+05 5.217000000000000000e+03
-4.840350000000000000e+05 4.644300000000000000e+04
-4.850250000000000000e+05 8.490700000000000000e+04
-4.812390000000000000e+05 1.271890000000000000e+05
-4.735670000000000000e+05 1.682100000000000000e+05
-4.613600000000000000e+05 2.087200000000000000e+05
-4.424350000000000000e+05 2.487870000000000000e+05
-4.215660000000000000e+05 2.841120000000000000e+05
-3.946620000000000000e+05 3.185870000000000000e+05
-3.664960000000000000e+05 3.491060000000000000e+05
-3.331820000000000000e+05 3.756000000000000000e+05
-3.007530000000000000e+05 4.019250000000000000e+05
-2.655290000000000000e+05 4.185990000000000000e+05
-2.302370000000000000e+05 4.350010000000000000e+05
-1.938870000000000000e+05 4.476180000000000000e+05
-1.608110000000000000e+05 4.547100000000000000e+05
-1.261660000000000000e+05 4.611200000000000000e+05
-9.210100000000000000e+04 4.647690000000000000e+05
-5.885500000000000000e+04 4.619390000000000000e+05
-2.465300000000000000e+04 4.615980000000000000e+05
4.297000000000000000e+03 4.549150000000000000e+05
3.266700000000000000e+04 4.487780000000000000e+05
6.141300000000000000e+04 4.410020000000000000e+05
8.654300000000000000e+04 4.302950000000000000e+05
1.107200000000000000e+05 4.183950000000000000e+05
1.343500000000000000e+05 4.040060000000000000e+05
1.553550000000000000e+05 3.891720000000000000e+05
1.726430000000000000e+05 3.761120000000000000e+05
1.904090000000000000e+05 3.585510000000000000e+05
2.037760000000000000e+05 3.427980000000000000e+05
2.190520000000000000e+05 3.266010000000000000e+05
2.321120000000000000e+05 3.086990000000000000e+05
2.416590000000000000e+05 2.913070000000000000e+05
2.486160000000000000e+05 2.749410000000000000e+05
2.533890000000000000e+05 2.563560000000000000e+05
2.607220000000000000e+05 2.400230000000000000e+05
2.638930000000000000e+05 2.252920000000000000e+05
2.651880000000000000e+05 2.115840000000000000e+05
2.653240000000000000e+05 1.978080000000000000e+05
2.653930000000000000e+05 1.901700000000000000e+05
2.661090000000000000e+05 1.808270000000000000e+05
2.653580000000000000e+05 1.746550000000000000e+05
2.698940000000000000e+05 1.725070000000000000e+05
2.755890000000000000e+05 1.675970000000000000e+05
2.826130000000000000e+05 1.659600000000000000e+05
2.932170000000000000e+05 1.618680000000000000e+05
3.074710000000000000e+05 1.593440000000000000e+05
3.223380000000000000e+05 1.528660000000000000e+05
3.376490000000000000e+05 1.414770000000000000e+05
3.537430000000000000e+05 1.280070000000000000e+05
3.730100000000000000e+05 1.120830000000000000e+05
3.882170000000000000e+05 9.315900000000000000e+04
4.029490000000000000e+05 7.119800000000000000e+04
4.135870000000000000e+05 4.456800000000000000e+04
4.237830000000000000e+05 1.851600000000000000e+04
4.282150000000000000e+05 -1.145800000000000000e+04
4.323760000000000000e+05 -4.228300000000000000e+04
4.331600000000000000e+05 -7.147100000000000000e+04
4.294090000000000000e+05 -1.044450000000000000e+05
4.250110000000000000e+05 -1.362260000000000000e+05
4.153940000000000000e+05 -1.662330000000000000e+05
4.033920000000000000e+05 -1.972290000000000000e+05
3.924800000000000000e+05 -2.272700000000000000e+05
3.734860000000000000e+05 -2.546860000000000000e+05
3.525160000000000000e+05 -2.812490000000000000e+05
3.323630000000000000e+05 -3.073690000000000000e+05
3.103010000000000000e+05 -3.305220000000000000e+05
2.888190000000000000e+05 -3.535390000000000000e+05
2.623230000000000000e+05 -3.717480000000000000e+05
2.357270000000000000e+05 -3.908430000000000000e+05
2.057880000000000000e+05 -4.067680000000000000e+05
1.780310000000000000e+05 -4.184970000000000000e+05
1.499670000000000000e+05 -4.288630000000000000e+05
1.189030000000000000e+05 -4.380370000000000000e+05
8.804400000000000000e+04 -4.436630000000000000e+05
5.970800000000000000e+04 -4.492550000000000000e+05
3.072300000000000000e+04 -4.533120000000000000e+05
-3.400000000000000000e+01 -4.534140000000000000e+05
-2.792700000000000000e+04 -4.519830000000000000e+05
-5.817200000000000000e+04 -4.475840000000000000e+05
-8.460000000000000000e+04 -4.445830000000000000e+05
-1.119810000000000000e+05 -4.370480000000000000e+05
-1.384080000000000000e+05 -4.288980000000000000e+05
-1.640160000000000000e+05 -4.182930000000000000e+05
-1.884990000000000000e+05 -4.065290000000000000e+05
-2.130510000000000000e+05 -3.921730000000000000e+05
