-4.917100000000000000e+04 4.695500000000000000e+04
-4.675000000000000000e+04 5.189900000000000000e+04
-4.398800000000000000e+04 5.472800000000000000e+04
-3.866800000000000000e+04 5.759300000000000000e+04
-3.205300000000000000e+04 6.311700000000000000e+04
-3.106500000000000000e+04 6.731200000000000000e+04
-2.642700000000000000e+04 7.532400000000000000e+04
-2.090300000000000000e+04 7.651800000000000000e+04
-1.254900000000000000e+04 8.238300000000000000e+04
-3.546000000000000000e+03 8.552000000000000000e+04
5.046000000000000000e+03 9.026100000000000000e+04
1.779900000000000000e+04 9.145300000000000000e+04
3.277000000000000000e+04 9.326100000000000000e+04
4.845500000000000000e+04 9.073700000000000000e+04
6.342400000000000000e+04 8.504400000000000000e+04
7.767800000000000000e+04 7.805200000000000000e+04
9.172600000000000000e+04 6.625500000000000000e+04
1.033540000000000000e+05 5.507000000000000000e+04
1.142320000000000000e+05 4.422600000000000000e+04
1.214260000000000000e+05 3.140600000000000000e+04
1.243250000000000000e+05 1.619700000000000000e+04
1.268140000000000000e+05 4.433000000000000000e+03
1.280080000000000000e+05 -9.445000000000000000e+03
1.276330000000000000e+05 -2.182300000000000000e+04
1.214610000000000000e+05 -3.164400000000000000e+04
1.167210000000000000e+05 -4.364700000000000000e+04
1.077190000000000000e+05 -5.145600000000000000e+04
9.991000000000000000e+04 -6.461800000000000000e+04
9.087400000000000000e+04 -7.631400000000000000e+04
7.917800000000000000e+04 -8.354200000000000000e+04
6.574300000000000000e+04 -9.107900000000000000e+04
5.179600000000000000e+04 -1.007630000000000000e+05
3.652000000000000000e+04 -1.080940000000000000e+05
1.943700000000000000e+04 -1.121180000000000000e+05
5.831000000000000000e+03 -1.169250000000000000e+05
-1.040000000000000000e+04 -1.166870000000000000e+05
-2.475700000000000000e+04 -1.109240000000000000e+05
-3.709900000000000000e+04 -1.056730000000000000e+05
-4.654500000000000000e+04 -9.486300000000000000e+04
-5.500200000000000000e+04 -8.644000000000000000e+04
-6.161700000000000000e+04 -7.539300000000000000e+04
-6.925600000000000000e+04 -6.724400000000000000e+04
-7.399500000000000000e+04 -6.035500000000000000e+04
-7.917800000000000000e+04 -5.155800000000000000e+04
-8.132600000000000000e+04 -4.709000000000000000e+04
-1.024680000000000000e+05 -4.422600000000000000e+04
-9.176000000000000000e+04 -2.523300000000000000e+04
-9.626200000000000000e+04 -2.383500000000000000e+04
-9.864900000000000000e+04 -1.820900000000000000e+04
-1.009000000000000000e+05 -1.295700000000000000e+04
-1.056380000000000000e+05 -9.241000000000000000e+03
-1.100720000000000000e+05 -1.944000000000000000e+03
-1.128340000000000000e+05 2.592000000000000000e+03
-1.164820000000000000e+05 1.149100000000000000e+04
-1.196880000000000000e+05 1.824300000000000000e+04
-1.193810000000000000e+05 2.676800000000000000e+04
-1.204040000000000000e+05 3.682700000000000000e+04
-1.088770000000000000e+05 6.165100000000000000e+04
-1.033210000000000000e+05 6.826600000000000000e+04
-9.397700000000000000e+04 8.286100000000000000e+04
-8.105300000000000000e+04 9.916000000000000000e+04
-7.160800000000000000e+04 1.119810000000000000e+05
-5.599000000000000000e+04 1.219380000000000000e+05
-3.982800000000000000e+04 1.257580000000000000e+05
-2.768900000000000000e+04 1.319300000000000000e+05
-1.476500000000000000e+04 1.321340000000000000e+05
-1.228000000000000000e+03 1.307020000000000000e+05
8.661000000000000000e+03 1.318950000000000000e+05
1.466200000000000000e+04 1.307690000000000000e+05
2.475500000000000000e+04 1.265080000000000000e+05
3.369000000000000000e+04 1.249040000000000000e+05
4.289700000000000000e+04 1.214260000000000000e+05
5.766200000000000000e+04 1.181530000000000000e+05
7.685800000000000000e+04 1.179480000000000000e+05
1.031160000000000000e+05 1.149130000000000000e+05
1.196880000000000000e+05 1.116410000000000000e+05
1.425340000000000000e+05 1.035590000000000000e+05
1.752350000000000000e+05 1.000810000000000000e+05
2.046280000000000000e+05 9.380700000000000000e+04
2.297930000000000000e+05 8.681500000000000000e+04
2.493320000000000000e+05 7.808700000000000000e+04
2.647450000000000000e+05 6.516300000000000000e+04
2.745320000000000000e+05 4.593100000000000000e+04
2.816920000000000000e+05 2.175500000000000000e+04
2.814530000000000000e+05 -1.087800000000000000e+04
2.752130000000000000e+05 -4.637500000000000000e+04
2.643360000000000000e+05 -8.725900000000000000e+04
2.499120000000000000e+05 -1.252800000000000000e+05
2.273040000000000000e+05 -1.590720000000000000e+05
1.980810000000000000e+05 -1.906470000000000000e+05
1.637780000000000000e+05 -2.201090000000000000e+05
1.259270000000000000e+05 -2.470130000000000000e+05
4.385200000000000000e+04 -2.721780000000000000e+05
1.636000000000000000e+03 -2.898420000000000000e+05
-2.744900000000000000e+04 -3.025610000000000000e+05
-5.520600000000000000e+04 -3.051860000000000000e+05
-8.033800000000000000e+04 -3.050160000000000000e+05
-1.076850000000000000e+05 -3.181780000000000000e+05
-1.368730000000000000e+05 -2.739170000000000000e+05
-1.726100000000000000e+05 -2.282930000000000000e+05
-2.136310000000000000e+05 -1.827030000000000000e+05
-2.609940000000000000e+05 -1.464550000000000000e+05
-3.055950000000000000e+05 -1.181190000000000000e+05
-3.371370000000000000e+05 -1.042070000000000000e+05
-3.508450000000000000e+05 -8.545100000000000000e+04
-3.535730000000000000e+05 -6.393500000000000000e+04
-3.444000000000000000e+05 -3.781600000000000000e+04
-3.323640000000000000e+05 -1.016100000000000000e+04
-3.179740000000000000e+05 1.957200000000000000e+04
-3.015380000000000000e+05 4.347600000000000000e+04
-2.823400000000000000e+05 7.044900000000000000e+04
-2.618810000000000000e+05 9.056800000000000000e+04
-2.414890000000000000e+05 1.124590000000000000e+05
-2.203830000000000000e+05 1.311450000000000000e+05
-1.963080000000000000e+05 1.515700000000000000e+05
-1.718250000000000000e+05 1.745190000000000000e+05
-1.517410000000000000e+05 2.035710000000000000e+05
-1.374190000000000000e+05 2.363740000000000000e+05
-1.362600000000000000e+05 2.604830000000000000e+05
-1.346910000000000000e+05 2.827830000000000000e+05
-1.327470000000000000e+05 2.922970000000000000e+05
-1.285190000000000000e+05 3.012310000000000000e+05
-1.131750000000000000e+05 3.035500000000000000e+05
-8.995400000000000000e+04 3.075730000000000000e+05
-6.148100000000000000e+04 3.100630000000000000e+05
-1.933400000000000000e+04 3.154160000000000000e+05
2.618800000000000000e+04 3.212810000000000000e+05
7.355100000000000000e+04 3.269750000000000000e+05
1.215290000000000000e+05 3.277940000000000000e+05
1.711430000000000000e+05 3.204290000000000000e+05
2.224280000000000000e+05 2.991510000000000000e+05
2.702340000000000000e+05 2.726900000000000000e+05
3.179050000000000000e+05 2.371580000000000000e+05
3.559930000000000000e+05 1.951830000000000000e+05
3.886950000000000000e+05 1.536840000000000000e+05
4.165540000000000000e+05 1.102760000000000000e+05
4.381040000000000000e+05 7.000500000000000000e+04
4.422300000000000000e+05 3.188200000000000000e+04
4.387860000000000000e+05 -1.152500000000000000e+04
4.277380000000000000e+05 -5.329700000000000000e+04
4.085060000000000000e+05 -1.026380000000000000e+05
3.827620000000000000e+05 -1.584930000000000000e+05
3.583800000000000000e+05 -2.192900000000000000e+05
3.375460000000000000e+05 -2.772250000000000000e+05
3.138820000000000000e+05 -3.337950000000000000e+05
2.871480000000000000e+05 -3.821140000000000000e+05
2.528440000000000000e+05 -4.226230000000000000e+05
2.091980000000000000e+05 -4.527330000000000000e+05
1.598220000000000000e+05 -4.785450000000000000e+05
1.014790000000000000e+05 -4.942650000000000000e+05
3.672500000000000000e+04 -5.051770000000000000e+05
-3.164400000000000000e+04 -5.030290000000000000e+05
-1.000130000000000000e+05 -4.951520000000000000e+05
-1.702560000000000000e+05 -4.682140000000000000e+05
-2.363400000000000000e+05 -4.282160000000000000e+05
-2.989800000000000000e+05 -3.781590000000000000e+05
-3.539470000000000000e+05 -3.121430000000000000e+05
-4.053020000000000000e+05 -2.348060000000000000e+05
-4.434230000000000000e+05 -1.569580000000000000e+05
-4.728860000000000000e+05 -8.129200000000000000e+04
-4.858430000000000000e+05 -1.387800000000000000e+04
-4.837970000000000000e+05 4.719300000000000000e+04
-4.657580000000000000e+05 9.796600000000000000e+04
-4.383090000000000000e+05 1.383730000000000000e+05
-3.996740000000000000e+05 1.750980000000000000e+05
-3.569490000000000000e+05 2.055480000000000000e+05
-3.109150000000000000e+05 2.324530000000000000e+05
-2.662120000000000000e+05 2.547200000000000000e+05
-2.281910000000000000e+05 2.741220000000000000e+05
-1.884310000000000000e+05 2.869430000000000000e+05
-1.534450000000000000e+05 2.940700000000000000e+05
-1.192440000000000000e+05 2.989460000000000000e+05
-8.712300000000000000e+04 3.012650000000000000e+05
-5.711600000000000000e+04 3.038900000000000000e+05
-2.908600000000000000e+04 3.055620000000000000e+05
-2.284000000000000000e+03 3.046410000000000000e+05
2.134600000000000000e+04 2.985710000000000000e+05
4.180600000000000000e+04 2.931840000000000000e+05
6.165200000000000000e+04 2.836350000000000000e+05
8.146200000000000000e+04 2.704050000000000000e+05
1.014100000000000000e+05 2.524700000000000000e+05
1.201990000000000000e+05 2.321800000000000000e+05
1.447840000000000000e+05 2.107660000000000000e+05
1.727450000000000000e+05 1.896930000000000000e+05
2.006390000000000000e+05 1.649360000000000000e+05
2.284980000000000000e+05 1.468300000000000000e+05
2.543790000000000000e+05 1.278040000000000000e+05
2.807370000000000000e+05 1.081970000000000000e+05
3.025270000000000000e+05 8.395200000000000000e+04
3.286810000000000000e+05 5.704800000000000000e+04
3.511180000000000000e+05 2.748400000000000000e+04
3.730770000000000000e+05 -2.693000000000000000e+03
3.934680000000000000e+05 -4.279500000000000000e+04
4.088140000000000000e+05 -8.835100000000000000e+04
4.190430000000000000e+05 -1.357830000000000000e+05
4.193160000000000000e+05 -1.892160000000000000e+05
4.094270000000000000e+05 -2.474560000000000000e+05
3.873310000000000000e+05 -3.091080000000000000e+05
3.504700000000000000e+05 -3.731110000000000000e+05
3.009230000000000000e+05 -4.363650000000000000e+05
2.367500000000000000e+05 -4.875480000000000000e+05
1.615950000000000000e+05 -5.258750000000000000e+05
7.757600000000000000e+04 -5.505630000000000000e+05
-9.513000000000000000e+03 -5.569400000000000000e+05
-9.765900000000000000e+04 -5.444930000000000000e+05
-1.820200000000000000e+05 -5.123370000000000000e+05
-2.604820000000000000e+05 -4.670890000000000000e+05
-3.322270000000000000e+05 -4.101780000000000000e+05
-3.940140000000000000e+05 -3.442980000000000000e+05
-4.450600000000000000e+05 -2.742580000000000000e+05
-4.802160000000000000e+05 -2.030600000000000000e+05
-5.036090000000000000e+05 -1.312810000000000000e+05
-5.171450000000000000e+05 -6.015100000000000000e+04
-5.215110000000000000e+05 8.729000000000000000e+03
-5.138720000000000000e+05 7.559800000000000000e+04
-5.000620000000000000e+05 1.411020000000000000e+05
-4.809320000000000000e+05 1.995810000000000000e+05
-4.532780000000000000e+05 2.517180000000000000e+05
-4.199980000000000000e+05 2.975140000000000000e+05
-3.806130000000000000e+05 3.333180000000000000e+05
-3.356370000000000000e+05 3.607680000000000000e+05
-2.802250000000000000e+05 3.830690000000000000e+05
-2.213020000000000000e+05 3.956170000000000000e+05
-1.584920000000000000e+05 4.041420000000000000e+05
-9.401000000000000000e+04 4.017210000000000000e+05
-3.457600000000000000e+04 3.906390000000000000e+05
2.441500000000000000e+04 3.727020000000000000e+05
7.450600000000000000e+04 3.481510000000000000e+05
1.148800000000000000e+05 3.210420000000000000e+05
1.453640000000000000e+05 2.880340000000000000e+05
1.700860000000000000e+05 2.528100000000000000e+05
1.847150000000000000e+05 2.222920000000000000e+05
1.937850000000000000e+05 1.908860000000000000e+05
1.979110000000000000e+05 1.678010000000000000e+05
1.993440000000000000e+05 1.457050000000000000e+05
1.983880000000000000e+05 1.322360000000000000e+05
1.971610000000000000e+05 1.193470000000000000e+05
1.936830000000000000e+05 1.089800000000000000e+05
1.948760000000000000e+05 9.933100000000000000e+04
1.972640000000000000e+05 9.094200000000000000e+04
2.029230000000000000e+05 7.941700000000000000e+04
2.124710000000000000e+05 6.956200000000000000e+04
2.262810000000000000e+05 5.680900000000000000e+04
2.386580000000000000e+05 4.091900000000000000e+04
2.558790000000000000e+05 2.724600000000000000e+04
2.717350000000000000e+05 1.019600000000000000e+04
2.850340000000000000e+05 -7.638000000000000000e+03
2.985710000000000000e+05 -2.683700000000000000e+04
3.098580000000000000e+05 -4.804500000000000000e+04
3.168820000000000000e+05 -7.576800000000000000e+04
3.220650000000000000e+05 -1.027750000000000000e+05
3.249970000000000000e+05 -1.332590000000000000e+05
3.230890000000000000e+05 -1.661300000000000000e+05
3.183830000000000000e+05 -2.007740000000000000e+05
3.063800000000000000e+05 -2.383850000000000000e+05
2.912400000000000000e+05 -2.750760000000000000e+05
2.688370000000000000e+05 -3.124830000000000000e+05
2.386250000000000000e+05 -3.494810000000000000e+05
2.002630000000000000e+05 -3.805460000000000000e+05
1.542980000000000000e+05 -4.102120000000000000e+05
1.017180000000000000e+05 -4.386840000000000000e+05
4.593100000000000000e+04 -4.607460000000000000e+05
-1.749300000000000000e+04 -4.746920000000000000e+05
-8.320200000000000000e+04 -4.791600000000000000e+05
-1.508540000000000000e+05 -4.757840000000000000e+05
-2.223590000000000000e+05 -4.631670000000000000e+05
-2.925350000000000000e+05 -4.360930000000000000e+05
-3.601880000000000000e+05 -3.993000000000000000e+05
-4.275340000000000000e+05 -3.490030000000000000e+05
-4.871040000000000000e+05 -2.863630000000000000e+05
-5.377750000000000000e+05 -2.154380000000000000e+05
-5.785920000000000000e+05 -1.373850000000000000e+05
-6.026670000000000000e+05 -4.944300000000000000e+04
-6.098270000000000000e+05 3.989700000000000000e+04
-5.983700000000000000e+05 1.286210000000000000e+05
-5.680220000000000000e+05 2.125050000000000000e+05
-5.248860000000000000e+05 2.873180000000000000e+05
-4.678040000000000000e+05 3.542550000000000000e+05
-4.005950000000000000e+05 4.055390000000000000e+05
-3.264300000000000000e+05 4.421280000000000000e+05
-2.518900000000000000e+05 4.657250000000000000e+05
-1.780300000000000000e+05 4.784780000000000000e+05
-1.055020000000000000e+05 4.752720000000000000e+05
-3.692900000000000000e+04 4.627920000000000000e+05
2.574400000000000000e+04 4.404230000000000000e+05
8.610100000000000000e+04 4.142350000000000000e+05
1.342820000000000000e+05 3.797610000000000000e+05
1.774520000000000000e+05 3.445030000000000000e+05
2.149260000000000000e+05 3.065160000000000000e+05
2.419320000000000000e+05 2.678820000000000000e+05
2.611650000000000000e+05 2.303050000000000000e+05
2.725540000000000000e+05 1.913970000000000000e+05
2.769190000000000000e+05 1.574350000000000000e+05
2.791340000000000000e+05 1.241210000000000000e+05
2.747700000000000000e+05 9.326000000000000000e+04
2.689050000000000000e+05 7.034600000000000000e+04
2.611310000000000000e+05 4.777300000000000000e+04
2.533560000000000000e+05 3.372400000000000000e+04
2.470820000000000000e+05 1.953800000000000000e+04
2.412500000000000000e+05 1.016100000000000000e+04
2.350790000000000000e+05 -5.110000000000000000e+02
2.326580000000000000e+05 -1.091200000000000000e+04
2.328960000000000000e+05 -2.196000000000000000e+04
2.360670000000000000e+05 -3.444000000000000000e+04
2.413520000000000000e+05 -5.067100000000000000e+04
2.468090000000000000e+05 -6.843700000000000000e+04
2.572430000000000000e+05 -9.240900000000000000e+04
2.630400000000000000e+05 -1.150850000000000000e+05
2.687010000000000000e+05 -1.372830000000000000e+05
2.710530000000000000e+05 -1.641870000000000000e+05
2.661080000000000000e+05 -1.902390000000000000e+05
2.581630000000000000e+05 -2.210310000000000000e+05
2.441150000000000000e+05 -2.508670000000000000e+05
2.242350000000000000e+05 -2.809420000000000000e+05
1.972620000000000000e+05 -3.131320000000000000e+05
1.651750000000000000e+05 -3.406840000000000000e+05
1.272240000000000000e+05 -3.664630000000000000e+05
7.890600000000000000e+04 -3.892740000000000000e+05
2.625700000000000000e+04 -4.036300000000000000e+05
-3.328100000000000000e+04 -4.133480000000000000e+05
-1.009670000000000000e+05 -4.184640000000000000e+05
-1.693350000000000000e+05 -4.236460000000000000e+05
-2.402620000000000000e+05 -4.188040000000000000e+05
-3.049140000000000000e+05 -3.977650000000000000e+05
-3.638030000000000000e+05 -3.634610000000000000e+05
-4.183610000000000000e+05 -3.087660000000000000e+05
-4.691690000000000000e+05 -2.449330000000000000e+05
-5.103610000000000000e+05 -1.744160000000000000e+05
-5.381170000000000000e+05 -1.010690000000000000e+05
-5.575530000000000000e+05 -2.738200000000000000e+04
-5.652590000000000000e+05 4.726100000000000000e+04
-5.571450000000000000e+05 1.186650000000000000e+05
-5.390370000000000000e+05 1.887720000000000000e+05
-5.105650000000000000e+05 2.513100000000000000e+05
-4.712830000000000000e+05 3.098230000000000000e+05
-4.222820000000000000e+05 3.655070000000000000e+05
-3.686790000000000000e+05 4.089840000000000000e+05
-3.015040000000000000e+05 4.451960000000000000e+05
-2.380110000000000000e+05 4.738060000000000000e+05
-1.664040000000000000e+05 4.930040000000000000e+05
-9.213500000000000000e+04 5.001990000000000000e+05
-1.647000000000000000e+04 4.964140000000000000e+05
5.841100000000000000e+04 4.815810000000000000e+05
1.282460000000000000e+05 4.560060000000000000e+05
1.949100000000000000e+05 4.229640000000000000e+05
2.536290000000000000e+05 3.812610000000000000e+05
3.026970000000000000e+05 3.334200000000000000e+05
3.410580000000000000e+05 2.839080000000000000e+05
3.658830000000000000e+05 2.307140000000000000e+05
3.822840000000000000e+05 1.777580000000000000e+05
3.877400000000000000e+05 1.326460000000000000e+05
3.867850000000000000e+05 8.749800000000000000e+04
3.795560000000000000e+05 4.784200000000000000e+04
3.684740000000000000e+05 1.084400000000000000e+04
3.531290000000000000e+05 -1.865200000000000000e+04
3.359440000000000000e+05 -4.671600000000000000e+04
3.177680000000000000e+05 -6.700400000000000000e+04
3.016750000000000000e+05 -8.872600000000000000e+04
2.848640000000000000e+05 -1.034570000000000000e+05
2.697910000000000000e+05 -1.192790000000000000e+05
2.550600000000000000e+05 -1.317240000000000000e+05
2.424780000000000000e+05 -1.411360000000000000e+05
2.290770000000000000e+05 -1.550820000000000000e+05
2.179260000000000000e+05 -1.687560000000000000e+05
2.051060000000000000e+05 -1.808610000000000000e+05
1.934100000000000000e+05 -1.961040000000000000e+05
1.740070000000000000e+05 -2.103910000000000000e+05
1.570600000000000000e+05 -2.262130000000000000e+05
1.364980000000000000e+05 -2.397500000000000000e+05
1.113670000000000000e+05 -2.559810000000000000e+05
8.333800000000000000e+04 -2.692460000000000000e+05
4.838600000000000000e+04 -2.823400000000000000e+05
1.336700000000000000e+04 -2.927400000000000000e+05
-2.775700000000000000e+04 -2.967970000000000000e+05
-6.905000000000000000e+04 -3.000380000000000000e+05
-1.112320000000000000e+05 -2.987760000000000000e+05
-1.513660000000000000e+05 -2.931150000000000000e+05
-1.912280000000000000e+05 -2.813850000000000000e+05
-2.278150000000000000e+05 -2.657000000000000000e+05
-2.629380000000000000e+05 -2.504230000000000000e+05
-2.956380000000000000e+05 -2.290430000000000000e+05
-3.236680000000000000e+05 -2.065380000000000000e+05
-3.512880000000000000e+05 -1.803830000000000000e+05
-3.720550000000000000e+05 -1.512630000000000000e+05
-3.917300000000000000e+05 -1.183920000000000000e+05
-4.086090000000000000e+05 -8.453100000000000000e+04
-4.187700000000000000e+05 -4.756800000000000000e+04
-4.272950000000000000e+05 -7.740000000000000000e+03
-4.271250000000000000e+05 3.542800000000000000e+04
-4.211230000000000000e+05 8.125800000000000000e+04
-4.126660000000000000e+05 1.260290000000000000e+05
-3.919690000000000000e+05 1.711440000000000000e+05
-3.620640000000000000e+05 2.165970000000000000e+05
-3.267030000000000000e+05 2.562540000000000000e+05
-2.806690000000000000e+05 2.920240000000000000e+05
-2.304070000000000000e+05 3.217580000000000000e+05
-1.729170000000000000e+05 3.435820000000000000e+05
-1.147100000000000000e+05 3.547650000000000000e+05
-5.479800000000000000e+04 3.579720000000000000e+05
5.251000000000000000e+03 3.552430000000000000e+05
5.858200000000000000e+04 3.414670000000000000e+05
1.063210000000000000e+05 3.213490000000000000e+05
1.497970000000000000e+05 2.984690000000000000e+05
1.847820000000000000e+05 2.701670000000000000e+05
2.138350000000000000e+05 2.425800000000000000e+05
2.385560000000000000e+05 2.106640000000000000e+05
2.564250000000000000e+05 1.804180000000000000e+05
2.704390000000000000e+05 1.514340000000000000e+05
2.806350000000000000e+05 1.184600000000000000e+05
2.876940000000000000e+05 9.244200000000000000e+04
2.904560000000000000e+05 6.543600000000000000e+04
2.918870000000000000e+05 4.463600000000000000e+04
2.881030000000000000e+05 2.069800000000000000e+04
2.839770000000000000e+05 2.390000000000000000e+02
2.748390000000000000e+05 -1.878900000000000000e+04
2.656310000000000000e+05 -3.597500000000000000e+04
2.540040000000000000e+05 -5.350200000000000000e+04
2.410460000000000000e+05 -6.911900000000000000e+04
2.301690000000000000e+05 -8.801000000000000000e+04
2.182330000000000000e+05 -1.037290000000000000e+05
2.049010000000000000e+05 -1.179820000000000000e+05
1.907840000000000000e+05 -1.331570000000000000e+05
1.772470000000000000e+05 -1.485360000000000000e+05
1.629250000000000000e+05 -1.645960000000000000e+05
1.468990000000000000e+05 -1.742130000000000000e+05
1.298150000000000000e+05 -1.809290000000000000e+05
1.147430000000000000e+05 -1.865220000000000000e+05
9.561400000000000000e+04 -1.925910000000000000e+05
7.362000000000000000e+04 -1.992750000000000000e+05
5.176200000000000000e+04 -2.036390000000000000e+05
2.840500000000000000e+04 -2.082770000000000000e+05
2.114000000000000000e+03 -2.113120000000000000e+05
-2.550600000000000000e+04 -2.112440000000000000e+05
-5.316100000000000000e+04 -2.096070000000000000e+05
-8.562300000000000000e+04 -2.059590000000000000e+05
-1.179830000000000000e+05 -1.956940000000000000e+05
-1.495590000000000000e+05 -1.873070000000000000e+05
-1.823270000000000000e+05 -1.748940000000000000e+05
-2.120280000000000000e+05 -1.614930000000000000e+05
-2.361360000000000000e+05 -1.441370000000000000e+05
-2.569370000000000000e+05 -1.251430000000000000e+05
-2.713940000000000000e+05 -1.057070000000000000e+05
-2.794760000000000000e+05 -8.118900000000000000e+04
-2.781120000000000000e+05 -5.674100000000000000e+04
-2.745310000000000000e+05 -2.901800000000000000e+04
-2.636880000000000000e+05 -1.296000000000000000e+03
-2.494340000000000000e+05 2.745000000000000000e+04
-2.295540000000000000e+05 5.442200000000000000e+04
-2.106640000000000000e+05 8.494000000000000000e+04
-1.950120000000000000e+05 1.123220000000000000e+05
-1.804520000000000000e+05 1.398400000000000000e+05
-1.652090000000000000e+05 1.649710000000000000e+05
-1.497630000000000000e+05 1.937510000000000000e+05
-1.325430000000000000e+05 2.230760000000000000e+05
-1.038310000000000000e+05 2.341230000000000000e+05
-7.464200000000000000e+04 2.440800000000000000e+05
-4.422600000000000000e+04 2.519580000000000000e+05
-8.388000000000000000e+03 2.561170000000000000e+05
2.151700000000000000e+04 2.578570000000000000e+05
5.646800000000000000e+04 2.528780000000000000e+05
8.957800000000000000e+04 2.443880000000000000e+05
1.238470000000000000e+05 2.327950000000000000e+05
1.538900000000000000e+05 2.153360000000000000e+05
1.812360000000000000e+05 1.940240000000000000e+05
2.053790000000000000e+05 1.654490000000000000e+05
2.243030000000000000e+05 1.366010000000000000e+05
2.350110000000000000e+05 1.003870000000000000e+05
2.404320000000000000e+05 6.925500000000000000e+04
2.414890000000000000e+05 4.051000000000000000e+04
2.340900000000000000e+05 1.329900000000000000e+04
2.226320000000000000e+05 -1.340100000000000000e+04
2.105960000000000000e+05 -3.256500000000000000e+04
1.943990000000000000e+05 -4.941000000000000000e+04
1.801100000000000000e+05 -6.287800000000000000e+04
1.636410000000000000e+05 -7.338100000000000000e+04
1.485350000000000000e+05 -7.911000000000000000e+04
1.353390000000000000e+05 -8.466800000000000000e+04
1.195850000000000000e+05 -9.029500000000000000e+04
1.081960000000000000e+05 -9.261300000000000000e+04
1.009330000000000000e+05 -9.452200000000000000e+04
9.199900000000000000e+04 -9.939900000000000000e+04
8.460000000000000000e+04 -1.023990000000000000e+05
7.822300000000000000e+04 -1.043430000000000000e+05
6.874400000000000000e+04 -1.090490000000000000e+05
6.182100000000000000e+04 -1.149470000000000000e+05
5.568400000000000000e+04 -1.212910000000000000e+05
4.402100000000000000e+04 -1.283150000000000000e+05
3.573600000000000000e+04 -1.338040000000000000e+05
2.288000000000000000e+04 -1.390560000000000000e+05
8.593000000000000000e+03 -1.452960000000000000e+05
-6.138000000000000000e+03 -1.494560000000000000e+05
-2.458600000000000000e+04 -1.536500000000000000e+05
-4.276000000000000000e+04 -1.524560000000000000e+05
-6.240100000000000000e+04 -1.511610000000000000e+05
-8.313300000000000000e+04 -1.506830000000000000e+05
-1.027400000000000000e+05 -1.434550000000000000e+05
-1.237450000000000000e+05 -1.354750000000000000e+05
-1.409650000000000000e+05 -1.251100000000000000e+05
-1.618680000000000000e+05 -1.129700000000000000e+05
-1.802820000000000000e+05 -9.861400000000000000e+04
