-1.698200000000000000e+04 4.330600000000000000e+04
-1.459500000000000000e+04 4.146500000000000000e+04
-9.207000000000000000e+03 4.316900000000000000e+04
-1.040100000000000000e+04 4.698800000000000000e+04
-8.286000000000000000e+03 5.350100000000000000e+04
2.865000000000000000e+03 5.837700000000000000e+04
1.374100000000000000e+04 6.761900000000000000e+04
3.130300000000000000e+04 6.942600000000000000e+04
5.135400000000000000e+04 6.219700000000000000e+04
7.416600000000000000e+04 5.472900000000000000e+04
9.919400000000000000e+04 4.088500000000000000e+04
1.197220000000000000e+05 2.404000000000000000e+04
1.312130000000000000e+05 -2.050000000000000000e+02
1.329180000000000000e+05 -3.028000000000000000e+04
1.200290000000000000e+05 -6.570800000000000000e+04
9.759100000000000000e+04 -9.824000000000000000e+04
6.291300000000000000e+04 -1.223130000000000000e+05
2.073200000000000000e+04 -1.358850000000000000e+05
-1.899300000000000000e+04 -1.379310000000000000e+05
-5.435300000000000000e+04 -1.290640000000000000e+05
-8.282600000000000000e+04 -1.056050000000000000e+05
-1.076500000000000000e+05 -7.631300000000000000e+04
-1.305640000000000000e+05 -4.654500000000000000e+04
-1.598900000000000000e+05 -4.296000000000000000e+03
-1.399420000000000000e+05 1.408300000000000000e+04
-1.270880000000000000e+05 3.710000000000000000e+04
-1.096620000000000000e+05 5.974200000000000000e+04
-8.644100000000000000e+04 7.344900000000000000e+04
-6.226500000000000000e+04 7.883800000000000000e+04
-2.946100000000000000e+04 8.241700000000000000e+04
-6.800000000000000000e+01 7.870000000000000000e+04
6.581000000000000000e+03 7.801900000000000000e+04
7.570000000000000000e+03 7.897400000000000000e+04
7.500000000000000000e+02 7.740500000000000000e+04
-3.477000000000000000e+03 7.409700000000000000e+04
3.239000000000000000e+03 7.900800000000000000e+04
1.960700000000000000e+04 8.712300000000000000e+04
4.654600000000000000e+04 9.609100000000000000e+04
8.026900000000000000e+04 9.970600000000000000e+04
1.368050000000000000e+05 9.677400000000000000e+04
1.897960000000000000e+05 8.647500000000000000e+04
2.272020000000000000e+05 7.941600000000000000e+04
2.390690000000000000e+05 4.852300000000000000e+04
2.417970000000000000e+05 -1.503800000000000000e+04
2.459560000000000000e+05 -8.913500000000000000e+04
2.343970000000000000e+05 -1.614260000000000000e+05
1.938190000000000000e+05 -2.332720000000000000e+05
7.563200000000000000e+04 -2.978550000000000000e+05
-2.185700000000000000e+04 -3.524480000000000000e+05
-1.182890000000000000e+05 -3.941510000000000000e+05
-2.348400000000000000e+05 -2.883750000000000000e+05
-3.547670000000000000e+05 -1.823950000000000000e+05
-4.432190000000000000e+05 -1.046840000000000000e+05
-4.531410000000000000e+05 -3.471300000000000000e+04
-4.013800000000000000e+05 5.462700000000000000e+04
-3.304880000000000000e+05 1.513310000000000000e+05
-2.580270000000000000e+05 2.178930000000000000e+05
-1.792250000000000000e+05 2.595280000000000000e+05
-9.247600000000000000e+04 2.789640000000000000e+05
-2.543800000000000000e+04 2.958100000000000000e+05
1.808000000000000000e+03 2.949900000000000000e+05
1.074100000000000000e+04 2.598000000000000000e+05
3.157600000000000000e+04 2.100500000000000000e+05
6.049100000000000000e+04 1.720290000000000000e+05
9.974000000000000000e+04 1.607430000000000000e+05
1.326110000000000000e+05 1.659940000000000000e+05
1.670850000000000000e+05 1.720300000000000000e+05
2.160510000000000000e+05 1.628570000000000000e+05
2.798170000000000000e+05 1.386130000000000000e+05
3.418080000000000000e+05 9.622800000000000000e+04
3.733160000000000000e+05 2.881400000000000000e+04
3.676560000000000000e+05 -7.696200000000000000e+04
3.468890000000000000e+05 -2.153350000000000000e+05
3.195770000000000000e+05 -3.405120000000000000e+05
2.591870000000000000e+05 -4.299890000000000000e+05
1.634710000000000000e+05 -4.790570000000000000e+05
3.106400000000000000e+04 -5.002330000000000000e+05
-1.118790000000000000e+05 -4.901400000000000000e+05
-2.516500000000000000e+05 -4.340120000000000000e+05
-3.839550000000000000e+05 -3.287820000000000000e+05
-4.963800000000000000e+05 -1.856690000000000000e+05
-5.688050000000000000e+05 -2.557400000000000000e+04
-5.742280000000000000e+05 1.199600000000000000e+05
-4.958000000000000000e+05 2.513440000000000000e+05
-3.634610000000000000e+05 3.661210000000000000e+05
-2.224280000000000000e+05 4.421280000000000000e+05
-8.667900000000000000e+04 4.614960000000000000e+05
3.103000000000000000e+04 4.247710000000000000e+05
1.334980000000000000e+05 3.558920000000000000e+05
2.002630000000000000e+05 2.741900000000000000e+05
2.287030000000000000e+05 1.945690000000000000e+05
2.310890000000000000e+05 1.194490000000000000e+05
2.263840000000000000e+05 5.046600000000000000e+04
2.301000000000000000e+05 3.853000000000000000e+03
2.423410000000000000e+05 -1.868600000000000000e+04
2.488890000000000000e+05 -2.485800000000000000e+04
2.545840000000000000e+05 -3.996400000000000000e+04
2.619830000000000000e+05 -7.767800000000000000e+04
2.778050000000000000e+05 -1.367370000000000000e+05
2.830910000000000000e+05 -2.131530000000000000e+05
2.590160000000000000e+05 -3.014010000000000000e+05
1.894890000000000000e+05 -3.979020000000000000e+05
7.655200000000000000e+04 -4.693400000000000000e+05
-6.540100000000000000e+04 -4.938560000000000000e+05
-2.165630000000000000e+05 -4.510280000000000000e+05
-3.602900000000000000e+05 -3.453550000000000000e+05
-4.724760000000000000e+05 -2.071860000000000000e+05
-5.348780000000000000e+05 -6.120800000000000000e+04
-5.468450000000000000e+05 7.992800000000000000e+04
-5.141800000000000000e+05 2.097440000000000000e+05
-4.526300000000000000e+05 3.174960000000000000e+05
-3.626090000000000000e+05 3.991970000000000000e+05
-2.466380000000000000e+05 4.508230000000000000e+05
-1.088440000000000000e+05 4.711460000000000000e+05
3.805400000000000000e+04 4.604040000000000000e+05
1.702910000000000000e+05 4.155640000000000000e+05
2.748720000000000000e+05 3.364220000000000000e+05
3.341700000000000000e+05 2.306800000000000000e+05
3.559940000000000000e+05 1.243590000000000000e+05
3.456620000000000000e+05 3.409800000000000000e+04
3.162340000000000000e+05 -3.178000000000000000e+04
2.738830000000000000e+05 -7.648500000000000000e+04
2.372270000000000000e+05 -1.025020000000000000e+05
2.145510000000000000e+05 -1.186980000000000000e+05
1.989340000000000000e+05 -1.249040000000000000e+05
1.896590000000000000e+05 -1.312480000000000000e+05
1.807940000000000000e+05 -1.406580000000000000e+05
1.709040000000000000e+05 -1.620720000000000000e+05
1.611170000000000000e+05 -1.912270000000000000e+05
1.466590000000000000e+05 -2.304070000000000000e+05
1.234040000000000000e+05 -2.732010000000000000e+05
7.737100000000000000e+04 -3.220310000000000000e+05
9.241000000000000000e+03 -3.693270000000000000e+05
-8.565700000000000000e+04 -4.028460000000000000e+05
-2.073560000000000000e+05 -4.079610000000000000e+05
-3.497540000000000000e+05 -3.643820000000000000e+05
-4.864910000000000000e+05 -2.644710000000000000e+05
-5.921300000000000000e+05 -1.090830000000000000e+05
-6.315820000000000000e+05 7.713200000000000000e+04
-5.938340000000000000e+05 2.669270000000000000e+05
-4.823650000000000000e+05 4.268850000000000000e+05
-3.247930000000000000e+05 5.268300000000000000e+05
-1.490810000000000000e+05 5.700680000000000000e+05
2.243800000000000000e+04 5.528130000000000000e+05
1.731210000000000000e+05 4.973010000000000000e+05
2.973100000000000000e+05 4.110300000000000000e+05
3.916610000000000000e+05 3.077090000000000000e+05
4.451970000000000000e+05 1.929320000000000000e+05
4.588710000000000000e+05 6.901600000000000000e+04
4.354450000000000000e+05 -4.760200000000000000e+04
3.825230000000000000e+05 -1.421590000000000000e+05
3.033110000000000000e+05 -2.036740000000000000e+05
2.226670000000000000e+05 -2.276110000000000000e+05
1.548440000000000000e+05 -2.312600000000000000e+05
1.102420000000000000e+05 -2.259740000000000000e+05
8.773600000000000000e+04 -2.126080000000000000e+05
7.034600000000000000e+04 -1.999910000000000000e+05
5.790000000000000000e+04 -1.957620000000000000e+05
3.652000000000000000e+04 -2.026160000000000000e+05
6.513000000000000000e+03 -2.240650000000000000e+05
-3.331500000000000000e+04 -2.511390000000000000e+05
-8.275800000000000000e+04 -2.735420000000000000e+05
-1.512290000000000000e+05 -2.833630000000000000e+05
-2.323170000000000000e+05 -2.731680000000000000e+05
-3.182800000000000000e+05 -2.338510000000000000e+05
-4.082000000000000000e+05 -1.664040000000000000e+05
-4.878550000000000000e+05 -7.310800000000000000e+04
-5.423110000000000000e+05 5.339900000000000000e+04
-5.544850000000000000e+05 1.989340000000000000e+05
-5.057230000000000000e+05 3.562660000000000000e+05
-3.952760000000000000e+05 4.995510000000000000e+05
-2.213710000000000000e+05 6.028030000000000000e+05
-1.227500000000000000e+04 6.471320000000000000e+05
2.146200000000000000e+05 6.186590000000000000e+05
4.152580000000000000e+05 5.167370000000000000e+05
5.634180000000000000e+05 3.621310000000000000e+05
6.407200000000000000e+05 1.798720000000000000e+05
6.444030000000000000e+05 -1.057000000000000000e+03
5.836040000000000000e+05 -1.567190000000000000e+05
4.822290000000000000e+05 -2.722800000000000000e+05
3.554130000000000000e+05 -3.469240000000000000e+05
2.210970000000000000e+05 -3.835450000000000000e+05
9.332900000000000000e+04 -3.805100000000000000e+05
-2.022100000000000000e+04 -3.474010000000000000e+05
-1.012740000000000000e+05 -2.910010000000000000e+05
-1.471040000000000000e+05 -2.316680000000000000e+05
-1.634030000000000000e+05 -1.767350000000000000e+05
-1.652450000000000000e+05 -1.383400000000000000e+05
-1.579120000000000000e+05 -1.193800000000000000e+05
-1.601980000000000000e+05 -1.109580000000000000e+05
-1.670180000000000000e+05 -1.082980000000000000e+05
-1.857370000000000000e+05 -1.079910000000000000e+05
-2.117210000000000000e+05 -1.007620000000000000e+05
-2.435350000000000000e+05 -8.610000000000000000e+04
-2.821360000000000000e+05 -5.578600000000000000e+04
-3.171560000000000000e+05 -1.398100000000000000e+04
-3.395590000000000000e+05 4.368100000000000000e+04
-3.430370000000000000e+05 1.127990000000000000e+05
-3.195770000000000000e+05 1.909200000000000000e+05
-2.685640000000000000e+05 2.688370000000000000e+05
-1.876460000000000000e+05 3.351590000000000000e+05
-7.423400000000000000e+04 3.854900000000000000e+05
5.831000000000000000e+04 4.017550000000000000e+05
1.983890000000000000e+05 3.852500000000000000e+05
3.266000000000000000e+05 3.283390000000000000e+05
4.297830000000000000e+05 2.390000000000000000e+05
4.932760000000000000e+05 1.271220000000000000e+05
5.078030000000000000e+05 7.536000000000000000e+03
4.770460000000000000e+05 -1.123910000000000000e+05
4.019930000000000000e+05 -2.197000000000000000e+05
2.967640000000000000e+05 -3.017080000000000000e+05
1.782020000000000000e+05 -3.486960000000000000e+05
5.919600000000000000e+04 -3.560620000000000000e+05
-4.289600000000000000e+04 -3.166780000000000000e+05
-1.221430000000000000e+05 -2.528440000000000000e+05
-1.765650000000000000e+05 -1.851580000000000000e+05
-2.023770000000000000e+05 -1.166880000000000000e+05
-2.006050000000000000e+05 -6.151500000000000000e+04
-1.867270000000000000e+05 -2.557400000000000000e+04
-1.735640000000000000e+05 -1.063900000000000000e+04
-1.599930000000000000e+05 -1.282200000000000000e+04
-1.440000000000000000e+05 -2.359600000000000000e+04
-1.284510000000000000e+05 -2.864300000000000000e+04
-1.193120000000000000e+05 -1.957400000000000000e+04
-1.188350000000000000e+05 4.057000000000000000e+03
-1.283830000000000000e+05 3.604200000000000000e+04
-1.442730000000000000e+05 7.396100000000000000e+04
-1.539900000000000000e+05 1.189380000000000000e+05
-1.342140000000000000e+05 1.587990000000000000e+05
-1.011710000000000000e+05 1.980470000000000000e+05
-5.507000000000000000e+04 2.301690000000000000e+05
4.910000000000000000e+03 2.491270000000000000e+05
7.890600000000000000e+04 2.522650000000000000e+05
1.569230000000000000e+05 2.348400000000000000e+05
2.320450000000000000e+05 1.946370000000000000e+05
2.927740000000000000e+05 1.332250000000000000e+05
3.313740000000000000e+05 5.476300000000000000e+04
3.340000000000000000e+05 -3.239400000000000000e+04
3.067550000000000000e+05 -1.133120000000000000e+05
2.505940000000000000e+05 -1.800420000000000000e+05
1.754400000000000000e+05 -2.271340000000000000e+05
9.227200000000000000e+04 -2.487860000000000000e+05
1.019600000000000000e+04 -2.494000000000000000e+05
-6.175300000000000000e+04 -2.317030000000000000e+05
-1.212560000000000000e+05 -1.960010000000000000e+05
-1.604700000000000000e+05 -1.475810000000000000e+05
-1.814760000000000000e+05 -9.711400000000000000e+04
-1.815770000000000000e+05 -5.016000000000000000e+04
-1.685510000000000000e+05 -9.820000000000000000e+03
-1.478190000000000000e+05 1.752600000000000000e+04
