-7.143700000000000000e+04 4.893200000000000000e+04
-6.870900000000000000e+04 5.149000000000000000e+04
-6.530000000000000000e+04 5.353500000000000000e+04
-6.427700000000000000e+04 6.035500000000000000e+04
-6.410700000000000000e+04 5.933300000000000000e+04
-6.052600000000000000e+04 6.512900000000000000e+04
-5.882100000000000000e+04 6.905000000000000000e+04
-5.336500000000000000e+04 7.194900000000000000e+04
-5.626300000000000000e+04 7.757500000000000000e+04
-4.876200000000000000e+04 8.269000000000000000e+04
-4.296500000000000000e+04 8.746400000000000000e+04
-3.989600000000000000e+04 8.729400000000000000e+04
-3.785000000000000000e+04 9.206800000000000000e+04
-3.307600000000000000e+04 9.905800000000000000e+04
-2.727900000000000000e+04 1.000810000000000000e+05
-2.011800000000000000e+04 1.046840000000000000e+05
-1.483300000000000000e+04 1.079230000000000000e+05
-4.262000000000000000e+03 1.045130000000000000e+05
2.046000000000000000e+03 1.149130000000000000e+05
8.865000000000000000e+03 1.155960000000000000e+05
1.892500000000000000e+04 1.162780000000000000e+05
3.819100000000000000e+04 1.179830000000000000e+05
3.785000000000000000e+04 1.176420000000000000e+05
4.910300000000000000e+04 1.157670000000000000e+05
5.660400000000000000e+04 1.077520000000000000e+05
6.717500000000000000e+04 1.077530000000000000e+05
7.740500000000000000e+04 1.063880000000000000e+05
8.644100000000000000e+04 9.735300000000000000e+04
9.667000000000000000e+04 9.019200000000000000e+04
1.036610000000000000e+05 8.695300000000000000e+04
1.118440000000000000e+05 7.604100000000000000e+04
1.203700000000000000e+05 7.075500000000000000e+04
1.248030000000000000e+05 6.137900000000000000e+04
1.328160000000000000e+05 5.438800000000000000e+04
1.329860000000000000e+05 4.313600000000000000e+04
1.406580000000000000e+05 3.290600000000000000e+04
1.411700000000000000e+05 2.693900000000000000e+04
1.404880000000000000e+05 1.841300000000000000e+04
1.438980000000000000e+05 1.005900000000000000e+04
1.438980000000000000e+05 3.581000000000000000e+03
1.411700000000000000e+05 -8.354000000000000000e+03
1.387830000000000000e+05 -1.483300000000000000e+04
1.392950000000000000e+05 -2.080000000000000000e+04
1.363960000000000000e+05 -3.137100000000000000e+04
1.319630000000000000e+05 -3.802000000000000000e+04
1.302580000000000000e+05 -4.518100000000000000e+04
1.277010000000000000e+05 -5.046700000000000000e+04
1.227570000000000000e+05 -5.558100000000000000e+04
1.176420000000000000e+05 -5.830900000000000000e+04
1.137200000000000000e+05 -6.751600000000000000e+04
1.103100000000000000e+05 -6.785700000000000000e+04
9.991000000000000000e+04 -7.177800000000000000e+04
9.598800000000000000e+04 -7.553000000000000000e+04
8.746400000000000000e+04 -8.064400000000000000e+04
8.217900000000000000e+04 -8.354200000000000000e+04
7.331200000000000000e+04 -8.490600000000000000e+04
6.802800000000000000e+04 -8.814600000000000000e+04
5.950300000000000000e+04 -9.428400000000000000e+04
5.063700000000000000e+04 -9.462400000000000000e+04
4.177100000000000000e+04 -9.547700000000000000e+04
3.341700000000000000e+04 -9.991000000000000000e+04
2.949500000000000000e+04 -1.021270000000000000e+05
1.329900000000000000e+04 -1.011040000000000000e+05
6.819000000000000000e+03 -9.991000000000000000e+04
2.386000000000000000e+03 -1.004220000000000000e+05
-5.627000000000000000e+03 -1.043430000000000000e+05
-1.193500000000000000e+04 -1.012740000000000000e+05
-1.807300000000000000e+04 -1.002510000000000000e+05
-2.386900000000000000e+04 -9.581800000000000000e+04
-2.591600000000000000e+04 -9.411300000000000000e+04
-3.034800000000000000e+04 -9.377200000000000000e+04
-3.682700000000000000e+04 -8.831600000000000000e+04
-3.887200000000000000e+04 -8.507700000000000000e+04
-3.955500000000000000e+04 -7.808600000000000000e+04
-4.347600000000000000e+04 -7.876900000000000000e+04
-4.313600000000000000e+04 -7.552900000000000000e+04
-4.415900000000000000e+04 -7.160800000000000000e+04
-4.790900000000000000e+04 -6.257200000000000000e+04
-4.603400000000000000e+04 -5.694500000000000000e+04
-4.807900000000000000e+04 -5.575200000000000000e+04
-5.029600000000000000e+04 -5.200100000000000000e+04
-5.063800000000000000e+04 -5.302400000000000000e+04
-5.455800000000000000e+04 -5.080700000000000000e+04
-5.558100000000000000e+04 -4.825000000000000000e+04
-5.592200000000000000e+04 -4.671600000000000000e+04
-5.677500000000000000e+04 -4.347600000000000000e+04
-5.370600000000000000e+04 -4.125900000000000000e+04
-5.677500000000000000e+04 -4.296500000000000000e+04
-6.325400000000000000e+04 -4.006600000000000000e+04
-7.297100000000000000e+04 -4.211200000000000000e+04
-7.808700000000000000e+04 -3.461000000000000000e+04
-6.922100000000000000e+04 -2.369900000000000000e+04
-6.853900000000000000e+04 -2.745000000000000000e+04
-6.956200000000000000e+04 -2.898400000000000000e+04
-7.399400000000000000e+04 -3.051800000000000000e+04
-7.672200000000000000e+04 -2.506300000000000000e+04
-8.217900000000000000e+04 -2.744900000000000000e+04
-8.149700000000000000e+04 -2.301600000000000000e+04
-8.371400000000000000e+04 -2.540400000000000000e+04
-8.899800000000000000e+04 -2.318800000000000000e+04
-9.070300000000000000e+04 -2.080000000000000000e+04
-9.275000000000000000e+04 -2.080000000000000000e+04
-9.769400000000000000e+04 -1.994800000000000000e+04
-1.011040000000000000e+05 -1.960700000000000000e+04
-9.718200000000000000e+04 -2.847300000000000000e+04
-1.155950000000000000e+05 -1.005900000000000000e+04
-1.155960000000000000e+05 -8.013000000000000000e+03
-1.181530000000000000e+05 -6.649000000000000000e+03
-1.203700000000000000e+05 -6.479000000000000000e+03
-1.234380000000000000e+05 -1.875000000000000000e+03
-1.254840000000000000e+05 1.876000000000000000e+03
-1.273600000000000000e+05 7.843000000000000000e+03
-1.363970000000000000e+05 1.619700000000000000e+04
-1.275310000000000000e+05 1.926600000000000000e+04
-1.258260000000000000e+05 4.040800000000000000e+04
-1.270190000000000000e+05 4.842100000000000000e+04
-1.220750000000000000e+05 5.558200000000000000e+04
-1.253140000000000000e+05 6.376500000000000000e+04
-1.138910000000000000e+05 6.990300000000000000e+04
-1.041720000000000000e+05 8.303100000000000000e+04
-1.138910000000000000e+05 9.121500000000000000e+04
-1.070710000000000000e+05 1.063890000000000000e+05
-1.029790000000000000e+05 1.109930000000000000e+05
-9.752400000000000000e+04 1.157660000000000000e+05
-9.257900000000000000e+04 1.275300000000000000e+05
-8.439600000000000000e+04 1.343500000000000000e+05
-6.649300000000000000e+04 1.338380000000000000e+05
-6.922100000000000000e+04 1.464550000000000000e+05
-6.086700000000000000e+04 1.483310000000000000e+05
-5.029600000000000000e+04 1.534450000000000000e+05
-4.074900000000000000e+04 1.594130000000000000e+05
-2.966700000000000000e+04 1.592420000000000000e+05
-2.011800000000000000e+04 1.631640000000000000e+05
-1.142300000000000000e+04 1.687900000000000000e+05
-3.410000000000000000e+03 1.699840000000000000e+05
8.865000000000000000e+03 1.710060000000000000e+05
1.568600000000000000e+04 1.708360000000000000e+05
2.523400000000000000e+04 1.744160000000000000e+05
3.461000000000000000e+04 1.696420000000000000e+05
4.381700000000000000e+04 1.706660000000000000e+05
5.149000000000000000e+04 1.664030000000000000e+05
6.171900000000000000e+04 1.640160000000000000e+05
7.058500000000000000e+04 1.623120000000000000e+05
8.115600000000000000e+04 1.539570000000000000e+05
9.496600000000000000e+04 1.507180000000000000e+05
1.161070000000000000e+05 1.420230000000000000e+05
1.265070000000000000e+05 1.418520000000000000e+05
1.450910000000000000e+05 1.336680000000000000e+05
1.643580000000000000e+05 1.251430000000000000e+05
1.365670000000000000e+05 2.110730000000000000e+05
1.940230000000000000e+05 1.190060000000000000e+05
2.039120000000000000e+05 1.070710000000000000e+05
2.156760000000000000e+05 9.888700000000000000e+04
2.354540000000000000e+05 8.593000000000000000e+04
2.484110000000000000e+05 8.661100000000000000e+04
2.658020000000000000e+05 7.518800000000000000e+04
2.709170000000000000e+05 6.768600000000000000e+04
2.789300000000000000e+05 6.086700000000000000e+04
2.837040000000000000e+05 5.353500000000000000e+04
2.925700000000000000e+05 4.432900000000000000e+04
2.903540000000000000e+05 3.120000000000000000e+04
2.952980000000000000e+05 2.097100000000000000e+04
2.947870000000000000e+05 4.603000000000000000e+03
2.930820000000000000e+05 -1.125300000000000000e+04
2.877960000000000000e+05 -2.847300000000000000e+04
2.854090000000000000e+05 -4.449900000000000000e+04
2.823400000000000000e+05 -5.967300000000000000e+04
2.741560000000000000e+05 -7.604100000000000000e+04
2.654610000000000000e+05 -9.087400000000000000e+04
2.545490000000000000e+05 -1.084350000000000000e+05
2.421040000000000000e+05 -1.230970000000000000e+05
2.281220000000000000e+05 -1.369080000000000000e+05
2.148240000000000000e+05 -1.508880000000000000e+05
2.001610000000000000e+05 -1.650400000000000000e+05
1.853280000000000000e+05 -1.742460000000000000e+05
1.665740000000000000e+05 -1.795310000000000000e+05
1.462850000000000000e+05 -1.892500000000000000e+05
1.219040000000000000e+05 -1.964110000000000000e+05
1.028080000000000000e+05 -2.054460000000000000e+05
7.757500000000000000e+04 -2.120960000000000000e+05
5.575200000000000000e+04 -2.204500000000000000e+05
3.341700000000000000e+04 -2.257350000000000000e+05
7.672000000000000000e+03 -2.330670000000000000e+05
-5.745700000000000000e+04 -2.378410000000000000e+05
-7.570000000000000000e+04 -2.470480000000000000e+05
-8.541800000000000000e+04 -2.484110000000000000e+05
-8.865700000000000000e+04 -2.536960000000000000e+05
-8.712300000000000000e+04 -2.564240000000000000e+05
-8.388300000000000000e+04 -2.499460000000000000e+05
-7.910900000000000000e+04 -2.438080000000000000e+05
-8.115600000000000000e+04 -2.320440000000000000e+05
-8.183800000000000000e+04 -2.525030000000000000e+05
-8.729300000000000000e+04 -2.245420000000000000e+05
-9.206800000000000000e+04 -2.001610000000000000e+05
-9.905700000000000000e+04 -1.802140000000000000e+05
-1.082640000000000000e+05 -1.566850000000000000e+05
-1.149140000000000000e+05 -1.379310000000000000e+05
-1.266780000000000000e+05 -1.184940000000000000e+05
-1.350320000000000000e+05 -1.012740000000000000e+05
-1.461140000000000000e+05 -9.019200000000000000e+04
-1.590720000000000000e+05 -7.962100000000000000e+04
-1.698130000000000000e+05 -7.416500000000000000e+04
-1.786790000000000000e+05 -6.785700000000000000e+04
-1.837930000000000000e+05 -6.990300000000000000e+04
-1.877150000000000000e+05 -7.058500000000000000e+04
-1.909550000000000000e+05 -6.990300000000000000e+04
-1.928300000000000000e+05 -7.092600000000000000e+04
-1.899310000000000000e+05 -7.007300000000000000e+04
-1.918070000000000000e+05 -7.160800000000000000e+04
-1.902720000000000000e+05 -6.547000000000000000e+04
-1.958990000000000000e+05 -6.683400000000000000e+04
-1.965810000000000000e+05 -6.308300000000000000e+04
-1.974330000000000000e+05 -6.223100000000000000e+04
-2.013550000000000000e+05 -5.882100000000000000e+04
-2.081740000000000000e+05 -5.984400000000000000e+04
-2.146540000000000000e+05 -5.848000000000000000e+04
-2.173820000000000000e+05 -6.018500000000000000e+04
-2.260760000000000000e+05 -6.189000000000000000e+04
-2.306800000000000000e+05 -6.683400000000000000e+04
-2.322150000000000000e+05 -6.444700000000000000e+04
-2.323850000000000000e+05 -6.632200000000000000e+04
-2.271000000000000000e+05 -6.154800000000000000e+04
-2.279520000000000000e+05 -5.899100000000000000e+04
-2.259060000000000000e+05 -5.012600000000000000e+04
-2.253940000000000000e+05 -3.938500000000000000e+04
-2.235190000000000000e+05 -2.966600000000000000e+04
-2.216430000000000000e+05 -1.687900000000000000e+04
-2.190870000000000000e+05 -1.700000000000000000e+02
-2.207910000000000000e+05 2.165300000000000000e+04
-2.194270000000000000e+05 4.057800000000000000e+04
-2.219850000000000000e+05 6.461800000000000000e+04
-2.236890000000000000e+05 9.070400000000000000e+04
-2.335780000000000000e+05 1.130380000000000000e+05
-2.407390000000000000e+05 1.413400000000000000e+05
-2.490930000000000000e+05 1.658920000000000000e+05
-2.639260000000000000e+05 1.865220000000000000e+05
-2.695530000000000000e+05 2.051060000000000000e+05
-2.779070000000000000e+05 2.250530000000000000e+05
-2.857500000000000000e+05 2.434670000000000000e+05
-2.842150000000000000e+05 2.589820000000000000e+05
-2.802940000000000000e+05 2.736440000000000000e+05
-2.734740000000000000e+05 2.889900000000000000e+05
-2.695530000000000000e+05 3.079140000000000000e+05
-2.557430000000000000e+05 3.273510000000000000e+05
-2.381820000000000000e+05 3.442300000000000000e+05
-2.242010000000000000e+05 3.645190000000000000e+05
-2.028890000000000000e+05 3.831020000000000000e+05
-1.812370000000000000e+05 4.037330000000000000e+05
-1.525930000000000000e+05 4.216350000000000000e+05
-1.253140000000000000e+05 4.364670000000000000e+05
-9.650000000000000000e+04 4.548810000000000000e+05
-6.206000000000000000e+04 4.673270000000000000e+05
-2.676800000000000000e+04 4.763630000000000000e+05
8.354000000000000000e+03 4.882980000000000000e+05
4.620400000000000000e+04 4.848880000000000000e+05
9.172600000000000000e+04 4.906850000000000000e+05
1.299170000000000000e+05 4.848880000000000000e+05
1.747570000000000000e+05 4.768750000000000000e+05
2.206200000000000000e+05 4.610190000000000000e+05
2.617100000000000000e+05 4.391950000000000000e+05
3.065500000000000000e+05 4.177130000000000000e+05
3.498560000000000000e+05 3.911160000000000000e+05
3.897510000000000000e+05 3.612800000000000000e+05
4.322050000000000000e+05 3.229180000000000000e+05
4.669860000000000000e+05 2.903530000000000000e+05
4.981860000000000000e+05 2.518220000000000000e+05
5.252960000000000000e+05 2.127780000000000000e+05
5.455850000000000000e+05 1.766330000000000000e+05
5.595650000000000000e+05 1.345210000000000000e+05
5.709880000000000000e+05 9.598900000000000000e+04
5.720110000000000000e+05 6.001500000000000000e+04
5.692830000000000000e+05 2.284700000000000000e+04
5.633160000000000000e+05 -1.278700000000000000e+04
5.532570000000000000e+05 -4.449900000000000000e+04
5.413220000000000000e+05 -8.115600000000000000e+04
5.225680000000000000e+05 -1.126970000000000000e+05
5.033010000000000000e+05 -1.435570000000000000e+05
4.828420000000000000e+05 -1.732230000000000000e+05
4.584620000000000000e+05 -2.016950000000000000e+05
4.327160000000000000e+05 -2.306800000000000000e+05
4.039030000000000000e+05 -2.548900000000000000e+05
3.767940000000000000e+05 -2.838740000000000000e+05
3.515610000000000000e+05 -3.084250000000000000e+05
3.334890000000000000e+05 -3.348520000000000000e+05
3.091080000000000000e+05 -3.544590000000000000e+05
2.857500000000000000e+05 -3.706560000000000000e+05
2.596640000000000000e+05 -3.880460000000000000e+05
2.361360000000000000e+05 -4.015160000000000000e+05
2.117550000000000000e+05 -4.139620000000000000e+05
1.873740000000000000e+05 -4.241910000000000000e+05
1.618000000000000000e+05 -4.316930000000000000e+05
1.352030000000000000e+05 -4.345920000000000000e+05
1.058780000000000000e+05 -4.402180000000000000e+05
7.928000000000000000e+04 -4.466970000000000000e+05
5.251300000000000000e+04 -4.455040000000000000e+05
3.051800000000000000e+04 -4.466970000000000000e+05
1.364000000000000000e+03 -4.429460000000000000e+05
-2.472200000000000000e+04 -4.414120000000000000e+05
-4.671500000000000000e+04 -4.333990000000000000e+05
-7.263100000000000000e+04 -4.235100000000000000e+05
-9.735300000000000000e+04 -4.129400000000000000e+05
-1.212220000000000000e+05 -4.001520000000000000e+05
-1.394650000000000000e+05 -3.856600000000000000e+05
-1.618000000000000000e+05 -3.686100000000000000e+05
-1.779970000000000000e+05 -3.472980000000000000e+05
-1.943640000000000000e+05 -3.253050000000000000e+05
-2.129490000000000000e+05 -3.039930000000000000e+05
-2.277820000000000000e+05 -2.775660000000000000e+05
-2.427850000000000000e+05 -2.533560000000000000e+05
-2.545490000000000000e+05 -2.255650000000000000e+05
-2.647790000000000000e+05 -1.979450000000000000e+05
-2.729630000000000000e+05 -1.670860000000000000e+05
-2.819990000000000000e+05 -1.411700000000000000e+05
-2.876250000000000000e+05 -1.118450000000000000e+05
-2.971730000000000000e+05 -8.644100000000000000e+04
-2.987080000000000000e+05 -6.581100000000000000e+04
-3.063800000000000000e+05 -4.688600000000000000e+04
-3.056980000000000000e+05 -2.864300000000000000e+04
-3.027990000000000000e+05 -1.312800000000000000e+04
-3.048450000000000000e+05 1.700000000000000000e+02
-2.983670000000000000e+05 7.331000000000000000e+03
-2.929100000000000000e+05 1.977800000000000000e+04
-2.843860000000000000e+05 2.523300000000000000e+04
-2.806350000000000000e+05 3.171200000000000000e+04
-2.709170000000000000e+05 3.750900000000000000e+04
-2.618810000000000000e+05 4.091900000000000000e+04
-2.501170000000000000e+05 4.432900000000000000e+04
-2.475590000000000000e+05 4.688600000000000000e+04
-2.356240000000000000e+05 4.995500000000000000e+04
-2.308510000000000000e+05 5.097800000000000000e+04
-2.270990000000000000e+05 5.524000000000000000e+04
-2.223260000000000000e+05 5.507000000000000000e+04
-2.199380000000000000e+05 5.882100000000000000e+04
-2.163590000000000000e+05 6.257100000000000000e+04
-2.136300000000000000e+05 6.649300000000000000e+04
-2.122670000000000000e+05 7.160800000000000000e+04
-2.148240000000000000e+05 7.518900000000000000e+04
-2.177220000000000000e+05 8.081400000000000000e+04
-2.155060000000000000e+05 8.951000000000000000e+04
-2.148240000000000000e+05 9.564800000000000000e+04
-2.168690000000000000e+05 1.048550000000000000e+05
-2.190860000000000000e+05 1.184940000000000000e+05
-2.175510000000000000e+05 1.331560000000000000e+05
-2.197680000000000000e+05 1.488420000000000000e+05
-2.207910000000000000e+05 1.665740000000000000e+05
-2.207910000000000000e+05 1.866920000000000000e+05
-2.226660000000000000e+05 2.083450000000000000e+05
-2.224960000000000000e+05 2.272700000000000000e+05
-2.213020000000000000e+05 2.514810000000000000e+05
-2.173810000000000000e+05 2.700640000000000000e+05
-2.095390000000000000e+05 2.922290000000000000e+05
-2.047640000000000000e+05 3.133700000000000000e+05
-1.974330000000000000e+05 3.358750000000000000e+05
-1.846460000000000000e+05 3.536070000000000000e+05
-1.679370000000000000e+05 3.759420000000000000e+05
-1.529340000000000000e+05 3.878760000000000000e+05
-1.369070000000000000e+05 4.057780000000000000e+05
-1.096280000000000000e+05 4.182240000000000000e+05
-8.831700000000000000e+04 4.258970000000000000e+05
-5.916200000000000000e+04 4.327170000000000000e+05
-3.171200000000000000e+04 4.351040000000000000e+05
7.161000000000000000e+03 4.347630000000000000e+05
3.853200000000000000e+04 4.315230000000000000e+05
7.382400000000000000e+04 4.258960000000000000e+05
1.128680000000000000e+05 4.148140000000000000e+05
1.534460000000000000e+05 4.069720000000000000e+05
1.901020000000000000e+05 3.902630000000000000e+05
2.284630000000000000e+05 3.761120000000000000e+05
2.625630000000000000e+05 3.546290000000000000e+05
2.987080000000000000e+05 3.372400000000000000e+05
3.304200000000000000e+05 3.125180000000000000e+05
3.604270000000000000e+05 2.920580000000000000e+05
3.882180000000000000e+05 2.598340000000000000e+05
4.173720000000000000e+05 2.323850000000000000e+05
4.393660000000000000e+05 2.018660000000000000e+05
4.639170000000000000e+05 1.696430000000000000e+05
4.862520000000000000e+05 1.369070000000000000e+05
5.027910000000000000e+05 9.854600000000000000e+04
5.249550000000000000e+05 6.427700000000000000e+04
5.368900000000000000e+05 2.847300000000000000e+04
5.491650000000000000e+05 -4.433000000000000000e+03
5.622930000000000000e+05 -4.398800000000000000e+04
5.718410000000000000e+05 -8.354200000000000000e+04
5.745690000000000000e+05 -1.152550000000000000e+05
5.769550000000000000e+05 -1.551500000000000000e+05
5.752510000000000000e+05 -1.887380000000000000e+05
5.689420000000000000e+05 -2.294870000000000000e+05
5.592240000000000000e+05 -2.661430000000000000e+05
5.457550000000000000e+05 -3.022880000000000000e+05
5.285350000000000000e+05 -3.382620000000000000e+05
5.044950000000000000e+05 -3.749190000000000000e+05
4.799440000000000000e+05 -4.114050000000000000e+05
4.453330000000000000e+05 -4.446520000000000000e+05
4.117460000000000000e+05 -4.765340000000000000e+05
3.737260000000000000e+05 -5.079050000000000000e+05
3.317830000000000000e+05 -5.402990000000000000e+05
2.869440000000000000e+05 -5.624640000000000000e+05
2.392050000000000000e+05 -5.902540000000000000e+05
1.892500000000000000e+05 -6.018480000000000000e+05
1.340100000000000000e+05 -6.149760000000000000e+05
8.303200000000000000e+04 -6.207730000000000000e+05
2.762100000000000000e+04 -6.216260000000000000e+05
-2.779100000000000000e+04 -6.153170000000000000e+05
-8.217800000000000000e+04 -6.064510000000000000e+05
-1.357140000000000000e+05 -5.870150000000000000e+05
-1.839640000000000000e+05 -5.626340000000000000e+05
-2.279520000000000000e+05 -5.356960000000000000e+05
-2.726220000000000000e+05 -5.029600000000000000e+05
-3.103010000000000000e+05 -4.681800000000000000e+05
-3.430360000000000000e+05 -4.310120000000000000e+05
-3.761120000000000000e+05 -3.897520000000000000e+05
-3.994700000000000000e+05 -3.515610000000000000e+05
-4.218050000000000000e+05 -3.104720000000000000e+05
-4.381730000000000000e+05 -2.664840000000000000e+05
-4.513000000000000000e+05 -2.296570000000000000e+05
-4.589720000000000000e+05 -1.919780000000000000e+05
-4.664740000000000000e+05 -1.507180000000000000e+05
-4.651100000000000000e+05 -1.144020000000000000e+05
-4.639170000000000000e+05 -8.456600000000000000e+04
-4.599950000000000000e+05 -5.234200000000000000e+04
-4.543690000000000000e+05 -2.455100000000000000e+04
-4.466970000000000000e+05 3.239000000000000000e+03
-4.339100000000000000e+05 3.034800000000000000e+04
-4.209530000000000000e+05 5.592200000000000000e+04
-4.056080000000000000e+05 7.825700000000000000e+04
-3.962310000000000000e+05 1.031500000000000000e+05
-3.822500000000000000e+05 1.196880000000000000e+05
-3.669050000000000000e+05 1.372480000000000000e+05
-3.491740000000000000e+05 1.571970000000000000e+05
-3.380920000000000000e+05 1.711770000000000000e+05
-3.227480000000000000e+05 1.849870000000000000e+05
-3.111530000000000000e+05 1.930000000000000000e+05
-2.992180000000000000e+05 2.076630000000000000e+05
-2.879660000000000000e+05 2.172110000000000000e+05
-2.731340000000000000e+05 2.218140000000000000e+05
-2.593240000000000000e+05 2.240300000000000000e+05
-2.465360000000000000e+05 2.294860000000000000e+05
-2.339190000000000000e+05 2.294870000000000000e+05
-2.248830000000000000e+05 2.299980000000000000e+05
-2.119250000000000000e+05 2.323840000000000000e+05
-1.957290000000000000e+05 2.257360000000000000e+05
-1.795310000000000000e+05 2.272700000000000000e+05
-1.672560000000000000e+05 2.231780000000000000e+05
-1.514000000000000000e+05 2.250530000000000000e+05
-1.396360000000000000e+05 2.240300000000000000e+05
-1.285540000000000000e+05 2.226670000000000000e+05
-1.184940000000000000e+05 2.219840000000000000e+05
-1.050250000000000000e+05 2.177220000000000000e+05
-9.769300000000000000e+04 2.216430000000000000e+05
-8.763400000000000000e+04 2.219840000000000000e+05
-7.996200000000000000e+04 2.177220000000000000e+05
-6.939200000000000000e+04 2.216440000000000000e+05
-6.666300000000000000e+04 2.213030000000000000e+05
-5.507000000000000000e+04 2.209620000000000000e+05
-5.166000000000000000e+04 2.206210000000000000e+05
-4.347600000000000000e+04 2.236900000000000000e+05
-4.040700000000000000e+04 2.228370000000000000e+05
-3.273500000000000000e+04 2.259060000000000000e+05
-2.216400000000000000e+04 2.282930000000000000e+05
-2.148200000000000000e+04 2.288050000000000000e+05
-1.193500000000000000e+04 2.296570000000000000e+05
-5.626000000000000000e+03 2.328960000000000000e+05
4.945000000000000000e+03 2.354530000000000000e+05
1.398100000000000000e+04 2.342600000000000000e+05
2.250600000000000000e+04 2.398860000000000000e+05
3.461100000000000000e+04 2.419320000000000000e+05
4.126000000000000000e+04 2.450010000000000000e+05
5.200100000000000000e+04 2.480710000000000000e+05
5.967300000000000000e+04 2.540380000000000000e+05
7.399500000000000000e+04 2.571070000000000000e+05
8.627100000000000000e+04 2.594930000000000000e+05
9.530700000000000000e+04 2.579590000000000000e+05
1.060480000000000000e+05 2.588110000000000000e+05
1.201990000000000000e+05 2.589820000000000000e+05
1.362260000000000000e+05 2.565950000000000000e+05
1.491830000000000000e+05 2.540380000000000000e+05
1.653810000000000000e+05 2.502870000000000000e+05
1.810660000000000000e+05 2.444900000000000000e+05
1.960700000000000000e+05 2.386940000000000000e+05
2.156760000000000000e+05 2.344310000000000000e+05
2.334080000000000000e+05 2.236900000000000000e+05
2.521620000000000000e+05 2.132890000000000000e+05
2.753490000000000000e+05 1.986260000000000000e+05
2.925700000000000000e+05 1.873740000000000000e+05
3.104720000000000000e+05 1.730520000000000000e+05
3.317840000000000000e+05 1.558320000000000000e+05
3.508790000000000000e+05 1.423640000000000000e+05
3.725320000000000000e+05 1.273600000000000000e+05
3.906050000000000000e+05 1.101400000000000000e+05
4.074830000000000000e+05 8.593000000000000000e+04
4.211230000000000000e+05 6.359500000000000000e+04
4.386840000000000000e+05 3.921400000000000000e+04
4.511300000000000000e+05 1.653800000000000000e+04
4.593130000000000000e+05 -1.210500000000000000e+04
4.698850000000000000e+05 -3.529200000000000000e+04
4.731240000000000000e+05 -6.325400000000000000e+04
4.787500000000000000e+05 -9.104400000000000000e+04
4.801140000000000000e+05 -1.215630000000000000e+05
4.748290000000000000e+05 -1.500350000000000000e+05
4.709070000000000000e+05 -1.773150000000000000e+05
4.661340000000000000e+05 -2.098800000000000000e+05
4.538580000000000000e+05 -2.364760000000000000e+05
4.434570000000000000e+05 -2.627330000000000000e+05
4.267490000000000000e+05 -2.888180000000000000e+05
4.112340000000000000e+05 -3.128580000000000000e+05
3.929920000000000000e+05 -3.350220000000000000e+05
3.694630000000000000e+05 -3.611080000000000000e+05
3.474690000000000000e+05 -3.807160000000000000e+05
3.203600000000000000e+05 -4.037320000000000000e+05
2.944450000000000000e+05 -4.183950000000000000e+05
2.707470000000000000e+05 -4.322050000000000000e+05
2.386940000000000000e+05 -4.437990000000000000e+05
2.090270000000000000e+05 -4.565860000000000000e+05
1.790200000000000000e+05 -4.652810000000000000e+05
1.474780000000000000e+05 -4.748290000000000000e+05
1.108220000000000000e+05 -4.767050000000000000e+05
8.183700000000000000e+04 -4.833540000000000000e+05
4.467000000000000000e+04 -4.876160000000000000e+05
1.329800000000000000e+04 -4.859110000000000000e+05
-2.165300000000000000e+04 -4.876160000000000000e+05
-5.319400000000000000e+04 -4.831830000000000000e+05
-8.541800000000000000e+04 -4.821600000000000000e+05
-1.176420000000000000e+05 -4.719300000000000000e+05
-1.481600000000000000e+05 -4.703960000000000000e+05
-1.791900000000000000e+05 -4.589730000000000000e+05
-2.102210000000000000e+05 -4.478910000000000000e+05
-2.395460000000000000e+05 -4.373200000000000000e+05
-2.671660000000000000e+05 -4.212930000000000000e+05
-2.964910000000000000e+05 -3.981060000000000000e+05
-3.237710000000000000e+05 -3.803750000000000000e+05
-3.519020000000000000e+05 -3.553120000000000000e+05
-3.781590000000000000e+05 -3.338300000000000000e+05
-4.035620000000000000e+05 -3.103010000000000000e+05
-4.218050000000000000e+05 -2.792710000000000000e+05
-4.460160000000000000e+05 -2.490940000000000000e+05
-4.632360000000000000e+05 -2.153350000000000000e+05
-4.772160000000000000e+05 -1.826000000000000000e+05
-4.910260000000000000e+05 -1.461140000000000000e+05
-5.031310000000000000e+05 -1.125270000000000000e+05
-5.062000000000000000e+05 -7.433600000000000000e+04
-5.106330000000000000e+05 -4.091800000000000000e+04
-5.109740000000000000e+05 -4.603000000000000000e+03
-5.050070000000000000e+05 3.154200000000000000e+04
-4.988690000000000000e+05 6.819800000000000000e+04
-4.860810000000000000e+05 9.957000000000000000e+04
-4.715890000000000000e+05 1.277010000000000000e+05
-4.540290000000000000e+05 1.585600000000000000e+05
-4.325460000000000000e+05 1.832820000000000000e+05
-4.076540000000000000e+05 2.056170000000000000e+05
-3.822500000000000000e+05 2.264170000000000000e+05
-3.628140000000000000e+05 2.472180000000000000e+05
-3.333180000000000000e+05 2.583000000000000000e+05
-3.108130000000000000e+05 2.736440000000000000e+05
-2.831920000000000000e+05 2.814870000000000000e+05
-2.572770000000000000e+05 2.876250000000000000e+05
-2.359650000000000000e+05 2.942750000000000000e+05
-2.144830000000000000e+05 2.941040000000000000e+05
-1.912950000000000000e+05 2.992190000000000000e+05
-1.665740000000000000e+05 2.997300000000000000e+05
-1.522530000000000000e+05 2.956380000000000000e+05
-1.333280000000000000e+05 2.934220000000000000e+05
-1.207110000000000000e+05 2.906940000000000000e+05
-1.026380000000000000e+05 2.826810000000000000e+05
-9.223800000000000000e+04 2.816570000000000000e+05
-7.945100000000000000e+04 2.727930000000000000e+05
-6.853900000000000000e+04 2.688710000000000000e+05
-5.609300000000000000e+04 2.637560000000000000e+05
-4.637400000000000000e+04 2.608570000000000000e+05
-3.733800000000000000e+04 2.589820000000000000e+05
-2.506300000000000000e+04 2.519920000000000000e+05
-1.858400000000000000e+04 2.513100000000000000e+05
-8.354000000000000000e+03 2.504570000000000000e+05
-8.530000000000000000e+02 2.479000000000000000e+05
8.014000000000000000e+03 2.443200000000000000e+05
1.551500000000000000e+04 2.436380000000000000e+05
2.114100000000000000e+04 2.468770000000000000e+05
2.932500000000000000e+04 2.455130000000000000e+05
3.699700000000000000e+04 2.444900000000000000e+05
4.773900000000000000e+04 2.479000000000000000e+05
5.438800000000000000e+04 2.438080000000000000e+05
6.478800000000000000e+04 2.432970000000000000e+05
7.553000000000000000e+04 2.443200000000000000e+05
8.422500000000000000e+04 2.468770000000000000e+05
9.275000000000000000e+04 2.431260000000000000e+05
1.080940000000000000e+05 2.458540000000000000e+05
1.176420000000000000e+05 2.441490000000000000e+05
1.297460000000000000e+05 2.414210000000000000e+05
1.440680000000000000e+05 2.373290000000000000e+05
1.566850000000000000e+05 2.335790000000000000e+05
1.735640000000000000e+05 2.277810000000000000e+05
1.851580000000000000e+05 2.277810000000000000e+05
1.999900000000000000e+05 2.204500000000000000e+05
2.156760000000000000e+05 2.139720000000000000e+05
2.259060000000000000e+05 2.064690000000000000e+05
2.453420000000000000e+05 1.994790000000000000e+05
2.581300000000000000e+05 1.902720000000000000e+05
2.704060000000000000e+05 1.778260000000000000e+05
2.850680000000000000e+05 1.665730000000000000e+05
2.990490000000000000e+05 1.570260000000000000e+05
3.091080000000000000e+05 1.415110000000000000e+05
3.195080000000000000e+05 1.259960000000000000e+05
3.317830000000000000e+05 1.111620000000000000e+05
3.370690000000000000e+05 9.206700000000000000e+04
3.472980000000000000e+05 7.024400000000000000e+04
3.553120000000000000e+05 5.524000000000000000e+04
3.636660000000000000e+05 3.546300000000000000e+04
3.716800000000000000e+05 1.125300000000000000e+04
3.737250000000000000e+05 -1.091200000000000000e+04
3.790100000000000000e+05 -3.375800000000000000e+04
3.856600000000000000e+05 -4.944400000000000000e+04
3.883880000000000000e+05 -7.552900000000000000e+04
3.900930000000000000e+05 -9.701200000000000000e+04
3.911160000000000000e+05 -1.174710000000000000e+05
3.919690000000000000e+05 -1.398060000000000000e+05
3.875360000000000000e+05 -1.619700000000000000e+05
3.834440000000000000e+05 -1.822590000000000000e+05
3.802040000000000000e+05 -2.051060000000000000e+05
3.713380000000000000e+05 -2.253950000000000000e+05
3.604260000000000000e+05 -2.434670000000000000e+05
3.549710000000000000e+05 -2.666540000000000000e+05
3.409900000000000000e+05 -2.833630000000000000e+05
3.292260000000000000e+05 -3.048460000000000000e+05
3.142220000000000000e+05 -3.263280000000000000e+05
2.952980000000000000e+05 -3.466170000000000000e+05
2.792710000000000000e+05 -3.650300000000000000e+05
2.593230000000000000e+05 -3.860000000000000000e+05
2.398870000000000000e+05 -4.035620000000000000e+05
2.151650000000000000e+05 -4.149850000000000000e+05
1.902720000000000000e+05 -4.323760000000000000e+05
1.641860000000000000e+05 -4.455040000000000000e+05
1.391240000000000000e+05 -4.577800000000000000e+05
1.067300000000000000e+05 -4.688620000000000000e+05
7.382400000000000000e+04 -4.748290000000000000e+05
4.125900000000000000e+04 -4.799440000000000000e+05
1.535000000000000000e+03 -4.830130000000000000e+05
-3.512200000000000000e+04 -4.816490000000000000e+05
-7.280100000000000000e+04 -4.802850000000000000e+05
-1.125270000000000000e+05 -4.739760000000000000e+05
-1.542980000000000000e+05 -4.686910000000000000e+05
-1.935120000000000000e+05 -4.594850000000000000e+05
-2.328960000000000000e+05 -4.484020000000000000e+05
-2.727920000000000000e+05 -4.383430000000000000e+05
-3.103010000000000000e+05 -4.253860000000000000e+05
-3.444000000000000000e+05 -4.100410000000000000e+05
-3.790110000000000000e+05 -3.938440000000000000e+05
-4.040730000000000000e+05 -3.684400000000000000e+05
-4.294770000000000000e+05 -3.404790000000000000e+05
-4.524940000000000000e+05 -3.062100000000000000e+05
-4.709080000000000000e+05 -2.707460000000000000e+05
-4.896620000000000000e+05 -2.301690000000000000e+05
-5.026190000000000000e+05 -1.943640000000000000e+05
-5.113150000000000000e+05 -1.514000000000000000e+05
-5.210330000000000000e+05 -1.132090000000000000e+05
-5.275120000000000000e+05 -7.399500000000000000e+04
-5.292170000000000000e+05 -4.040800000000000000e+04
-5.280230000000000000e+05 -2.387000000000000000e+03
-5.281940000000000000e+05 3.699800000000000000e+04
-5.220560000000000000e+05 6.785700000000000000e+04
-5.137020000000000000e+05 9.905700000000000000e+04
-5.033010000000000000e+05 1.295760000000000000e+05
-4.903440000000000000e+05 1.571970000000000000e+05
-4.765340000000000000e+05 1.832820000000000000e+05
-4.576090000000000000e+05 2.112440000000000000e+05
-4.409010000000000000e+05 2.347710000000000000e+05
-4.223170000000000000e+05 2.543790000000000000e+05
-4.008340000000000000e+05 2.773950000000000000e+05
-3.774760000000000000e+05 2.934220000000000000e+05
-3.522430000000000000e+05 3.113240000000000000e+05
-3.263280000000000000e+05 3.261570000000000000e+05
-3.046750000000000000e+05 3.396270000000000000e+05
-2.791000000000000000e+05 3.493440000000000000e+05
-2.540380000000000000e+05 3.585510000000000000e+05
-2.253940000000000000e+05 3.680990000000000000e+05
-2.018670000000000000e+05 3.696340000000000000e+05
-1.735640000000000000e+05 3.723620000000000000e+05
-1.467960000000000000e+05 3.756010000000000000e+05
-1.242910000000000000e+05 3.745780000000000000e+05
-9.616000000000000000e+04 3.728730000000000000e+05
-7.331200000000000000e+04 3.708270000000000000e+05
-4.927300000000000000e+04 3.658820000000000000e+05
-2.625600000000000000e+04 3.568470000000000000e+05
-5.797000000000000000e+03 3.478100000000000000e+05
1.466200000000000000e+04 3.413310000000000000e+05
3.409900000000000000e+04 3.345110000000000000e+05
5.029600000000000000e+04 3.224060000000000000e+05
7.075500000000000000e+04 3.114950000000000000e+05
8.422500000000000000e+04 3.021180000000000000e+05
9.633000000000000000e+04 2.915470000000000000e+05
1.123560000000000000e+05 2.818290000000000000e+05
1.215630000000000000e+05 2.695530000000000000e+05
1.317930000000000000e+05 2.617100000000000000e+05
1.427040000000000000e+05 2.531850000000000000e+05
1.507180000000000000e+05 2.475590000000000000e+05
1.602650000000000000e+05 2.359660000000000000e+05
1.716880000000000000e+05 2.303390000000000000e+05
1.745870000000000000e+05 2.238600000000000000e+05
1.832830000000000000e+05 2.168700000000000000e+05
1.916360000000000000e+05 2.105610000000000000e+05
1.996500000000000000e+05 2.064700000000000000e+05
2.081750000000000000e+05 1.993090000000000000e+05
2.170400000000000000e+05 1.945350000000000000e+05
2.255650000000000000e+05 1.851580000000000000e+05
2.284630000000000000e+05 1.802130000000000000e+05
2.415920000000000000e+05 1.725410000000000000e+05
2.516500000000000000e+05 1.669150000000000000e+05
2.571060000000000000e+05 1.580490000000000000e+05
2.738150000000000000e+05 1.527640000000000000e+05
2.794410000000000000e+05 1.413400000000000000e+05
2.925690000000000000e+05 1.307700000000000000e+05
3.016060000000000000e+05 1.201990000000000000e+05
3.084250000000000000e+05 1.115030000000000000e+05
3.239400000000000000e+05 9.956900000000000000e+04
3.299080000000000000e+05 8.780500000000000000e+04
3.392850000000000000e+05 7.177800000000000000e+04
3.481510000000000000e+05 5.813900000000000000e+04
3.558230000000000000e+05 4.177100000000000000e+04
3.653710000000000000e+05 2.830200000000000000e+04
3.713380000000000000e+05 1.278700000000000000e+04
3.771350000000000000e+05 -3.921000000000000000e+03
3.805450000000000000e+05 -2.608600000000000000e+04
3.873650000000000000e+05 -4.262400000000000000e+04
3.877060000000000000e+05 -5.916200000000000000e+04
3.887290000000000000e+05 -7.945100000000000000e+04
3.868530000000000000e+05 -1.000810000000000000e+05
3.848070000000000000e+05 -1.229270000000000000e+05
3.812270000000000000e+05 -1.413410000000000000e+05
3.769650000000000000e+05 -1.667440000000000000e+05
3.696330000000000000e+05 -1.826010000000000000e+05
3.602560000000000000e+05 -2.044230000000000000e+05
3.505380000000000000e+05 -2.242010000000000000e+05
3.353640000000000000e+05 -2.455130000000000000e+05
3.203600000000000000e+05 -2.639270000000000000e+05
3.033100000000000000e+05 -2.838750000000000000e+05
2.814870000000000000e+05 -3.021170000000000000e+05
2.589820000000000000e+05 -3.164390000000000000e+05
2.366470000000000000e+05 -3.363870000000000000e+05
2.117550000000000000e+05 -3.505380000000000000e+05
1.848170000000000000e+05 -3.621320000000000000e+05
1.587310000000000000e+05 -3.701450000000000000e+05
1.268480000000000000e+05 -3.791810000000000000e+05
9.974000000000000000e+04 -3.866830000000000000e+05
6.939100000000000000e+04 -3.892400000000000000e+05
3.785000000000000000e+04 -3.935020000000000000e+05
6.137000000000000000e+03 -3.955480000000000000e+05
-2.523400000000000000e+04 -3.928200000000000000e+05
-5.660500000000000000e+04 -3.933320000000000000e+05
-8.217900000000000000e+04 -3.887290000000000000e+05
-1.108220000000000000e+05 -3.839550000000000000e+05
-1.418520000000000000e+05 -3.769650000000000000e+05
-1.694730000000000000e+05 -3.662230000000000000e+05
-1.938530000000000000e+05 -3.600860000000000000e+05
-2.211330000000000000e+05 -3.493440000000000000e+05
-2.412510000000000000e+05 -3.404790000000000000e+05
-2.617100000000000000e+05 -3.275210000000000000e+05
-2.859200000000000000e+05 -3.178030000000000000e+05
-2.999010000000000000e+05 -3.021180000000000000e+05
-3.220660000000000000e+05 -2.859200000000000000e+05
-3.397970000000000000e+05 -2.736450000000000000e+05
-3.554830000000000000e+05 -2.581290000000000000e+05
-3.703160000000000000e+05 -2.438080000000000000e+05
-3.870240000000000000e+05 -2.240310000000000000e+05
-3.993000000000000000e+05 -2.100500000000000000e+05
-4.134510000000000000e+05 -1.947060000000000000e+05
-4.219760000000000000e+05 -1.733940000000000000e+05
-4.333990000000000000e+05 -1.534460000000000000e+05
-4.427760000000000000e+05 -1.348620000000000000e+05
-4.513000000000000000e+05 -1.154250000000000000e+05
-4.598260000000000000e+05 -9.530700000000000000e+04
-4.611900000000000000e+05 -6.956200000000000000e+04
-4.639180000000000000e+05 -4.893200000000000000e+04
-4.676680000000000000e+05 -2.523300000000000000e+04
-4.659630000000000000e+05 -2.728000000000000000e+03
-4.666460000000000000e+05 2.063000000000000000e+04
-4.593140000000000000e+05 4.910300000000000000e+04
-4.574390000000000000e+05 7.092600000000000000e+04
-4.484030000000000000e+05 9.309000000000000000e+04
-4.403890000000000000e+05 1.201990000000000000e+05
-4.270910000000000000e+05 1.450910000000000000e+05
-4.134510000000000000e+05 1.696430000000000000e+05
-3.941850000000000000e+05 1.897610000000000000e+05
-3.757720000000000000e+05 2.132890000000000000e+05
-3.537770000000000000e+05 2.335780000000000000e+05
-3.341710000000000000e+05 2.509690000000000000e+05
-3.051870000000000000e+05 2.698940000000000000e+05
-2.802940000000000000e+05 2.823400000000000000e+05
-2.533560000000000000e+05 2.970020000000000000e+05
-2.264180000000000000e+05 3.080850000000000000e+05
-1.974340000000000000e+05 3.167800000000000000e+05
-1.704950000000000000e+05 3.215540000000000000e+05
-1.394650000000000000e+05 3.224060000000000000e+05
-1.137210000000000000e+05 3.261570000000000000e+05
-8.371300000000000000e+04 3.234290000000000000e+05
-6.291300000000000000e+04 3.207010000000000000e+05
-3.478100000000000000e+04 3.166090000000000000e+05
-1.227600000000000000e+04 3.094480000000000000e+05
1.057000000000000000e+04 3.016050000000000000e+05
3.222400000000000000e+04 2.954680000000000000e+05
4.961400000000000000e+04 2.860910000000000000e+05
6.751600000000000000e+04 2.743270000000000000e+05
8.746400000000000000e+04 2.630740000000000000e+05
9.973900000000000000e+04 2.506270000000000000e+05
1.097980000000000000e+05 2.366470000000000000e+05
1.220740000000000000e+05 2.259060000000000000e+05
1.326450000000000000e+05 2.170410000000000000e+05
1.416820000000000000e+05 2.034010000000000000e+05
1.479900000000000000e+05 1.899320000000000000e+05
1.525930000000000000e+05 1.803840000000000000e+05
1.580490000000000000e+05 1.708360000000000000e+05
1.597540000000000000e+05 1.589020000000000000e+05
1.660620000000000000e+05 1.479890000000000000e+05
1.675960000000000000e+05 1.391240000000000000e+05
1.703250000000000000e+05 1.326450000000000000e+05
1.750980000000000000e+05 1.219040000000000000e+05
1.716890000000000000e+05 1.118440000000000000e+05
1.732230000000000000e+05 1.070710000000000000e+05
1.761210000000000000e+05 1.029790000000000000e+05
1.781680000000000000e+05 9.701200000000000000e+04
1.774850000000000000e+05 9.326100000000000000e+04
1.822590000000000000e+05 9.087400000000000000e+04
1.803840000000000000e+05 8.456500000000000000e+04
1.877150000000000000e+05 8.405400000000000000e+04
1.883970000000000000e+05 7.928100000000000000e+04
1.897610000000000000e+05 8.047400000000000000e+04
1.931710000000000000e+05 7.706400000000000000e+04
2.020360000000000000e+05 7.604100000000000000e+04
2.056170000000000000e+05 7.024400000000000000e+04
2.085150000000000000e+05 7.314200000000000000e+04
2.138010000000000000e+05 6.836900000000000000e+04
2.185740000000000000e+05 6.717500000000000000e+04
2.260760000000000000e+05 5.745700000000000000e+04
2.310210000000000000e+05 5.779800000000000000e+04
2.375000000000000000e+05 5.251300000000000000e+04
2.414210000000000000e+05 4.415800000000000000e+04
2.526740000000000000e+05 3.802000000000000000e+04
2.557420000000000000e+05 3.273600000000000000e+04
2.608570000000000000e+05 1.653800000000000000e+04
2.681890000000000000e+05 9.548000000000000000e+03
2.739860000000000000e+05 -3.751000000000000000e+03
2.802940000000000000e+05 -1.551500000000000000e+04
2.811460000000000000e+05 -2.830200000000000000e+04
2.843860000000000000e+05 -4.313500000000000000e+04
2.854090000000000000e+05 -5.916100000000000000e+04
2.830220000000000000e+05 -7.672300000000000000e+04
2.831930000000000000e+05 -8.763400000000000000e+04
2.773950000000000000e+05 -1.063880000000000000e+05
2.748380000000000000e+05 -1.259950000000000000e+05
2.697230000000000000e+05 -1.411700000000000000e+05
2.659720000000000000e+05 -1.556620000000000000e+05
2.569370000000000000e+05 -1.718590000000000000e+05
2.496050000000000000e+05 -1.827710000000000000e+05
2.388630000000000000e+05 -1.970920000000000000e+05
2.282930000000000000e+05 -2.097090000000000000e+05
2.163580000000000000e+05 -2.233480000000000000e+05
2.052760000000000000e+05 -2.337490000000000000e+05
1.895910000000000000e+05 -2.443200000000000000e+05
1.740750000000000000e+05 -2.588120000000000000e+05
1.525930000000000000e+05 -2.642680000000000000e+05
1.372490000000000000e+05 -2.744970000000000000e+05
1.186650000000000000e+05 -2.828510000000000000e+05
9.633000000000000000e+04 -2.884780000000000000e+05
7.587100000000000000e+04 -2.942750000000000000e+05
5.080800000000000000e+04 -3.009240000000000000e+05
2.642700000000000000e+04 -3.075730000000000000e+05
-1.710000000000000000e+02 -3.007530000000000000e+05
-2.659700000000000000e+04 -3.074020000000000000e+05
-5.370600000000000000e+04 -3.072320000000000000e+05
-7.706400000000000000e+04 -2.973440000000000000e+05
-1.033200000000000000e+05 -2.947860000000000000e+05
-1.312810000000000000e+05 -2.872840000000000000e+05
-1.548100000000000000e+05 -2.758610000000000000e+05
-1.820890000000000000e+05 -2.639270000000000000e+05
-2.051060000000000000e+05 -2.562540000000000000e+05
-2.294860000000000000e+05 -2.364770000000000000e+05
-2.499460000000000000e+05 -2.252240000000000000e+05
-2.680180000000000000e+05 -2.105610000000000000e+05
-2.869440000000000000e+05 -2.003320000000000000e+05
-2.990480000000000000e+05 -1.783380000000000000e+05
-3.116650000000000000e+05 -1.600950000000000000e+05
-3.200200000000000000e+05 -1.485010000000000000e+05
-3.259870000000000000e+05 -1.244610000000000000e+05
-3.336590000000000000e+05 -1.055370000000000000e+05
-3.387740000000000000e+05 -9.257800000000000000e+04
-3.384330000000000000e+05 -7.587000000000000000e+04
-3.380920000000000000e+05 -5.506900000000000000e+04
-3.305900000000000000e+05 -4.245300000000000000e+04
-3.283730000000000000e+05 -2.386900000000000000e+04
-3.203600000000000000e+05 -8.354000000000000000e+03
-3.143930000000000000e+05 7.161000000000000000e+03
-3.041640000000000000e+05 1.994800000000000000e+04
-2.923990000000000000e+05 3.699800000000000000e+04
-2.791000000000000000e+05 4.773800000000000000e+04
-2.676770000000000000e+05 6.035600000000000000e+04
-2.538670000000000000e+05 7.825800000000000000e+04
-2.431260000000000000e+05 9.257900000000000000e+04
-2.299980000000000000e+05 1.053660000000000000e+05
-2.155060000000000000e+05 1.234380000000000000e+05
-2.025480000000000000e+05 1.355440000000000000e+05
-1.885670000000000000e+05 1.469670000000000000e+05
-1.768030000000000000e+05 1.578780000000000000e+05
-1.687900000000000000e+05 1.716880000000000000e+05
-1.554920000000000000e+05 1.834530000000000000e+05
-1.427040000000000000e+05 1.935120000000000000e+05
-1.287240000000000000e+05 2.085160000000000000e+05
-1.174710000000000000e+05 2.199390000000000000e+05
-1.029790000000000000e+05 2.342600000000000000e+05
-8.968100000000000000e+04 2.536970000000000000e+05
-7.382400000000000000e+04 2.574470000000000000e+05
-5.660500000000000000e+04 2.548900000000000000e+05
-3.580400000000000000e+04 2.531850000000000000e+05
-2.028900000000000000e+04 2.565960000000000000e+05
-2.558000000000000000e+03 2.557420000000000000e+05
1.756100000000000000e+04 2.521630000000000000e+05
3.051900000000000000e+04 2.461950000000000000e+05
4.688600000000000000e+04 2.431260000000000000e+05
6.376500000000000000e+04 2.357950000000000000e+05
8.149700000000000000e+04 2.298270000000000000e+05
9.479600000000000000e+04 2.226670000000000000e+05
1.067300000000000000e+05 2.160180000000000000e+05
1.207110000000000000e+05 2.056170000000000000e+05
1.345210000000000000e+05 1.953880000000000000e+05
1.432160000000000000e+05 1.843050000000000000e+05
1.515700000000000000e+05 1.687900000000000000e+05
1.583900000000000000e+05 1.582200000000000000e+05
1.638460000000000000e+05 1.473080000000000000e+05
1.703250000000000000e+05 1.338390000000000000e+05
1.713480000000000000e+05 1.210510000000000000e+05
1.732230000000000000e+05 1.109930000000000000e+05
1.733940000000000000e+05 9.650000000000000000e+04
1.742460000000000000e+05 8.644100000000000000e+04
1.769740000000000000e+05 7.757500000000000000e+04
1.745870000000000000e+05 6.649400000000000000e+04
1.737340000000000000e+05 5.063700000000000000e+04
1.706660000000000000e+05 4.552300000000000000e+04
1.631640000000000000e+05 3.870300000000000000e+04
1.619700000000000000e+05 2.864300000000000000e+04
1.589010000000000000e+05 2.489200000000000000e+04
1.542980000000000000e+05 1.926500000000000000e+04
1.519110000000000000e+05 6.990000000000000000e+03
1.450910000000000000e+05 2.898000000000000000e+03
1.421930000000000000e+05 1.194000000000000000e+03
1.372490000000000000e+05 -3.239000000000000000e+03
1.346910000000000000e+05 -7.160000000000000000e+03
1.302580000000000000e+05 -5.455000000000000000e+03
1.248030000000000000e+05 -9.718000000000000000e+03
1.253140000000000000e+05 -9.547000000000000000e+03
1.178120000000000000e+05 -1.125300000000000000e+04
1.184940000000000000e+05 -1.142300000000000000e+04
1.208810000000000000e+05 -9.548000000000000000e+03
1.162770000000000000e+05 -1.108200000000000000e+04
1.157660000000000000e+05 -1.227500000000000000e+04
1.154250000000000000e+05 -1.295700000000000000e+04
1.207100000000000000e+05 -1.534400000000000000e+04
1.193460000000000000e+05 -1.329900000000000000e+04
1.207100000000000000e+05 -1.278700000000000000e+04
1.198580000000000000e+05 -1.551500000000000000e+04
1.258250000000000000e+05 -1.773200000000000000e+04
1.282120000000000000e+05 -2.165300000000000000e+04
1.294060000000000000e+05 -2.591500000000000000e+04
1.353730000000000000e+05 -3.051800000000000000e+04
1.343500000000000000e+05 -3.324600000000000000e+04
1.413410000000000000e+05 -3.836100000000000000e+04
1.427040000000000000e+05 -4.569200000000000000e+04
1.418520000000000000e+05 -5.166000000000000000e+04
1.461150000000000000e+05 -5.950300000000000000e+04
1.461150000000000000e+05 -6.734500000000000000e+04
1.464550000000000000e+05 -7.621100000000000000e+04
1.488420000000000000e+05 -8.439500000000000000e+04
1.461140000000000000e+05 -9.786400000000000000e+04
1.466260000000000000e+05 -1.087760000000000000e+05
1.406580000000000000e+05 -1.149140000000000000e+05
1.394650000000000000e+05 -1.278720000000000000e+05
1.319630000000000000e+05 -1.399760000000000000e+05
1.253140000000000000e+05 -1.510590000000000000e+05
1.142320000000000000e+05 -1.635050000000000000e+05
1.077530000000000000e+05 -1.704950000000000000e+05
9.820500000000000000e+04 -1.766330000000000000e+05
8.371300000000000000e+04 -1.895910000000000000e+05
7.126700000000000000e+04 -1.957290000000000000e+05
5.899100000000000000e+04 -2.057880000000000000e+05
4.313500000000000000e+04 -2.091970000000000000e+05
2.710800000000000000e+04 -2.163580000000000000e+05
1.176400000000000000e+04 -2.228370000000000000e+05
-2.387000000000000000e+03 -2.231780000000000000e+05
-2.301700000000000000e+04 -2.255650000000000000e+05
-4.006700000000000000e+04 -2.253950000000000000e+05
-5.575200000000000000e+04 -2.248830000000000000e+05
-7.501800000000000000e+04 -2.213020000000000000e+05
-9.172600000000000000e+04 -2.235190000000000000e+05
-1.126970000000000000e+05 -2.163590000000000000e+05
-1.282130000000000000e+05 -2.124370000000000000e+05
-1.444090000000000000e+05 -2.044240000000000000e+05
-1.614590000000000000e+05 -1.953880000000000000e+05
-1.791900000000000000e+05 -1.843050000000000000e+05
-1.930010000000000000e+05 -1.769740000000000000e+05
-2.085150000000000000e+05 -1.662330000000000000e+05
-2.206200000000000000e+05 -1.549800000000000000e+05
-2.342600000000000000e+05 -1.401470000000000000e+05
-2.487530000000000000e+05 -1.275310000000000000e+05
-2.600050000000000000e+05 -1.094580000000000000e+05
-2.710870000000000000e+05 -9.650000000000000000e+04
