1.198580000000000000e+05 -9.395990000000000000e+05
-1.025529000000000000e+06 2.935920000000000000e+05
-1.193500000000000000e+04 1.077529000000000000e+06
1.116750000000000000e+05 1.534500000000000000e+04
8.507700000000000000e+04 4.850590000000000000e+05
6.335600000000000000e+05 4.308420000000000000e+05
9.319260000000000000e+05 -3.172910000000000000e+05
9.019100000000000000e+04 -9.501690000000000000e+05
-4.697150000000000000e+05 -4.342520000000000000e+05
-2.862610000000000000e+05 -2.779100000000000000e+04
-4.927400000000000000e+04 -3.679290000000000000e+05
-8.511120000000000000e+05 -3.461000000000000000e+04
-5.046660000000000000e+05 5.815590000000000000e+05
-3.410000000000000000e+03 7.941660000000000000e+05
5.496760000000000000e+05 6.707280000000000000e+05
8.151370000000000000e+05 -1.023000000000000000e+03
1.965800000000000000e+05 -1.991380000000000000e+05
4.478910000000000000e+05 -3.031410000000000000e+05
1.191760000000000000e+05 -6.596460000000000000e+05
-3.839550000000000000e+05 -6.685110000000000000e+05
-7.604090000000000000e+05 -2.456830000000000000e+05
-5.466080000000000000e+05 3.703150000000000000e+05
-2.046000000000000000e+04 4.091880000000000000e+05
-9.002200000000000000e+04 2.393750000000000000e+05
1.120150000000000000e+05 3.467870000000000000e+05
2.782480000000000000e+05 2.496050000000000000e+05
3.854890000000000000e+05 8.166700000000000000e+04
3.969130000000000000e+05 -2.228370000000000000e+05
-4.432900000000000000e+04 -4.417530000000000000e+05
-9.547700000000000000e+04 -1.031490000000000000e+05
-2.335800000000000000e+04 -2.103910000000000000e+05
-2.444900000000000000e+05 -2.325560000000000000e+05
-3.409900000000000000e+05 6.649000000000000000e+03
-2.028890000000000000e+05 2.224960000000000000e+05
3.188300000000000000e+04 2.557430000000000000e+05
1.306000000000000000e+05 5.541100000000000000e+04
2.625600000000000000e+04 2.847300000000000000e+04
2.455100000000000000e+04 3.699700000000000000e+04
2.540400000000000000e+04 4.006600000000000000e+04
4.876100000000000000e+04 5.200100000000000000e+04
1.125260000000000000e+05 3.665700000000000000e+04
7.263000000000000000e+04 -5.438800000000000000e+04
2.386900000000000000e+04 -2.335800000000000000e+04
6.240100000000000000e+04 1.619700000000000000e+04
1.819180000000000000e+05 -8.541800000000000000e+04
8.520000000000000000e+02 -3.273500000000000000e+05
-3.004120000000000000e+05 -2.149940000000000000e+05
-3.484920000000000000e+05 9.002100000000000000e+04
-1.205400000000000000e+05 2.659720000000000000e+05
-1.244600000000000000e+04 1.498650000000000000e+05
7.332000000000000000e+03 2.124370000000000000e+05
1.411700000000000000e+05 2.165280000000000000e+05
2.898420000000000000e+05 1.251440000000000000e+05
3.556530000000000000e+05 -1.447500000000000000e+05
2.250600000000000000e+04 -3.220660000000000000e+05
-7.655200000000000000e+04 -1.263360000000000000e+05
2.097100000000000000e+04 -1.241200000000000000e+05
-9.667000000000000000e+04 -3.334890000000000000e+05
-4.867640000000000000e+05 -1.612880000000000000e+05
-4.344210000000000000e+05 2.351130000000000000e+05
-1.500360000000000000e+05 4.589730000000000000e+05
1.914670000000000000e+05 3.945260000000000000e+05
2.097090000000000000e+05 1.829410000000000000e+05
3.536070000000000000e+05 2.588120000000000000e+05
5.046660000000000000e+05 -9.257900000000000000e+04
3.176330000000000000e+05 -3.870240000000000000e+05
-9.718000000000000000e+03 -5.281940000000000000e+05
-4.175430000000000000e+05 -3.692920000000000000e+05
-3.576990000000000000e+05 5.148900000000000000e+04
-2.098790000000000000e+05 3.410000000000000000e+02
-3.856600000000000000e+05 8.149600000000000000e+04
-2.514800000000000000e+05 4.132800000000000000e+05
1.149140000000000000e+05 4.712480000000000000e+05
3.917980000000000000e+05 2.888190000000000000e+05
4.564150000000000000e+05 -6.427700000000000000e+04
1.940240000000000000e+05 -2.177230000000000000e+05
2.357950000000000000e+05 -1.907840000000000000e+05
1.029790000000000000e+05 -5.290460000000000000e+05
-4.056070000000000000e+05 -4.686920000000000000e+05
-5.663840000000000000e+05 -6.223100000000000000e+04
-4.398780000000000000e+05 2.796120000000000000e+05
-1.249730000000000000e+05 4.606780000000000000e+05
8.047400000000000000e+04 3.113240000000000000e+05
1.810660000000000000e+05 3.582100000000000000e+05
4.311820000000000000e+05 2.044240000000000000e+05
4.577800000000000000e+05 -9.974000000000000000e+04
2.983660000000000000e+05 -3.384330000000000000e+05
1.756100000000000000e+04 -4.429460000000000000e+05
-2.109030000000000000e+05 -2.390340000000000000e+05
-1.152540000000000000e+05 -1.575380000000000000e+05
-2.206200000000000000e+05 -2.323850000000000000e+05
-4.613590000000000000e+05 -8.132700000000000000e+04
-4.032210000000000000e+05 3.200190000000000000e+05
-5.541100000000000000e+04 4.555630000000000000e+05
1.774850000000000000e+05 3.389440000000000000e+05
2.271000000000000000e+05 1.892500000000000000e+05
3.189970000000000000e+05 1.797020000000000000e+05
4.495960000000000000e+05 -6.922100000000000000e+04
2.939330000000000000e+05 -3.653710000000000000e+05
-1.568500000000000000e+04 -4.736350000000000000e+05
