1.079240000000000000e+05 -9.477830000000000000e+05
-6.102020000000000000e+05 -8.234920000000000000e+05
-9.089090000000000000e+05 -5.297280000000000000e+05
-1.033883000000000000e+06 -2.310210000000000000e+05
-1.065765000000000000e+06 4.313500000000000000e+04
-1.023312000000000000e+06 3.155870000000000000e+05
-9.240830000000000000e+05 5.501870000000000000e+05
-7.665460000000000000e+05 7.622830000000000000e+05
-5.645100000000000000e+05 9.327790000000000000e+05
-3.058690000000000000e+05 1.049398000000000000e+06
1.125300000000000000e+04 1.083838000000000000e+06
3.488330000000000000e+05 9.699470000000000000e+05
5.958810000000000000e+05 6.691930000000000000e+05
5.858210000000000000e+05 2.744970000000000000e+05
3.570160000000000000e+05 3.205300000000000000e+04
1.154250000000000000e+05 1.312800000000000000e+04
-2.727900000000000000e+04 1.103100000000000000e+05
-7.194900000000000000e+04 2.335780000000000000e+05
-5.063700000000000000e+04 3.440590000000000000e+05
9.207000000000000000e+03 4.291360000000000000e+05
9.752300000000000000e+04 4.855700000000000000e+05
1.924890000000000000e+05 5.206920000000000000e+05
3.045040000000000000e+05 5.334790000000000000e+05
4.182240000000000000e+05 5.193280000000000000e+05
5.348430000000000000e+05 4.869340000000000000e+05
6.444710000000000000e+05 4.255550000000000000e+05
7.505200000000000000e+05 3.314420000000000000e+05
8.407110000000000000e+05 2.062990000000000000e+05
9.107850000000000000e+05 5.234200000000000000e+04
9.448840000000000000e+05 -1.316230000000000000e+05
9.326090000000000000e+05 -3.340000000000000000e+05
8.478720000000000000e+05 -5.435390000000000000e+05
7.039740000000000000e+05 -7.332990000000000000e+05
5.188170000000000000e+05 -8.783910000000000000e+05
2.930810000000000000e+05 -9.585240000000000000e+05
6.853900000000000000e+04 -9.583530000000000000e+05
-1.244620000000000000e+05 -9.014070000000000000e+05
-2.726220000000000000e+05 -8.028610000000000000e+05
-3.878770000000000000e+05 -6.840260000000000000e+05
-4.536880000000000000e+05 -5.522340000000000000e+05
-4.852290000000000000e+05 -4.286250000000000000e+05
-4.787510000000000000e+05 -3.142230000000000000e+05
-4.538580000000000000e+05 -2.155060000000000000e+05
-4.132810000000000000e+05 -1.323050000000000000e+05
-3.524130000000000000e+05 -6.564100000000000000e+04
-2.808060000000000000e+05 -2.301700000000000000e+04
-2.114140000000000000e+05 -1.364000000000000000e+03
-1.331570000000000000e+05 -2.165300000000000000e+04
-5.592300000000000000e+04 -8.575900000000000000e+04
-1.790200000000000000e+04 -2.027190000000000000e+05
-5.745700000000000000e+04 -3.645180000000000000e+05
-2.221550000000000000e+05 -5.183050000000000000e+05
-4.680090000000000000e+05 -5.575190000000000000e+05
-7.123280000000000000e+05 -4.325460000000000000e+05
-8.359380000000000000e+05 -2.252240000000000000e+05
-8.581020000000000000e+05 -1.108300000000000000e+04
-8.161600000000000000e+05 1.667440000000000000e+05
-7.510310000000000000e+05 3.128590000000000000e+05
-6.720920000000000000e+05 4.260670000000000000e+05
-5.851390000000000000e+05 5.220560000000000000e+05
-4.947770000000000000e+05 5.919590000000000000e+05
-4.006640000000000000e+05 6.593050000000000000e+05
-2.999010000000000000e+05 7.109650000000000000e+05
-1.987970000000000000e+05 7.522250000000000000e+05
-9.496600000000000000e+04 7.825730000000000000e+05
1.074100000000000000e+04 8.021800000000000000e+05
1.224150000000000000e+05 8.047370000000000000e+05
2.352830000000000000e+05 7.955300000000000000e+05
3.478100000000000000e+05 7.718320000000000000e+05
4.606770000000000000e+05 7.275030000000000000e+05
5.674070000000000000e+05 6.618620000000000000e+05
6.623730000000000000e+05 5.725220000000000000e+05
7.493260000000000000e+05 4.601670000000000000e+05
8.139430000000000000e+05 3.189960000000000000e+05
8.378130000000000000e+05 1.519110000000000000e+05
8.176950000000000000e+05 -2.097100000000000000e+04
7.396070000000000000e+05 -1.938530000000000000e+05
5.946870000000000000e+05 -3.338300000000000000e+05
4.134500000000000000e+05 -3.863420000000000000e+05
2.509680000000000000e+05 -3.329770000000000000e+05
1.901020000000000000e+05 -2.027190000000000000e+05
2.414210000000000000e+05 -9.803500000000000000e+04
3.360460000000000000e+05 -7.672300000000000000e+04
4.098700000000000000e+05 -1.280420000000000000e+05
4.489130000000000000e+05 -2.163580000000000000e+05
4.455040000000000000e+05 -3.164390000000000000e+05
4.100400000000000000e+05 -4.086770000000000000e+05
3.646890000000000000e+05 -5.031310000000000000e+05
2.780770000000000000e+05 -5.646800000000000000e+05
1.977740000000000000e+05 -6.250350000000000000e+05
1.133800000000000000e+05 -6.651020000000000000e+05
8.695000000000000000e+03 -6.968140000000000000e+05
-9.053300000000000000e+04 -7.104530000000000000e+05
-1.984570000000000000e+05 -7.131810000000000000e+05
-3.056980000000000000e+05 -6.966430000000000000e+05
-4.066310000000000000e+05 -6.649310000000000000e+05
-5.063700000000000000e+05 -6.168510000000000000e+05
-5.975850000000000000e+05 -5.476310000000000000e+05
-6.772060000000000000e+05 -4.589730000000000000e+05
-7.358570000000000000e+05 -3.505380000000000000e+05
-7.726840000000000000e+05 -2.277820000000000000e+05
-7.834250000000000000e+05 -9.087400000000000000e+04
-7.638180000000000000e+05 4.654500000000000000e+04
-7.143750000000000000e+05 1.817480000000000000e+05
-6.347530000000000000e+05 2.961500000000000000e+05
-5.348430000000000000e+05 3.912860000000000000e+05
-4.260670000000000000e+05 4.569270000000000000e+05
-3.055280000000000000e+05 4.893210000000000000e+05
-1.909540000000000000e+05 4.969940000000000000e+05
-8.541800000000000000e+04 4.680090000000000000e+05
-3.410000000000000000e+03 4.148150000000000000e+05
4.228200000000000000e+04 3.351940000000000000e+05
3.989500000000000000e+04 2.494350000000000000e+05
-5.115000000000000000e+03 1.947050000000000000e+05
-5.916200000000000000e+04 1.976040000000000000e+05
-8.269100000000000000e+04 2.450020000000000000e+05
-6.666400000000000000e+04 2.949570000000000000e+05
-2.250500000000000000e+04 3.292260000000000000e+05
2.489200000000000000e+04 3.474690000000000000e+05
7.331200000000000000e+04 3.507090000000000000e+05
1.200280000000000000e+05 3.428660000000000000e+05
1.575370000000000000e+05 3.290560000000000000e+05
1.958990000000000000e+05 3.084250000000000000e+05
2.288040000000000000e+05 2.869430000000000000e+05
2.598340000000000000e+05 2.647790000000000000e+05
2.826810000000000000e+05 2.390340000000000000e+05
3.068910000000000000e+05 2.117550000000000000e+05
3.290560000000000000e+05 1.779970000000000000e+05
3.493450000000000000e+05 1.450910000000000000e+05
3.709970000000000000e+05 1.104810000000000000e+05
3.841250000000000000e+05 7.058500000000000000e+04
4.030500000000000000e+05 2.693800000000000000e+04
4.141320000000000000e+05 -2.642700000000000000e+04
4.166900000000000000e+05 -8.951000000000000000e+04
4.091890000000000000e+05 -1.604360000000000000e+05
3.900920000000000000e+05 -2.340900000000000000e+05
3.491740000000000000e+05 -3.181440000000000000e+05
2.768840000000000000e+05 -3.929910000000000000e+05
1.757810000000000000e+05 -4.499360000000000000e+05
5.251200000000000000e+04 -4.721010000000000000e+05
-6.870900000000000000e+04 -4.374900000000000000e+05
-1.505480000000000000e+05 -3.571870000000000000e+05
-1.815780000000000000e+05 -2.646080000000000000e+05
-1.754390000000000000e+05 -1.827710000000000000e+05
-1.367380000000000000e+05 -1.246320000000000000e+05
-9.650100000000000000e+04 -9.547700000000000000e+04
-5.302400000000000000e+04 -9.292000000000000000e+04
-2.216400000000000000e+04 -1.094580000000000000e+05
-7.161000000000000000e+03 -1.369070000000000000e+05
-8.525000000000000000e+03 -1.740760000000000000e+05
-2.352800000000000000e+04 -2.066400000000000000e+05
-5.830900000000000000e+04 -2.351130000000000000e+05
-9.957000000000000000e+04 -2.565950000000000000e+05
-1.512290000000000000e+05 -2.605160000000000000e+05
-1.994800000000000000e+05 -2.506280000000000000e+05
-2.463650000000000000e+05 -2.233480000000000000e+05
-2.854090000000000000e+05 -1.887380000000000000e+05
-3.200200000000000000e+05 -1.469660000000000000e+05
-3.336590000000000000e+05 -8.729400000000000000e+04
-3.416720000000000000e+05 -3.785000000000000000e+04
-3.360450000000000000e+05 1.807200000000000000e+04
-3.229180000000000000e+05 6.819800000000000000e+04
-2.973430000000000000e+05 1.178120000000000000e+05
-2.697230000000000000e+05 1.612880000000000000e+05
-2.322140000000000000e+05 1.998210000000000000e+05
-1.907840000000000000e+05 2.296570000000000000e+05
-1.447510000000000000e+05 2.494340000000000000e+05
-9.684100000000000000e+04 2.652910000000000000e+05
-4.825000000000000000e+04 2.649490000000000000e+05
-1.876000000000000000e+03 2.569360000000000000e+05
4.126000000000000000e+04 2.458540000000000000e+05
8.115600000000000000e+04 2.206210000000000000e+05
1.140620000000000000e+05 1.858390000000000000e+05
1.360550000000000000e+05 1.427050000000000000e+05
1.377600000000000000e+05 9.002100000000000000e+04
1.237790000000000000e+05 4.790900000000000000e+04
9.138600000000000000e+04 1.670900000000000000e+04
5.882100000000000000e+04 1.040000000000000000e+04
3.785000000000000000e+04 1.432200000000000000e+04
2.472200000000000000e+04 2.080000000000000000e+04
2.011900000000000000e+04 2.352800000000000000e+04
1.653800000000000000e+04 3.341700000000000000e+04
1.551500000000000000e+04 3.256500000000000000e+04
1.875400000000000000e+04 3.205400000000000000e+04
1.756100000000000000e+04 3.427000000000000000e+04
1.858400000000000000e+04 3.733800000000000000e+04
1.977800000000000000e+04 3.785000000000000000e+04
2.318700000000000000e+04 3.870200000000000000e+04
2.318700000000000000e+04 3.716800000000000000e+04
2.148300000000000000e+04 3.955400000000000000e+04
2.710800000000000000e+04 3.904400000000000000e+04
2.625600000000000000e+04 4.211200000000000000e+04
3.171200000000000000e+04 4.671500000000000000e+04
3.290600000000000000e+04 4.944400000000000000e+04
3.955400000000000000e+04 5.319400000000000000e+04
4.569200000000000000e+04 5.660500000000000000e+04
5.728600000000000000e+04 6.069600000000000000e+04
6.802700000000000000e+04 6.410600000000000000e+04
8.081400000000000000e+04 6.206000000000000000e+04
9.905800000000000000e+04 5.524000000000000000e+04
1.183230000000000000e+05 3.887200000000000000e+04
1.239500000000000000e+05 1.858300000000000000e+04
1.253140000000000000e+05 -6.990000000000000000e+03
1.126970000000000000e+05 -3.171300000000000000e+04
9.581800000000000000e+04 -4.756900000000000000e+04
7.689300000000000000e+04 -5.677500000000000000e+04
5.745700000000000000e+04 -5.711600000000000000e+04
4.569300000000000000e+04 -4.705700000000000000e+04
3.614500000000000000e+04 -4.143000000000000000e+04
3.051900000000000000e+04 -3.188200000000000000e+04
2.403900000000000000e+04 -2.352900000000000000e+04
2.386900000000000000e+04 -1.295800000000000000e+04
2.830200000000000000e+04 -5.456000000000000000e+03
3.887300000000000000e+04 8.695000000000000000e+03
5.183100000000000000e+04 1.585600000000000000e+04
6.956200000000000000e+04 1.875500000000000000e+04
9.087400000000000000e+04 1.841400000000000000e+04
1.179820000000000000e+05 5.967000000000000000e+03
1.445800000000000000e+05 -1.142400000000000000e+04
1.737340000000000000e+05 -4.245300000000000000e+04
1.924890000000000000e+05 -9.104500000000000000e+04
1.940230000000000000e+05 -1.505470000000000000e+05
1.750980000000000000e+05 -2.161880000000000000e+05
1.265070000000000000e+05 -2.746670000000000000e+05
6.700500000000000000e+04 -3.186560000000000000e+05
-6.820000000000000000e+03 -3.413310000000000000e+05
-7.911000000000000000e+04 -3.449120000000000000e+05
-1.508890000000000000e+05 -3.317830000000000000e+05
-2.132900000000000000e+05 -3.005830000000000000e+05
-2.678480000000000000e+05 -2.620510000000000000e+05
-3.155860000000000000e+05 -2.107320000000000000e+05
-3.469580000000000000e+05 -1.561740000000000000e+05
-3.674170000000000000e+05 -9.598900000000000000e+04
-3.781590000000000000e+05 -2.523300000000000000e+04
-3.728730000000000000e+05 3.836100000000000000e+04
-3.563340000000000000e+05 1.050250000000000000e+05
-3.251340000000000000e+05 1.645280000000000000e+05
-2.811460000000000000e+05 2.117550000000000000e+05
-2.267580000000000000e+05 2.482410000000000000e+05
-1.711770000000000000e+05 2.693830000000000000e+05
-1.104800000000000000e+05 2.739860000000000000e+05
-5.984300000000000000e+04 2.613690000000000000e+05
-1.875400000000000000e+04 2.328960000000000000e+05
4.262000000000000000e+03 1.964100000000000000e+05
4.091000000000000000e+03 1.653800000000000000e+05
-1.142300000000000000e+04 1.456030000000000000e+05
-2.813200000000000000e+04 1.508880000000000000e+05
-3.580400000000000000e+04 1.686200000000000000e+05
-2.625600000000000000e+04 1.853280000000000000e+05
-1.176400000000000000e+04 2.035710000000000000e+05
9.548000000000000000e+03 2.184040000000000000e+05
3.529200000000000000e+04 2.293160000000000000e+05
6.564100000000000000e+04 2.344310000000000000e+05
9.496600000000000000e+04 2.330670000000000000e+05
1.222450000000000000e+05 2.299980000000000000e+05
1.531050000000000000e+05 2.213030000000000000e+05
1.822590000000000000e+05 2.081740000000000000e+05
2.131190000000000000e+05 1.965810000000000000e+05
2.436380000000000000e+05 1.761220000000000000e+05
2.729630000000000000e+05 1.512290000000000000e+05
3.004130000000000000e+05 1.203690000000000000e+05
3.282040000000000000e+05 8.405400000000000000e+04
3.551410000000000000e+05 4.569200000000000000e+04
3.698040000000000000e+05 -2.080100000000000000e+04
3.757720000000000000e+05 -8.865800000000000000e+04
3.592340000000000000e+05 -1.612880000000000000e+05
3.229180000000000000e+05 -2.405690000000000000e+05
2.569360000000000000e+05 -3.029700000000000000e+05
1.739050000000000000e+05 -3.452530000000000000e+05
8.371300000000000000e+04 -3.527550000000000000e+05
5.967000000000000000e+03 -3.285450000000000000e+05
-4.773900000000000000e+04 -2.852380000000000000e+05
-8.252000000000000000e+04 -2.363060000000000000e+05
-9.019200000000000000e+04 -1.897610000000000000e+05
-8.780500000000000000e+04 -1.485010000000000000e+05
-7.774600000000000000e+04 -1.191770000000000000e+05
-5.541000000000000000e+04 -1.017860000000000000e+05
-3.597400000000000000e+04 -9.019200000000000000e+04
-1.432100000000000000e+04 -9.309100000000000000e+04
7.161000000000000000e+03 -1.050250000000000000e+05
2.608600000000000000e+04 -1.309410000000000000e+05
3.358800000000000000e+04 -1.614590000000000000e+05
2.710900000000000000e+04 -2.074930000000000000e+05
3.921000000000000000e+03 -2.574480000000000000e+05
-4.347600000000000000e+04 -3.079150000000000000e+05
-1.123560000000000000e+05 -3.454230000000000000e+05
-1.996500000000000000e+05 -3.663940000000000000e+05
-2.988780000000000000e+05 -3.534370000000000000e+05
-3.883880000000000000e+05 -3.036520000000000000e+05
-4.610180000000000000e+05 -2.334080000000000000e+05
-5.055180000000000000e+05 -1.423640000000000000e+05
-5.230790000000000000e+05 -5.268300000000000000e+04
-5.201810000000000000e+05 3.785000000000000000e+04
-4.992100000000000000e+05 1.179830000000000000e+05
-4.686910000000000000e+05 1.878860000000000000e+05
-4.301590000000000000e+05 2.579590000000000000e+05
-3.848080000000000000e+05 3.195080000000000000e+05
-3.270090000000000000e+05 3.686100000000000000e+05
-2.687000000000000000e+05 4.110640000000000000e+05
-2.030600000000000000e+05 4.451630000000000000e+05
-1.370780000000000000e+05 4.721010000000000000e+05
-6.052600000000000000e+04 4.848880000000000000e+05
1.312800000000000000e+04 4.872750000000000000e+05
8.678200000000000000e+04 4.719300000000000000e+05
1.549810000000000000e+05 4.385130000000000000e+05
2.091980000000000000e+05 3.907740000000000000e+05
2.463650000000000000e+05 3.316130000000000000e+05
2.579590000000000000e+05 2.736450000000000000e+05
2.501160000000000000e+05 2.242010000000000000e+05
2.308510000000000000e+05 1.870330000000000000e+05
2.061280000000000000e+05 1.752690000000000000e+05
1.846460000000000000e+05 1.923180000000000000e+05
1.912950000000000000e+05 2.240310000000000000e+05
2.284630000000000000e+05 2.613690000000000000e+05
2.949570000000000000e+05 2.779070000000000000e+05
3.728730000000000000e+05 2.632440000000000000e+05
4.419230000000000000e+05 2.114140000000000000e+05
4.940950000000000000e+05 1.375890000000000000e+05
5.186460000000000000e+05 5.319400000000000000e+04
5.230790000000000000e+05 -2.762100000000000000e+04
5.097800000000000000e+05 -1.079230000000000000e+05
4.864230000000000000e+05 -1.793610000000000000e+05
4.507900000000000000e+05 -2.475580000000000000e+05
4.091880000000000000e+05 -3.050160000000000000e+05
3.605970000000000000e+05 -3.602560000000000000e+05
3.077440000000000000e+05 -4.032210000000000000e+05
2.480700000000000000e+05 -4.419230000000000000e+05
1.890790000000000000e+05 -4.775570000000000000e+05
1.179830000000000000e+05 -5.044950000000000000e+05
4.739800000000000000e+04 -5.264880000000000000e+05
-2.796100000000000000e+04 -5.384240000000000000e+05
-1.101390000000000000e+05 -5.387650000000000000e+05
-2.001610000000000000e+05 -5.234200000000000000e+05
-2.855790000000000000e+05 -4.911960000000000000e+05
-3.682690000000000000e+05 -4.378320000000000000e+05
-4.352750000000000000e+05 -3.609380000000000000e+05
-4.821600000000000000e+05 -2.635850000000000000e+05
-4.911960000000000000e+05 -1.565150000000000000e+05
-4.678380000000000000e+05 -5.848000000000000000e+04
-4.136210000000000000e+05 2.080000000000000000e+04
-3.472980000000000000e+05 6.683400000000000000e+04
-2.862610000000000000e+05 8.064400000000000000e+04
-2.351130000000000000e+05 7.177800000000000000e+04
-2.047650000000000000e+05 4.995500000000000000e+04
-2.010140000000000000e+05 1.892500000000000000e+04
-2.129480000000000000e+05 -6.990000000000000000e+03
-2.414210000000000000e+05 -2.335800000000000000e+04
-2.831920000000000000e+05 -2.233500000000000000e+04
-3.271800000000000000e+05 -3.069000000000000000e+03
-3.663940000000000000e+05 3.341700000000000000e+04
-3.962300000000000000e+05 9.121500000000000000e+04
-4.052660000000000000e+05 1.677670000000000000e+05
-3.889000000000000000e+05 2.432960000000000000e+05
-3.530960000000000000e+05 3.188260000000000000e+05
-3.021180000000000000e+05 3.786700000000000000e+05
-2.328960000000000000e+05 4.301590000000000000e+05
-1.646980000000000000e+05 4.663040000000000000e+05
-8.814600000000000000e+04 4.874450000000000000e+05
-1.534400000000000000e+04 4.951180000000000000e+05
6.512900000000000000e+04 4.876160000000000000e+05
1.317930000000000000e+05 4.765330000000000000e+05
1.994790000000000000e+05 4.492550000000000000e+05
2.613690000000000000e+05 4.183950000000000000e+05
3.143930000000000000e+05 3.795220000000000000e+05
3.655420000000000000e+05 3.304190000000000000e+05
4.079950000000000000e+05 2.762020000000000000e+05
4.446510000000000000e+05 2.155060000000000000e+05
4.686910000000000000e+05 1.427040000000000000e+05
4.801150000000000000e+05 7.109700000000000000e+04
4.756810000000000000e+05 -6.479000000000000000e+03
4.528350000000000000e+05 -8.320200000000000000e+04
4.079950000000000000e+05 -1.522520000000000000e+05
3.452530000000000000e+05 -2.032300000000000000e+05
2.821690000000000000e+05 -2.306800000000000000e+05
2.230080000000000000e+05 -2.315330000000000000e+05
1.797020000000000000e+05 -2.173820000000000000e+05
1.609470000000000000e+05 -1.873740000000000000e+05
1.631640000000000000e+05 -1.664040000000000000e+05
1.841350000000000000e+05 -1.563440000000000000e+05
2.175520000000000000e+05 -1.681090000000000000e+05
2.427850000000000000e+05 -2.034010000000000000e+05
2.596640000000000000e+05 -2.526740000000000000e+05
2.564250000000000000e+05 -3.266690000000000000e+05
2.286340000000000000e+05 -4.049260000000000000e+05
1.664040000000000000e+05 -4.816490000000000000e+05
8.030300000000000000e+04 -5.418340000000000000e+05
-2.557400000000000000e+04 -5.830930000000000000e+05
-1.403170000000000000e+05 -5.931530000000000000e+05
-2.516500000000000000e+05 -5.713290000000000000e+05
-3.471280000000000000e+05 -5.218860000000000000e+05
-4.291360000000000000e+05 -4.584620000000000000e+05
-4.925600000000000000e+05 -3.786700000000000000e+05
-5.351840000000000000e+05 -2.934220000000000000e+05
-5.587120000000000000e+05 -2.076630000000000000e+05
-5.701360000000000000e+05 -1.229270000000000000e+05
-5.687710000000000000e+05 -4.381800000000000000e+04
-5.585420000000000000e+05 3.512200000000000000e+04
-5.372300000000000000e+05 1.058780000000000000e+05
-5.092690000000000000e+05 1.783380000000000000e+05
-4.744870000000000000e+05 2.397160000000000000e+05
-4.311820000000000000e+05 2.980260000000000000e+05
-3.810570000000000000e+05 3.496850000000000000e+05
-3.227470000000000000e+05 3.975950000000000000e+05
-2.519920000000000000e+05 4.359560000000000000e+05
-1.788490000000000000e+05 4.601660000000000000e+05
-1.004220000000000000e+05 4.640880000000000000e+05
-2.438100000000000000e+04 4.490840000000000000e+05
3.222400000000000000e+04 4.166900000000000000e+05
7.058500000000000000e+04 3.711680000000000000e+05
8.081500000000000000e+04 3.292260000000000000e+05
7.655300000000000000e+04 3.068910000000000000e+05
6.870900000000000000e+04 3.026290000000000000e+05
7.365400000000000000e+04 3.188250000000000000e+05
9.888700000000000000e+04 3.401380000000000000e+05
1.394650000000000000e+05 3.602560000000000000e+05
1.948750000000000000e+05 3.667350000000000000e+05
2.535260000000000000e+05 3.597450000000000000e+05
3.091070000000000000e+05 3.384330000000000000e+05
3.643490000000000000e+05 3.005820000000000000e+05
4.115760000000000000e+05 2.557430000000000000e+05
4.444810000000000000e+05 1.955580000000000000e+05
4.703960000000000000e+05 1.338380000000000000e+05
4.806260000000000000e+05 6.905100000000000000e+04
4.825020000000000000e+05 4.774000000000000000e+03
4.726130000000000000e+05 -5.967300000000000000e+04
4.572680000000000000e+05 -1.225860000000000000e+05
4.361260000000000000e+05 -1.733930000000000000e+05
4.052670000000000000e+05 -2.252240000000000000e+05
3.704860000000000000e+05 -2.734750000000000000e+05
3.329770000000000000e+05 -3.155870000000000000e+05
2.884780000000000000e+05 -3.541180000000000000e+05
2.402280000000000000e+05 -3.880470000000000000e+05
1.854990000000000000e+05 -4.144740000000000000e+05
1.227560000000000000e+05 -4.373200000000000000e+05
6.001400000000000000e+04 -4.480610000000000000e+05
-7.502000000000000000e+03 -4.489140000000000000e+05
-7.859800000000000000e+04 -4.313520000000000000e+05
-1.420230000000000000e+05 -3.952080000000000000e+05
-1.904430000000000000e+05 -3.411610000000000000e+05
-2.161880000000000000e+05 -2.801230000000000000e+05
-2.120960000000000000e+05 -2.185750000000000000e+05
-1.945340000000000000e+05 -1.737350000000000000e+05
-1.660620000000000000e+05 -1.500360000000000000e+05
-1.404880000000000000e+05 -1.386130000000000000e+05
-1.227560000000000000e+05 -1.483310000000000000e+05
-1.161070000000000000e+05 -1.618000000000000000e+05
-1.200290000000000000e+05 -1.814070000000000000e+05
-1.312820000000000000e+05 -1.960690000000000000e+05
-1.571970000000000000e+05 -2.148240000000000000e+05
-1.902730000000000000e+05 -2.262470000000000000e+05
-2.332370000000000000e+05 -2.346010000000000000e+05
-2.804640000000000000e+05 -2.271000000000000000e+05
-3.341700000000000000e+05 -2.076630000000000000e+05
-3.880470000000000000e+05 -1.749280000000000000e+05
-4.364670000000000000e+05 -1.261660000000000000e+05
-4.719300000000000000e+05 -6.001400000000000000e+04
-4.988680000000000000e+05 1.943600000000000000e+04
-5.009140000000000000e+05 1.057070000000000000e+05
-4.746580000000000000e+05 1.933420000000000000e+05
-4.357850000000000000e+05 2.739850000000000000e+05
-3.796930000000000000e+05 3.428660000000000000e+05
-3.113240000000000000e+05 3.964010000000000000e+05
-2.422730000000000000e+05 4.303290000000000000e+05
-1.664030000000000000e+05 4.513000000000000000e+05
-9.769400000000000000e+04 4.565860000000000000e+05
-3.222300000000000000e+04 4.504480000000000000e+05
2.625700000000000000e+04 4.393660000000000000e+05
7.552900000000000000e+04 4.146440000000000000e+05
1.212220000000000000e+05 3.899230000000000000e+05
1.590720000000000000e+05 3.595740000000000000e+05
1.878860000000000000e+05 3.251340000000000000e+05
2.093680000000000000e+05 2.910350000000000000e+05
2.219850000000000000e+05 2.554010000000000000e+05
2.277820000000000000e+05 2.264170000000000000e+05
2.265880000000000000e+05 2.039120000000000000e+05
2.214730000000000000e+05 1.837940000000000000e+05
2.206210000000000000e+05 1.797020000000000000e+05
2.282930000000000000e+05 1.849870000000000000e+05
2.458540000000000000e+05 1.911250000000000000e+05
2.831920000000000000e+05 1.957280000000000000e+05
3.275220000000000000e+05 1.803830000000000000e+05
3.737260000000000000e+05 1.505470000000000000e+05
4.108940000000000000e+05 1.036610000000000000e+05
4.364680000000000000e+05 4.535200000000000000e+04
4.484030000000000000e+05 -1.534500000000000000e+04
4.504480000000000000e+05 -8.558900000000000000e+04
4.393660000000000000e+05 -1.519110000000000000e+05
4.124280000000000000e+05 -2.175520000000000000e+05
3.769650000000000000e+05 -2.792710000000000000e+05
3.348530000000000000e+05 -3.329770000000000000e+05
2.826810000000000000e+05 -3.762820000000000000e+05
2.219850000000000000e+05 -4.172010000000000000e+05
1.597540000000000000e+05 -4.455040000000000000e+05
9.547700000000000000e+04 -4.669860000000000000e+05
2.881400000000000000e+04 -4.761930000000000000e+05
-3.870200000000000000e+04 -4.772160000000000000e+05
-9.922800000000000000e+04 -4.663040000000000000e+05
-1.636750000000000000e+05 -4.504480000000000000e+05
-2.161880000000000000e+05 -4.224870000000000000e+05
-2.741560000000000000e+05 -3.892410000000000000e+05
