-2.277810000000000000e+05 7.450600000000000000e+04
-2.027190000000000000e+05 9.837600000000000000e+04
-1.756100000000000000e+05 1.126970000000000000e+05
-1.512290000000000000e+05 1.259950000000000000e+05
-1.234390000000000000e+05 1.321340000000000000e+05
-9.684100000000000000e+04 1.375900000000000000e+05
-7.416600000000000000e+04 1.370780000000000000e+05
-5.421800000000000000e+04 1.333270000000000000e+05
-3.034800000000000000e+04 1.265070000000000000e+05
-1.551500000000000000e+04 1.225860000000000000e+05
-7.502000000000000000e+03 1.123560000000000000e+05
-1.705000000000000000e+03 1.069010000000000000e+05
6.479000000000000000e+03 9.564700000000000000e+04
1.261600000000000000e+04 9.104400000000000000e+04
1.534500000000000000e+04 8.490600000000000000e+04
1.722000000000000000e+04 7.808700000000000000e+04
1.943600000000000000e+04 7.928000000000000000e+04
2.267600000000000000e+04 7.911000000000000000e+04
2.659700000000000000e+04 8.013300000000000000e+04
2.693800000000000000e+04 7.996200000000000000e+04
3.171200000000000000e+04 8.149700000000000000e+04
3.904300000000000000e+04 8.132600000000000000e+04
4.586300000000000000e+04 8.235000000000000000e+04
5.217100000000000000e+04 7.945100000000000000e+04
6.189000000000000000e+04 8.098500000000000000e+04
7.501800000000000000e+04 8.064400000000000000e+04
8.303100000000000000e+04 7.808700000000000000e+04
9.633000000000000000e+04 7.331300000000000000e+04
1.111630000000000000e+05 6.870900000000000000e+04
1.242910000000000000e+05 5.967300000000000000e+04
1.386120000000000000e+05 5.080800000000000000e+04
1.473070000000000000e+05 3.853200000000000000e+04
1.583900000000000000e+05 2.369900000000000000e+04
1.694720000000000000e+05 7.843000000000000000e+03
1.735640000000000000e+05 -1.057000000000000000e+04
1.766330000000000000e+05 -2.489200000000000000e+04
1.764630000000000000e+05 -4.705600000000000000e+04
1.737340000000000000e+05 -6.649300000000000000e+04
1.648680000000000000e+05 -8.422400000000000000e+04
1.532750000000000000e+05 -1.087760000000000000e+05
1.377600000000000000e+05 -1.239500000000000000e+05
1.184940000000000000e+05 -1.375900000000000000e+05
9.905700000000000000e+04 -1.554920000000000000e+05
7.587100000000000000e+04 -1.669140000000000000e+05
4.927300000000000000e+04 -1.723700000000000000e+05
1.670800000000000000e+04 -1.798720000000000000e+05
-9.718000000000000000e+03 -1.800430000000000000e+05
-3.989600000000000000e+04 -1.757810000000000000e+05
-6.734600000000000000e+04 -1.686200000000000000e+05
-9.496600000000000000e+04 -1.582190000000000000e+05
-1.183240000000000000e+05 -1.449210000000000000e+05
-1.377600000000000000e+05 -1.237790000000000000e+05
-1.546390000000000000e+05 -1.034900000000000000e+05
-1.652100000000000000e+05 -7.945000000000000000e+04
-1.732230000000000000e+05 -5.711600000000000000e+04
-1.747570000000000000e+05 -2.608600000000000000e+04
-1.739050000000000000e+05 -9.206000000000000000e+03
-1.723700000000000000e+05 1.381000000000000000e+04
-1.638460000000000000e+05 3.103000000000000000e+04
-1.537870000000000000e+05 4.790900000000000000e+04
-1.411700000000000000e+05 6.478800000000000000e+04
-1.277000000000000000e+05 7.655300000000000000e+04
-1.092870000000000000e+05 8.712300000000000000e+04
-9.138500000000000000e+04 9.667100000000000000e+04
-7.365400000000000000e+04 9.735300000000000000e+04
-5.506900000000000000e+04 9.871700000000000000e+04
-4.091900000000000000e+04 9.871700000000000000e+04
-2.557500000000000000e+04 9.701200000000000000e+04
-1.278800000000000000e+04 9.343100000000000000e+04
1.534000000000000000e+03 8.013300000000000000e+04
2.217000000000000000e+03 7.535900000000000000e+04
1.687900000000000000e+04 7.416500000000000000e+04
2.199400000000000000e+04 6.240100000000000000e+04
2.898400000000000000e+04 5.745700000000000000e+04
3.205300000000000000e+04 4.995500000000000000e+04
3.358800000000000000e+04 4.279500000000000000e+04
3.358800000000000000e+04 3.938400000000000000e+04
3.631600000000000000e+04 3.802000000000000000e+04
3.529200000000000000e+04 3.546300000000000000e+04
3.904300000000000000e+04 3.546300000000000000e+04
3.836100000000000000e+04 3.529200000000000000e+04
3.819100000000000000e+04 3.512200000000000000e+04
4.109000000000000000e+04 3.887300000000000000e+04
4.381700000000000000e+04 3.802100000000000000e+04
4.842100000000000000e+04 3.495200000000000000e+04
5.353600000000000000e+04 3.836100000000000000e+04
5.899100000000000000e+04 3.785000000000000000e+04
6.427600000000000000e+04 3.478100000000000000e+04
6.939200000000000000e+04 3.103000000000000000e+04
7.672200000000000000e+04 2.642700000000000000e+04
8.507700000000000000e+04 2.028900000000000000e+04
8.729400000000000000e+04 7.843000000000000000e+03
8.934000000000000000e+04 3.581000000000000000e+03
9.633000000000000000e+04 -3.240000000000000000e+03
9.786500000000000000e+04 -1.568500000000000000e+04
9.820600000000000000e+04 -2.250500000000000000e+04
9.650100000000000000e+04 -3.512200000000000000e+04
9.547800000000000000e+04 -4.637400000000000000e+04
8.661200000000000000e+04 -5.660400000000000000e+04
8.320200000000000000e+04 -6.581100000000000000e+04
7.331300000000000000e+04 -7.706300000000000000e+04
6.172000000000000000e+04 -8.610000000000000000e+04
4.739800000000000000e+04 -9.189600000000000000e+04
3.682700000000000000e+04 -9.871600000000000000e+04
2.028900000000000000e+04 -1.036610000000000000e+05
4.262000000000000000e+03 -1.057070000000000000e+05
-9.206000000000000000e+03 -1.077530000000000000e+05
-2.540400000000000000e+04 -1.033200000000000000e+05
-3.972500000000000000e+04 -1.000800000000000000e+05
-5.370600000000000000e+04 -9.718200000000000000e+04
-6.888000000000000000e+04 -8.882800000000000000e+04
-8.115500000000000000e+04 -8.149600000000000000e+04
-9.087400000000000000e+04 -6.853900000000000000e+04
-9.922800000000000000e+04 -5.541100000000000000e+04
-1.041720000000000000e+05 -4.586300000000000000e+04
-1.120150000000000000e+05 -3.000700000000000000e+04
-1.077530000000000000e+05 -1.619700000000000000e+04
-1.082650000000000000e+05 -2.387000000000000000e+03
-1.058780000000000000e+05 1.227600000000000000e+04
-1.026390000000000000e+05 2.352800000000000000e+04
-9.513600000000000000e+04 3.273500000000000000e+04
-8.576000000000000000e+04 4.347600000000000000e+04
-7.672300000000000000e+04 5.149000000000000000e+04
-6.461800000000000000e+04 5.711600000000000000e+04
-5.421700000000000000e+04 6.137800000000000000e+04
-4.143000000000000000e+04 6.444800000000000000e+04
-3.239400000000000000e+04 6.717500000000000000e+04
-1.960700000000000000e+04 6.257200000000000000e+04
-1.125200000000000000e+04 5.950300000000000000e+04
-1.364000000000000000e+03 5.660400000000000000e+04
3.410000000000000000e+03 5.234200000000000000e+04
1.159400000000000000e+04 4.620500000000000000e+04
1.960700000000000000e+04 4.535200000000000000e+04
2.063000000000000000e+04 3.444000000000000000e+04
2.199400000000000000e+04 3.171200000000000000e+04
2.676800000000000000e+04 2.830200000000000000e+04
2.676800000000000000e+04 2.267600000000000000e+04
-1.739100000000000000e+04 2.540400000000000000e+04
-1.142300000000000000e+04 2.369900000000000000e+04
-7.331000000000000000e+03 1.841400000000000000e+04
-7.502000000000000000e+03 1.977700000000000000e+04
-6.820000000000000000e+03 2.097100000000000000e+04
-7.161000000000000000e+03 1.790200000000000000e+04
-7.502000000000000000e+03 1.841400000000000000e+04
-6.478000000000000000e+03 2.250500000000000000e+04
-5.115000000000000000e+03 2.540300000000000000e+04
-4.091000000000000000e+03 2.779000000000000000e+04
-1.705000000000000000e+03 3.120100000000000000e+04
-2.557000000000000000e+03 3.205400000000000000e+04
2.046000000000000000e+03 3.512200000000000000e+04
2.046000000000000000e+03 3.802100000000000000e+04
6.479000000000000000e+03 4.535200000000000000e+04
9.718000000000000000e+03 4.262400000000000000e+04
1.432200000000000000e+04 4.279500000000000000e+04
2.318700000000000000e+04 4.501100000000000000e+04
2.949600000000000000e+04 4.501100000000000000e+04
3.392900000000000000e+04 4.228300000000000000e+04
4.245400000000000000e+04 4.143100000000000000e+04
4.620500000000000000e+04 4.091900000000000000e+04
5.353500000000000000e+04 3.410000000000000000e+04
5.796900000000000000e+04 3.239400000000000000e+04
6.581100000000000000e+04 2.557400000000000000e+04
6.717500000000000000e+04 1.841300000000000000e+04
7.348300000000000000e+04 1.091200000000000000e+04
7.382400000000000000e+04 2.387000000000000000e+03
7.450600000000000000e+04 -8.183000000000000000e+03
7.228900000000000000e+04 -1.841400000000000000e+04
7.109700000000000000e+04 -2.472100000000000000e+04
6.615200000000000000e+04 -3.188300000000000000e+04
5.882100000000000000e+04 -4.074800000000000000e+04
5.336400000000000000e+04 -5.200100000000000000e+04
4.432800000000000000e+04 -5.762700000000000000e+04
3.580400000000000000e+04 -6.189000000000000000e+04
2.369900000000000000e+04 -6.478800000000000000e+04
1.159400000000000000e+04 -6.802800000000000000e+04
2.216000000000000000e+03 -6.922100000000000000e+04
-6.649000000000000000e+03 -6.785700000000000000e+04
-1.585600000000000000e+04 -6.598200000000000000e+04
-2.676700000000000000e+04 -6.376500000000000000e+04
-3.512200000000000000e+04 -6.274200000000000000e+04
-3.904300000000000000e+04 -5.302400000000000000e+04
-5.114800000000000000e+04 -5.097800000000000000e+04
-5.200100000000000000e+04 -4.177100000000000000e+04
-5.916100000000000000e+04 -3.409900000000000000e+04
-6.529900000000000000e+04 -2.642600000000000000e+04
-6.018500000000000000e+04 -1.926600000000000000e+04
-6.308300000000000000e+04 -1.057000000000000000e+04
-6.206000000000000000e+04 -3.580000000000000000e+03
-6.325300000000000000e+04 -2.046000000000000000e+03
-5.728600000000000000e+04 5.286000000000000000e+03
-5.251200000000000000e+04 1.006000000000000000e+04
-5.097800000000000000e+04 1.602700000000000000e+04
-4.671600000000000000e+04 2.045900000000000000e+04
-4.415800000000000000e+04 2.284600000000000000e+04
-3.819000000000000000e+04 2.267600000000000000e+04
-3.495100000000000000e+04 2.250600000000000000e+04
-2.813200000000000000e+04 2.574500000000000000e+04
-2.557400000000000000e+04 2.438100000000000000e+04
-2.267600000000000000e+04 2.608600000000000000e+04
-1.534500000000000000e+04 2.131200000000000000e+04
-1.551500000000000000e+04 2.352800000000000000e+04
-1.398100000000000000e+04 2.148200000000000000e+04
-1.432200000000000000e+04 2.097100000000000000e+04
-1.125300000000000000e+04 1.875400000000000000e+04
-8.525000000000000000e+03 2.131200000000000000e+04
-1.023000000000000000e+04 2.028900000000000000e+04
-1.142300000000000000e+04 1.943700000000000000e+04
-1.108200000000000000e+04 1.841300000000000000e+04
-1.074100000000000000e+04 2.045900000000000000e+04
-9.547000000000000000e+03 2.369900000000000000e+04
-9.036000000000000000e+03 2.421000000000000000e+04
-1.108200000000000000e+04 2.693800000000000000e+04
-7.160000000000000000e+03 2.881400000000000000e+04
-1.705000000000000000e+03 3.000800000000000000e+04
8.520000000000000000e+02 3.392900000000000000e+04
4.945000000000000000e+03 3.785000000000000000e+04
4.603000000000000000e+03 3.614500000000000000e+04
9.719000000000000000e+03 3.750900000000000000e+04
1.534500000000000000e+04 3.921400000000000000e+04
2.097100000000000000e+04 3.392900000000000000e+04
2.591600000000000000e+04 3.444000000000000000e+04
3.222400000000000000e+04 3.205300000000000000e+04
3.836100000000000000e+04 2.915500000000000000e+04
4.057800000000000000e+04 2.745000000000000000e+04
4.381800000000000000e+04 2.216400000000000000e+04
4.705700000000000000e+04 1.551500000000000000e+04
5.285400000000000000e+04 1.210600000000000000e+04
5.438800000000000000e+04 6.479000000000000000e+03
5.643400000000000000e+04 -1.193000000000000000e+03
5.268300000000000000e+04 -1.142300000000000000e+04
5.370600000000000000e+04 -1.602600000000000000e+04
5.097800000000000000e+04 -2.301600000000000000e+04
4.808000000000000000e+04 -2.949600000000000000e+04
4.245400000000000000e+04 -3.716800000000000000e+04
3.972500000000000000e+04 -4.296400000000000000e+04
2.915500000000000000e+04 -4.756800000000000000e+04
2.199400000000000000e+04 -5.285300000000000000e+04
1.432200000000000000e+04 -5.609300000000000000e+04
6.479000000000000000e+03 -5.438800000000000000e+04
-3.239000000000000000e+03 -5.882000000000000000e+04
-1.534400000000000000e+04 -5.524000000000000000e+04
-2.455100000000000000e+04 -5.455800000000000000e+04
-3.307600000000000000e+04 -4.910300000000000000e+04
-3.819100000000000000e+04 -4.518100000000000000e+04
-4.791000000000000000e+04 -4.126000000000000000e+04
-5.251300000000000000e+04 -3.324600000000000000e+04
-5.353500000000000000e+04 -2.574400000000000000e+04
-5.507000000000000000e+04 -2.011800000000000000e+04
-5.609200000000000000e+04 -1.364000000000000000e+04
-5.660400000000000000e+04 -7.160000000000000000e+03
-5.370600000000000000e+04 -1.705000000000000000e+03
-5.131900000000000000e+04 4.604000000000000000e+03
-4.842100000000000000e+04 9.377000000000000000e+03
-4.773900000000000000e+04 1.705000000000000000e+04
-4.739800000000000000e+04 1.943600000000000000e+04
-4.023700000000000000e+04 2.386900000000000000e+04
-3.614500000000000000e+04 2.693900000000000000e+04
-3.069000000000000000e+04 2.335800000000000000e+04
-2.779100000000000000e+04 2.847300000000000000e+04
-2.097100000000000000e+04 3.051900000000000000e+04
-2.131200000000000000e+04 2.659800000000000000e+04
-1.534500000000000000e+04 2.676800000000000000e+04
-1.125300000000000000e+04 2.762100000000000000e+04
-9.377000000000000000e+03 2.608600000000000000e+04
-9.207000000000000000e+03 2.642700000000000000e+04
-4.774000000000000000e+03 2.455200000000000000e+04
-4.262000000000000000e+03 2.472200000000000000e+04
-1.534000000000000000e+03 2.455200000000000000e+04
-1.194000000000000000e+03 2.472200000000000000e+04
-1.364000000000000000e+03 2.335800000000000000e+04
-5.120000000000000000e+02 2.284700000000000000e+04
1.023000000000000000e+03 2.182400000000000000e+04
1.194000000000000000e+03 2.574500000000000000e+04
3.410000000000000000e+03 2.557500000000000000e+04
9.207000000000000000e+03 2.932500000000000000e+04
1.005900000000000000e+04 2.813100000000000000e+04
1.040000000000000000e+04 2.983700000000000000e+04
1.653800000000000000e+04 3.444000000000000000e+04
1.875400000000000000e+04 3.222300000000000000e+04
2.267600000000000000e+04 3.086000000000000000e+04
2.438100000000000000e+04 3.137100000000000000e+04
2.744900000000000000e+04 2.966600000000000000e+04
3.171200000000000000e+04 2.489200000000000000e+04
3.870200000000000000e+04 2.421000000000000000e+04
3.836100000000000000e+04 2.063000000000000000e+04
4.023600000000000000e+04 2.097100000000000000e+04
4.126000000000000000e+04 1.687900000000000000e+04
4.467000000000000000e+04 1.500400000000000000e+04
4.842000000000000000e+04 1.125300000000000000e+04
4.671500000000000000e+04 5.285000000000000000e+03
4.825000000000000000e+04 8.525000000000000000e+03
4.825000000000000000e+04 4.092000000000000000e+03
4.842100000000000000e+04 2.728000000000000000e+03
4.688600000000000000e+04 -1.534000000000000000e+03
4.501100000000000000e+04 -1.193000000000000000e+03
4.245300000000000000e+04 -5.115000000000000000e+03
4.518100000000000000e+04 -7.502000000000000000e+03
4.177100000000000000e+04 -7.843000000000000000e+03
4.364700000000000000e+04 -1.244600000000000000e+04
4.859100000000000000e+04 -1.943700000000000000e+04
4.637400000000000000e+04 -2.284700000000000000e+04
4.654500000000000000e+04 -3.000700000000000000e+04
4.671500000000000000e+04 -3.546300000000000000e+04
4.296500000000000000e+04 -4.262400000000000000e+04
4.637400000000000000e+04 -5.251300000000000000e+04
4.364600000000000000e+04 -6.240200000000000000e+04
4.074800000000000000e+04 -7.194900000000000000e+04
3.716800000000000000e+04 -8.627000000000000000e+04
3.529300000000000000e+04 -1.034910000000000000e+05
3.103000000000000000e+04 -1.270190000000000000e+05
-1.790200000000000000e+04 -1.597540000000000000e+05
-1.360550000000000000e+05 -2.593230000000000000e+05
-1.969210000000000000e+05 -1.984560000000000000e+05
-2.301690000000000000e+05 -1.292350000000000000e+05
-2.373290000000000000e+05 -5.387700000000000000e+04
-2.250530000000000000e+05 1.108300000000000000e+04
-1.981150000000000000e+05 6.922100000000000000e+04
-1.611180000000000000e+05 1.116740000000000000e+05
-1.157670000000000000e+05 1.374190000000000000e+05
-7.382500000000000000e+04 1.541280000000000000e+05
-2.745000000000000000e+04 1.544690000000000000e+05
1.398100000000000000e+04 1.444090000000000000e+05
4.859100000000000000e+04 1.181530000000000000e+05
8.439500000000000000e+04 7.928000000000000000e+04
1.094580000000000000e+05 1.483300000000000000e+04
6.512900000000000000e+04 1.074100000000000000e+04
4.944400000000000000e+04 8.524000000000000000e+03
4.023700000000000000e+04 6.138000000000000000e+03
3.307600000000000000e+04 5.115000000000000000e+03
2.779100000000000000e+04 5.456000000000000000e+03
2.216500000000000000e+04 6.309000000000000000e+03
2.318800000000000000e+04 4.262000000000000000e+03
2.455200000000000000e+04 4.433000000000000000e+03
2.352900000000000000e+04 3.069000000000000000e+03
2.369900000000000000e+04 5.456000000000000000e+03
1.756100000000000000e+04 2.728000000000000000e+03
1.807300000000000000e+04 1.710000000000000000e+02
1.943700000000000000e+04 6.820000000000000000e+02
2.131200000000000000e+04 -2.046000000000000000e+03
1.943600000000000000e+04 -3.239000000000000000e+03
1.739100000000000000e+04 -8.354000000000000000e+03
2.387000000000000000e+04 -8.525000000000000000e+03
1.943700000000000000e+04 -9.718000000000000000e+03
2.216400000000000000e+04 -1.398100000000000000e+04
2.131200000000000000e+04 -1.483300000000000000e+04
2.080100000000000000e+04 -1.636800000000000000e+04
1.636800000000000000e+04 -2.369800000000000000e+04
1.432200000000000000e+04 -2.063000000000000000e+04
1.108200000000000000e+04 -2.352800000000000000e+04
1.278700000000000000e+04 -2.352900000000000000e+04
1.023000000000000000e+04 -2.676800000000000000e+04
5.115000000000000000e+03 -2.455200000000000000e+04
1.710000000000000000e+02 -2.335800000000000000e+04
-3.410000000000000000e+03 -2.830200000000000000e+04
-2.387000000000000000e+03 -2.404000000000000000e+04
-5.626000000000000000e+03 -2.404000000000000000e+04
-1.142300000000000000e+04 -2.421100000000000000e+04
-1.261600000000000000e+04 -2.131200000000000000e+04
-1.364000000000000000e+04 -2.182300000000000000e+04
-1.602600000000000000e+04 -2.063000000000000000e+04
-1.602600000000000000e+04 -1.790200000000000000e+04
-1.773100000000000000e+04 -1.381000000000000000e+04
-2.165300000000000000e+04 -1.176500000000000000e+04
-2.045900000000000000e+04 -1.227600000000000000e+04
-2.216400000000000000e+04 -9.377000000000000000e+03
-2.045900000000000000e+04 -6.649000000000000000e+03
-2.028800000000000000e+04 -2.046000000000000000e+03
-1.943600000000000000e+04 -1.535000000000000000e+03
-2.028900000000000000e+04 5.120000000000000000e+02
-1.994800000000000000e+04 2.216000000000000000e+03
-1.756100000000000000e+04 6.308000000000000000e+03
-1.602600000000000000e+04 9.377000000000000000e+03
-1.415100000000000000e+04 6.649000000000000000e+03
-1.381000000000000000e+04 9.889000000000000000e+03
-1.193400000000000000e+04 9.718000000000000000e+03
-6.649000000000000000e+03 1.176400000000000000e+04
-9.036000000000000000e+03 1.329800000000000000e+04
-6.308000000000000000e+03 1.057100000000000000e+04
-3.240000000000000000e+03 1.534500000000000000e+04
-4.603000000000000000e+03 1.449200000000000000e+04
-8.530000000000000000e+02 1.091100000000000000e+04
-5.110000000000000000e+02 1.057000000000000000e+04
1.875000000000000000e+03 1.057100000000000000e+04
3.410000000000000000e+02 8.695000000000000000e+03
6.820000000000000000e+02 8.695000000000000000e+03
-5.110000000000000000e+02 8.866000000000000000e+03
2.217000000000000000e+03 8.695000000000000000e+03
1.705000000000000000e+03 5.627000000000000000e+03
3.239000000000000000e+03 5.797000000000000000e+03
6.820000000000000000e+02 5.796000000000000000e+03
2.898000000000000000e+03 3.580000000000000000e+03
1.023000000000000000e+03 8.520000000000000000e+02
3.410000000000000000e+03 5.455000000000000000e+03
0.000000000000000000e+00 6.308000000000000000e+03
3.410000000000000000e+02 2.728000000000000000e+03
1.194000000000000000e+03 4.774000000000000000e+03
1.194000000000000000e+03 1.705000000000000000e+03
0.000000000000000000e+00 4.432000000000000000e+03
8.520000000000000000e+02 4.091000000000000000e+03
2.728000000000000000e+03 4.774000000000000000e+03
3.751000000000000000e+03 3.410000000000000000e+03
3.580000000000000000e+03 3.239000000000000000e+03
5.968000000000000000e+03 6.308000000000000000e+03
4.604000000000000000e+03 3.409000000000000000e+03
5.456000000000000000e+03 2.557000000000000000e+03
4.603000000000000000e+03 5.115000000000000000e+03
6.479000000000000000e+03 2.898000000000000000e+03
1.023000000000000000e+04 3.921000000000000000e+03
9.889000000000000000e+03 -1.193000000000000000e+03
8.013000000000000000e+03 1.194000000000000000e+03
8.696000000000000000e+03 -1.364000000000000000e+03
9.889000000000000000e+03 -2.046000000000000000e+03
9.207000000000000000e+03 -2.046000000000000000e+03
1.227600000000000000e+04 -9.207000000000000000e+03
9.207000000000000000e+03 -6.479000000000000000e+03
9.036000000000000000e+03 -9.036000000000000000e+03
6.820000000000000000e+03 -8.866000000000000000e+03
7.672000000000000000e+03 -1.074200000000000000e+04
5.627000000000000000e+03 -1.278700000000000000e+04
2.558000000000000000e+03 -1.398100000000000000e+04
3.410000000000000000e+02 -1.261700000000000000e+04
1.705000000000000000e+03 -1.415100000000000000e+04
-1.875000000000000000e+03 -1.534500000000000000e+04
-4.092000000000000000e+03 -1.227600000000000000e+04
-5.967000000000000000e+03 -1.244700000000000000e+04
-4.944000000000000000e+03 -1.142300000000000000e+04
-9.036000000000000000e+03 -1.329900000000000000e+04
-1.005900000000000000e+04 -8.184000000000000000e+03
-9.548000000000000000e+03 -1.108300000000000000e+04
-9.888000000000000000e+03 -8.695000000000000000e+03
-1.346900000000000000e+04 -6.991000000000000000e+03
-1.091100000000000000e+04 -5.286000000000000000e+03
-1.398000000000000000e+04 -3.410000000000000000e+03
-1.329900000000000000e+04 -3.239000000000000000e+03
-1.312800000000000000e+04 -2.898000000000000000e+03
-1.244600000000000000e+04 6.820000000000000000e+02
-1.125200000000000000e+04 2.898000000000000000e+03
-1.210500000000000000e+04 1.364000000000000000e+03
-8.695000000000000000e+03 3.921000000000000000e+03
-5.455000000000000000e+03 3.580000000000000000e+03
-9.889000000000000000e+03 5.285000000000000000e+03
-7.331000000000000000e+03 6.649000000000000000e+03
-5.797000000000000000e+03 6.138000000000000000e+03
-8.354000000000000000e+03 8.866000000000000000e+03
-5.285000000000000000e+03 7.843000000000000000e+03
-4.262000000000000000e+03 8.525000000000000000e+03
-1.875000000000000000e+03 8.695000000000000000e+03
-2.558000000000000000e+03 6.138000000000000000e+03
8.520000000000000000e+02 6.990000000000000000e+03
-6.820000000000000000e+02 6.137000000000000000e+03
-2.216000000000000000e+03 8.183000000000000000e+03
-1.535000000000000000e+03 3.921000000000000000e+03
1.194000000000000000e+03 5.285000000000000000e+03
1.535000000000000000e+03 5.967000000000000000e+03
3.410000000000000000e+02 6.137000000000000000e+03
3.580000000000000000e+03 4.262000000000000000e+03
-8.520000000000000000e+02 7.502000000000000000e+03
8.520000000000000000e+02 6.479000000000000000e+03
-3.580000000000000000e+03 7.331000000000000000e+03
-1.705000000000000000e+03 8.866000000000000000e+03
1.364000000000000000e+03 6.308000000000000000e+03
-1.023000000000000000e+03 7.672000000000000000e+03
-1.535000000000000000e+03 1.108200000000000000e+04
-3.410000000000000000e+02 5.455000000000000000e+03
1.705000000000000000e+03 8.865000000000000000e+03
1.535000000000000000e+03 9.036000000000000000e+03
1.364000000000000000e+03 7.161000000000000000e+03
4.092000000000000000e+03 6.649000000000000000e+03
4.092000000000000000e+03 5.797000000000000000e+03
2.898000000000000000e+03 8.183000000000000000e+03
6.309000000000000000e+03 6.649000000000000000e+03
6.138000000000000000e+03 7.842000000000000000e+03
6.820000000000000000e+03 2.899000000000000000e+03
9.719000000000000000e+03 3.581000000000000000e+03
1.227600000000000000e+04 2.898000000000000000e+03
1.074100000000000000e+04 -1.710000000000000000e+02
1.125300000000000000e+04 -3.069000000000000000e+03
1.142300000000000000e+04 -1.705000000000000000e+03
1.023000000000000000e+04 -3.581000000000000000e+03
1.091200000000000000e+04 -6.649000000000000000e+03
1.074100000000000000e+04 -9.036000000000000000e+03
9.036000000000000000e+03 -1.176500000000000000e+04
9.377000000000000000e+03 -1.227600000000000000e+04
8.866000000000000000e+03 -1.432200000000000000e+04
4.774000000000000000e+03 -1.159400000000000000e+04
4.774000000000000000e+03 -1.517400000000000000e+04
-1.710000000000000000e+02 -1.278800000000000000e+04
-1.705000000000000000e+03 -1.176400000000000000e+04
-8.520000000000000000e+02 -1.415200000000000000e+04
-3.069000000000000000e+03 -1.347000000000000000e+04
-3.239000000000000000e+03 -1.329800000000000000e+04
-7.501000000000000000e+03 -1.108200000000000000e+04
-8.524000000000000000e+03 -1.295700000000000000e+04
-1.244600000000000000e+04 -1.415100000000000000e+04
-1.398100000000000000e+04 -1.210500000000000000e+04
-1.295700000000000000e+04 -7.502000000000000000e+03
-1.415100000000000000e+04 -5.626000000000000000e+03
-1.398000000000000000e+04 -4.944000000000000000e+03
-1.551500000000000000e+04 -4.774000000000000000e+03
-1.551500000000000000e+04 -1.364000000000000000e+03
