-7.501800000000000000e+04 -1.449200000000000000e+05
-9.121500000000000000e+04 -1.232680000000000000e+05
-9.922800000000000000e+04 -1.118440000000000000e+05
-1.034910000000000000e+05 -9.854600000000000000e+04
-1.034910000000000000e+05 -8.303100000000000000e+04
-1.060480000000000000e+05 -7.246000000000000000e+04
-1.050250000000000000e+05 -6.137800000000000000e+04
-1.031500000000000000e+05 -5.455800000000000000e+04
-1.033200000000000000e+05 -4.876200000000000000e+04
-1.026380000000000000e+05 -4.364600000000000000e+04
-1.063890000000000000e+05 -4.023600000000000000e+04
-1.060480000000000000e+05 -3.546300000000000000e+04
-1.128670000000000000e+05 -3.205300000000000000e+04
-1.188350000000000000e+05 -2.642700000000000000e+04
-1.236090000000000000e+05 -2.148200000000000000e+04
-1.292350000000000000e+05 -1.057100000000000000e+04
-1.369070000000000000e+05 -1.710000000000000000e+02
-1.404880000000000000e+05 1.159400000000000000e+04
-1.456030000000000000e+05 2.813200000000000000e+04
-1.490130000000000000e+05 4.739800000000000000e+04
-1.466250000000000000e+05 7.058500000000000000e+04
-1.394650000000000000e+05 9.172600000000000000e+04
-1.334980000000000000e+05 1.155960000000000000e+05
-1.203690000000000000e+05 1.367380000000000000e+05
-1.011030000000000000e+05 1.563440000000000000e+05
-8.217900000000000000e+04 1.725410000000000000e+05
-5.421800000000000000e+04 1.849870000000000000e+05
-3.120000000000000000e+04 1.933410000000000000e+05
-3.410000000000000000e+02 1.948760000000000000e+05
2.063000000000000000e+04 1.890790000000000000e+05
4.535200000000000000e+04 1.846460000000000000e+05
6.649300000000000000e+04 1.769740000000000000e+05
8.627000000000000000e+04 1.677670000000000000e+05
9.974000000000000000e+04 1.483310000000000000e+05
1.169590000000000000e+05 1.357150000000000000e+05
1.259960000000000000e+05 1.208810000000000000e+05
1.353730000000000000e+05 1.057070000000000000e+05
1.425340000000000000e+05 8.951000000000000000e+04
1.479900000000000000e+05 7.399500000000000000e+04
1.505470000000000000e+05 6.171900000000000000e+04
1.606060000000000000e+05 4.620400000000000000e+04
1.621410000000000000e+05 3.188300000000000000e+04
1.643580000000000000e+05 1.364000000000000000e+04
1.660630000000000000e+05 -5.110000000000000000e+02
1.674270000000000000e+05 -2.063000000000000000e+04
1.664030000000000000e+05 -3.614500000000000000e+04
1.607770000000000000e+05 -5.728700000000000000e+04
1.553210000000000000e+05 -7.996200000000000000e+04
1.457740000000000000e+05 -9.786400000000000000e+04
1.317930000000000000e+05 -1.094570000000000000e+05
1.195180000000000000e+05 -1.319640000000000000e+05
1.009330000000000000e+05 -1.478190000000000000e+05
8.303100000000000000e+04 -1.609470000000000000e+05
6.274200000000000000e+04 -1.704950000000000000e+05
4.262400000000000000e+04 -1.774850000000000000e+05
2.148300000000000000e+04 -1.844750000000000000e+05
-1.705000000000000000e+03 -1.829410000000000000e+05
-2.455100000000000000e+04 -1.890790000000000000e+05
-4.739700000000000000e+04 -1.844750000000000000e+05
-6.973200000000000000e+04 -1.776560000000000000e+05
-8.831600000000000000e+04 -1.648680000000000000e+05
-1.121850000000000000e+05 -1.549800000000000000e+05
-1.343500000000000000e+05 -1.427050000000000000e+05
-1.529340000000000000e+05 -1.188350000000000000e+05
-1.662330000000000000e+05 -9.973900000000000000e+04
-1.733930000000000000e+05 -7.126600000000000000e+04
-1.805540000000000000e+05 -4.449900000000000000e+04
-1.779970000000000000e+05 -1.517400000000000000e+04
-1.725410000000000000e+05 6.479000000000000000e+03
-1.665730000000000000e+05 2.830200000000000000e+04
-1.519110000000000000e+05 4.859100000000000000e+04
-1.387830000000000000e+05 6.103700000000000000e+04
-1.203690000000000000e+05 7.382400000000000000e+04
-1.126970000000000000e+05 7.791600000000000000e+04
-1.040020000000000000e+05 8.814600000000000000e+04
-9.530600000000000000e+04 8.712300000000000000e+04
-8.644100000000000000e+04 9.377200000000000000e+04
-7.672200000000000000e+04 9.888800000000000000e+04
-6.819800000000000000e+04 1.036610000000000000e+05
-6.154900000000000000e+04 1.086060000000000000e+05
-5.592300000000000000e+04 1.173010000000000000e+05
-4.603300000000000000e+04 1.263360000000000000e+05
-3.699700000000000000e+04 1.316220000000000000e+05
-2.472200000000000000e+04 1.386130000000000000e+05
-9.888000000000000000e+03 1.462850000000000000e+05
2.557000000000000000e+03 1.490130000000000000e+05
2.063000000000000000e+04 1.582200000000000000e+05
3.716800000000000000e+04 1.609470000000000000e+05
5.899200000000000000e+04 1.599240000000000000e+05
7.876900000000000000e+04 1.570260000000000000e+05
9.922800000000000000e+04 1.510580000000000000e+05
1.229270000000000000e+05 1.372490000000000000e+05
1.406590000000000000e+05 1.212220000000000000e+05
1.575380000000000000e+05 1.038320000000000000e+05
1.701550000000000000e+05 8.098500000000000000e+04
1.778260000000000000e+05 5.796800000000000000e+04
1.807250000000000000e+05 3.171200000000000000e+04
1.788500000000000000e+05 6.308000000000000000e+03
1.706660000000000000e+05 -1.500400000000000000e+04
1.619710000000000000e+05 -3.819100000000000000e+04
1.507180000000000000e+05 -5.234200000000000000e+04
1.404880000000000000e+05 -6.666400000000000000e+04
1.275300000000000000e+05 -7.859800000000000000e+04
1.181540000000000000e+05 -8.354200000000000000e+04
1.082640000000000000e+05 -8.814600000000000000e+04
1.000810000000000000e+05 -9.701100000000000000e+04
9.564800000000000000e+04 -1.000810000000000000e+05
8.695200000000000000e+04 -1.113330000000000000e+05
8.081500000000000000e+04 -1.186650000000000000e+05
7.399500000000000000e+04 -1.302580000000000000e+05
6.189000000000000000e+04 -1.386120000000000000e+05
5.387700000000000000e+04 -1.517410000000000000e+05
3.904300000000000000e+04 -1.643570000000000000e+05
1.926600000000000000e+04 -1.754390000000000000e+05
-2.045000000000000000e+03 -1.841350000000000000e+05
-2.455200000000000000e+04 -1.894200000000000000e+05
-5.336500000000000000e+04 -1.885680000000000000e+05
-8.047300000000000000e+04 -1.844750000000000000e+05
-1.040020000000000000e+05 -1.742460000000000000e+05
-1.263370000000000000e+05 -1.611180000000000000e+05
-1.512290000000000000e+05 -1.445800000000000000e+05
-1.650390000000000000e+05 -1.215630000000000000e+05
-1.766320000000000000e+05 -9.871700000000000000e+04
-1.894200000000000000e+05 -7.382400000000000000e+04
-1.953870000000000000e+05 -4.927300000000000000e+04
-2.008430000000000000e+05 -2.369900000000000000e+04
-1.986260000000000000e+05 2.898000000000000000e+03
-1.950460000000000000e+05 2.421100000000000000e+04
-1.889080000000000000e+05 4.842100000000000000e+04
-1.815770000000000000e+05 7.365400000000000000e+04
-1.684490000000000000e+05 9.956900000000000000e+04
-1.544680000000000000e+05 1.162770000000000000e+05
-1.369070000000000000e+05 1.360550000000000000e+05
-1.188350000000000000e+05 1.510590000000000000e+05
-9.735300000000000000e+04 1.623120000000000000e+05
-7.297200000000000000e+04 1.725410000000000000e+05
-5.234200000000000000e+04 1.808950000000000000e+05
-2.608600000000000000e+04 1.752690000000000000e+05
-5.797000000000000000e+03 1.762920000000000000e+05
1.176500000000000000e+04 1.716880000000000000e+05
3.137200000000000000e+04 1.611180000000000000e+05
4.620500000000000000e+04 1.536160000000000000e+05
5.711600000000000000e+04 1.457740000000000000e+05
7.024400000000000000e+04 1.392940000000000000e+05
8.081500000000000000e+04 1.340090000000000000e+05
9.070300000000000000e+04 1.241200000000000000e+05
9.888700000000000000e+04 1.128680000000000000e+05
1.094580000000000000e+05 1.058770000000000000e+05
1.167890000000000000e+05 9.650100000000000000e+04
1.283830000000000000e+05 8.610000000000000000e+04
1.355440000000000000e+05 7.518800000000000000e+04
1.428750000000000000e+05 6.069700000000000000e+04
1.485010000000000000e+05 5.114900000000000000e+04
1.527640000000000000e+05 3.273500000000000000e+04
1.573670000000000000e+05 1.756100000000000000e+04
1.599250000000000000e+05 2.216000000000000000e+03
1.628230000000000000e+05 -1.875400000000000000e+04
1.609480000000000000e+05 -3.546300000000000000e+04
1.546400000000000000e+05 -6.206000000000000000e+04
1.408290000000000000e+05 -7.859800000000000000e+04
1.287240000000000000e+05 -9.377200000000000000e+04
1.116750000000000000e+05 -1.115030000000000000e+05
9.973900000000000000e+04 -1.094570000000000000e+05
7.587100000000000000e+04 -1.316220000000000000e+05
5.796900000000000000e+04 -1.346910000000000000e+05
3.733800000000000000e+04 -1.363960000000000000e+05
2.455200000000000000e+04 -1.338380000000000000e+05
1.108300000000000000e+04 -1.285530000000000000e+05
-2.899000000000000000e+03 -1.227560000000000000e+05
-1.005900000000000000e+04 -1.154250000000000000e+05
-1.892500000000000000e+04 -1.120150000000000000e+05
-2.523300000000000000e+04 -1.057070000000000000e+05
-2.983700000000000000e+04 -1.084350000000000000e+05
-3.733800000000000000e+04 -1.072410000000000000e+05
-4.347600000000000000e+04 -1.072410000000000000e+05
-5.217100000000000000e+04 -1.062190000000000000e+05
-6.564000000000000000e+04 -1.099690000000000000e+05
-7.280100000000000000e+04 -1.099700000000000000e+05
-8.695200000000000000e+04 -1.103110000000000000e+05
-9.939900000000000000e+04 -1.080940000000000000e+05
-1.142310000000000000e+05 -1.045140000000000000e+05
-1.326450000000000000e+05 -9.377200000000000000e+04
-1.473070000000000000e+05 -8.422400000000000000e+04
-1.604360000000000000e+05 -7.092600000000000000e+04
-1.739050000000000000e+05 -5.063700000000000000e+04
-1.805550000000000000e+05 -2.676700000000000000e+04
-1.836230000000000000e+05 -3.069000000000000000e+03
-1.832820000000000000e+05 2.727900000000000000e+04
-1.750980000000000000e+05 5.455900000000000000e+04
-1.665740000000000000e+05 8.081500000000000000e+04
-1.450920000000000000e+05 1.036610000000000000e+05
-1.253140000000000000e+05 1.212220000000000000e+05
-1.065600000000000000e+05 1.409990000000000000e+05
-8.286100000000000000e+04 1.541280000000000000e+05
-6.035500000000000000e+04 1.633340000000000000e+05
-3.921400000000000000e+04 1.645280000000000000e+05
-2.250500000000000000e+04 1.662320000000000000e+05
1.876000000000000000e+03 1.660630000000000000e+05
2.080100000000000000e+04 1.648690000000000000e+05
3.699700000000000000e+04 1.575370000000000000e+05
5.370600000000000000e+04 1.531050000000000000e+05
7.160800000000000000e+04 1.445800000000000000e+05
8.985100000000000000e+04 1.338380000000000000e+05
1.053660000000000000e+05 1.258260000000000000e+05
1.181530000000000000e+05 1.161070000000000000e+05
1.314520000000000000e+05 9.735200000000000000e+04
1.421930000000000000e+05 8.763400000000000000e+04
1.478190000000000000e+05 6.922100000000000000e+04
1.536160000000000000e+05 5.149000000000000000e+04
1.553210000000000000e+05 3.324600000000000000e+04
1.524220000000000000e+05 1.227500000000000000e+04
1.481610000000000000e+05 -5.286000000000000000e+03
1.430460000000000000e+05 -1.909500000000000000e+04
1.374190000000000000e+05 -3.921400000000000000e+04
1.288940000000000000e+05 -5.166000000000000000e+04
1.186650000000000000e+05 -6.547000000000000000e+04
1.041720000000000000e+05 -8.132600000000000000e+04
9.547800000000000000e+04 -9.087400000000000000e+04
7.859900000000000000e+04 -9.991000000000000000e+04
6.649300000000000000e+04 -1.075830000000000000e+05
4.773900000000000000e+04 -1.132080000000000000e+05
3.426900000000000000e+04 -1.195170000000000000e+05
1.943700000000000000e+04 -1.258250000000000000e+05
2.728000000000000000e+03 -1.239500000000000000e+05
-1.364000000000000000e+04 -1.271900000000000000e+05
-2.591500000000000000e+04 -1.266780000000000000e+05
-3.938400000000000000e+04 -1.208810000000000000e+05
-5.438800000000000000e+04 -1.171300000000000000e+05
-6.666300000000000000e+04 -1.055370000000000000e+05
-7.655200000000000000e+04 -9.701200000000000000e+04
-8.507700000000000000e+04 -8.269000000000000000e+04
-9.547700000000000000e+04 -7.194900000000000000e+04
-9.871700000000000000e+04 -5.813900000000000000e+04
-1.009330000000000000e+05 -5.029600000000000000e+04
-1.002510000000000000e+05 -3.989600000000000000e+04
-1.048540000000000000e+05 -2.898400000000000000e+04
-1.058780000000000000e+05 -2.438100000000000000e+04
-1.034900000000000000e+05 -1.483300000000000000e+04
-1.051950000000000000e+05 -8.354000000000000000e+03
-1.067300000000000000e+05 -1.875000000000000000e+03
-1.033200000000000000e+05 8.525000000000000000e+03
-1.022970000000000000e+05 1.909600000000000000e+04
-1.021270000000000000e+05 2.898500000000000000e+04
-9.837600000000000000e+04 3.648600000000000000e+04
-9.633000000000000000e+04 5.251300000000000000e+04
-8.985100000000000000e+04 6.359500000000000000e+04
-8.456500000000000000e+04 7.535900000000000000e+04
-7.945100000000000000e+04 9.189700000000000000e+04
-6.717500000000000000e+04 1.057070000000000000e+05
-5.285400000000000000e+04 1.167900000000000000e+05
-3.580400000000000000e+04 1.270190000000000000e+05
-2.335800000000000000e+04 1.416810000000000000e+05
1.023000000000000000e+03 1.486720000000000000e+05
2.421100000000000000e+04 1.556630000000000000e+05
4.637500000000000000e+04 1.525930000000000000e+05
7.177800000000000000e+04 1.496950000000000000e+05
9.462500000000000000e+04 1.408290000000000000e+05
1.184950000000000000e+05 1.263370000000000000e+05
1.314520000000000000e+05 1.055370000000000000e+05
1.432160000000000000e+05 8.320200000000000000e+04
1.433870000000000000e+05 6.069600000000000000e+04
1.442390000000000000e+05 3.785000000000000000e+04
1.394650000000000000e+05 1.841300000000000000e+04
1.358840000000000000e+05 -1.710000000000000000e+02
1.263370000000000000e+05 -1.466300000000000000e+04
1.191760000000000000e+05 -2.455200000000000000e+04
1.125270000000000000e+05 -3.529200000000000000e+04
1.036610000000000000e+05 -4.347600000000000000e+04
9.206800000000000000e+04 -5.183000000000000000e+04
8.729400000000000000e+04 -5.524000000000000000e+04
8.013300000000000000e+04 -6.018500000000000000e+04
7.109600000000000000e+04 -6.564100000000000000e+04
6.444800000000000000e+04 -7.194900000000000000e+04
5.796900000000000000e+04 -7.604000000000000000e+04
4.790900000000000000e+04 -8.422500000000000000e+04
4.432900000000000000e+04 -8.899800000000000000e+04
3.103000000000000000e+04 -9.155600000000000000e+04
2.438100000000000000e+04 -9.803500000000000000e+04
1.074200000000000000e+04 -1.014440000000000000e+05
-6.820000000000000000e+02 -1.038320000000000000e+05
-1.261600000000000000e+04 -1.060480000000000000e+05
-1.824300000000000000e+04 -1.051950000000000000e+05
-3.017700000000000000e+04 -1.062180000000000000e+05
-4.057800000000000000e+04 -1.002510000000000000e+05
-5.063700000000000000e+04 -1.009330000000000000e+05
-5.711500000000000000e+04 -9.701100000000000000e+04
-6.137800000000000000e+04 -9.070400000000000000e+04
-7.041500000000000000e+04 -8.047400000000000000e+04
-7.569900000000000000e+04 -7.587100000000000000e+04
-8.081400000000000000e+04 -6.853900000000000000e+04
-8.780500000000000000e+04 -6.103800000000000000e+04
-9.002200000000000000e+04 -5.472800000000000000e+04
-9.837600000000000000e+04 -4.432900000000000000e+04
-1.058770000000000000e+05 -3.631500000000000000e+04
-1.103100000000000000e+05 -2.301700000000000000e+04
-1.162780000000000000e+05 -1.278800000000000000e+04
-1.198580000000000000e+05 -2.046000000000000000e+03
-1.200280000000000000e+05 1.125300000000000000e+04
-1.181530000000000000e+05 2.864300000000000000e+04
-1.152550000000000000e+05 4.535100000000000000e+04
-1.092870000000000000e+05 6.001400000000000000e+04
-1.000810000000000000e+05 7.416500000000000000e+04
-8.985100000000000000e+04 8.610000000000000000e+04
-7.467600000000000000e+04 9.343100000000000000e+04
-6.052500000000000000e+04 1.022970000000000000e+05
-4.484000000000000000e+04 1.074120000000000000e+05
-3.137100000000000000e+04 1.079230000000000000e+05
-1.892500000000000000e+04 1.144030000000000000e+05
-6.990000000000000000e+03 1.123570000000000000e+05
5.797000000000000000e+03 1.152550000000000000e+05
1.517400000000000000e+04 1.152550000000000000e+05
2.625700000000000000e+04 1.109930000000000000e+05
5.813900000000000000e+04 1.239490000000000000e+05
4.978500000000000000e+04 1.055360000000000000e+05
6.001500000000000000e+04 1.048540000000000000e+05
7.041400000000000000e+04 9.564800000000000000e+04
7.842800000000000000e+04 9.189700000000000000e+04
9.155600000000000000e+04 8.627100000000000000e+04
9.991000000000000000e+04 7.621100000000000000e+04
1.096280000000000000e+05 6.206100000000000000e+04
1.149140000000000000e+05 4.961500000000000000e+04
1.212220000000000000e+05 3.716800000000000000e+04
1.278710000000000000e+05 1.807200000000000000e+04
1.253140000000000000e+05 2.046000000000000000e+03
1.198580000000000000e+05 -1.466300000000000000e+04
1.121860000000000000e+05 -3.103000000000000000e+04
1.036610000000000000e+05 -4.466900000000000000e+04
9.121500000000000000e+04 -5.183000000000000000e+04
7.655200000000000000e+04 -5.984400000000000000e+04
6.325400000000000000e+04 -6.035500000000000000e+04
5.472900000000000000e+04 -5.899100000000000000e+04
4.398800000000000000e+04 -6.052500000000000000e+04
3.819100000000000000e+04 -5.643400000000000000e+04
3.171200000000000000e+04 -5.404700000000000000e+04
2.352900000000000000e+04 -4.995500000000000000e+04
2.233500000000000000e+04 -4.927300000000000000e+04
1.858400000000000000e+04 -4.790900000000000000e+04
1.568500000000000000e+04 -4.552200000000000000e+04
1.756100000000000000e+04 -4.825000000000000000e+04
1.329900000000000000e+04 -4.586300000000000000e+04
1.159400000000000000e+04 -4.671500000000000000e+04
1.449200000000000000e+04 -5.012500000000000000e+04
8.866000000000000000e+03 -5.183000000000000000e+04
4.604000000000000000e+03 -5.813900000000000000e+04
4.774000000000000000e+03 -5.899100000000000000e+04
-2.728000000000000000e+03 -6.342400000000000000e+04
-6.308000000000000000e+03 -6.376500000000000000e+04
-9.888000000000000000e+03 -6.359400000000000000e+04
-1.568500000000000000e+04 -6.530000000000000000e+04
-2.250600000000000000e+04 -6.751600000000000000e+04
3.751000000000000000e+03 1.710000000000000000e+02
5.456000000000000000e+03 -3.751000000000000000e+03
9.036000000000000000e+03 -6.649000000000000000e+03
9.207000000000000000e+03 -5.626000000000000000e+03
1.449200000000000000e+04 -8.695000000000000000e+03
1.500300000000000000e+04 -8.695000000000000000e+03
1.176500000000000000e+04 -6.138000000000000000e+03
6.990000000000000000e+03 -7.672000000000000000e+03
2.557000000000000000e+03 -1.227600000000000000e+04
0.000000000000000000e+00 -1.585600000000000000e+04
-6.810000000000000000e+02 -1.653800000000000000e+04
-3.410000000000000000e+02 -1.892500000000000000e+04
-4.262000000000000000e+03 -1.619700000000000000e+04
-6.820000000000000000e+03 -1.705000000000000000e+04
-9.888000000000000000e+03 -1.773100000000000000e+04
-1.398000000000000000e+04 -2.063000000000000000e+04
-1.108200000000000000e+04 -1.432200000000000000e+04
-2.080100000000000000e+04 -8.355000000000000000e+03
-2.489200000000000000e+04 -1.074200000000000000e+04
-2.574400000000000000e+04 -6.990000000000000000e+03
-2.983700000000000000e+04 -3.410000000000000000e+03
-2.830300000000000000e+04 3.410000000000000000e+02
-2.915500000000000000e+04 2.216000000000000000e+03
-2.523400000000000000e+04 7.843000000000000000e+03
-2.608600000000000000e+04 9.378000000000000000e+03
-2.438100000000000000e+04 1.295700000000000000e+04
-1.790200000000000000e+04 1.210600000000000000e+04
-1.670900000000000000e+04 1.517400000000000000e+04
-1.568600000000000000e+04 2.097100000000000000e+04
-1.193500000000000000e+04 2.080000000000000000e+04
-1.040000000000000000e+04 2.080100000000000000e+04
-7.331000000000000000e+03 2.318800000000000000e+04
-5.285000000000000000e+03 2.233500000000000000e+04
-1.193000000000000000e+03 2.676800000000000000e+04
1.023000000000000000e+03 2.557500000000000000e+04
5.626000000000000000e+03 2.404000000000000000e+04
9.206000000000000000e+03 2.182300000000000000e+04
1.142300000000000000e+04 2.114100000000000000e+04
1.722000000000000000e+04 1.943700000000000000e+04
1.653800000000000000e+04 1.432200000000000000e+04
2.063000000000000000e+04 1.602700000000000000e+04
2.523300000000000000e+04 1.091200000000000000e+04
2.352800000000000000e+04 7.161000000000000000e+03
2.318700000000000000e+04 6.479000000000000000e+03
1.909500000000000000e+04 6.650000000000000000e+03
2.182300000000000000e+04 3.581000000000000000e+03
1.994700000000000000e+04 -1.705000000000000000e+03
1.602700000000000000e+04 -2.217000000000000000e+03
1.670800000000000000e+04 -4.604000000000000000e+03
1.432100000000000000e+04 -5.115000000000000000e+03
1.517400000000000000e+04 -5.285000000000000000e+03
1.398000000000000000e+04 -4.432000000000000000e+03
1.091200000000000000e+04 -3.239000000000000000e+03
1.687900000000000000e+04 -4.774000000000000000e+03
1.773200000000000000e+04 -1.705000000000000000e+03
1.500400000000000000e+04 -4.944000000000000000e+03
2.011800000000000000e+04 -3.921000000000000000e+03
2.506300000000000000e+04 -5.285000000000000000e+03
2.881400000000000000e+04 2.028900000000000000e+04
2.097100000000000000e+04 -1.312800000000000000e+04
2.796100000000000000e+04 -1.670900000000000000e+04
2.540300000000000000e+04 -1.636800000000000000e+04
2.216400000000000000e+04 -2.267600000000000000e+04
2.574400000000000000e+04 -2.574500000000000000e+04
2.080100000000000000e+04 -3.034800000000000000e+04
2.045900000000000000e+04 -3.631500000000000000e+04
1.125200000000000000e+04 -4.381700000000000000e+04
9.206000000000000000e+03 -4.637500000000000000e+04
-1.704000000000000000e+03 -4.825000000000000000e+04
-1.005900000000000000e+04 -4.910200000000000000e+04
-2.250500000000000000e+04 -5.438800000000000000e+04
-3.154200000000000000e+04 -5.046600000000000000e+04
-4.194200000000000000e+04 -4.603300000000000000e+04
-4.995600000000000000e+04 -3.955500000000000000e+04
-5.899100000000000000e+04 -3.290600000000000000e+04
-6.376500000000000000e+04 -2.915400000000000000e+04
-6.871000000000000000e+04 -1.858400000000000000e+04
-6.956200000000000000e+04 -9.889000000000000000e+03
-7.501800000000000000e+04 -6.820000000000000000e+02
-7.672300000000000000e+04 4.262000000000000000e+03
-7.348400000000000000e+04 1.892500000000000000e+04
-7.552900000000000000e+04 2.574500000000000000e+04
-7.246000000000000000e+04 3.324600000000000000e+04
-6.581100000000000000e+04 4.484000000000000000e+04
-6.086600000000000000e+04 5.217100000000000000e+04
-5.421700000000000000e+04 6.547100000000000000e+04
-4.552200000000000000e+04 7.075500000000000000e+04
-3.239400000000000000e+04 7.535900000000000000e+04
-1.858400000000000000e+04 8.013300000000000000e+04
-5.796000000000000000e+03 8.592900000000000000e+04
1.023000000000000000e+04 8.610000000000000000e+04
2.489200000000000000e+04 8.064400000000000000e+04
3.631500000000000000e+04 7.604100000000000000e+04
4.808000000000000000e+04 6.785700000000000000e+04
5.933300000000000000e+04 5.899200000000000000e+04
6.291300000000000000e+04 5.012600000000000000e+04
7.007400000000000000e+04 4.040700000000000000e+04
7.058500000000000000e+04 3.171300000000000000e+04
7.382500000000000000e+04 1.841300000000000000e+04
7.348400000000000000e+04 9.719000000000000000e+03
6.751600000000000000e+04 6.820000000000000000e+02
6.700500000000000000e+04 -3.069000000000000000e+03
6.086700000000000000e+04 -1.091100000000000000e+04
5.558200000000000000e+04 -1.619700000000000000e+04
5.575200000000000000e+04 -1.943600000000000000e+04
5.217200000000000000e+04 -2.318700000000000000e+04
4.296500000000000000e+04 -2.506300000000000000e+04
4.074800000000000000e+04 -2.489200000000000000e+04
3.921400000000000000e+04 -2.983600000000000000e+04
3.273600000000000000e+04 -2.949600000000000000e+04
2.864300000000000000e+04 -3.017800000000000000e+04
2.796100000000000000e+04 -2.966600000000000000e+04
4.415800000000000000e+04 -2.046000000000000000e+03
4.023600000000000000e+04 -3.751000000000000000e+03
4.347600000000000000e+04 -3.580000000000000000e+03
4.501000000000000000e+04 -2.558000000000000000e+03
4.415800000000000000e+04 -9.718000000000000000e+03
4.262400000000000000e+04 -1.040000000000000000e+04
4.432800000000000000e+04 -1.381000000000000000e+04
4.773900000000000000e+04 -1.977700000000000000e+04
4.347600000000000000e+04 -1.960700000000000000e+04
5.063700000000000000e+04 -2.710900000000000000e+04
4.637400000000000000e+04 -3.495200000000000000e+04
4.671500000000000000e+04 -3.665600000000000000e+04
4.535100000000000000e+04 -4.364600000000000000e+04
4.330500000000000000e+04 -5.063700000000000000e+04
4.023700000000000000e+04 -5.694500000000000000e+04
3.358800000000000000e+04 -6.291300000000000000e+04
2.745000000000000000e+04 -6.905100000000000000e+04
1.977700000000000000e+04 -7.416500000000000000e+04
8.865000000000000000e+03 -8.115500000000000000e+04
-5.797000000000000000e+03 -8.541800000000000000e+04
-1.381000000000000000e+04 -8.916900000000000000e+04
-2.966700000000000000e+04 -8.797600000000000000e+04
-4.586300000000000000e+04 -8.712300000000000000e+04
-6.069600000000000000e+04 -8.251900000000000000e+04
-8.217900000000000000e+04 -7.791700000000000000e+04
-9.462500000000000000e+04 -6.632300000000000000e+04
-1.089470000000000000e+05 -5.166100000000000000e+04
-1.203700000000000000e+05 -3.904300000000000000e+04
-1.259960000000000000e+05 -2.455100000000000000e+04
-1.331570000000000000e+05 -7.331000000000000000e+03
-1.297470000000000000e+05 1.227600000000000000e+04
-1.256550000000000000e+05 2.898500000000000000e+04
-1.193470000000000000e+05 4.245300000000000000e+04
-1.092870000000000000e+05 5.455900000000000000e+04
-9.581900000000000000e+04 6.461800000000000000e+04
-8.968100000000000000e+04 7.177900000000000000e+04
-7.535900000000000000e+04 8.081500000000000000e+04
-6.530000000000000000e+04 8.763500000000000000e+04
