-2.797830000000000000e+05 4.978500000000000000e+04
-2.427850000000000000e+05 1.118440000000000000e+05
-1.815770000000000000e+05 1.568550000000000000e+05
-1.169590000000000000e+05 1.774850000000000000e+05
-5.080800000000000000e+04 1.764620000000000000e+05
-2.046000000000000000e+03 1.604360000000000000e+05
3.529200000000000000e+04 1.340090000000000000e+05
5.472900000000000000e+04 1.079240000000000000e+05
6.512900000000000000e+04 8.575900000000000000e+04
6.581100000000000000e+04 6.615300000000000000e+04
6.632300000000000000e+04 5.813900000000000000e+04
6.615200000000000000e+04 5.490000000000000000e+04
6.853900000000000000e+04 4.637500000000000000e+04
7.672300000000000000e+04 4.654600000000000000e+04
8.780500000000000000e+04 4.006700000000000000e+04
1.029790000000000000e+05 3.103000000000000000e+04
1.190050000000000000e+05 2.063000000000000000e+04
1.348610000000000000e+05 -5.110000000000000000e+02
1.444100000000000000e+05 -2.267600000000000000e+04
1.456030000000000000e+05 -5.489900000000000000e+04
1.323040000000000000e+05 -8.968000000000000000e+04
1.108220000000000000e+05 -1.212220000000000000e+05
7.638100000000000000e+04 -1.445800000000000000e+05
2.932500000000000000e+04 -1.633340000000000000e+05
-2.318800000000000000e+04 -1.696430000000000000e+05
-7.365400000000000000e+04 -1.619700000000000000e+05
-1.266780000000000000e+05 -1.329860000000000000e+05
-1.628230000000000000e+05 -9.462500000000000000e+04
-1.851580000000000000e+05 -4.620400000000000000e+04
-1.899320000000000000e+05 1.364000000000000000e+03
-1.737350000000000000e+05 4.518100000000000000e+04
-1.488430000000000000e+05 8.439500000000000000e+04
-1.115040000000000000e+05 1.097990000000000000e+05
-7.109700000000000000e+04 1.173000000000000000e+05
-2.949600000000000000e+04 1.236090000000000000e+05
0.000000000000000000e+00 1.038310000000000000e+05
3.444000000000000000e+04 9.650000000000000000e+04
5.438700000000000000e+04 7.177800000000000000e+04
6.785700000000000000e+04 5.217200000000000000e+04
6.973200000000000000e+04 3.444000000000000000e+04
6.785700000000000000e+04 2.250600000000000000e+04
6.581100000000000000e+04 1.517400000000000000e+04
5.558200000000000000e+04 1.415100000000000000e+04
5.677400000000000000e+04 1.040100000000000000e+04
5.728600000000000000e+04 4.944000000000000000e+03
5.882000000000000000e+04 3.581000000000000000e+03
6.495900000000000000e+04 -3.240000000000000000e+03
6.802800000000000000e+04 -1.346900000000000000e+04
7.280100000000000000e+04 -2.489200000000000000e+04
7.058500000000000000e+04 -3.682700000000000000e+04
6.785700000000000000e+04 -5.404700000000000000e+04
5.592200000000000000e+04 -7.092600000000000000e+04
3.750900000000000000e+04 -8.644100000000000000e+04
1.074100000000000000e+04 -9.479500000000000000e+04
-1.687900000000000000e+04 -9.956900000000000000e+04
-4.143000000000000000e+04 -9.240800000000000000e+04
-6.768600000000000000e+04 -8.081400000000000000e+04
-9.240900000000000000e+04 -6.274200000000000000e+04
-1.065590000000000000e+05 -4.023600000000000000e+04
-1.147440000000000000e+05 -1.057000000000000000e+04
-1.128680000000000000e+05 1.500300000000000000e+04
-1.009340000000000000e+05 4.245400000000000000e+04
-8.337300000000000000e+04 6.018500000000000000e+04
-5.728700000000000000e+04 7.280100000000000000e+04
-3.120100000000000000e+04 7.672300000000000000e+04
-4.263000000000000000e+03 7.246100000000000000e+04
1.807200000000000000e+04 6.905100000000000000e+04
3.665600000000000000e+04 5.217200000000000000e+04
4.432900000000000000e+04 3.921400000000000000e+04
-9.377000000000000000e+03 4.364700000000000000e+04
2.728000000000000000e+03 3.631500000000000000e+04
1.057000000000000000e+04 3.034800000000000000e+04
1.432100000000000000e+04 2.199400000000000000e+04
1.500400000000000000e+04 2.131200000000000000e+04
1.670800000000000000e+04 2.642700000000000000e+04
1.363900000000000000e+04 2.352800000000000000e+04
1.466200000000000000e+04 2.779100000000000000e+04
2.250500000000000000e+04 3.120100000000000000e+04
2.472200000000000000e+04 3.120100000000000000e+04
3.392800000000000000e+04 3.290600000000000000e+04
4.432800000000000000e+04 2.523400000000000000e+04
5.148900000000000000e+04 1.773200000000000000e+04
5.728600000000000000e+04 9.718000000000000000e+03
6.086700000000000000e+04 -4.603000000000000000e+03
6.240100000000000000e+04 -1.619700000000000000e+04
5.558100000000000000e+04 -3.478100000000000000e+04
4.432800000000000000e+04 -4.859100000000000000e+04
3.034800000000000000e+04 -5.950200000000000000e+04
1.125200000000000000e+04 -6.223100000000000000e+04
-7.843000000000000000e+03 -6.905100000000000000e+04
-2.932600000000000000e+04 -6.393600000000000000e+04
-4.586400000000000000e+04 -5.728700000000000000e+04
-6.086600000000000000e+04 -4.381700000000000000e+04
-6.853900000000000000e+04 -2.966600000000000000e+04
-7.143700000000000000e+04 -1.057100000000000000e+04
-6.802800000000000000e+04 3.069000000000000000e+03
-6.171900000000000000e+04 1.841300000000000000e+04
-5.609200000000000000e+04 2.728000000000000000e+04
-4.057800000000000000e+04 3.444000000000000000e+04
-2.506300000000000000e+04 3.955500000000000000e+04
-1.722000000000000000e+04 3.716800000000000000e+04
-6.820000000000000000e+03 3.086000000000000000e+04
-2.216000000000000000e+03 3.017800000000000000e+04
5.626000000000000000e+03 2.404000000000000000e+04
5.456000000000000000e+03 2.080100000000000000e+04
6.649000000000000000e+03 2.199400000000000000e+04
1.535000000000000000e+03 1.943600000000000000e+04
2.898000000000000000e+03 2.472200000000000000e+04
6.819000000000000000e+03 2.574500000000000000e+04
1.040100000000000000e+04 2.727900000000000000e+04
1.500400000000000000e+04 2.949600000000000000e+04
2.386900000000000000e+04 2.591500000000000000e+04
3.068900000000000000e+04 2.335800000000000000e+04
3.716800000000000000e+04 1.807300000000000000e+04
4.296500000000000000e+04 6.990000000000000000e+03
4.688600000000000000e+04 -3.751000000000000000e+03
4.773900000000000000e+04 -1.585600000000000000e+04
4.432800000000000000e+04 -2.796100000000000000e+04
3.375800000000000000e+04 -4.211200000000000000e+04
1.977800000000000000e+04 -5.455800000000000000e+04
2.046000000000000000e+03 -5.694500000000000000e+04
-1.892500000000000000e+04 -5.626300000000000000e+04
-3.495200000000000000e+04 -5.029600000000000000e+04
-4.808000000000000000e+04 -4.160000000000000000e+04
-6.137800000000000000e+04 -2.762000000000000000e+04
-6.325400000000000000e+04 -1.210500000000000000e+04
-6.342500000000000000e+04 3.410000000000000000e+03
-5.796900000000000000e+04 1.722000000000000000e+04
-4.722700000000000000e+04 2.983700000000000000e+04
-3.750900000000000000e+04 3.392900000000000000e+04
-2.932600000000000000e+04 4.006700000000000000e+04
-1.483300000000000000e+04 3.733800000000000000e+04
-3.240000000000000000e+03 3.767900000000000000e+04
4.603000000000000000e+03 3.546300000000000000e+04
1.057100000000000000e+04 2.728000000000000000e+04
1.312800000000000000e+04 2.676800000000000000e+04
1.329800000000000000e+04 2.301700000000000000e+04
1.295800000000000000e+04 1.960700000000000000e+04
1.841300000000000000e+04 2.114100000000000000e+04
1.636700000000000000e+04 2.421000000000000000e+04
2.216400000000000000e+04 2.267600000000000000e+04
2.455100000000000000e+04 2.216400000000000000e+04
3.017800000000000000e+04 2.148300000000000000e+04
3.409900000000000000e+04 1.705000000000000000e+04
3.921400000000000000e+04 1.364000000000000000e+04
3.887200000000000000e+04 1.176400000000000000e+04
4.177100000000000000e+04 5.797000000000000000e+03
4.091900000000000000e+04 1.876000000000000000e+03
4.126000000000000000e+04 -1.193000000000000000e+03
4.398700000000000000e+04 -5.286000000000000000e+03
4.705600000000000000e+04 -1.193500000000000000e+04
5.268300000000000000e+04 -2.216400000000000000e+04
5.830900000000000000e+04 -3.904300000000000000e+04
6.461800000000000000e+04 -6.325400000000000000e+04
7.143800000000000000e+04 -1.007620000000000000e+05
5.745600000000000000e+04 -1.757800000000000000e+05
-1.902730000000000000e+05 -2.755200000000000000e+05
-2.830210000000000000e+05 -1.207110000000000000e+05
-2.687000000000000000e+05 4.722700000000000000e+04
-1.805550000000000000e+05 1.672550000000000000e+05
-5.950300000000000000e+04 2.190860000000000000e+05
6.734600000000000000e+04 1.839640000000000000e+05
1.626520000000000000e+05 1.312900000000000000e+04
8.405400000000000000e+04 -3.069000000000000000e+03
5.302400000000000000e+04 -1.108200000000000000e+04
3.546300000000000000e+04 -1.415100000000000000e+04
2.097100000000000000e+04 -1.142300000000000000e+04
1.670900000000000000e+04 -1.142300000000000000e+04
1.278800000000000000e+04 -9.377000000000000000e+03
1.261700000000000000e+04 -7.502000000000000000e+03
5.627000000000000000e+03 -4.092000000000000000e+03
1.057100000000000000e+04 -8.013000000000000000e+03
1.329900000000000000e+04 -9.889000000000000000e+03
1.500400000000000000e+04 -1.210600000000000000e+04
1.023000000000000000e+04 -1.841400000000000000e+04
8.525000000000000000e+03 -2.028900000000000000e+04
5.627000000000000000e+03 -1.960700000000000000e+04
1.705000000000000000e+03 -1.943700000000000000e+04
5.110000000000000000e+02 -2.250500000000000000e+04
-7.160000000000000000e+03 -2.233500000000000000e+04
-1.517400000000000000e+04 -1.875500000000000000e+04
-1.653800000000000000e+04 -1.415100000000000000e+04
-1.722000000000000000e+04 -1.193500000000000000e+04
-1.602600000000000000e+04 -7.843000000000000000e+03
-1.892500000000000000e+04 -1.875000000000000000e+03
-1.841300000000000000e+04 4.262000000000000000e+03
-1.909600000000000000e+04 5.456000000000000000e+03
-1.585600000000000000e+04 1.040000000000000000e+04
-8.865000000000000000e+03 1.159400000000000000e+04
-8.525000000000000000e+03 1.415100000000000000e+04
-2.387000000000000000e+03 1.346900000000000000e+04
-1.705000000000000000e+03 1.568500000000000000e+04
2.046000000000000000e+03 1.295800000000000000e+04
4.263000000000000000e+03 1.142300000000000000e+04
4.433000000000000000e+03 9.889000000000000000e+03
5.456000000000000000e+03 8.695000000000000000e+03
5.626000000000000000e+03 4.433000000000000000e+03
4.604000000000000000e+03 5.967000000000000000e+03
5.115000000000000000e+03 2.046000000000000000e+03
3.239000000000000000e+03 4.433000000000000000e+03
2.898000000000000000e+03 1.364000000000000000e+03
3.410000000000000000e+03 2.557000000000000000e+03
3.921000000000000000e+03 1.705000000000000000e+03
2.557000000000000000e+03 3.410000000000000000e+03
3.751000000000000000e+03 -0.000000000000000000e+00
5.626000000000000000e+03 -1.705000000000000000e+03
8.354000000000000000e+03 -1.022000000000000000e+03
1.023000000000000000e+04 -8.183000000000000000e+03
7.843000000000000000e+03 -6.138000000000000000e+03
6.650000000000000000e+03 -5.967000000000000000e+03
5.626000000000000000e+03 -1.193500000000000000e+04
6.820000000000000000e+02 -1.057100000000000000e+04
1.023000000000000000e+03 -1.312800000000000000e+04
-2.899000000000000000e+03 -1.227600000000000000e+04
-7.501000000000000000e+03 -1.193500000000000000e+04
-1.193400000000000000e+04 -1.074100000000000000e+04
-1.551500000000000000e+04 -7.672000000000000000e+03
-1.261600000000000000e+04 -4.603000000000000000e+03
-1.329800000000000000e+04 -1.194000000000000000e+03
-1.432200000000000000e+04 2.217000000000000000e+03
-9.888000000000000000e+03 5.796000000000000000e+03
-8.184000000000000000e+03 8.184000000000000000e+03
-7.331000000000000000e+03 1.091100000000000000e+04
-4.774000000000000000e+03 1.108200000000000000e+04
-2.386000000000000000e+03 1.227600000000000000e+04
-3.410000000000000000e+02 8.695000000000000000e+03
1.875000000000000000e+03 9.718000000000000000e+03
2.558000000000000000e+03 1.040000000000000000e+04
2.728000000000000000e+03 7.331000000000000000e+03
3.410000000000000000e+02 5.626000000000000000e+03
1.364000000000000000e+03 2.387000000000000000e+03
0.000000000000000000e+00 3.580000000000000000e+03
1.876000000000000000e+03 3.750000000000000000e+03
2.217000000000000000e+03 3.921000000000000000e+03
3.410000000000000000e+03 3.580000000000000000e+03
5.626000000000000000e+03 4.944000000000000000e+03
4.092000000000000000e+03 2.046000000000000000e+03
5.627000000000000000e+03 1.705000000000000000e+03
8.184000000000000000e+03 1.364000000000000000e+03
1.074200000000000000e+04 -2.046000000000000000e+03
1.006000000000000000e+04 -3.240000000000000000e+03
8.696000000000000000e+03 -9.889000000000000000e+03
5.456000000000000000e+03 -1.108300000000000000e+04
6.138000000000000000e+03 -1.312900000000000000e+04
8.520000000000000000e+02 -1.261700000000000000e+04
-4.433000000000000000e+03 -1.381000000000000000e+04
-6.649000000000000000e+03 -1.261700000000000000e+04
-9.888000000000000000e+03 -1.176500000000000000e+04
-1.193400000000000000e+04 -1.142400000000000000e+04
-1.653800000000000000e+04 -6.649000000000000000e+03
