-7.638200000000000000e+04 -1.438970000000000000e+05
-9.428400000000000000e+04 -1.120150000000000000e+05
-1.021270000000000000e+05 -8.388400000000000000e+04
-1.043430000000000000e+05 -6.376500000000000000e+04
-1.017860000000000000e+05 -5.166000000000000000e+04
-1.045140000000000000e+05 -4.330600000000000000e+04
-1.147430000000000000e+05 -3.580400000000000000e+04
-1.271890000000000000e+05 -2.097100000000000000e+04
-1.427040000000000000e+05 -1.705000000000000000e+03
-1.510590000000000000e+05 2.830200000000000000e+04
-1.522520000000000000e+05 6.802800000000000000e+04
-1.341790000000000000e+05 1.196870000000000000e+05
-1.034910000000000000e+05 1.611180000000000000e+05
-5.438800000000000000e+04 1.924890000000000000e+05
-2.898000000000000000e+03 1.977740000000000000e+05
4.535200000000000000e+04 1.885670000000000000e+05
8.541800000000000000e+04 1.629930000000000000e+05
1.174720000000000000e+05 1.358850000000000000e+05
1.326450000000000000e+05 1.065590000000000000e+05
1.505470000000000000e+05 7.825700000000000000e+04
1.595840000000000000e+05 4.637500000000000000e+04
1.670850000000000000e+05 2.011800000000000000e+04
1.720300000000000000e+05 -1.807200000000000000e+04
1.624820000000000000e+05 -5.745700000000000000e+04
1.486720000000000000e+05 -9.974000000000000000e+04
1.193470000000000000e+05 -1.341800000000000000e+05
8.371300000000000000e+04 -1.618000000000000000e+05
4.484000000000000000e+04 -1.817470000000000000e+05
-1.364000000000000000e+03 -1.878860000000000000e+05
-4.790900000000000000e+04 -1.894200000000000000e+05
-9.513600000000000000e+04 -1.708360000000000000e+05
-1.377600000000000000e+05 -1.404880000000000000e+05
-1.689610000000000000e+05 -9.650000000000000000e+04
-1.831110000000000000e+05 -4.091900000000000000e+04
-1.761210000000000000e+05 1.261700000000000000e+04
-1.486710000000000000e+05 4.842100000000000000e+04
-1.249730000000000000e+05 7.126700000000000000e+04
-1.108220000000000000e+05 8.899800000000000000e+04
-8.712300000000000000e+04 9.479500000000000000e+04
-7.331300000000000000e+04 1.084350000000000000e+05
-5.524100000000000000e+04 1.203700000000000000e+05
-3.819100000000000000e+04 1.340090000000000000e+05
-7.501000000000000000e+03 1.514000000000000000e+05
2.301700000000000000e+04 1.594120000000000000e+05
6.376500000000000000e+04 1.623120000000000000e+05
1.075820000000000000e+05 1.493540000000000000e+05
1.479900000000000000e+05 1.207110000000000000e+05
1.745870000000000000e+05 7.501800000000000000e+04
1.820890000000000000e+05 2.318800000000000000e+04
1.703250000000000000e+05 -1.807200000000000000e+04
1.474790000000000000e+05 -5.421700000000000000e+04
1.275300000000000000e+05 -7.263100000000000000e+04
1.099690000000000000e+05 -8.951000000000000000e+04
9.377300000000000000e+04 -9.956900000000000000e+04
8.149700000000000000e+04 -1.203690000000000000e+05
6.734600000000000000e+04 -1.423630000000000000e+05
3.546300000000000000e+04 -1.701540000000000000e+05
-4.944000000000000000e+03 -1.883970000000000000e+05
-5.916200000000000000e+04 -1.899310000000000000e+05
-1.126970000000000000e+05 -1.756100000000000000e+05
-1.548090000000000000e+05 -1.391240000000000000e+05
-1.820880000000000000e+05 -9.616000000000000000e+04
-1.993090000000000000e+05 -4.569200000000000000e+04
-2.042530000000000000e+05 7.161000000000000000e+03
-1.911250000000000000e+05 5.370600000000000000e+04
-1.684490000000000000e+05 1.011040000000000000e+05
-1.355430000000000000e+05 1.392940000000000000e+05
-9.462500000000000000e+04 1.698130000000000000e+05
-4.671500000000000000e+04 1.803840000000000000e+05
-3.069000000000000000e+03 1.762920000000000000e+05
3.529200000000000000e+04 1.646990000000000000e+05
6.410700000000000000e+04 1.464550000000000000e+05
8.456600000000000000e+04 1.305990000000000000e+05
1.024680000000000000e+05 1.111630000000000000e+05
1.225860000000000000e+05 9.445500000000000000e+04
1.394650000000000000e+05 7.092600000000000000e+04
1.510590000000000000e+05 4.432900000000000000e+04
1.612890000000000000e+05 1.159300000000000000e+04
1.582200000000000000e+05 -2.489200000000000000e+04
1.466260000000000000e+05 -6.615200000000000000e+04
1.198590000000000000e+05 -9.991000000000000000e+04
9.002200000000000000e+04 -1.162780000000000000e+05
5.080800000000000000e+04 -1.295760000000000000e+05
1.943600000000000000e+04 -1.249730000000000000e+05
-1.876000000000000000e+03 -1.157660000000000000e+05
-1.381000000000000000e+04 -1.077530000000000000e+05
-2.727900000000000000e+04 -1.034910000000000000e+05
-3.955500000000000000e+04 -1.072420000000000000e+05
-6.103700000000000000e+04 -1.103100000000000000e+05
-8.661200000000000000e+04 -1.121850000000000000e+05
-1.193460000000000000e+05 -1.012740000000000000e+05
-1.512290000000000000e+05 -8.354200000000000000e+04
-1.742460000000000000e+05 -4.313500000000000000e+04
-1.843050000000000000e+05 3.240000000000000000e+03
-1.715180000000000000e+05 6.001400000000000000e+04
-1.418520000000000000e+05 1.087760000000000000e+05
-9.854600000000000000e+04 1.421930000000000000e+05
-5.830900000000000000e+04 1.606060000000000000e+05
-1.329900000000000000e+04 1.646980000000000000e+05
2.557500000000000000e+04 1.592420000000000000e+05
6.035600000000000000e+04 1.478190000000000000e+05
9.121500000000000000e+04 1.285530000000000000e+05
1.183240000000000000e+05 1.060480000000000000e+05
1.375890000000000000e+05 7.621100000000000000e+04
1.464550000000000000e+05 4.177200000000000000e+04
1.461140000000000000e+05 1.005900000000000000e+04
1.331560000000000000e+05 -2.216500000000000000e+04
1.174710000000000000e+05 -5.029600000000000000e+04
9.871700000000000000e+04 -7.160800000000000000e+04
7.194900000000000000e+04 -8.985100000000000000e+04
4.739800000000000000e+04 -1.017860000000000000e+05
2.165300000000000000e+04 -1.150840000000000000e+05
-6.990000000000000000e+03 -1.154250000000000000e+05
-3.068900000000000000e+04 -1.137200000000000000e+05
-5.217200000000000000e+04 -1.024680000000000000e+05
-7.655300000000000000e+04 -8.661200000000000000e+04
-8.695200000000000000e+04 -6.768700000000000000e+04
-9.905800000000000000e+04 -5.114800000000000000e+04
-1.079240000000000000e+05 -3.546300000000000000e+04
-1.125270000000000000e+05 -1.739100000000000000e+04
-1.103100000000000000e+05 3.922000000000000000e+03
-1.067300000000000000e+05 2.472200000000000000e+04
-1.017850000000000000e+05 5.149000000000000000e+04
-9.002100000000000000e+04 8.166700000000000000e+04
-6.973300000000000000e+04 1.094580000000000000e+05
-3.870200000000000000e+04 1.343500000000000000e+05
5.967000000000000000e+03 1.551510000000000000e+05
5.507000000000000000e+04 1.597540000000000000e+05
1.016150000000000000e+05 1.352030000000000000e+05
1.340090000000000000e+05 9.667100000000000000e+04
1.421930000000000000e+05 5.046700000000000000e+04
1.340100000000000000e+05 1.415100000000000000e+04
1.198580000000000000e+05 -1.500300000000000000e+04
1.040020000000000000e+05 -3.273600000000000000e+04
8.865700000000000000e+04 -4.756800000000000000e+04
7.297200000000000000e+04 -5.575200000000000000e+04
6.274300000000000000e+04 -6.564100000000000000e+04
4.995500000000000000e+04 -7.450600000000000000e+04
3.580400000000000000e+04 -8.627100000000000000e+04
1.892500000000000000e+04 -9.462500000000000000e+04
-6.820000000000000000e+02 -1.046840000000000000e+05
-1.926600000000000000e+04 -1.036610000000000000e+05
-3.648600000000000000e+04 -1.026390000000000000e+05
-5.336500000000000000e+04 -9.957000000000000000e+04
-7.229000000000000000e+04 -8.780500000000000000e+04
-8.951000000000000000e+04 -7.331300000000000000e+04
-1.043430000000000000e+05 -5.899200000000000000e+04
-1.222450000000000000e+05 -3.256500000000000000e+04
-1.317930000000000000e+05 -4.944000000000000000e+03
-1.328160000000000000e+05 3.427000000000000000e+04
-1.195170000000000000e+05 7.263100000000000000e+04
-9.360200000000000000e+04 9.667100000000000000e+04
-6.291200000000000000e+04 1.130380000000000000e+05
-3.222300000000000000e+04 1.234380000000000000e+05
-2.557000000000000000e+03 1.249730000000000000e+05
2.438000000000000000e+04 1.191760000000000000e+05
4.535200000000000000e+04 1.115030000000000000e+05
6.990300000000000000e+04 1.007630000000000000e+05
8.916900000000000000e+04 9.053300000000000000e+04
1.070710000000000000e+05 6.802800000000000000e+04
1.205400000000000000e+05 3.819100000000000000e+04
1.236080000000000000e+05 8.696000000000000000e+03
1.111630000000000000e+05 -2.267600000000000000e+04
8.763500000000000000e+04 -4.910200000000000000e+04
6.564100000000000000e+04 -5.711600000000000000e+04
4.603300000000000000e+04 -5.438800000000000000e+04
3.614500000000000000e+04 -4.825000000000000000e+04
2.523300000000000000e+04 -4.364600000000000000e+04
2.114200000000000000e+04 -4.262300000000000000e+04
1.824300000000000000e+04 -4.381700000000000000e+04
1.858400000000000000e+04 -4.756800000000000000e+04
1.483300000000000000e+04 -5.268300000000000000e+04
8.013000000000000000e+03 -5.933200000000000000e+04
1.364000000000000000e+03 -6.990300000000000000e+04
-1.346900000000000000e+04 -7.007400000000000000e+04
6.990000000000000000e+03 -1.534000000000000000e+03
9.547000000000000000e+03 -8.865000000000000000e+03
1.415200000000000000e+04 -8.866000000000000000e+03
1.244600000000000000e+04 -6.819000000000000000e+03
3.410000000000000000e+03 -1.193500000000000000e+04
3.410000000000000000e+02 -2.045900000000000000e+04
-6.990000000000000000e+03 -1.841300000000000000e+04
-1.142400000000000000e+04 -1.534500000000000000e+04
-1.432200000000000000e+04 -9.206000000000000000e+03
-2.676800000000000000e+04 -7.331000000000000000e+03
-3.000800000000000000e+04 8.520000000000000000e+02
-3.290600000000000000e+04 5.967000000000000000e+03
-2.369900000000000000e+04 1.210500000000000000e+04
-2.148200000000000000e+04 1.653800000000000000e+04
-1.381100000000000000e+04 1.773200000000000000e+04
-5.626000000000000000e+03 1.960700000000000000e+04
-3.069000000000000000e+03 2.387000000000000000e+04
3.240000000000000000e+03 2.387000000000000000e+04
1.125200000000000000e+04 2.097100000000000000e+04
1.227500000000000000e+04 1.449200000000000000e+04
1.619700000000000000e+04 1.244600000000000000e+04
2.046000000000000000e+04 8.866000000000000000e+03
1.705000000000000000e+04 4.774000000000000000e+03
1.790200000000000000e+04 2.898000000000000000e+03
1.500300000000000000e+04 -4.092000000000000000e+03
1.210500000000000000e+04 -5.120000000000000000e+02
1.500300000000000000e+04 -1.194000000000000000e+03
1.841300000000000000e+04 -4.433000000000000000e+03
2.369800000000000000e+04 -3.069000000000000000e+03
2.591500000000000000e+04 2.625600000000000000e+04
2.847300000000000000e+04 -1.483300000000000000e+04
2.881400000000000000e+04 -2.557400000000000000e+04
2.335800000000000000e+04 -3.631600000000000000e+04
1.312900000000000000e+04 -4.518100000000000000e+04
-5.797000000000000000e+03 -5.541100000000000000e+04
-2.864300000000000000e+04 -5.200100000000000000e+04
-4.739800000000000000e+04 -4.518100000000000000e+04
-6.274200000000000000e+04 -3.239400000000000000e+04
-6.973300000000000000e+04 -1.722000000000000000e+04
-7.552900000000000000e+04 3.410000000000000000e+03
-7.143800000000000000e+04 2.011900000000000000e+04
-6.905000000000000000e+04 3.870300000000000000e+04
-5.677500000000000000e+04 5.711600000000000000e+04
-3.631500000000000000e+04 7.229000000000000000e+04
-1.193500000000000000e+04 7.945100000000000000e+04
1.381000000000000000e+04 7.893900000000000000e+04
3.921300000000000000e+04 6.922100000000000000e+04
5.711600000000000000e+04 5.063700000000000000e+04
6.274300000000000000e+04 3.461100000000000000e+04
6.512900000000000000e+04 1.534500000000000000e+04
6.206000000000000000e+04 1.364000000000000000e+03
5.455900000000000000e+04 -6.649000000000000000e+03
4.808000000000000000e+04 -1.432100000000000000e+04
4.330500000000000000e+04 -2.063000000000000000e+04
3.750800000000000000e+04 -2.114100000000000000e+04
3.716800000000000000e+04 -2.233400000000000000e+04
4.364600000000000000e+04 5.456000000000000000e+03
4.705700000000000000e+04 1.364000000000000000e+03
4.995500000000000000e+04 -5.967000000000000000e+03
5.541100000000000000e+04 -1.312800000000000000e+04
5.694500000000000000e+04 -2.335700000000000000e+04
5.353500000000000000e+04 -3.972500000000000000e+04
4.893200000000000000e+04 -5.251300000000000000e+04
3.921300000000000000e+04 -6.359500000000000000e+04
2.438100000000000000e+04 -7.604000000000000000e+04
1.023000000000000000e+03 -8.507700000000000000e+04
-2.114200000000000000e+04 -9.070300000000000000e+04
-5.336500000000000000e+04 -8.661100000000000000e+04
-9.002100000000000000e+04 -7.416500000000000000e+04
-1.133800000000000000e+05 -4.569200000000000000e+04
-1.307700000000000000e+05 -1.585600000000000000e+04
-1.292350000000000000e+05 2.250500000000000000e+04
-1.135500000000000000e+05 4.825000000000000000e+04
-9.292000000000000000e+04 7.229000000000000000e+04
-7.143700000000000000e+04 8.269000000000000000e+04
