-1.607770000000000000e+05 -7.791600000000000000e+04
-1.877150000000000000e+05 -4.347600000000000000e+04
-2.129490000000000000e+05 -1.091200000000000000e+04
-2.173810000000000000e+05 4.245300000000000000e+04
-2.100500000000000000e+05 9.837500000000000000e+04
-1.761210000000000000e+05 1.508880000000000000e+05
-1.203700000000000000e+05 1.902730000000000000e+05
-5.251300000000000000e+04 2.097090000000000000e+05
1.364000000000000000e+04 2.102200000000000000e+05
7.518900000000000000e+04 1.938530000000000000e+05
1.227570000000000000e+05 1.638460000000000000e+05
1.618000000000000000e+05 1.275310000000000000e+05
1.890790000000000000e+05 8.371300000000000000e+04
2.042540000000000000e+05 3.972600000000000000e+04
2.023780000000000000e+05 -6.819000000000000000e+03
1.909550000000000000e+05 -5.302400000000000000e+04
1.638460000000000000e+05 -9.070300000000000000e+04
1.265070000000000000e+05 -1.132080000000000000e+05
8.064400000000000000e+04 -1.246320000000000000e+05
3.938400000000000000e+04 -1.227560000000000000e+05
9.377000000000000000e+03 -1.094580000000000000e+05
-1.551500000000000000e+04 -9.752300000000000000e+04
-2.949600000000000000e+04 -8.013200000000000000e+04
-3.614500000000000000e+04 -7.007400000000000000e+04
-3.887300000000000000e+04 -6.257200000000000000e+04
-4.228300000000000000e+04 -5.711600000000000000e+04
-4.484000000000000000e+04 -5.302400000000000000e+04
-5.387600000000000000e+04 -5.149000000000000000e+04
-6.547000000000000000e+04 -4.807900000000000000e+04
-7.996300000000000000e+04 -3.904400000000000000e+04
-9.564800000000000000e+04 -2.693800000000000000e+04
-1.132090000000000000e+05 -1.023000000000000000e+04
-1.184940000000000000e+05 1.159400000000000000e+04
-1.179830000000000000e+05 3.682700000000000000e+04
-1.109930000000000000e+05 6.137800000000000000e+04
-9.309100000000000000e+04 7.416500000000000000e+04
-7.143700000000000000e+04 1.070710000000000000e+05
-3.222400000000000000e+04 1.215630000000000000e+05
5.796000000000000000e+03 1.277010000000000000e+05
5.148900000000000000e+04 1.259960000000000000e+05
9.189700000000000000e+04 1.149140000000000000e+05
1.246320000000000000e+05 8.541800000000000000e+04
1.428740000000000000e+05 5.131900000000000000e+04
1.491830000000000000e+05 1.483300000000000000e+04
1.425340000000000000e+05 -2.182400000000000000e+04
1.234380000000000000e+05 -4.978500000000000000e+04
1.017850000000000000e+05 -6.888000000000000000e+04
7.518800000000000000e+04 -8.627000000000000000e+04
4.398800000000000000e+04 -8.916900000000000000e+04
1.602600000000000000e+04 -8.678200000000000000e+04
-6.308000000000000000e+03 -8.132600000000000000e+04
-2.352900000000000000e+04 -6.751600000000000000e+04
-3.495200000000000000e+04 -5.507000000000000000e+04
-4.109000000000000000e+04 -4.705700000000000000e+04
-4.160100000000000000e+04 -3.222300000000000000e+04
-3.836100000000000000e+04 -2.455100000000000000e+04
-3.665600000000000000e+04 -2.080100000000000000e+04
-3.495100000000000000e+04 -2.250500000000000000e+04
-3.546300000000000000e+04 -1.739100000000000000e+04
-3.955500000000000000e+04 -1.756100000000000000e+04
-4.842100000000000000e+04 -1.551500000000000000e+04
-5.438800000000000000e+04 -1.176400000000000000e+04
-6.461800000000000000e+04 -3.410000000000000000e+02
-7.058500000000000000e+04 1.176400000000000000e+04
-7.075600000000000000e+04 2.745000000000000000e+04
-6.564000000000000000e+04 4.228300000000000000e+04
-4.859100000000000000e+04 6.120800000000000000e+04
-2.404000000000000000e+04 6.888000000000000000e+04
-4.433000000000000000e+03 7.450600000000000000e+04
-6.973200000000000000e+04 4.074800000000000000e+04
-5.404700000000000000e+04 5.592200000000000000e+04
-3.665700000000000000e+04 6.683400000000000000e+04
-1.381100000000000000e+04 7.552900000000000000e+04
1.227500000000000000e+04 7.638200000000000000e+04
3.120100000000000000e+04 7.160800000000000000e+04
4.995500000000000000e+04 6.223100000000000000e+04
6.734600000000000000e+04 4.893200000000000000e+04
7.825700000000000000e+04 3.273600000000000000e+04
7.723400000000000000e+04 1.108200000000000000e+04
7.297100000000000000e+04 -7.672000000000000000e+03
6.410600000000000000e+04 -1.756100000000000000e+04
4.961400000000000000e+04 -2.710900000000000000e+04
3.546300000000000000e+04 -3.324700000000000000e+04
2.165300000000000000e+04 -3.631600000000000000e+04
1.364000000000000000e+04 -3.409900000000000000e+04
4.262000000000000000e+03 -3.171200000000000000e+04
-1.364000000000000000e+03 -2.847200000000000000e+04
-5.114000000000000000e+03 -2.642600000000000000e+04
-6.990000000000000000e+03 -2.301600000000000000e+04
-4.433000000000000000e+03 -2.574500000000000000e+04
-6.309000000000000000e+03 -2.284600000000000000e+04
-7.672000000000000000e+03 -2.744900000000000000e+04
-1.193400000000000000e+04 -2.983700000000000000e+04
-1.960700000000000000e+04 -3.409900000000000000e+04
-3.256500000000000000e+04 -3.017800000000000000e+04
-3.819100000000000000e+04 -3.000700000000000000e+04
-5.046700000000000000e+04 -2.369900000000000000e+04
-5.865100000000000000e+04 -1.381000000000000000e+04
-6.564000000000000000e+04 -1.023000000000000000e+03
-6.444800000000000000e+04 1.415100000000000000e+04
-6.018500000000000000e+04 2.693800000000000000e+04
-5.319400000000000000e+04 3.887300000000000000e+04
-3.938400000000000000e+04 4.910300000000000000e+04
-2.131100000000000000e+04 5.524100000000000000e+04
-1.704000000000000000e+03 5.830900000000000000e+04
1.091200000000000000e+04 5.336500000000000000e+04
2.489300000000000000e+04 5.541100000000000000e+04
3.614500000000000000e+04 4.160100000000000000e+04
4.671600000000000000e+04 3.495200000000000000e+04
5.166000000000000000e+04 1.773100000000000000e+04
5.046700000000000000e+04 9.037000000000000000e+03
4.808000000000000000e+04 -2.216000000000000000e+03
3.904300000000000000e+04 -1.381000000000000000e+04
3.341700000000000000e+04 -1.926600000000000000e+04
2.097100000000000000e+04 -2.472200000000000000e+04
1.415100000000000000e+04 -2.438100000000000000e+04
4.944000000000000000e+03 -2.523300000000000000e+04
-6.820000000000000000e+02 -1.909500000000000000e+04
-4.603000000000000000e+03 -1.500300000000000000e+04
-7.161000000000000000e+03 -1.500300000000000000e+04
-6.308000000000000000e+03 -1.807300000000000000e+04
-5.115000000000000000e+03 -1.943700000000000000e+04
-5.968000000000000000e+03 -2.028900000000000000e+04
-1.074200000000000000e+04 -2.455100000000000000e+04
-1.346900000000000000e+04 -2.830200000000000000e+04
-2.182300000000000000e+04 -2.540400000000000000e+04
-3.222400000000000000e+04 -2.165300000000000000e+04
-3.768000000000000000e+04 -2.011900000000000000e+04
-5.029600000000000000e+04 -8.865000000000000000e+03
-5.319400000000000000e+04 1.710000000000000000e+02
-5.472900000000000000e+04 1.023000000000000000e+04
-5.336500000000000000e+04 2.642700000000000000e+04
-4.535200000000000000e+04 4.177200000000000000e+04
-3.597400000000000000e+04 5.131900000000000000e+04
-1.756100000000000000e+04 5.677500000000000000e+04
3.751000000000000000e+03 5.882100000000000000e+04
1.807300000000000000e+04 5.796900000000000000e+04
3.171200000000000000e+04 5.183000000000000000e+04
4.364600000000000000e+04 3.921400000000000000e+04
5.234200000000000000e+04 2.932500000000000000e+04
5.404700000000000000e+04 1.551500000000000000e+04
5.285300000000000000e+04 4.945000000000000000e+03
4.910200000000000000e+04 3.069000000000000000e+03
4.074800000000000000e+04 -6.309000000000000000e+03
3.495200000000000000e+04 -8.184000000000000000e+03
3.034800000000000000e+04 -1.023000000000000000e+04
2.574500000000000000e+04 -1.210500000000000000e+04
1.926600000000000000e+04 -1.210500000000000000e+04
1.551500000000000000e+04 -9.718000000000000000e+03
1.398000000000000000e+04 -8.355000000000000000e+03
1.415100000000000000e+04 -8.354000000000000000e+03
1.653800000000000000e+04 -9.036000000000000000e+03
2.233500000000000000e+04 -1.295800000000000000e+04
2.983600000000000000e+04 -1.790200000000000000e+04
4.995500000000000000e+04 -3.017800000000000000e+04
1.079230000000000000e+05 -5.694600000000000000e+04
1.670900000000000000e+04 -1.803840000000000000e+05
-8.354300000000000000e+04 -1.947050000000000000e+05
-1.781670000000000000e+05 -1.415110000000000000e+05
-2.339200000000000000e+05 -2.966600000000000000e+04
-2.286340000000000000e+05 1.094580000000000000e+05
-1.374190000000000000e+05 2.337490000000000000e+05
5.609300000000000000e+04 1.715180000000000000e+05
1.043430000000000000e+05 8.610000000000000000e+04
9.309100000000000000e+04 4.552200000000000000e+04
8.047400000000000000e+04 1.875400000000000000e+04
7.092600000000000000e+04 2.046000000000000000e+03
5.984400000000000000e+04 -1.415100000000000000e+04
4.501100000000000000e+04 -2.387000000000000000e+04
3.444000000000000000e+04 -2.949600000000000000e+04
2.335800000000000000e+04 -2.250500000000000000e+04
1.432100000000000000e+04 -3.546300000000000000e+04
9.718000000000000000e+03 -3.205400000000000000e+04
-6.820000000000000000e+02 -3.000800000000000000e+04
-7.160000000000000000e+03 -2.591500000000000000e+04
-1.227500000000000000e+04 -2.063000000000000000e+04
-1.210500000000000000e+04 -1.517500000000000000e+04
-1.142300000000000000e+04 -1.278700000000000000e+04
-1.722000000000000000e+04 -8.525000000000000000e+03
-1.074100000000000000e+04 -8.354000000000000000e+03
-1.415100000000000000e+04 -5.456000000000000000e+03
-8.866000000000000000e+03 -4.433000000000000000e+03
-9.036000000000000000e+03 -5.114000000000000000e+03
-6.820000000000000000e+03 -2.046000000000000000e+03
-7.501000000000000000e+03 -6.820000000000000000e+02
-9.377000000000000000e+03 2.216000000000000000e+03
-6.138000000000000000e+03 3.400000000000000000e+02
-8.184000000000000000e+03 -1.022000000000000000e+03
-1.159400000000000000e+04 1.364000000000000000e+03
-9.547000000000000000e+03 1.705000000000000000e+03
-8.695000000000000000e+03 5.456000000000000000e+03
-9.888000000000000000e+03 8.525000000000000000e+03
-9.377000000000000000e+03 9.377000000000000000e+03
-9.718000000000000000e+03 1.227600000000000000e+04
-5.285000000000000000e+03 1.619700000000000000e+04
-1.534000000000000000e+03 1.739000000000000000e+04
5.455000000000000000e+03 1.415100000000000000e+04
7.843000000000000000e+03 1.295800000000000000e+04
9.548000000000000000e+03 1.176500000000000000e+04
1.483300000000000000e+04 5.967000000000000000e+03
1.517400000000000000e+04 1.364000000000000000e+03
1.346900000000000000e+04 -6.820000000000000000e+02
1.636800000000000000e+04 -8.530000000000000000e+02
1.159400000000000000e+04 -7.160000000000000000e+03
1.040000000000000000e+04 -9.888000000000000000e+03
7.502000000000000000e+03 -8.695000000000000000e+03
5.797000000000000000e+03 -1.346900000000000000e+04
0.000000000000000000e+00 -1.040100000000000000e+04
-1.705000000000000000e+03 -9.377000000000000000e+03
-2.728000000000000000e+03 -8.014000000000000000e+03
-3.239000000000000000e+03 -7.331000000000000000e+03
-6.990000000000000000e+03 -3.921000000000000000e+03
-7.842000000000000000e+03 -6.819000000000000000e+03
-5.626000000000000000e+03 -3.751000000000000000e+03
-5.626000000000000000e+03 -6.819000000000000000e+03
-5.114000000000000000e+03 -4.945000000000000000e+03
-5.285000000000000000e+03 -1.023000000000000000e+03
-5.455000000000000000e+03 -1.534000000000000000e+03
0.000000000000000000e+00 -2.216000000000000000e+03
-8.013000000000000000e+03 -2.557000000000000000e+03
-7.161000000000000000e+03 -1.875000000000000000e+03
-6.137000000000000000e+03 -1.710000000000000000e+02
-9.889000000000000000e+03 2.557000000000000000e+03
-1.074100000000000000e+04 2.046000000000000000e+03
-1.125200000000000000e+04 4.092000000000000000e+03
-8.354000000000000000e+03 6.820000000000000000e+03
-9.377000000000000000e+03 7.672000000000000000e+03
-5.967000000000000000e+03 1.261600000000000000e+04
-2.216000000000000000e+03 1.398100000000000000e+04
-2.387000000000000000e+03 1.653800000000000000e+04
4.774000000000000000e+03 1.483300000000000000e+04
1.125300000000000000e+04 1.517400000000000000e+04
1.125300000000000000e+04 1.074100000000000000e+04
1.398100000000000000e+04 6.649000000000000000e+03
1.466300000000000000e+04 2.557000000000000000e+03
1.142400000000000000e+04 -1.534000000000000000e+03
9.889000000000000000e+03 -4.433000000000000000e+03
9.036000000000000000e+03 -5.115000000000000000e+03
4.433000000000000000e+03 -6.138000000000000000e+03
4.604000000000000000e+03 -9.036000000000000000e+03
-5.120000000000000000e+02 -1.159400000000000000e+04
-6.820000000000000000e+02 -7.843000000000000000e+03
-3.750000000000000000e+03 -6.308000000000000000e+03
-2.728000000000000000e+03 -6.991000000000000000e+03
-2.387000000000000000e+03 -7.161000000000000000e+03
-1.705000000000000000e+03 -4.263000000000000000e+03
-5.797000000000000000e+03 -5.456000000000000000e+03
-2.386000000000000000e+03 -5.967000000000000000e+03
-5.285000000000000000e+03 -3.921000000000000000e+03
-3.751000000000000000e+03 -7.161000000000000000e+03
