1.283830000000000000e+05 -9.372120000000000000e+05
-5.822410000000000000e+05 -8.318460000000000000e+05
-8.923720000000000000e+05 -5.471190000000000000e+05
-1.021948000000000000e+06 -2.591530000000000000e+05
-1.061844000000000000e+06 1.176400000000000000e+04
-1.026380000000000000e+06 2.823400000000000000e+05
-9.372120000000000000e+05 5.223970000000000000e+05
-7.897330000000000000e+05 7.379030000000000000e+05
-5.892310000000000000e+05 9.131720000000000000e+05
-3.413320000000000000e+05 1.034224000000000000e+06
-2.318800000000000000e+04 1.081280000000000000e+06
3.160980000000000000e+05 9.781310000000000000e+05
5.708180000000000000e+05 6.867540000000000000e+05
5.747390000000000000e+05 2.954680000000000000e+05
3.566760000000000000e+05 3.853200000000000000e+04
1.154250000000000000e+05 1.704900000000000000e+04
-2.693800000000000000e+04 1.079240000000000000e+05
-7.979100000000000000e+04 2.320440000000000000e+05
-6.103800000000000000e+04 3.406490000000000000e+05
-5.455000000000000000e+03 4.258970000000000000e+05
7.962100000000000000e+04 4.876160000000000000e+05
1.791900000000000000e+05 5.217150000000000000e+05
2.859200000000000000e+05 5.368890000000000000e+05
3.998110000000000000e+05 5.268300000000000000e+05
5.147250000000000000e+05 4.969930000000000000e+05
6.282740000000000000e+05 4.366380000000000000e+05
7.346630000000000000e+05 3.490030000000000000e+05
8.335500000000000000e+05 2.288050000000000000e+05
9.056700000000000000e+05 7.945000000000000000e+04
9.416450000000000000e+05 -1.038310000000000000e+05
9.309030000000000000e+05 -3.056980000000000000e+05
8.589540000000000000e+05 -5.138730000000000000e+05
7.252860000000000000e+05 -7.065320000000000000e+05
5.363780000000000000e+05 -8.526460000000000000e+05
3.193370000000000000e+05 -9.331200000000000000e+05
1.034910000000000000e+05 -9.460770000000000000e+05
-8.934000000000000000e+04 -8.945880000000000000e+05
-2.521620000000000000e+05 -8.033730000000000000e+05
-3.602570000000000000e+05 -6.855610000000000000e+05
-4.277720000000000000e+05 -5.657030000000000000e+05
-4.603370000000000000e+05 -4.400480000000000000e+05
-4.651110000000000000e+05 -3.299090000000000000e+05
-4.437990000000000000e+05 -2.284630000000000000e+05
-4.021980000000000000e+05 -1.442390000000000000e+05
-3.524130000000000000e+05 -7.859800000000000000e+04
-2.884780000000000000e+05 -2.898400000000000000e+04
-2.097090000000000000e+05 -1.261700000000000000e+04
-1.306000000000000000e+05 -2.813200000000000000e+04
-5.404700000000000000e+04 -8.252000000000000000e+04
-1.261700000000000000e+04 -1.987980000000000000e+05
-4.501100000000000000e+04 -3.609390000000000000e+05
-2.020370000000000000e+05 -5.171120000000000000e+05
-4.455040000000000000e+05 -5.636570000000000000e+05
-6.872660000000000000e+05 -4.507900000000000000e+05
-8.165020000000000000e+05 -2.497760000000000000e+05
-8.490660000000000000e+05 -4.739800000000000000e+04
-8.204230000000000000e+05 1.312820000000000000e+05
-7.609200000000000000e+05 2.819990000000000000e+05
-6.845380000000000000e+05 3.936730000000000000e+05
-5.989500000000000000e+05 4.913660000000000000e+05
-5.142130000000000000e+05 5.716700000000000000e+05
-4.212930000000000000e+05 6.383340000000000000e+05
-3.270100000000000000e+05 6.942560000000000000e+05
-2.267580000000000000e+05 7.367090000000000000e+05
-1.241200000000000000e+05 7.689330000000000000e+05
-1.892500000000000000e+04 7.924610000000000000e+05
9.155600000000000000e+04 8.025200000000000000e+05
2.037410000000000000e+05 7.963830000000000000e+05
3.176320000000000000e+05 7.730240000000000000e+05
4.301590000000000000e+05 7.368800000000000000e+05
5.389350000000000000e+05 6.743080000000000000e+05
6.398680000000000000e+05 5.882080000000000000e+05
7.273320000000000000e+05 4.760220000000000000e+05
7.938250000000000000e+05 3.396260000000000000e+05
8.212750000000000000e+05 1.832820000000000000e+05
8.127500000000000000e+05 1.125200000000000000e+04
7.409720000000000000e+05 -1.607770000000000000e+05
6.100310000000000000e+05 -2.961500000000000000e+05
4.301590000000000000e+05 -3.619620000000000000e+05
2.744970000000000000e+05 -3.150750000000000000e+05
2.061290000000000000e+05 -1.972630000000000000e+05
2.489230000000000000e+05 -9.769400000000000000e+04
3.350220000000000000e+05 -7.467700000000000000e+04
4.095290000000000000e+05 -1.183240000000000000e+05
4.448210000000000000e+05 -2.032300000000000000e+05
4.484020000000000000e+05 -2.978550000000000000e+05
4.177130000000000000e+05 -3.877060000000000000e+05
3.597450000000000000e+05 -4.705660000000000000e+05
2.927400000000000000e+05 -5.431970000000000000e+05
2.151640000000000000e+05 -6.028710000000000000e+05
1.268480000000000000e+05 -6.468590000000000000e+05
3.546300000000000000e+04 -6.806170000000000000e+05
-6.001400000000000000e+04 -7.002240000000000000e+05
-1.619710000000000000e+05 -7.058500000000000000e+05
-2.700650000000000000e+05 -6.898240000000000000e+05
-3.682700000000000000e+05 -6.662950000000000000e+05
-4.680090000000000000e+05 -6.236710000000000000e+05
-5.609290000000000000e+05 -5.641680000000000000e+05
-6.393570000000000000e+05 -4.802850000000000000e+05
-7.048270000000000000e+05 -3.810560000000000000e+05
-7.465990000000000000e+05 -2.620510000000000000e+05
-7.668870000000000000e+05 -1.314520000000000000e+05
-7.554640000000000000e+05 3.240000000000000000e+03
-7.153970000000000000e+05 1.372480000000000000e+05
-6.424260000000000000e+05 2.542080000000000000e+05
-5.500180000000000000e+05 3.554820000000000000e+05
-4.451620000000000000e+05 4.245330000000000000e+05
-3.314430000000000000e+05 4.613600000000000000e+05
-2.184040000000000000e+05 4.765340000000000000e+05
-1.203690000000000000e+05 4.550510000000000000e+05
-3.529200000000000000e+04 4.040740000000000000e+05
1.653800000000000000e+04 3.331480000000000000e+05
1.824300000000000000e+04 2.569360000000000000e+05
-1.364000000000000000e+04 1.987970000000000000e+05
-7.024400000000000000e+04 1.974340000000000000e+05
-9.718300000000000000e+04 2.376700000000000000e+05
-8.456500000000000000e+04 2.881370000000000000e+05
-4.722700000000000000e+04 3.287140000000000000e+05
1.023000000000000000e+03 3.491740000000000000e+05
5.166000000000000000e+04 3.546300000000000000e+05
9.922800000000000000e+04 3.513910000000000000e+05
1.411700000000000000e+05 3.411610000000000000e+05
1.814060000000000000e+05 3.220650000000000000e+05
2.170400000000000000e+05 3.026290000000000000e+05
2.434670000000000000e+05 2.808050000000000000e+05
2.750080000000000000e+05 2.548900000000000000e+05
2.963200000000000000e+05 2.274400000000000000e+05
3.193370000000000000e+05 2.005020000000000000e+05
3.503670000000000000e+05 1.675970000000000000e+05
3.648600000000000000e+05 1.283820000000000000e+05
3.849780000000000000e+05 9.240800000000000000e+04
4.001520000000000000e+05 4.808000000000000000e+04
4.153260000000000000e+05 -1.023000000000000000e+04
4.209530000000000000e+05 -6.649300000000000000e+04
4.187360000000000000e+05 -1.336680000000000000e+05
4.045850000000000000e+05 -2.112430000000000000e+05
3.669060000000000000e+05 -2.900120000000000000e+05
3.031410000000000000e+05 -3.675870000000000000e+05
2.119250000000000000e+05 -4.315230000000000000e+05
9.530700000000000000e+04 -4.630650000000000000e+05
-2.216400000000000000e+04 -4.443110000000000000e+05
-1.123560000000000000e+05 -3.800340000000000000e+05
-1.600950000000000000e+05 -2.951270000000000000e+05
-1.611170000000000000e+05 -2.112440000000000000e+05
-1.389530000000000000e+05 -1.478200000000000000e+05
-1.007630000000000000e+05 -1.167900000000000000e+05
-5.933200000000000000e+04 -1.063890000000000000e+05
-2.608500000000000000e+04 -1.174720000000000000e+05
-9.548000000000000000e+03 -1.425340000000000000e+05
-7.501000000000000000e+03 -1.732230000000000000e+05
-1.415200000000000000e+04 -2.112430000000000000e+05
-4.808000000000000000e+04 -2.405680000000000000e+05
-9.445400000000000000e+04 -2.623920000000000000e+05
-1.427040000000000000e+05 -2.717700000000000000e+05
-1.919770000000000000e+05 -2.656320000000000000e+05
-2.415910000000000000e+05 -2.415910000000000000e+05
-2.826810000000000000e+05 -2.091980000000000000e+05
-3.200190000000000000e+05 -1.578790000000000000e+05
-3.379210000000000000e+05 -1.145730000000000000e+05
-3.467870000000000000e+05 -5.609300000000000000e+04
-3.503670000000000000e+05 -3.922000000000000000e+03
-3.406490000000000000e+05 4.961400000000000000e+04
-3.230880000000000000e+05 1.040020000000000000e+05
-2.980250000000000000e+05 1.481600000000000000e+05
-2.615390000000000000e+05 1.931710000000000000e+05
-2.211320000000000000e+05 2.252240000000000000e+05
-1.756100000000000000e+05 2.554010000000000000e+05
-1.278710000000000000e+05 2.683590000000000000e+05
-7.774500000000000000e+04 2.801240000000000000e+05
-2.676700000000000000e+04 2.813170000000000000e+05
2.028900000000000000e+04 2.688710000000000000e+05
6.785700000000000000e+04 2.472170000000000000e+05
1.058770000000000000e+05 2.148240000000000000e+05
1.363960000000000000e+05 1.728830000000000000e+05
1.483310000000000000e+05 1.155960000000000000e+05
1.372490000000000000e+05 6.547000000000000000e+04
1.101400000000000000e+05 2.966600000000000000e+04
7.689400000000000000e+04 1.142400000000000000e+04
4.671600000000000000e+04 1.534400000000000000e+04
3.614500000000000000e+04 2.216400000000000000e+04
2.949600000000000000e+04 2.659800000000000000e+04
2.710900000000000000e+04 3.341800000000000000e+04
2.591500000000000000e+04 3.716700000000000000e+04
2.796200000000000000e+04 3.989600000000000000e+04
2.745000000000000000e+04 3.989600000000000000e+04
3.103100000000000000e+04 4.006600000000000000e+04
2.830200000000000000e+04 4.040800000000000000e+04
2.915500000000000000e+04 4.023700000000000000e+04
3.273500000000000000e+04 4.160000000000000000e+04
3.427000000000000000e+04 3.802100000000000000e+04
3.478100000000000000e+04 4.057800000000000000e+04
3.904300000000000000e+04 4.126000000000000000e+04
3.785000000000000000e+04 4.279400000000000000e+04
4.023700000000000000e+04 4.245300000000000000e+04
4.722700000000000000e+04 4.449900000000000000e+04
5.575100000000000000e+04 4.586400000000000000e+04
6.103800000000000000e+04 4.603400000000000000e+04
7.024400000000000000e+04 4.586400000000000000e+04
8.405400000000000000e+04 4.279400000000000000e+04
9.087400000000000000e+04 3.341700000000000000e+04
1.053660000000000000e+05 2.301700000000000000e+04
1.140620000000000000e+05 8.013000000000000000e+03
1.132090000000000000e+05 -1.483300000000000000e+04
1.038310000000000000e+05 -3.461100000000000000e+04
8.610000000000000000e+04 -4.893200000000000000e+04
6.768700000000000000e+04 -5.370600000000000000e+04
5.575100000000000000e+04 -5.762800000000000000e+04
4.262300000000000000e+04 -4.978500000000000000e+04
3.205300000000000000e+04 -3.802100000000000000e+04
2.642700000000000000e+04 -3.273500000000000000e+04
2.403900000000000000e+04 -2.710900000000000000e+04
2.318700000000000000e+04 -1.381000000000000000e+04
2.847300000000000000e+04 -5.626000000000000000e+03
3.682700000000000000e+04 3.410000000000000000e+02
4.467000000000000000e+04 7.672000000000000000e+03
5.865000000000000000e+04 1.381000000000000000e+04
8.115500000000000000e+04 1.125200000000000000e+04
1.016150000000000000e+05 5.797000000000000000e+03
1.259950000000000000e+05 -1.159400000000000000e+04
1.479900000000000000e+05 -3.836200000000000000e+04
1.658910000000000000e+05 -7.791700000000000000e+04
1.694720000000000000e+05 -1.290650000000000000e+05
1.589010000000000000e+05 -1.834530000000000000e+05
1.225860000000000000e+05 -2.381820000000000000e+05
7.007300000000000000e+04 -2.842150000000000000e+05
4.092000000000000000e+03 -3.099600000000000000e+05
-5.848000000000000000e+04 -3.188260000000000000e+05
-1.244620000000000000e+05 -3.072330000000000000e+05
-1.868620000000000000e+05 -2.864320000000000000e+05
-2.400570000000000000e+05 -2.514800000000000000e+05
-2.821690000000000000e+05 -2.073220000000000000e+05
-3.169500000000000000e+05 -1.595830000000000000e+05
-3.408190000000000000e+05 -1.009330000000000000e+05
-3.525840000000000000e+05 -4.143000000000000000e+04
-3.500270000000000000e+05 2.182400000000000000e+04
-3.380920000000000000e+05 7.928000000000000000e+04
-3.164390000000000000e+05 1.360550000000000000e+05
-2.760310000000000000e+05 1.868630000000000000e+05
-2.339190000000000000e+05 2.224960000000000000e+05
-1.783370000000000000e+05 2.490940000000000000e+05
-1.285530000000000000e+05 2.593230000000000000e+05
-7.689300000000000000e+04 2.552310000000000000e+05
-3.085900000000000000e+04 2.337490000000000000e+05
-3.409000000000000000e+03 2.030600000000000000e+05
3.921000000000000000e+03 1.732230000000000000e+05
-5.455000000000000000e+03 1.544690000000000000e+05
-1.994800000000000000e+04 1.498650000000000000e+05
-2.727900000000000000e+04 1.577080000000000000e+05
-2.489200000000000000e+04 1.756100000000000000e+05
-1.074100000000000000e+04 1.911250000000000000e+05
9.377000000000000000e+03 2.071520000000000000e+05
3.120100000000000000e+04 2.120960000000000000e+05
5.575200000000000000e+04 2.190860000000000000e+05
8.115600000000000000e+04 2.204500000000000000e+05
1.096290000000000000e+05 2.166990000000000000e+05
1.363960000000000000e+05 2.112430000000000000e+05
1.658920000000000000e+05 2.040830000000000000e+05
1.952170000000000000e+05 1.872030000000000000e+05
2.189160000000000000e+05 1.706660000000000000e+05
2.489230000000000000e+05 1.469670000000000000e+05
2.780780000000000000e+05 1.232680000000000000e+05
3.033110000000000000e+05 8.848700000000000000e+04
3.218950000000000000e+05 5.711600000000000000e+04
3.461050000000000000e+05 -3.580000000000000000e+03
3.559940000000000000e+05 -6.632300000000000000e+04
3.472990000000000000e+05 -1.319630000000000000e+05
3.154160000000000000e+05 -2.010140000000000000e+05
2.640970000000000000e+05 -2.683590000000000000e+05
1.943650000000000000e+05 -3.108130000000000000e+05
1.123570000000000000e+05 -3.270100000000000000e+05
3.614500000000000000e+04 -3.159270000000000000e+05
-2.455200000000000000e+04 -2.848970000000000000e+05
-6.018400000000000000e+04 -2.441490000000000000e+05
-7.996200000000000000e+04 -1.977740000000000000e+05
-8.354200000000000000e+04 -1.577080000000000000e+05
-7.638200000000000000e+04 -1.290650000000000000e+05
-6.086700000000000000e+04 -1.065590000000000000e+05
-4.040700000000000000e+04 -9.411300000000000000e+04
-2.148200000000000000e+04 -9.428400000000000000e+04
-5.115000000000000000e+03 -1.005930000000000000e+05
1.295800000000000000e+04 -1.178120000000000000e+05
2.301700000000000000e+04 -1.440690000000000000e+05
2.080100000000000000e+04 -1.802130000000000000e+05
7.161000000000000000e+03 -2.286340000000000000e+05
-2.745000000000000000e+04 -2.744970000000000000e+05
-8.269000000000000000e+04 -3.159270000000000000e+05
-1.602660000000000000e+05 -3.415020000000000000e+05
-2.484110000000000000e+05 -3.423540000000000000e+05
-3.411600000000000000e+05 -3.101310000000000000e+05
-4.136210000000000000e+05 -2.514800000000000000e+05
-4.671570000000000000e+05 -1.762910000000000000e+05
-4.963110000000000000e+05 -9.070300000000000000e+04
-5.036420000000000000e+05 -3.410000000000000000e+03
-4.913670000000000000e+05 7.893900000000000000e+04
-4.688620000000000000e+05 1.525930000000000000e+05
-4.339100000000000000e+05 2.197680000000000000e+05
-3.906040000000000000e+05 2.789300000000000000e+05
-3.401380000000000000e+05 3.348520000000000000e+05
-2.874540000000000000e+05 3.790100000000000000e+05
-2.271000000000000000e+05 4.158380000000000000e+05
-1.636750000000000000e+05 4.449920000000000000e+05
-9.411300000000000000e+04 4.634060000000000000e+05
-2.284600000000000000e+04 4.692030000000000000e+05
5.012600000000000000e+04 4.622130000000000000e+05
1.145730000000000000e+05 4.410710000000000000e+05
1.740750000000000000e+05 4.018570000000000000e+05
2.178930000000000000e+05 3.510500000000000000e+05
2.415920000000000000e+05 3.022880000000000000e+05
2.467070000000000000e+05 2.496050000000000000e+05
2.334080000000000000e+05 2.071520000000000000e+05
2.119250000000000000e+05 1.868630000000000000e+05
1.950470000000000000e+05 1.882270000000000000e+05
1.921480000000000000e+05 2.110730000000000000e+05
2.192570000000000000e+05 2.400580000000000000e+05
2.693820000000000000e+05 2.642670000000000000e+05
3.379220000000000000e+05 2.550610000000000000e+05
4.074830000000000000e+05 2.180630000000000000e+05
4.589730000000000000e+05 1.568560000000000000e+05
4.956300000000000000e+05 8.354300000000000000e+04
5.031310000000000000e+05 1.705000000000000000e+03
4.993810000000000000e+05 -7.331200000000000000e+04
4.825020000000000000e+05 -1.495240000000000000e+05
4.538580000000000000e+05 -2.146530000000000000e+05
4.134510000000000000e+05 -2.758610000000000000e+05
3.677580000000000000e+05 -3.280330000000000000e+05
3.184850000000000000e+05 -3.761120000000000000e+05
2.673370000000000000e+05 -4.160080000000000000e+05
2.090270000000000000e+05 -4.519830000000000000e+05
1.450910000000000000e+05 -4.835240000000000000e+05
7.604100000000000000e+04 -5.055180000000000000e+05
4.945000000000000000e+03 -5.194990000000000000e+05
-7.587000000000000000e+04 -5.261470000000000000e+05
-1.561740000000000000e+05 -5.183050000000000000e+05
-2.456840000000000000e+05 -4.956290000000000000e+05
-3.282030000000000000e+05 -4.485730000000000000e+05
-3.974240000000000000e+05 -3.813980000000000000e+05
-4.523230000000000000e+05 -2.941050000000000000e+05
-4.761930000000000000e+05 -1.974330000000000000e+05
-4.642580000000000000e+05 -9.718300000000000000e+04
-4.253850000000000000e+05 -1.295800000000000000e+04
-3.703150000000000000e+05 4.415800000000000000e+04
-3.060390000000000000e+05 6.956200000000000000e+04
-2.554010000000000000e+05 7.058400000000000000e+04
-2.202800000000000000e+05 5.592200000000000000e+04
-2.035710000000000000e+05 3.222400000000000000e+04
-2.047650000000000000e+05 5.796000000000000000e+03
-2.277810000000000000e+05 -1.159300000000000000e+04
-2.589820000000000000e+05 -1.858400000000000000e+04
-3.019470000000000000e+05 -8.695000000000000000e+03
-3.399670000000000000e+05 2.114100000000000000e+04
-3.703150000000000000e+05 6.666400000000000000e+04
-3.848080000000000000e+05 1.314520000000000000e+05
-3.870240000000000000e+05 2.022070000000000000e+05
-3.612790000000000000e+05 2.743270000000000000e+05
-3.212130000000000000e+05 3.406490000000000000e+05
-2.601750000000000000e+05 3.975950000000000000e+05
-1.931710000000000000e+05 4.361260000000000000e+05
-1.164480000000000000e+05 4.608480000000000000e+05
-4.484000000000000000e+04 4.784090000000000000e+05
2.796100000000000000e+04 4.796020000000000000e+05
9.445400000000000000e+04 4.695440000000000000e+05
1.645280000000000000e+05 4.492540000000000000e+05
2.260760000000000000e+05 4.209520000000000000e+05
2.813170000000000000e+05 3.894100000000000000e+05
3.311010000000000000e+05 3.474690000000000000e+05
3.747480000000000000e+05 2.978550000000000000e+05
4.168610000000000000e+05 2.393750000000000000e+05
4.414120000000000000e+05 1.781670000000000000e+05
4.610190000000000000e+05 1.053660000000000000e+05
4.617010000000000000e+05 3.273500000000000000e+04
4.504480000000000000e+05 -4.143000000000000000e+04
4.223160000000000000e+05 -1.140610000000000000e+05
3.732140000000000000e+05 -1.682790000000000000e+05
3.193380000000000000e+05 -2.081740000000000000e+05
2.606870000000000000e+05 -2.248830000000000000e+05
2.097090000000000000e+05 -2.218140000000000000e+05
1.759510000000000000e+05 -2.020370000000000000e+05
1.682790000000000000e+05 -1.791900000000000000e+05
1.778270000000000000e+05 -1.657210000000000000e+05
2.011850000000000000e+05 -1.667450000000000000e+05
2.281230000000000000e+05 -1.883980000000000000e+05
2.465360000000000000e+05 -2.322140000000000000e+05
2.504580000000000000e+05 -2.968320000000000000e+05
2.351130000000000000e+05 -3.669050000000000000e+05
1.890790000000000000e+05 -4.424350000000000000e+05
1.169600000000000000e+05 -5.157470000000000000e+05
2.046000000000000000e+04 -5.602470000000000000e+05
-8.746400000000000000e+04 -5.779780000000000000e+05
-1.974330000000000000e+05 -5.726940000000000000e+05
-2.993890000000000000e+05 -5.385950000000000000e+05
-3.882170000000000000e+05 -4.801140000000000000e+05
-4.569270000000000000e+05 -4.085060000000000000e+05
-5.036430000000000000e+05 -3.278620000000000000e+05
-5.377410000000000000e+05 -2.451720000000000000e+05
-5.575190000000000000e+05 -1.640160000000000000e+05
-5.633160000000000000e+05 -8.234900000000000000e+04
-5.563250000000000000e+05 -6.138000000000000000e+03
-5.423450000000000000e+05 6.973200000000000000e+04
-5.181350000000000000e+05 1.427040000000000000e+05
-4.871040000000000000e+05 2.057880000000000000e+05
-4.487430000000000000e+05 2.658020000000000000e+05
-4.050960000000000000e+05 3.256450000000000000e+05
-3.479800000000000000e+05 3.761120000000000000e+05
-2.854090000000000000e+05 4.137920000000000000e+05
-2.146530000000000000e+05 4.487430000000000000e+05
-1.427050000000000000e+05 4.617010000000000000e+05
-6.410600000000000000e+04 4.593140000000000000e+05
4.944000000000000000e+03 4.311820000000000000e+05
5.319400000000000000e+04 3.945260000000000000e+05
8.252000000000000000e+04 3.522430000000000000e+05
8.473600000000000000e+04 3.178030000000000000e+05
8.405400000000000000e+04 3.039930000000000000e+05
8.149700000000000000e+04 3.058690000000000000e+05
9.684100000000000000e+04 3.212130000000000000e+05
1.268480000000000000e+05 3.399670000000000000e+05
1.694720000000000000e+05 3.500260000000000000e+05
2.243710000000000000e+05 3.524130000000000000e+05
2.796120000000000000e+05 3.350230000000000000e+05
3.309310000000000000e+05 3.067210000000000000e+05
3.800340000000000000e+05 2.625630000000000000e+05
4.202700000000000000e+05 2.132900000000000000e+05
4.484030000000000000e+05 1.551510000000000000e+05
4.649410000000000000e+05 9.411300000000000000e+04
4.618720000000000000e+05 3.427000000000000000e+04
4.627240000000000000e+05 -2.796200000000000000e+04
4.541990000000000000e+05 -8.661200000000000000e+04
4.347630000000000000e+05 -1.401470000000000000e+05
4.102110000000000000e+05 -1.921480000000000000e+05
3.810570000000000000e+05 -2.427860000000000000e+05
3.418430000000000000e+05 -2.833630000000000000e+05
3.067210000000000000e+05 -3.181440000000000000e+05
2.581300000000000000e+05 -3.556530000000000000e+05
2.136300000000000000e+05 -3.887290000000000000e+05
1.571970000000000000e+05 -4.132800000000000000e+05
1.007630000000000000e+05 -4.303300000000000000e+05
3.648600000000000000e+04 -4.352740000000000000e+05
-2.864300000000000000e+04 -4.299890000000000000e+05
-9.615900000000000000e+04 -4.112340000000000000e+05
-1.493530000000000000e+05 -3.679280000000000000e+05
-1.873740000000000000e+05 -3.154160000000000000e+05
-2.049350000000000000e+05 -2.588120000000000000e+05
-1.986260000000000000e+05 -2.076630000000000000e+05
-1.776560000000000000e+05 -1.716890000000000000e+05
-1.544690000000000000e+05 -1.493540000000000000e+05
-1.348620000000000000e+05 -1.478200000000000000e+05
-1.236090000000000000e+05 -1.560030000000000000e+05
-1.191760000000000000e+05 -1.687900000000000000e+05
-1.251430000000000000e+05 -1.894210000000000000e+05
-1.459440000000000000e+05 -2.056170000000000000e+05
-1.732230000000000000e+05 -2.161880000000000000e+05
-2.073220000000000000e+05 -2.267580000000000000e+05
-2.519910000000000000e+05 -2.274410000000000000e+05
-3.017760000000000000e+05 -2.173820000000000000e+05
-3.519020000000000000e+05 -1.909550000000000000e+05
-4.057790000000000000e+05 -1.512300000000000000e+05
-4.478900000000000000e+05 -9.922900000000000000e+04
-4.801140000000000000e+05 -2.693800000000000000e+04
-4.951180000000000000e+05 5.200100000000000000e+04
-4.903440000000000000e+05 1.374190000000000000e+05
-4.649400000000000000e+05 2.245420000000000000e+05
-4.177130000000000000e+05 3.007530000000000000e+05
-3.556520000000000000e+05 3.646890000000000000e+05
-2.905230000000000000e+05 4.102110000000000000e+05
-2.153350000000000000e+05 4.378320000000000000e+05
-1.444100000000000000e+05 4.531760000000000000e+05
-7.263100000000000000e+04 4.596550000000000000e+05
-1.176400000000000000e+04 4.518120000000000000e+05
4.313600000000000000e+04 4.351030000000000000e+05
9.138500000000000000e+04 4.154970000000000000e+05
1.377600000000000000e+05 3.860000000000000000e+05
1.687900000000000000e+05 3.520730000000000000e+05
1.991390000000000000e+05 3.215530000000000000e+05
2.207910000000000000e+05 2.922280000000000000e+05
2.315330000000000000e+05 2.543780000000000000e+05
2.356240000000000000e+05 2.214730000000000000e+05
2.369880000000000000e+05 2.005020000000000000e+05
2.327260000000000000e+05 1.834530000000000000e+05
2.352830000000000000e+05 1.773150000000000000e+05
2.473890000000000000e+05 1.808950000000000000e+05
2.727930000000000000e+05 1.831120000000000000e+05
3.096190000000000000e+05 1.757810000000000000e+05
3.519020000000000000e+05 1.566850000000000000e+05
3.916270000000000000e+05 1.149140000000000000e+05
4.214640000000000000e+05 6.547000000000000000e+04
4.407300000000000000e+05 5.115000000000000000e+03
4.475500000000000000e+05 -5.796800000000000000e+04
4.400480000000000000e+05 -1.201990000000000000e+05
4.219760000000000000e+05 -1.880570000000000000e+05
3.914570000000000000e+05 -2.479000000000000000e+05
3.515610000000000000e+05 -3.038230000000000000e+05
3.046750000000000000e+05 -3.553120000000000000e+05
2.477290000000000000e+05 -3.945260000000000000e+05
1.912960000000000000e+05 -4.286250000000000000e+05
1.271900000000000000e+05 -4.472090000000000000e+05
6.478800000000000000e+04 -4.623830000000000000e+05
8.520000000000000000e+02 -4.692030000000000000e+05
-6.001500000000000000e+04 -4.637470000000000000e+05
-1.179830000000000000e+05 -4.504490000000000000e+05
-1.762920000000000000e+05 -4.322060000000000000e+05
-2.330670000000000000e+05 -4.030500000000000000e+05
