-1.962400000000000000e+05 7.774500000000000000e+04
-1.495240000000000000e+05 1.009330000000000000e+05
-1.091170000000000000e+05 1.150840000000000000e+05
-6.871000000000000000e+04 1.159370000000000000e+05
-3.836200000000000000e+04 1.087760000000000000e+05
-2.148200000000000000e+04 9.257800000000000000e+04
-1.091100000000000000e+04 8.558800000000000000e+04
-6.308000000000000000e+03 8.337200000000000000e+04
1.875000000000000000e+03 8.575900000000000000e+04
1.091200000000000000e+04 8.882800000000000000e+04
2.233500000000000000e+04 9.292000000000000000e+04
4.518200000000000000e+04 9.922900000000000000e+04
6.956200000000000000e+04 9.991000000000000000e+04
9.411300000000000000e+04 8.934000000000000000e+04
1.271890000000000000e+05 7.331300000000000000e+04
1.563440000000000000e+05 5.131900000000000000e+04
1.778270000000000000e+05 1.875500000000000000e+04
1.872030000000000000e+05 -1.858300000000000000e+04
1.834520000000000000e+05 -6.274200000000000000e+04
1.640160000000000000e+05 -1.046840000000000000e+05
1.295760000000000000e+05 -1.396350000000000000e+05
8.388300000000000000e+04 -1.704950000000000000e+05
2.659700000000000000e+04 -1.803840000000000000e+05
-2.881400000000000000e+04 -1.778260000000000000e+05
-8.797600000000000000e+04 -1.618000000000000000e+05
-1.307700000000000000e+05 -1.294050000000000000e+05
-1.544690000000000000e+05 -8.303100000000000000e+04
-1.686200000000000000e+05 -3.921400000000000000e+04
-1.643570000000000000e+05 2.557000000000000000e+03
-1.461150000000000000e+05 3.955500000000000000e+04
-1.219040000000000000e+05 6.990300000000000000e+04
-9.496500000000000000e+04 8.149700000000000000e+04
-6.035500000000000000e+04 9.138600000000000000e+04
-3.392900000000000000e+04 8.507700000000000000e+04
-8.184000000000000000e+03 7.689300000000000000e+04
6.820000000000000000e+02 6.052600000000000000e+04
1.210500000000000000e+04 5.234200000000000000e+04
1.517500000000000000e+04 4.364700000000000000e+04
2.028900000000000000e+04 4.126000000000000000e+04
2.267600000000000000e+04 3.819100000000000000e+04
2.966600000000000000e+04 4.705700000000000000e+04
3.802100000000000000e+04 4.790900000000000000e+04
4.859100000000000000e+04 5.046700000000000000e+04
6.461800000000000000e+04 4.330600000000000000e+04
8.064400000000000000e+04 3.597400000000000000e+04
9.615900000000000000e+04 1.960700000000000000e+04
1.038310000000000000e+05 2.387000000000000000e+03
1.097990000000000000e+05 -1.875400000000000000e+04
1.016160000000000000e+05 -4.552200000000000000e+04
9.070400000000000000e+04 -7.007400000000000000e+04
6.973200000000000000e+04 -8.627000000000000000e+04
3.955500000000000000e+04 -1.005920000000000000e+05
1.005900000000000000e+04 -1.099690000000000000e+05
-2.080000000000000000e+04 -1.079230000000000000e+05
-5.131900000000000000e+04 -1.004220000000000000e+05
-7.723400000000000000e+04 -8.183700000000000000e+04
-9.223800000000000000e+04 -5.626400000000000000e+04
-1.070710000000000000e+05 -3.358700000000000000e+04
-1.074120000000000000e+05 -5.626000000000000000e+03
-9.598900000000000000e+04 1.687900000000000000e+04
-8.422400000000000000e+04 3.614500000000000000e+04
-6.274200000000000000e+04 4.927400000000000000e+04
-4.790900000000000000e+04 5.558100000000000000e+04
-2.506300000000000000e+04 5.507000000000000000e+04
-7.161000000000000000e+03 5.217200000000000000e+04
-3.410000000000000000e+02 4.211300000000000000e+04
1.227600000000000000e+04 3.580400000000000000e+04
1.432200000000000000e+04 2.779000000000000000e+04
1.568600000000000000e+04 2.438000000000000000e+04
-1.943700000000000000e+04 1.534400000000000000e+04
-1.704900000000000000e+04 1.364000000000000000e+04
-1.551500000000000000e+04 1.875500000000000000e+04
-1.466300000000000000e+04 2.352900000000000000e+04
-1.023000000000000000e+04 3.068900000000000000e+04
-4.774000000000000000e+03 3.853200000000000000e+04
4.262000000000000000e+03 4.688700000000000000e+04
1.261600000000000000e+04 5.063800000000000000e+04
2.762100000000000000e+04 5.148900000000000000e+04
3.767900000000000000e+04 5.029600000000000000e+04
5.285400000000000000e+04 4.160100000000000000e+04
6.649300000000000000e+04 2.830200000000000000e+04
7.535900000000000000e+04 1.346900000000000000e+04
7.689400000000000000e+04 -6.650000000000000000e+03
7.263100000000000000e+04 -2.131200000000000000e+04
6.223100000000000000e+04 -4.143000000000000000e+04
4.603400000000000000e+04 -5.796800000000000000e+04
2.659700000000000000e+04 -6.461800000000000000e+04
4.092000000000000000e+03 -6.768700000000000000e+04
-1.568500000000000000e+04 -6.495800000000000000e+04
-3.068900000000000000e+04 -5.472900000000000000e+04
-4.722700000000000000e+04 -4.603400000000000000e+04
-5.489900000000000000e+04 -3.648600000000000000e+04
-5.848000000000000000e+04 -2.080000000000000000e+04
-5.916200000000000000e+04 -7.501000000000000000e+03
-5.166000000000000000e+04 4.092000000000000000e+03
-4.756800000000000000e+04 1.227600000000000000e+04
-4.057700000000000000e+04 1.585600000000000000e+04
-3.222300000000000000e+04 1.824300000000000000e+04
-2.642700000000000000e+04 1.790200000000000000e+04
-2.267500000000000000e+04 1.858400000000000000e+04
-1.687900000000000000e+04 1.722000000000000000e+04
-1.756100000000000000e+04 1.807300000000000000e+04
-1.722000000000000000e+04 1.773100000000000000e+04
-1.960700000000000000e+04 1.926600000000000000e+04
-1.739000000000000000e+04 2.267600000000000000e+04
-1.483300000000000000e+04 2.932600000000000000e+04
-4.433000000000000000e+03 3.665600000000000000e+04
-1.700000000000000000e+02 4.194200000000000000e+04
9.719000000000000000e+03 4.432900000000000000e+04
2.114200000000000000e+04 4.126000000000000000e+04
3.341700000000000000e+04 3.648600000000000000e+04
4.194200000000000000e+04 3.085900000000000000e+04
4.927300000000000000e+04 2.080100000000000000e+04
5.848000000000000000e+04 9.207000000000000000e+03
5.728700000000000000e+04 -6.137000000000000000e+03
5.336500000000000000e+04 -2.352800000000000000e+04
4.620400000000000000e+04 -3.580400000000000000e+04
3.290600000000000000e+04 -4.790900000000000000e+04
1.636800000000000000e+04 -5.268300000000000000e+04
-4.603000000000000000e+03 -5.592200000000000000e+04
-2.284600000000000000e+04 -5.285400000000000000e+04
-3.887300000000000000e+04 -4.552200000000000000e+04
-4.381700000000000000e+04 -3.222400000000000000e+04
-5.558100000000000000e+04 -2.131200000000000000e+04
-5.166000000000000000e+04 -9.718000000000000000e+03
-4.961400000000000000e+04 3.409000000000000000e+03
-4.620400000000000000e+04 1.074100000000000000e+04
-4.091900000000000000e+04 1.773100000000000000e+04
-3.171200000000000000e+04 2.114200000000000000e+04
-2.301700000000000000e+04 2.199400000000000000e+04
-1.585600000000000000e+04 2.182400000000000000e+04
-1.381100000000000000e+04 1.704900000000000000e+04
-1.142300000000000000e+04 2.080000000000000000e+04
-1.057000000000000000e+04 2.267600000000000000e+04
-5.968000000000000000e+03 2.250600000000000000e+04
-8.184000000000000000e+03 2.455100000000000000e+04
-3.922000000000000000e+03 3.290600000000000000e+04
4.092000000000000000e+03 3.239400000000000000e+04
1.295700000000000000e+04 3.512200000000000000e+04
2.028900000000000000e+04 3.802100000000000000e+04
2.949500000000000000e+04 3.068900000000000000e+04
3.785000000000000000e+04 3.392800000000000000e+04
4.466900000000000000e+04 2.387000000000000000e+04
4.910200000000000000e+04 1.312800000000000000e+04
4.807900000000000000e+04 8.013000000000000000e+03
4.756800000000000000e+04 3.410000000000000000e+03
4.739800000000000000e+04 -1.705000000000000000e+03
4.773900000000000000e+04 -4.092000000000000000e+03
4.484100000000000000e+04 -8.866000000000000000e+03
4.330600000000000000e+04 -1.858400000000000000e+04
4.330600000000000000e+04 -2.642600000000000000e+04
4.006600000000000000e+04 -3.887300000000000000e+04
4.040700000000000000e+04 -5.387600000000000000e+04
3.427000000000000000e+04 -7.229000000000000000e+04
2.182300000000000000e+04 -9.820500000000000000e+04
-4.074900000000000000e+04 -1.479900000000000000e+05
-1.880560000000000000e+05 -1.655510000000000000e+05
-2.066400000000000000e+05 -3.733900000000000000e+04
-1.674270000000000000e+05 5.882100000000000000e+04
-9.922800000000000000e+04 1.181530000000000000e+05
-2.915500000000000000e+04 1.239500000000000000e+05
3.171200000000000000e+04 1.029790000000000000e+05
8.695300000000000000e+04 2.335800000000000000e+04
3.648600000000000000e+04 1.807200000000000000e+04
2.710900000000000000e+04 1.176400000000000000e+04
2.574500000000000000e+04 1.278700000000000000e+04
2.540400000000000000e+04 1.091200000000000000e+04
2.386900000000000000e+04 8.355000000000000000e+03
2.335800000000000000e+04 2.046000000000000000e+03
2.472200000000000000e+04 -1.700000000000000000e+02
1.653800000000000000e+04 -8.184000000000000000e+03
2.659800000000000000e+04 -1.329800000000000000e+04
2.046000000000000000e+04 -1.756100000000000000e+04
1.602600000000000000e+04 -2.233500000000000000e+04
1.108200000000000000e+04 -2.625600000000000000e+04
7.502000000000000000e+03 -2.983700000000000000e+04
2.046000000000000000e+03 -2.745000000000000000e+04
-5.456000000000000000e+03 -2.847300000000000000e+04
-1.381000000000000000e+04 -2.114200000000000000e+04
-1.722000000000000000e+04 -2.114100000000000000e+04
-2.199400000000000000e+04 -1.773200000000000000e+04
-1.687900000000000000e+04 -1.534400000000000000e+04
-1.858400000000000000e+04 -6.308000000000000000e+03
-1.909600000000000000e+04 -5.456000000000000000e+03
-1.858400000000000000e+04 3.921000000000000000e+03
-1.500300000000000000e+04 8.354000000000000000e+03
-1.278700000000000000e+04 8.013000000000000000e+03
-1.022900000000000000e+04 1.005900000000000000e+04
-5.455000000000000000e+03 1.346900000000000000e+04
-3.581000000000000000e+03 9.036000000000000000e+03
-3.751000000000000000e+03 1.040000000000000000e+04
2.898000000000000000e+03 9.377000000000000000e+03
6.820000000000000000e+02 4.603000000000000000e+03
1.700000000000000000e+02 7.843000000000000000e+03
-1.710000000000000000e+02 7.502000000000000000e+03
1.023000000000000000e+03 5.285000000000000000e+03
-3.410000000000000000e+02 8.184000000000000000e+03
-8.520000000000000000e+02 7.161000000000000000e+03
1.875000000000000000e+03 6.138000000000000000e+03
3.069000000000000000e+03 5.455000000000000000e+03
3.410000000000000000e+03 7.501000000000000000e+03
5.626000000000000000e+03 4.944000000000000000e+03
8.184000000000000000e+03 5.797000000000000000e+03
8.866000000000000000e+03 1.705000000000000000e+03
6.820000000000000000e+03 -3.409000000000000000e+03
1.346900000000000000e+04 -8.530000000000000000e+02
9.207000000000000000e+03 -4.604000000000000000e+03
1.023000000000000000e+04 -8.013000000000000000e+03
9.548000000000000000e+03 -1.142300000000000000e+04
3.751000000000000000e+03 -1.108300000000000000e+04
4.092000000000000000e+03 -1.227600000000000000e+04
-2.558000000000000000e+03 -1.312800000000000000e+04
-5.626000000000000000e+03 -1.278800000000000000e+04
-1.057000000000000000e+04 -1.176400000000000000e+04
-1.125200000000000000e+04 -1.023000000000000000e+04
-1.363900000000000000e+04 -5.456000000000000000e+03
-1.363900000000000000e+04 -2.387000000000000000e+03
-1.108200000000000000e+04 -2.216000000000000000e+03
-1.091100000000000000e+04 3.581000000000000000e+03
-9.036000000000000000e+03 4.603000000000000000e+03
-5.967000000000000000e+03 6.479000000000000000e+03
-5.285000000000000000e+03 7.672000000000000000e+03
-5.114000000000000000e+03 8.695000000000000000e+03
-8.520000000000000000e+02 8.013000000000000000e+03
-3.410000000000000000e+02 9.036000000000000000e+03
-1.364000000000000000e+03 6.479000000000000000e+03
1.023000000000000000e+03 4.603000000000000000e+03
-6.820000000000000000e+02 4.262000000000000000e+03
-2.217000000000000000e+03 4.944000000000000000e+03
-8.520000000000000000e+02 8.354000000000000000e+03
-2.557000000000000000e+03 7.161000000000000000e+03
2.216000000000000000e+03 9.377000000000000000e+03
-1.364000000000000000e+03 6.308000000000000000e+03
1.705000000000000000e+03 8.013000000000000000e+03
5.797000000000000000e+03 6.990000000000000000e+03
8.184000000000000000e+03 7.161000000000000000e+03
1.023000000000000000e+04 2.387000000000000000e+03
1.278700000000000000e+04 3.069000000000000000e+03
1.449200000000000000e+04 -1.194000000000000000e+03
1.466200000000000000e+04 -7.502000000000000000e+03
9.889000000000000000e+03 -9.207000000000000000e+03
9.207000000000000000e+03 -1.415100000000000000e+04
4.092000000000000000e+03 -1.261700000000000000e+04
1.023000000000000000e+03 -1.415100000000000000e+04
-3.069000000000000000e+03 -1.585600000000000000e+04
-5.626000000000000000e+03 -1.483300000000000000e+04
-1.312800000000000000e+04 -1.108300000000000000e+04
-1.261600000000000000e+04 -8.525000000000000000e+03
-1.483300000000000000e+04 -4.945000000000000000e+03
-1.636800000000000000e+04 -4.944000000000000000e+03
