1.253140000000000000e+05 -9.404520000000000000e+05
-3.263280000000000000e+05 -9.397700000000000000e+05
-5.972440000000000000e+05 -8.309940000000000000e+05
-7.650120000000000000e+05 -6.872660000000000000e+05
-9.017490000000000000e+05 -5.374010000000000000e+05
-9.786420000000000000e+05 -3.887290000000000000e+05
-1.029109000000000000e+06 -2.441490000000000000e+05
-1.056388000000000000e+06 -1.108220000000000000e+05
-1.062867000000000000e+06 2.796100000000000000e+04
-1.052637000000000000e+06 1.657210000000000000e+05
-1.024506000000000000e+06 2.946150000000000000e+05
-9.832450000000000000e+05 4.192470000000000000e+05
-9.273230000000000000e+05 5.338200000000000000e+05
-8.625350000000000000e+05 6.472000000000000000e+05
-7.803570000000000000e+05 7.489850000000000000e+05
-6.836860000000000000e+05 8.408820000000000000e+05
-5.798530000000000000e+05 9.237430000000000000e+05
-4.598260000000000000e+05 9.893830000000000000e+05
-3.215540000000000000e+05 1.037804000000000000e+06
-1.723700000000000000e+05 1.073948000000000000e+06
-8.866000000000000000e+03 1.079575000000000000e+06
1.623110000000000000e+05 1.049227000000000000e+06
3.316130000000000000e+05 9.774490000000000000e+05
4.802850000000000000e+05 8.511110000000000000e+05
5.796830000000000000e+05 6.770360000000000000e+05
6.132700000000000000e+05 4.809670000000000000e+05
5.774670000000000000e+05 2.876250000000000000e+05
4.833530000000000000e+05 1.346910000000000000e+05
3.585510000000000000e+05 3.409900000000000000e+04
2.226660000000000000e+05 6.308000000000000000e+03
1.135490000000000000e+05 1.619700000000000000e+04
2.813200000000000000e+04 5.404700000000000000e+04
-2.693900000000000000e+04 1.055370000000000000e+05
-5.813900000000000000e+04 1.727120000000000000e+05
-7.160800000000000000e+04 2.327250000000000000e+05
-7.348300000000000000e+04 2.895010000000000000e+05
-5.592300000000000000e+04 3.430360000000000000e+05
-3.290600000000000000e+04 3.868530000000000000e+05
1.705000000000000000e+03 4.250440000000000000e+05
4.364600000000000000e+04 4.599960000000000000e+05
8.490600000000000000e+04 4.881280000000000000e+05
1.336680000000000000e+05 5.089280000000000000e+05
1.846460000000000000e+05 5.251250000000000000e+05
2.376700000000000000e+05 5.355250000000000000e+05
2.946150000000000000e+05 5.346730000000000000e+05
3.500270000000000000e+05 5.331380000000000000e+05
4.071420000000000000e+05 5.246140000000000000e+05
4.659630000000000000e+05 5.029610000000000000e+05
5.225680000000000000e+05 4.910260000000000000e+05
5.788300000000000000e+05 4.642580000000000000e+05
6.359460000000000000e+05 4.313520000000000000e+05
6.889710000000000000e+05 3.895810000000000000e+05
7.445520000000000000e+05 3.432060000000000000e+05
7.893920000000000000e+05 2.843860000000000000e+05
8.369610000000000000e+05 2.180630000000000000e+05
8.797540000000000000e+05 1.483300000000000000e+05
9.085690000000000000e+05 6.939200000000000000e+04
9.305620000000000000e+05 -2.182400000000000000e+04
9.426670000000000000e+05 -1.159370000000000000e+05
9.413040000000000000e+05 -2.132890000000000000e+05
9.317560000000000000e+05 -3.132000000000000000e+05
8.983380000000000000e+05 -4.238510000000000000e+05
8.523050000000000000e+05 -5.285350000000000000e+05
7.934840000000000000e+05 -6.233300000000000000e+05
7.171020000000000000e+05 -7.205130000000000000e+05
6.277630000000000000e+05 -8.009860000000000000e+05
5.259780000000000000e+05 -8.644110000000000000e+05
4.163490000000000000e+05 -9.145360000000000000e+05
3.055270000000000000e+05 -9.462480000000000000e+05
1.952170000000000000e+05 -9.563070000000000000e+05
8.320200000000000000e+04 -9.535790000000000000e+05
-1.500400000000000000e+04 -9.320970000000000000e+05
-1.096280000000000000e+05 -8.966340000000000000e+05
-1.926600000000000000e+05 -8.572490000000000000e+05
-2.664840000000000000e+05 -8.026910000000000000e+05
-3.276920000000000000e+05 -7.484740000000000000e+05
-3.732140000000000000e+05 -6.857320000000000000e+05
-4.125980000000000000e+05 -6.207730000000000000e+05
-4.373200000000000000e+05 -5.592240000000000000e+05
-4.596550000000000000e+05 -4.986980000000000000e+05
-4.685210000000000000e+05 -4.349330000000000000e+05
-4.722710000000000000e+05 -3.733850000000000000e+05
-4.707370000000000000e+05 -3.218950000000000000e+05
-4.618720000000000000e+05 -2.707470000000000000e+05
-4.470390000000000000e+05 -2.224970000000000000e+05
-4.303300000000000000e+05 -1.759510000000000000e+05
-4.098710000000000000e+05 -1.399760000000000000e+05
-3.851480000000000000e+05 -1.024670000000000000e+05
-3.525840000000000000e+05 -7.092600000000000000e+04
-3.239410000000000000e+05 -4.620500000000000000e+04
-2.891600000000000000e+05 -2.813200000000000000e+04
-2.497760000000000000e+05 -1.415100000000000000e+04
-2.126080000000000000e+05 -6.820000000000000000e+03
-1.730520000000000000e+05 -1.005900000000000000e+04
-1.314520000000000000e+05 -2.369900000000000000e+04
-8.882800000000000000e+04 -4.876200000000000000e+04
-5.558200000000000000e+04 -8.286100000000000000e+04
-2.608600000000000000e+04 -1.357140000000000000e+05
-1.278800000000000000e+04 -2.003320000000000000e+05
-1.534500000000000000e+04 -2.765430000000000000e+05
-5.183100000000000000e+04 -3.682690000000000000e+05
-1.149140000000000000e+05 -4.521530000000000000e+05
-2.091970000000000000e+05 -5.184760000000000000e+05
-3.367280000000000000e+05 -5.600760000000000000e+05
-4.702260000000000000e+05 -5.556440000000000000e+05
-5.938350000000000000e+05 -5.171120000000000000e+05
-6.990300000000000000e+05 -4.426050000000000000e+05
-7.805270000000000000e+05 -3.459350000000000000e+05
-8.250260000000000000e+05 -2.397160000000000000e+05
-8.490660000000000000e+05 -1.316220000000000000e+05
-8.538400000000000000e+05 -2.728000000000000000e+04
-8.415640000000000000e+05 6.410600000000000000e+04
-8.204230000000000000e+05 1.507170000000000000e+05
-7.890510000000000000e+05 2.277820000000000000e+05
-7.554640000000000000e+05 2.951270000000000000e+05
-7.155680000000000000e+05 3.561640000000000000e+05
-6.768660000000000000e+05 4.102110000000000000e+05
-6.352650000000000000e+05 4.591430000000000000e+05
-5.929820000000000000e+05 5.046650000000000000e+05
-5.486540000000000000e+05 5.464370000000000000e+05
-5.063710000000000000e+05 5.810470000000000000e+05
-4.577800000000000000e+05 6.182150000000000000e+05
-4.119160000000000000e+05 6.463470000000000000e+05
-3.604270000000000000e+05 6.768660000000000000e+05
-3.152460000000000000e+05 7.056790000000000000e+05
-2.618800000000000000e+05 7.285260000000000000e+05
-2.114140000000000000e+05 7.462570000000000000e+05
-1.611180000000000000e+05 7.641590000000000000e+05
-1.101400000000000000e+05 7.769460000000000000e+05
-5.899200000000000000e+04 7.861530000000000000e+05
-2.557000000000000000e+03 7.965530000000000000e+05
4.978500000000000000e+04 8.011560000000000000e+05
1.058770000000000000e+05 8.025200000000000000e+05
1.623110000000000000e+05 8.045670000000000000e+05
2.187450000000000000e+05 7.960410000000000000e+05
2.773950000000000000e+05 7.853010000000000000e+05
3.333180000000000000e+05 7.737070000000000000e+05
3.899220000000000000e+05 7.558040000000000000e+05
4.461850000000000000e+05 7.327880000000000000e+05
5.005730000000000000e+05 7.024400000000000000e+05
5.498460000000000000e+05 6.669760000000000000e+05
6.009950000000000000e+05 6.269100000000000000e+05
6.497560000000000000e+05 5.832640000000000000e+05
6.968140000000000000e+05 5.281930000000000000e+05
7.348340000000000000e+05 4.652810000000000000e+05
7.742180000000000000e+05 4.039030000000000000e+05
8.040550000000000000e+05 3.311010000000000000e+05
8.228100000000000000e+05 2.513100000000000000e+05
8.303110000000000000e+05 1.706660000000000000e+05
8.344030000000000000e+05 8.695300000000000000e+04
8.137730000000000000e+05 -4.774000000000000000e+03
7.844480000000000000e+05 -9.206800000000000000e+04
7.425060000000000000e+05 -1.762920000000000000e+05
6.811280000000000000e+05 -2.513100000000000000e+05
6.023590000000000000e+05 -3.157570000000000000e+05
5.152360000000000000e+05 -3.563350000000000000e+05
4.228280000000000000e+05 -3.762830000000000000e+05
3.343410000000000000e+05 -3.628140000000000000e+05
2.603460000000000000e+05 -3.239410000000000000e+05
2.146530000000000000e+05 -2.666540000000000000e+05
2.005020000000000000e+05 -1.989680000000000000e+05
2.076630000000000000e+05 -1.413400000000000000e+05
2.431260000000000000e+05 -9.684200000000000000e+04
2.872840000000000000e+05 -7.757500000000000000e+04
3.380920000000000000e+05 -7.501800000000000000e+04
3.783280000000000000e+05 -9.121500000000000000e+04
4.120870000000000000e+05 -1.225860000000000000e+05
4.342510000000000000e+05 -1.641870000000000000e+05
4.489130000000000000e+05 -2.114140000000000000e+05
4.514710000000000000e+05 -2.596640000000000000e+05
4.466970000000000000e+05 -3.038230000000000000e+05
4.316930000000000000e+05 -3.532660000000000000e+05
4.173720000000000000e+05 -3.975950000000000000e+05
3.900930000000000000e+05 -4.436290000000000000e+05
3.648600000000000000e+05 -4.879570000000000000e+05
3.287140000000000000e+05 -5.194990000000000000e+05
2.891590000000000000e+05 -5.566660000000000000e+05
2.494340000000000000e+05 -5.858220000000000000e+05
2.081750000000000000e+05 -6.129300000000000000e+05
1.667440000000000000e+05 -6.373110000000000000e+05
1.195170000000000000e+05 -6.591340000000000000e+05
7.075500000000000000e+04 -6.751600000000000000e+05
2.352800000000000000e+04 -6.882890000000000000e+05
-2.608600000000000000e+04 -7.003940000000000000e+05
-7.621100000000000000e+04 -7.075550000000000000e+05
-1.207110000000000000e+05 -7.107940000000000000e+05
-1.807250000000000000e+05 -7.102830000000000000e+05
-2.311920000000000000e+05 -7.046560000000000000e+05
-2.860910000000000000e+05 -6.976660000000000000e+05
-3.391150000000000000e+05 -6.831740000000000000e+05
-3.870240000000000000e+05 -6.683410000000000000e+05
-4.391960000000000000e+05 -6.489040000000000000e+05
-4.894920000000000000e+05 -6.187270000000000000e+05
-5.336500000000000000e+05 -5.917880000000000000e+05
-5.791710000000000000e+05 -5.556440000000000000e+05
-6.190680000000000000e+05 -5.145550000000000000e+05
-6.594750000000000000e+05 -4.712480000000000000e+05
-6.927210000000000000e+05 -4.194180000000000000e+05
-7.249450000000000000e+05 -3.658820000000000000e+05
-7.448930000000000000e+05 -3.067210000000000000e+05
-7.598970000000000000e+05 -2.419320000000000000e+05
-7.728540000000000000e+05 -1.776560000000000000e+05
-7.764350000000000000e+05 -1.101400000000000000e+05
-7.728550000000000000e+05 -4.160100000000000000e+04
-7.600670000000000000e+05 2.745000000000000000e+04
-7.390970000000000000e+05 9.547700000000000000e+04
-7.155680000000000000e+05 1.582200000000000000e+05
-6.794240000000000000e+05 2.204500000000000000e+05
-6.405500000000000000e+05 2.787600000000000000e+05
-5.929820000000000000e+05 3.307600000000000000e+05
-5.413220000000000000e+05 3.767940000000000000e+05
-4.877870000000000000e+05 4.139620000000000000e+05
-4.337400000000000000e+05 4.409000000000000000e+05
-3.776460000000000000e+05 4.663040000000000000e+05
-3.160980000000000000e+05 4.777270000000000000e+05
-2.622210000000000000e+05 4.843770000000000000e+05
-2.047650000000000000e+05 4.855700000000000000e+05
-1.505480000000000000e+05 4.797730000000000000e+05
-1.011040000000000000e+05 4.628940000000000000e+05
-5.336500000000000000e+04 4.412410000000000000e+05
-2.045900000000000000e+04 4.120860000000000000e+05
1.329800000000000000e+04 3.774760000000000000e+05
3.290600000000000000e+04 3.345110000000000000e+05
3.989600000000000000e+04 2.918870000000000000e+05
4.518100000000000000e+04 2.478990000000000000e+05
1.909600000000000000e+04 2.151640000000000000e+05
-7.843000000000000000e+03 1.931710000000000000e+05
-3.904300000000000000e+04 1.911250000000000000e+05
-6.376500000000000000e+04 1.977740000000000000e+05
-8.286100000000000000e+04 2.156760000000000000e+05
-8.848700000000000000e+04 2.409100000000000000e+05
-8.541800000000000000e+04 2.698930000000000000e+05
-7.535900000000000000e+04 2.934220000000000000e+05
-5.745700000000000000e+04 3.137110000000000000e+05
-3.392800000000000000e+04 3.273510000000000000e+05
-9.548000000000000000e+03 3.416720000000000000e+05
1.517400000000000000e+04 3.469580000000000000e+05
3.921400000000000000e+04 3.490040000000000000e+05
6.342500000000000000e+04 3.551410000000000000e+05
8.831700000000000000e+04 3.491740000000000000e+05
1.106510000000000000e+05 3.450820000000000000e+05
1.329860000000000000e+05 3.379210000000000000e+05
1.515700000000000000e+05 3.316130000000000000e+05
1.727120000000000000e+05 3.236000000000000000e+05
1.885680000000000000e+05 3.133700000000000000e+05
2.061290000000000000e+05 3.051860000000000000e+05
2.190870000000000000e+05 2.935930000000000000e+05
2.335790000000000000e+05 2.804650000000000000e+05
2.542090000000000000e+05 2.683590000000000000e+05
2.642670000000000000e+05 2.555720000000000000e+05
2.765430000000000000e+05 2.431260000000000000e+05
2.891600000000000000e+05 2.305100000000000000e+05
2.995600000000000000e+05 2.180630000000000000e+05
3.135400000000000000e+05 2.034000000000000000e+05
3.253050000000000000e+05 1.856690000000000000e+05
3.389440000000000000e+05 1.716890000000000000e+05
3.478100000000000000e+05 1.542980000000000000e+05
3.576990000000000000e+05 1.387830000000000000e+05
3.665650000000000000e+05 1.201990000000000000e+05
3.810560000000000000e+05 1.017860000000000000e+05
3.863410000000000000e+05 7.655200000000000000e+04
3.938440000000000000e+05 5.865000000000000000e+04
4.011750000000000000e+05 3.495200000000000000e+04
4.083360000000000000e+05 1.091100000000000000e+04
4.103820000000000000e+05 -1.824300000000000000e+04
4.156680000000000000e+05 -4.859100000000000000e+04
4.161790000000000000e+05 -7.859900000000000000e+04
4.172020000000000000e+05 -1.132090000000000000e+05
4.158380000000000000e+05 -1.474780000000000000e+05
4.050970000000000000e+05 -1.808950000000000000e+05
3.986180000000000000e+05 -2.245420000000000000e+05
3.776470000000000000e+05 -2.606870000000000000e+05
3.580400000000000000e+05 -3.038220000000000000e+05
3.263280000000000000e+05 -3.462760000000000000e+05
2.848970000000000000e+05 -3.834440000000000000e+05
2.444900000000000000e+05 -4.156670000000000000e+05
1.916370000000000000e+05 -4.414120000000000000e+05
1.297470000000000000e+05 -4.627240000000000000e+05
6.854000000000000000e+04 -4.722710000000000000e+05
8.184000000000000000e+03 -4.620420000000000000e+05
-5.012600000000000000e+04 -4.393660000000000000e+05
-9.650000000000000000e+04 -4.079950000000000000e+05
-1.362260000000000000e+05 -3.687810000000000000e+05
-1.611170000000000000e+05 -3.207010000000000000e+05
-1.733940000000000000e+05 -2.755200000000000000e+05
-1.790190000000000000e+05 -2.334080000000000000e+05
-1.710060000000000000e+05 -1.930000000000000000e+05
-1.566850000000000000e+05 -1.599240000000000000e+05
-1.348610000000000000e+05 -1.328150000000000000e+05
-1.188350000000000000e+05 -1.130380000000000000e+05
-9.257900000000000000e+04 -1.033200000000000000e+05
-7.348300000000000000e+04 -9.684200000000000000e+04
-5.506900000000000000e+04 -9.411300000000000000e+04
-3.819100000000000000e+04 -1.009330000000000000e+05
-2.404000000000000000e+04 -1.108220000000000000e+05
-1.398000000000000000e+04 -1.254850000000000000e+05
-8.184000000000000000e+03 -1.392950000000000000e+05
-3.239000000000000000e+03 -1.553210000000000000e+05
-9.036000000000000000e+03 -1.762920000000000000e+05
-1.057000000000000000e+04 -1.904430000000000000e+05
-2.438000000000000000e+04 -2.068110000000000000e+05
-3.648600000000000000e+04 -2.228370000000000000e+05
-5.387700000000000000e+04 -2.381820000000000000e+05
-7.331300000000000000e+04 -2.499460000000000000e+05
-9.650000000000000000e+04 -2.565950000000000000e+05
-1.186640000000000000e+05 -2.649500000000000000e+05
-1.456020000000000000e+05 -2.646080000000000000e+05
-1.713470000000000000e+05 -2.629040000000000000e+05
-1.953870000000000000e+05 -2.577880000000000000e+05
-2.195980000000000000e+05 -2.463650000000000000e+05
-2.436370000000000000e+05 -2.315320000000000000e+05
-2.654610000000000000e+05 -2.180630000000000000e+05
-2.816580000000000000e+05 -1.950470000000000000e+05
-3.019470000000000000e+05 -1.759510000000000000e+05
-3.157570000000000000e+05 -1.653800000000000000e+05
-3.288850000000000000e+05 -1.230970000000000000e+05
-3.345120000000000000e+05 -1.004220000000000000e+05
-3.430360000000000000e+05 -7.229000000000000000e+04
-3.428650000000000000e+05 -4.432900000000000000e+04
-3.437180000000000000e+05 -1.943600000000000000e+04
-3.403080000000000000e+05 9.889000000000000000e+03
-3.353640000000000000e+05 3.427000000000000000e+04
-3.287150000000000000e+05 5.967300000000000000e+04
-3.167800000000000000e+05 9.036300000000000000e+04
-3.080850000000000000e+05 1.101390000000000000e+05
-2.952980000000000000e+05 1.369080000000000000e+05
-2.775660000000000000e+05 1.548090000000000000e+05
-2.620510000000000000e+05 1.749280000000000000e+05
-2.421030000000000000e+05 1.967510000000000000e+05
-2.245420000000000000e+05 2.110730000000000000e+05
-2.006720000000000000e+05 2.267580000000000000e+05
-1.827710000000000000e+05 2.410800000000000000e+05
-1.580490000000000000e+05 2.530140000000000000e+05
-1.331570000000000000e+05 2.576180000000000000e+05
-1.075830000000000000e+05 2.642670000000000000e+05
-8.882800000000000000e+04 2.669950000000000000e+05
-6.069600000000000000e+04 2.690410000000000000e+05
-3.495100000000000000e+04 2.705760000000000000e+05
-1.363900000000000000e+04 2.630740000000000000e+05
1.023000000000000000e+04 2.593230000000000000e+05
3.375800000000000000e+04 2.501160000000000000e+05
5.677500000000000000e+04 2.393750000000000000e+05
7.433600000000000000e+04 2.257350000000000000e+05
9.445500000000000000e+04 2.155050000000000000e+05
1.097990000000000000e+05 1.962390000000000000e+05
1.249730000000000000e+05 1.735640000000000000e+05
1.352020000000000000e+05 1.505470000000000000e+05
1.430450000000000000e+05 1.253140000000000000e+05
1.413410000000000000e+05 1.041730000000000000e+05
1.379310000000000000e+05 7.263100000000000000e+04
1.278710000000000000e+05 5.217200000000000000e+04
1.157670000000000000e+05 3.409900000000000000e+04
9.735300000000000000e+04 2.148200000000000000e+04
8.098600000000000000e+04 1.568600000000000000e+04
6.529900000000000000e+04 1.091200000000000000e+04
5.183100000000000000e+04 1.023000000000000000e+04
4.381800000000000000e+04 1.278800000000000000e+04
3.750900000000000000e+04 1.619700000000000000e+04
2.983700000000000000e+04 2.011800000000000000e+04
2.659800000000000000e+04 2.472200000000000000e+04
2.557400000000000000e+04 2.642700000000000000e+04
2.182400000000000000e+04 2.813200000000000000e+04
2.011900000000000000e+04 2.932600000000000000e+04
2.182400000000000000e+04 3.205400000000000000e+04
2.216500000000000000e+04 3.648600000000000000e+04
2.182400000000000000e+04 3.529200000000000000e+04
1.926600000000000000e+04 3.563400000000000000e+04
2.028900000000000000e+04 3.716800000000000000e+04
2.097100000000000000e+04 3.495200000000000000e+04
1.909600000000000000e+04 3.648600000000000000e+04
2.284600000000000000e+04 3.767900000000000000e+04
2.131200000000000000e+04 3.716800000000000000e+04
2.625600000000000000e+04 3.802000000000000000e+04
2.352900000000000000e+04 3.546300000000000000e+04
2.693900000000000000e+04 3.938400000000000000e+04
2.097100000000000000e+04 3.853100000000000000e+04
2.540400000000000000e+04 3.699800000000000000e+04
2.489300000000000000e+04 3.904300000000000000e+04
2.762000000000000000e+04 3.921300000000000000e+04
2.233500000000000000e+04 4.040700000000000000e+04
2.796100000000000000e+04 3.921400000000000000e+04
2.864300000000000000e+04 4.262400000000000000e+04
3.051900000000000000e+04 4.262400000000000000e+04
3.137200000000000000e+04 4.313500000000000000e+04
3.188300000000000000e+04 4.688700000000000000e+04
3.461100000000000000e+04 4.654500000000000000e+04
3.478100000000000000e+04 4.927300000000000000e+04
3.819100000000000000e+04 4.756900000000000000e+04
4.074800000000000000e+04 5.063700000000000000e+04
4.279400000000000000e+04 5.455800000000000000e+04
4.790900000000000000e+04 5.455900000000000000e+04
4.978500000000000000e+04 5.489900000000000000e+04
5.660400000000000000e+04 5.728600000000000000e+04
6.240100000000000000e+04 5.779800000000000000e+04
6.956300000000000000e+04 5.950300000000000000e+04
7.160800000000000000e+04 5.660400000000000000e+04
8.234900000000000000e+04 5.592200000000000000e+04
8.951000000000000000e+04 5.421700000000000000e+04
9.564700000000000000e+04 4.995500000000000000e+04
1.031490000000000000e+05 4.279400000000000000e+04
1.109920000000000000e+05 3.529300000000000000e+04
1.173010000000000000e+05 2.762000000000000000e+04
1.212220000000000000e+05 1.415100000000000000e+04
1.227570000000000000e+05 2.898000000000000000e+03
1.191760000000000000e+05 -1.295800000000000000e+04
1.161070000000000000e+05 -1.977800000000000000e+04
1.125260000000000000e+05 -3.000700000000000000e+04
1.019560000000000000e+05 -3.767900000000000000e+04
9.377200000000000000e+04 -4.569300000000000000e+04
8.558900000000000000e+04 -4.790900000000000000e+04
7.689300000000000000e+04 -5.234200000000000000e+04
6.683400000000000000e+04 -5.472900000000000000e+04
6.052500000000000000e+04 -5.677500000000000000e+04
5.029600000000000000e+04 -5.234200000000000000e+04
4.501000000000000000e+04 -4.756800000000000000e+04
3.989500000000000000e+04 -4.842000000000000000e+04
3.495200000000000000e+04 -4.228300000000000000e+04
3.324700000000000000e+04 -3.563400000000000000e+04
2.659700000000000000e+04 -3.614500000000000000e+04
2.642700000000000000e+04 -2.796200000000000000e+04
2.591500000000000000e+04 -2.352900000000000000e+04
2.659700000000000000e+04 -2.114100000000000000e+04
2.523300000000000000e+04 -1.449200000000000000e+04
2.421000000000000000e+04 -7.672000000000000000e+03
2.693800000000000000e+04 -2.899000000000000000e+03
2.983600000000000000e+04 -1.705000000000000000e+03
3.614500000000000000e+04 3.922000000000000000e+03
4.194100000000000000e+04 9.036000000000000000e+03
4.995500000000000000e+04 1.040000000000000000e+04
5.660500000000000000e+04 1.551500000000000000e+04
6.547000000000000000e+04 1.432200000000000000e+04
7.638200000000000000e+04 1.773200000000000000e+04
8.763500000000000000e+04 1.841400000000000000e+04
9.786400000000000000e+04 1.517400000000000000e+04
1.137200000000000000e+05 7.672000000000000000e+03
1.249720000000000000e+05 -1.023000000000000000e+03
1.375890000000000000e+05 -7.843000000000000000e+03
1.520820000000000000e+05 -2.335800000000000000e+04
1.657220000000000000e+05 -3.904300000000000000e+04
1.762920000000000000e+05 -5.848000000000000000e+04
1.822590000000000000e+05 -8.422500000000000000e+04
1.870330000000000000e+05 -1.104810000000000000e+05
1.875440000000000000e+05 -1.433870000000000000e+05
1.785080000000000000e+05 -1.733940000000000000e+05
1.662320000000000000e+05 -2.022070000000000000e+05
1.508880000000000000e+05 -2.342610000000000000e+05
1.294050000000000000e+05 -2.600050000000000000e+05
9.888800000000000000e+04 -2.854090000000000000e+05
6.888000000000000000e+04 -3.045050000000000000e+05
3.699700000000000000e+04 -3.189970000000000000e+05
1.534000000000000000e+03 -3.285440000000000000e+05
-3.495200000000000000e+04 -3.358750000000000000e+05
-7.109600000000000000e+04 -3.351930000000000000e+05
-1.046840000000000000e+05 -3.326360000000000000e+05
-1.418520000000000000e+05 -3.254750000000000000e+05
-1.750990000000000000e+05 -3.092780000000000000e+05
-2.037420000000000000e+05 -2.959790000000000000e+05
-2.320430000000000000e+05 -2.808050000000000000e+05
-2.562550000000000000e+05 -2.567650000000000000e+05
-2.779070000000000000e+05 -2.386930000000000000e+05
-3.021180000000000000e+05 -2.117550000000000000e+05
-3.189960000000000000e+05 -1.868620000000000000e+05
-3.372390000000000000e+05 -1.580490000000000000e+05
-3.491740000000000000e+05 -1.277010000000000000e+05
-3.580400000000000000e+05 -9.820500000000000000e+04
-3.670750000000000000e+05 -6.581100000000000000e+04
-3.692920000000000000e+05 -3.324700000000000000e+04
-3.686100000000000000e+05 3.410000000000000000e+02
-3.653710000000000000e+05 3.017800000000000000e+04
-3.585510000000000000e+05 6.189000000000000000e+04
-3.488330000000000000e+05 9.360200000000000000e+04
-3.345120000000000000e+05 1.212220000000000000e+05
-3.224060000000000000e+05 1.493540000000000000e+05
-3.026290000000000000e+05 1.764620000000000000e+05
-2.808050000000000000e+05 1.974330000000000000e+05
-2.559140000000000000e+05 2.213030000000000000e+05
-2.296570000000000000e+05 2.364770000000000000e+05
-2.032300000000000000e+05 2.482410000000000000e+05
-1.757810000000000000e+05 2.594940000000000000e+05
-1.459440000000000000e+05 2.669950000000000000e+05
-1.195170000000000000e+05 2.681890000000000000e+05
-9.240900000000000000e+04 2.664840000000000000e+05
-6.427600000000000000e+04 2.610280000000000000e+05
-4.108900000000000000e+04 2.467060000000000000e+05
-2.267600000000000000e+04 2.357940000000000000e+05
-1.057000000000000000e+04 2.195970000000000000e+05
-3.410000000000000000e+02 1.996500000000000000e+05
5.286000000000000000e+03 1.803840000000000000e+05
2.046000000000000000e+03 1.669140000000000000e+05
-4.944000000000000000e+03 1.573670000000000000e+05
-1.159300000000000000e+04 1.495240000000000000e+05
-1.756100000000000000e+04 1.488420000000000000e+05
-2.676800000000000000e+04 1.527630000000000000e+05
-3.137100000000000000e+04 1.537870000000000000e+05
-3.103000000000000000e+04 1.631640000000000000e+05
-3.120000000000000000e+04 1.742460000000000000e+05
-2.642700000000000000e+04 1.820890000000000000e+05
-2.080000000000000000e+04 1.909540000000000000e+05
-1.312800000000000000e+04 1.998210000000000000e+05
-1.023000000000000000e+03 2.071520000000000000e+05
7.672000000000000000e+03 2.134600000000000000e+05
1.773200000000000000e+04 2.189150000000000000e+05
3.154200000000000000e+04 2.228370000000000000e+05
4.739800000000000000e+04 2.247120000000000000e+05
5.933200000000000000e+04 2.298270000000000000e+05
7.501800000000000000e+04 2.334080000000000000e+05
8.610000000000000000e+04 2.286340000000000000e+05
1.031500000000000000e+05 2.293160000000000000e+05
1.162780000000000000e+05 2.260760000000000000e+05
1.300880000000000000e+05 2.201090000000000000e+05
1.466260000000000000e+05 2.197680000000000000e+05
1.595840000000000000e+05 2.129490000000000000e+05
1.737340000000000000e+05 2.062990000000000000e+05
1.897610000000000000e+05 1.996500000000000000e+05
2.063000000000000000e+05 1.943640000000000000e+05
2.201090000000000000e+05 1.827710000000000000e+05
2.337490000000000000e+05 1.732230000000000000e+05
2.479000000000000000e+05 1.636750000000000000e+05
2.637560000000000000e+05 1.551510000000000000e+05
2.789300000000000000e+05 1.413410000000000000e+05
2.891600000000000000e+05 1.210520000000000000e+05
3.056980000000000000e+05 1.053660000000000000e+05
3.210430000000000000e+05 8.644100000000000000e+04
3.311010000000000000e+05 6.615200000000000000e+04
3.481510000000000000e+05 2.421000000000000000e+04
3.546300000000000000e+05 1.534400000000000000e+04
3.631550000000000000e+05 -1.346900000000000000e+04
3.650300000000000000e+05 -4.398800000000000000e+04
3.652000000000000000e+05 -7.893900000000000000e+04
3.648600000000000000e+05 -1.133800000000000000e+05
3.553120000000000000e+05 -1.500360000000000000e+05
3.428660000000000000e+05 -1.880560000000000000e+05
3.207020000000000000e+05 -2.228370000000000000e+05
2.944450000000000000e+05 -2.577890000000000000e+05
2.629040000000000000e+05 -2.891600000000000000e+05
2.224970000000000000e+05 -3.114950000000000000e+05
1.837940000000000000e+05 -3.334880000000000000e+05
1.394650000000000000e+05 -3.392860000000000000e+05
9.956900000000000000e+04 -3.415020000000000000e+05
5.950300000000000000e+04 -3.357050000000000000e+05
1.943600000000000000e+04 -3.259870000000000000e+05
-9.547000000000000000e+03 -3.072320000000000000e+05
-3.836100000000000000e+04 -2.867730000000000000e+05
-6.018400000000000000e+04 -2.635850000000000000e+05
-7.194900000000000000e+04 -2.368180000000000000e+05
-7.962100000000000000e+04 -2.151650000000000000e+05
-8.644100000000000000e+04 -1.935120000000000000e+05
-8.848700000000000000e+04 -1.739050000000000000e+05
-8.916900000000000000e+04 -1.541270000000000000e+05
-8.081500000000000000e+04 -1.384420000000000000e+05
-7.655200000000000000e+04 -1.227570000000000000e+05
-6.768600000000000000e+04 -1.120160000000000000e+05
-5.694500000000000000e+04 -1.036610000000000000e+05
-4.756800000000000000e+04 -9.871700000000000000e+04
-3.512200000000000000e+04 -9.479500000000000000e+04
-2.762000000000000000e+04 -9.240900000000000000e+04
-1.432100000000000000e+04 -9.377300000000000000e+04
-4.262000000000000000e+03 -9.803500000000000000e+04
5.627000000000000000e+03 -1.040020000000000000e+05
1.705000000000000000e+04 -1.116740000000000000e+05
1.892500000000000000e+04 -1.248030000000000000e+05
2.676800000000000000e+04 -1.387830000000000000e+05
3.120000000000000000e+04 -1.565150000000000000e+05
2.898500000000000000e+04 -1.752690000000000000e+05
2.745000000000000000e+04 -1.976040000000000000e+05
1.960700000000000000e+04 -2.243720000000000000e+05
8.695000000000000000e+03 -2.465360000000000000e+05
-1.159300000000000000e+04 -2.715980000000000000e+05
-3.307600000000000000e+04 -2.951280000000000000e+05
-6.240100000000000000e+04 -3.160980000000000000e+05
-1.000810000000000000e+05 -3.375800000000000000e+05
-1.406590000000000000e+05 -3.510490000000000000e+05
-1.827710000000000000e+05 -3.594030000000000000e+05
-2.340900000000000000e+05 -3.604270000000000000e+05
-2.792710000000000000e+05 -3.510490000000000000e+05
-3.261570000000000000e+05 -3.338290000000000000e+05
-3.699750000000000000e+05 -3.106420000000000000e+05
-4.083360000000000000e+05 -2.796120000000000000e+05
-4.439690000000000000e+05 -2.417620000000000000e+05
-4.710780000000000000e+05 -2.016960000000000000e+05
-4.905140000000000000e+05 -1.594120000000000000e+05
-5.046660000000000000e+05 -1.152540000000000000e+05
-5.096100000000000000e+05 -7.007300000000000000e+04
-5.172820000000000000e+05 -2.608500000000000000e+04
-5.147250000000000000e+05 1.602700000000000000e+04
-5.073930000000000000e+05 6.154900000000000000e+04
-4.992090000000000000e+05 1.033200000000000000e+05
-4.881270000000000000e+05 1.394650000000000000e+05
-4.680090000000000000e+05 1.749280000000000000e+05
-4.516420000000000000e+05 2.083450000000000000e+05
-4.330580000000000000e+05 2.405690000000000000e+05
-4.095290000000000000e+05 2.729620000000000000e+05
-3.890700000000000000e+05 3.033100000000000000e+05
-3.640070000000000000e+05 3.278620000000000000e+05
-3.343410000000000000e+05 3.548000000000000000e+05
-3.070620000000000000e+05 3.774760000000000000e+05
-2.780770000000000000e+05 3.970840000000000000e+05
-2.439790000000000000e+05 4.149850000000000000e+05
-2.143120000000000000e+05 4.315230000000000000e+05
-1.822590000000000000e+05 4.487430000000000000e+05
-1.469670000000000000e+05 4.588020000000000000e+05
-1.121850000000000000e+05 4.724420000000000000e+05
-7.638200000000000000e+04 4.773870000000000000e+05
-3.955400000000000000e+04 4.814780000000000000e+05
0.000000000000000000e+00 4.794320000000000000e+05
3.580300000000000000e+04 4.744880000000000000e+05
7.433600000000000000e+04 4.690320000000000000e+05
1.048550000000000000e+05 4.526650000000000000e+05
1.369080000000000000e+05 4.364670000000000000e+05
1.665740000000000000e+05 4.187360000000000000e+05
1.953870000000000000e+05 3.987880000000000000e+05
2.153360000000000000e+05 3.672460000000000000e+05
2.323850000000000000e+05 3.420130000000000000e+05
2.460240000000000000e+05 3.133700000000000000e+05
2.521620000000000000e+05 2.833630000000000000e+05
2.525040000000000000e+05 2.589820000000000000e+05
2.492640000000000000e+05 2.332370000000000000e+05
2.426150000000000000e+05 2.120950000000000000e+05
2.286340000000000000e+05 1.938520000000000000e+05
2.187450000000000000e+05 1.856690000000000000e+05
2.074920000000000000e+05 1.781670000000000000e+05
1.977740000000000000e+05 1.814070000000000000e+05
1.848170000000000000e+05 1.914660000000000000e+05
1.815780000000000000e+05 2.047640000000000000e+05
1.916370000000000000e+05 2.218140000000000000e+05
2.028900000000000000e+05 2.385230000000000000e+05
2.233490000000000000e+05 2.543790000000000000e+05
2.513100000000000000e+05 2.659720000000000000e+05
2.818280000000000000e+05 2.731330000000000000e+05
3.062090000000000000e+05 2.862610000000000000e+05
3.576990000000000000e+05 2.627330000000000000e+05
3.975950000000000000e+05 2.432970000000000000e+05
4.284540000000000000e+05 2.170400000000000000e+05
4.560750000000000000e+05 1.860100000000000000e+05
4.804560000000000000e+05 1.464560000000000000e+05
4.993810000000000000e+05 1.106510000000000000e+05
5.113140000000000000e+05 6.956200000000000000e+04
5.162590000000000000e+05 2.642600000000000000e+04
5.181350000000000000e+05 -1.159400000000000000e+04
5.171110000000000000e+05 -5.524100000000000000e+04
5.094390000000000000e+05 -9.684200000000000000e+04
4.952880000000000000e+05 -1.306000000000000000e+05
4.847180000000000000e+05 -1.665740000000000000e+05
4.702260000000000000e+05 -2.008440000000000000e+05
4.513010000000000000e+05 -2.322150000000000000e+05
4.316940000000000000e+05 -2.617100000000000000e+05
4.115750000000000000e+05 -2.922290000000000000e+05
3.890700000000000000e+05 -3.189970000000000000e+05
3.669060000000000000e+05 -3.462760000000000000e+05
3.411610000000000000e+05 -3.655420000000000000e+05
3.116660000000000000e+05 -3.912870000000000000e+05
2.876250000000000000e+05 -4.112350000000000000e+05
2.581300000000000000e+05 -4.337400000000000000e+05
2.284640000000000000e+05 -4.506190000000000000e+05
1.970930000000000000e+05 -4.654520000000000000e+05
1.658920000000000000e+05 -4.813080000000000000e+05
1.350320000000000000e+05 -4.949470000000000000e+05
9.871700000000000000e+04 -5.065410000000000000e+05
6.410600000000000000e+04 -5.167710000000000000e+05
2.676800000000000000e+04 -5.254660000000000000e+05
-1.432200000000000000e+04 -5.316040000000000000e+05
-5.353500000000000000e+04 -5.350140000000000000e+05
-9.257900000000000000e+04 -5.331380000000000000e+05
-1.367380000000000000e+05 -5.292170000000000000e+05
-1.800420000000000000e+05 -5.239320000000000000e+05
-2.228370000000000000e+05 -5.126790000000000000e+05
-2.640970000000000000e+05 -4.940950000000000000e+05
-3.097900000000000000e+05 -4.722710000000000000e+05
-3.524130000000000000e+05 -4.434580000000000000e+05
-3.880460000000000000e+05 -4.083360000000000000e+05
-4.199290000000000000e+05 -3.703160000000000000e+05
-4.494250000000000000e+05 -3.258170000000000000e+05
-4.663040000000000000e+05 -2.777360000000000000e+05
-4.826710000000000000e+05 -2.271000000000000000e+05
-4.811370000000000000e+05 -1.735640000000000000e+05
-4.756810000000000000e+05 -1.229270000000000000e+05
-4.669860000000000000e+05 -7.399500000000000000e+04
-4.458440000000000000e+05 -3.461000000000000000e+04
-4.189070000000000000e+05 4.262000000000000000e+03
-3.885580000000000000e+05 3.341700000000000000e+04
-3.559940000000000000e+05 5.660500000000000000e+04
-3.266690000000000000e+05 7.041500000000000000e+04
-2.929100000000000000e+05 7.808600000000000000e+04
-2.678470000000000000e+05 7.416500000000000000e+04
-2.444900000000000000e+05 7.160800000000000000e+04
-2.269290000000000000e+05 5.813800000000000000e+04
-2.107320000000000000e+05 4.927300000000000000e+04
-2.020360000000000000e+05 3.563400000000000000e+04
-1.989680000000000000e+05 2.250500000000000000e+04
-2.032310000000000000e+05 8.525000000000000000e+03
-2.090270000000000000e+05 -3.410000000000000000e+03
-2.224960000000000000e+05 -1.278700000000000000e+04
-2.373290000000000000e+05 -2.352800000000000000e+04
-2.535270000000000000e+05 -2.557400000000000000e+04
-2.729630000000000000e+05 -2.455200000000000000e+04
-2.961500000000000000e+05 -2.114100000000000000e+04
-3.166090000000000000e+05 -9.718000000000000000e+03
-3.379210000000000000e+05 5.455000000000000000e+03
-3.582110000000000000e+05 2.813100000000000000e+04
-3.735540000000000000e+05 5.336500000000000000e+04
-3.868530000000000000e+05 7.979100000000000000e+04
-3.960610000000000000e+05 1.166180000000000000e+05
-4.015160000000000000e+05 1.507170000000000000e+05
-3.984470000000000000e+05 1.890790000000000000e+05
-3.904340000000000000e+05 2.257350000000000000e+05
-3.808860000000000000e+05 2.640970000000000000e+05
-3.571880000000000000e+05 2.975140000000000000e+05
-3.382620000000000000e+05 3.336590000000000000e+05
-3.116650000000000000e+05 3.679290000000000000e+05
-2.799520000000000000e+05 3.931610000000000000e+05
-2.479000000000000000e+05 4.173720000000000000e+05
-2.127780000000000000e+05 4.344210000000000000e+05
-1.771440000000000000e+05 4.548810000000000000e+05
-1.396350000000000000e+05 4.683500000000000000e+05
-9.905800000000000000e+04 4.780680000000000000e+05
-6.274200000000000000e+04 4.816490000000000000e+05
-2.830200000000000000e+04 4.857400000000000000e+05
1.210500000000000000e+04 4.886390000000000000e+05
4.927300000000000000e+04 4.821600000000000000e+05
8.081400000000000000e+04 4.780680000000000000e+05
1.171310000000000000e+05 4.712480000000000000e+05
1.512290000000000000e+05 4.628940000000000000e+05
1.837940000000000000e+05 4.528350000000000000e+05
2.153360000000000000e+05 4.357860000000000000e+05
2.432970000000000000e+05 4.204410000000000000e+05
2.731340000000000000e+05 4.020280000000000000e+05
2.975140000000000000e+05 3.842960000000000000e+05
3.256460000000000000e+05 3.631540000000000000e+05
3.530950000000000000e+05 3.374090000000000000e+05
3.706560000000000000e+05 3.137110000000000000e+05
3.945260000000000000e+05 2.884770000000000000e+05
4.146440000000000000e+05 2.586410000000000000e+05
4.322050000000000000e+05 2.277820000000000000e+05
4.449930000000000000e+05 1.921480000000000000e+05
4.589730000000000000e+05 1.566850000000000000e+05
4.674980000000000000e+05 1.248020000000000000e+05
4.732940000000000000e+05 8.388300000000000000e+04
4.722720000000000000e+05 4.893200000000000000e+04
4.719310000000000000e+05 1.005900000000000000e+04
4.644290000000000000e+05 -3.000700000000000000e+04
4.533470000000000000e+05 -6.700500000000000000e+04
4.345920000000000000e+05 -1.016160000000000000e+05
4.146450000000000000e+05 -1.338390000000000000e+05
3.877060000000000000e+05 -1.652100000000000000e+05
3.607680000000000000e+05 -1.897610000000000000e+05
3.285450000000000000e+05 -2.098790000000000000e+05
2.956380000000000000e+05 -2.224960000000000000e+05
2.675070000000000000e+05 -2.282930000000000000e+05
2.354540000000000000e+05 -2.259060000000000000e+05
2.103910000000000000e+05 -2.260760000000000000e+05
1.901020000000000000e+05 -2.155060000000000000e+05
1.761210000000000000e+05 -2.044240000000000000e+05
1.643570000000000000e+05 -1.912950000000000000e+05
1.635050000000000000e+05 -1.814070000000000000e+05
1.667440000000000000e+05 -1.684500000000000000e+05
1.706660000000000000e+05 -1.611180000000000000e+05
1.836240000000000000e+05 -1.585600000000000000e+05
1.938530000000000000e+05 -1.587310000000000000e+05
2.093680000000000000e+05 -1.645280000000000000e+05
2.245420000000000000e+05 -1.791900000000000000e+05
2.361360000000000000e+05 -1.941940000000000000e+05
2.467060000000000000e+05 -2.149950000000000000e+05
2.547200000000000000e+05 -2.405680000000000000e+05
2.571070000000000000e+05 -2.743270000000000000e+05
2.567660000000000000e+05 -3.114950000000000000e+05
2.490940000000000000e+05 -3.500260000000000000e+05
2.315330000000000000e+05 -3.889000000000000000e+05
2.114140000000000000e+05 -4.276020000000000000e+05
1.788500000000000000e+05 -4.652820000000000000e+05
1.398060000000000000e+05 -5.039840000000000000e+05
9.633000000000000000e+04 -5.326270000000000000e+05
4.978500000000000000e+04 -5.549620000000000000e+05
-3.580000000000000000e+03 -5.750800000000000000e+05
-6.223000000000000000e+04 -5.880380000000000000e+05
-1.152550000000000000e+05 -5.888910000000000000e+05
-1.749280000000000000e+05 -5.858220000000000000e+05
-2.310210000000000000e+05 -5.711590000000000000e+05
-2.806350000000000000e+05 -5.544510000000000000e+05
-3.275210000000000000e+05 -5.298990000000000000e+05
-3.721910000000000000e+05 -5.019380000000000000e+05
-4.120860000000000000e+05 -4.659630000000000000e+05
-4.455040000000000000e+05 -4.305010000000000000e+05
-4.763630000000000000e+05 -3.916270000000000000e+05
-5.007440000000000000e+05 -3.534360000000000000e+05
-5.225680000000000000e+05 -3.096190000000000000e+05
-5.367190000000000000e+05 -2.673360000000000000e+05
-5.522330000000000000e+05 -2.243710000000000000e+05
-5.592240000000000000e+05 -1.791910000000000000e+05
-5.650200000000000000e+05 -1.386130000000000000e+05
-5.655320000000000000e+05 -9.837600000000000000e+04
-5.672370000000000000e+05 -5.711600000000000000e+04
-5.626330000000000000e+05 -2.267600000000000000e+04
-5.549610000000000000e+05 1.722000000000000000e+04
-5.495050000000000000e+05 5.319500000000000000e+04
-5.377410000000000000e+05 8.899800000000000000e+04
-5.264880000000000000e+05 1.256550000000000000e+05
-5.121670000000000000e+05 1.623110000000000000e+05
-4.978450000000000000e+05 1.947050000000000000e+05
-4.814780000000000000e+05 2.238600000000000000e+05
-4.588020000000000000e+05 2.543780000000000000e+05
-4.371500000000000000e+05 2.867730000000000000e+05
-4.173720000000000000e+05 3.130290000000000000e+05
-3.907740000000000000e+05 3.389440000000000000e+05
-3.631550000000000000e+05 3.619610000000000000e+05
-3.351930000000000000e+05 3.877060000000000000e+05
-3.012650000000000000e+05 4.078240000000000000e+05
-2.668250000000000000e+05 4.252150000000000000e+05
-2.293160000000000000e+05 4.429460000000000000e+05
-1.950460000000000000e+05 4.511310000000000000e+05
-1.582190000000000000e+05 4.570970000000000000e+05
-1.188350000000000000e+05 4.625530000000000000e+05
-7.842800000000000000e+04 4.586310000000000000e+05
-4.194100000000000000e+04 4.519830000000000000e+05
-6.650000000000000000e+03 4.431170000000000000e+05
2.063000000000000000e+04 4.209530000000000000e+05
4.705700000000000000e+04 4.020280000000000000e+05
6.410700000000000000e+04 3.824210000000000000e+05
7.689300000000000000e+04 3.588920000000000000e+05
8.320200000000000000e+04 3.372390000000000000e+05
8.269000000000000000e+04 3.186550000000000000e+05
7.842800000000000000e+04 3.077430000000000000e+05
7.365400000000000000e+04 3.046750000000000000e+05
7.297200000000000000e+04 3.048450000000000000e+05
7.331300000000000000e+04 3.056970000000000000e+05
7.672300000000000000e+04 3.125180000000000000e+05
7.928000000000000000e+04 3.239400000000000000e+05
9.496600000000000000e+04 3.357050000000000000e+05
1.126980000000000000e+05 3.447410000000000000e+05
1.333270000000000000e+05 3.510490000000000000e+05
1.561740000000000000e+05 3.561640000000000000e+05
1.795310000000000000e+05 3.605970000000000000e+05
2.086860000000000000e+05 3.607680000000000000e+05
2.393760000000000000e+05 3.573580000000000000e+05
2.668250000000000000e+05 3.484920000000000000e+05
2.990480000000000000e+05 3.379210000000000000e+05
3.264990000000000000e+05 3.229170000000000000e+05
3.519020000000000000e+05 3.055270000000000000e+05
3.756010000000000000e+05 2.804650000000000000e+05
3.984480000000000000e+05 2.598340000000000000e+05
4.182250000000000000e+05 2.318730000000000000e+05
4.368090000000000000e+05 2.047640000000000000e+05
4.482320000000000000e+05 1.752690000000000000e+05
4.615300000000000000e+05 1.445800000000000000e+05
4.666450000000000000e+05 1.132080000000000000e+05
4.753400000000000000e+05 7.996200000000000000e+04
4.732950000000000000e+05 5.114900000000000000e+04
4.768750000000000000e+05 1.704900000000000000e+04
4.756820000000000000e+05 -1.687900000000000000e+04
4.709070000000000000e+05 -4.637500000000000000e+04
4.657930000000000000e+05 -7.467700000000000000e+04
4.606780000000000000e+05 -1.045130000000000000e+05
4.465270000000000000e+05 -1.343500000000000000e+05
4.344220000000000000e+05 -1.606070000000000000e+05
4.238510000000000000e+05 -1.878860000000000000e+05
4.095300000000000000e+05 -2.129490000000000000e+05
3.897520000000000000e+05 -2.344310000000000000e+05
3.759420000000000000e+05 -2.577890000000000000e+05
3.576990000000000000e+05 -2.804650000000000000e+05
3.401380000000000000e+05 -3.009240000000000000e+05
3.178030000000000000e+05 -3.201900000000000000e+05
2.946150000000000000e+05 -3.406490000000000000e+05
2.729630000000000000e+05 -3.595740000000000000e+05
2.485820000000000000e+05 -3.725320000000000000e+05
2.235200000000000000e+05 -3.894110000000000000e+05
1.950460000000000000e+05 -4.040740000000000000e+05
1.696430000000000000e+05 -4.175430000000000000e+05
1.425340000000000000e+05 -4.265790000000000000e+05
1.067300000000000000e+05 -4.333980000000000000e+05
7.893900000000000000e+04 -4.429460000000000000e+05
4.177200000000000000e+04 -4.455040000000000000e+05
1.193500000000000000e+04 -4.453330000000000000e+05
-2.233400000000000000e+04 -4.424350000000000000e+05
-5.762700000000000000e+04 -4.323760000000000000e+05
-8.968000000000000000e+04 -4.211230000000000000e+05
-1.207100000000000000e+05 -4.028800000000000000e+05
-1.490120000000000000e+05 -3.798630000000000000e+05
-1.728820000000000000e+05 -3.539480000000000000e+05
-1.912960000000000000e+05 -3.270100000000000000e+05
-2.039120000000000000e+05 -2.942740000000000000e+05
-2.090270000000000000e+05 -2.634150000000000000e+05
-2.110730000000000000e+05 -2.340900000000000000e+05
-2.040820000000000000e+05 -2.068110000000000000e+05
-1.958990000000000000e+05 -1.863520000000000000e+05
-1.808950000000000000e+05 -1.669150000000000000e+05
-1.696430000000000000e+05 -1.517400000000000000e+05
-1.558330000000000000e+05 -1.459440000000000000e+05
-1.416810000000000000e+05 -1.430450000000000000e+05
-1.317930000000000000e+05 -1.432160000000000000e+05
-1.261660000000000000e+05 -1.435570000000000000e+05
-1.184940000000000000e+05 -1.529340000000000000e+05
-1.121860000000000000e+05 -1.578790000000000000e+05
-1.159370000000000000e+05 -1.677680000000000000e+05
-1.191760000000000000e+05 -1.768040000000000000e+05
-1.224150000000000000e+05 -1.880560000000000000e+05
-1.280420000000000000e+05 -1.958990000000000000e+05
-1.394650000000000000e+05 -2.023780000000000000e+05
-1.531050000000000000e+05 -2.110730000000000000e+05
-1.669150000000000000e+05 -2.218150000000000000e+05
-1.810650000000000000e+05 -2.252240000000000000e+05
-2.013550000000000000e+05 -2.291460000000000000e+05
-2.233480000000000000e+05 -2.303390000000000000e+05
-2.448310000000000000e+05 -2.317030000000000000e+05
-2.705760000000000000e+05 -2.272700000000000000e+05
-2.923990000000000000e+05 -2.207910000000000000e+05
-3.193370000000000000e+05 -2.136310000000000000e+05
-3.455940000000000000e+05 -2.003320000000000000e+05
-3.740660000000000000e+05 -1.826000000000000000e+05
-4.004930000000000000e+05 -1.646990000000000000e+05
-4.240210000000000000e+05 -1.403180000000000000e+05
-4.441400000000000000e+05 -1.074120000000000000e+05
-4.617000000000000000e+05 -7.876900000000000000e+04
-4.806260000000000000e+05 -4.023700000000000000e+04
-4.906850000000000000e+05 0.000000000000000000e+00
-4.983570000000000000e+05 3.802000000000000000e+04
-4.964810000000000000e+05 8.013300000000000000e+04
-4.946060000000000000e+05 1.265070000000000000e+05
-4.860810000000000000e+05 1.675960000000000000e+05
-4.685210000000000000e+05 2.126080000000000000e+05
-4.524940000000000000e+05 2.513090000000000000e+05
-4.247030000000000000e+05 2.915460000000000000e+05
-3.965720000000000000e+05 3.264980000000000000e+05
-3.646890000000000000e+05 3.570160000000000000e+05
-3.307610000000000000e+05 3.802040000000000000e+05
-2.949570000000000000e+05 4.033920000000000000e+05
-2.594940000000000000e+05 4.226580000000000000e+05
-2.224960000000000000e+05 4.366380000000000000e+05
-1.844750000000000000e+05 4.487430000000000000e+05
-1.500350000000000000e+05 4.533460000000000000e+05
-1.149130000000000000e+05 4.547100000000000000e+05
-8.661100000000000000e+04 4.559040000000000000e+05
-4.961400000000000000e+04 4.543690000000000000e+05
-1.670900000000000000e+04 4.489130000000000000e+05
1.159400000000000000e+04 4.405590000000000000e+05
3.768000000000000000e+04 4.335690000000000000e+05
6.393600000000000000e+04 4.228280000000000000e+05
8.729300000000000000e+04 4.081650000000000000e+05
1.097990000000000000e+05 3.972540000000000000e+05
1.323050000000000000e+05 3.836140000000000000e+05
1.481600000000000000e+05 3.680990000000000000e+05
1.658920000000000000e+05 3.522430000000000000e+05
1.795320000000000000e+05 3.350230000000000000e+05
1.919780000000000000e+05 3.213830000000000000e+05
2.040830000000000000e+05 3.016060000000000000e+05
2.131190000000000000e+05 2.859200000000000000e+05
2.219850000000000000e+05 2.687000000000000000e+05
2.231780000000000000e+05 2.523320000000000000e+05
2.274400000000000000e+05 2.373290000000000000e+05
2.330670000000000000e+05 2.207910000000000000e+05
2.274410000000000000e+05 2.112430000000000000e+05
2.236900000000000000e+05 1.950460000000000000e+05
2.282930000000000000e+05 1.921480000000000000e+05
2.242010000000000000e+05 1.841350000000000000e+05
2.250540000000000000e+05 1.817480000000000000e+05
2.223260000000000000e+05 1.814060000000000000e+05
2.294870000000000000e+05 1.839640000000000000e+05
2.323850000000000000e+05 1.885680000000000000e+05
2.455130000000000000e+05 1.877150000000000000e+05
2.588110000000000000e+05 1.935120000000000000e+05
2.765430000000000000e+05 1.892500000000000000e+05
2.983670000000000000e+05 1.851580000000000000e+05
3.196790000000000000e+05 1.820890000000000000e+05
3.440600000000000000e+05 1.677670000000000000e+05
3.645180000000000000e+05 1.553210000000000000e+05
3.860010000000000000e+05 1.345200000000000000e+05
4.021980000000000000e+05 1.101400000000000000e+05
4.158380000000000000e+05 8.422500000000000000e+04
4.322060000000000000e+05 5.950300000000000000e+04
4.400480000000000000e+05 2.574500000000000000e+04
4.444810000000000000e+05 -8.014000000000000000e+03
4.523240000000000000e+05 -3.972600000000000000e+04
4.507890000000000000e+05 -7.160800000000000000e+04
4.501070000000000000e+05 -1.053660000000000000e+05
4.400480000000000000e+05 -1.415110000000000000e+05
4.320350000000000000e+05 -1.728820000000000000e+05
4.175430000000000000e+05 -2.054460000000000000e+05
4.037320000000000000e+05 -2.363060000000000000e+05
3.836140000000000000e+05 -2.637560000000000000e+05
3.660530000000000000e+05 -2.918880000000000000e+05
3.413320000000000000e+05 -3.210430000000000000e+05
3.189970000000000000e+05 -3.433770000000000000e+05
2.939340000000000000e+05 -3.660530000000000000e+05
2.635850000000000000e+05 -3.912860000000000000e+05
2.346020000000000000e+05 -4.076540000000000000e+05
2.076630000000000000e+05 -4.250450000000000000e+05
1.733930000000000000e+05 -4.393660000000000000e+05
1.411700000000000000e+05 -4.499360000000000000e+05
1.130380000000000000e+05 -4.576090000000000000e+05
7.791600000000000000e+04 -4.657920000000000000e+05
4.637500000000000000e+04 -4.709080000000000000e+05
1.602600000000000000e+04 -4.719300000000000000e+05
-1.994700000000000000e+04 -4.773870000000000000e+05
-5.353500000000000000e+04 -4.674980000000000000e+05
-8.610000000000000000e+04 -4.669860000000000000e+05
-1.149130000000000000e+05 -4.591440000000000000e+05
-1.461140000000000000e+05 -4.545400000000000000e+05
-1.754400000000000000e+05 -4.376610000000000000e+05
-2.042530000000000000e+05 -4.279430000000000000e+05
-2.305090000000000000e+05 -4.097000000000000000e+05
-2.577880000000000000e+05 -3.933330000000000000e+05
-2.801230000000000000e+05 -3.730430000000000000e+05
