-2.785890000000000000e+05 -3.680990000000000000e+05
-3.548000000000000000e+05 -2.688710000000000000e+05
-3.866830000000000000e+05 -1.416810000000000000e+05
-3.455930000000000000e+05 -1.568600000000000000e+04
-2.577890000000000000e+05 5.063700000000000000e+04
-1.976040000000000000e+05 4.228200000000000000e+04
-1.834520000000000000e+05 2.796100000000000000e+04
-1.958990000000000000e+05 2.301600000000000000e+04
-2.213020000000000000e+05 3.904400000000000000e+04
-2.415920000000000000e+05 7.723400000000000000e+04
-2.461950000000000000e+05 1.338390000000000000e+05
-2.303380000000000000e+05 2.071520000000000000e+05
-1.837940000000000000e+05 2.818280000000000000e+05
-1.026380000000000000e+05 3.418420000000000000e+05
-3.239000000000000000e+03 3.687810000000000000e+05
1.017860000000000000e+05 3.553120000000000000e+05
1.802130000000000000e+05 2.993890000000000000e+05
2.245430000000000000e+05 2.250530000000000000e+05
2.375000000000000000e+05 1.546390000000000000e+05
2.260770000000000000e+05 9.718200000000000000e+04
2.018660000000000000e+05 5.592300000000000000e+04
1.774850000000000000e+05 4.398700000000000000e+04
1.687910000000000000e+05 5.097800000000000000e+04
1.965810000000000000e+05 5.609200000000000000e+04
2.427850000000000000e+05 3.529200000000000000e+04
2.814870000000000000e+05 -2.676800000000000000e+04
2.854090000000000000e+05 -1.125270000000000000e+05
2.543790000000000000e+05 -1.994790000000000000e+05
1.914660000000000000e+05 -2.731330000000000000e+05
1.089460000000000000e+05 -3.273510000000000000e+05
1.432200000000000000e+04 -3.558230000000000000e+05
2.954680000000000000e+05 -2.085160000000000000e+05
2.206210000000000000e+05 -2.859210000000000000e+05
1.271900000000000000e+05 -3.346820000000000000e+05
1.892500000000000000e+04 -3.513910000000000000e+05
-8.661100000000000000e+04 -3.319540000000000000e+05
-1.696430000000000000e+05 -2.668250000000000000e+05
-2.076630000000000000e+05 -1.795310000000000000e+05
-1.940230000000000000e+05 -1.103100000000000000e+05
-1.732230000000000000e+05 -7.893900000000000000e+04
-1.698130000000000000e+05 -6.598100000000000000e+04
-1.771440000000000000e+05 -4.654600000000000000e+04
-1.894200000000000000e+05 -2.063000000000000000e+04
-1.897620000000000000e+05 1.227500000000000000e+04
-1.889080000000000000e+05 4.825000000000000000e+04
-1.750980000000000000e+05 8.354300000000000000e+04
-1.522520000000000000e+05 1.191760000000000000e+05
-1.254840000000000000e+05 1.515700000000000000e+05
-8.592900000000000000e+04 1.696420000000000000e+05
-4.006600000000000000e+04 1.861800000000000000e+05
8.183000000000000000e+03 1.831120000000000000e+05
4.910200000000000000e+04 1.693020000000000000e+05
7.552900000000000000e+04 1.374190000000000000e+05
8.354300000000000000e+04 1.014450000000000000e+05
7.638200000000000000e+04 7.689300000000000000e+04
6.905000000000000000e+04 6.888000000000000000e+04
6.172000000000000000e+04 7.416500000000000000e+04
6.632300000000000000e+04 8.490600000000000000e+04
9.155600000000000000e+04 8.882800000000000000e+04
1.155960000000000000e+05 9.155600000000000000e+04
1.510580000000000000e+05 7.859800000000000000e+04
1.824300000000000000e+05 4.773800000000000000e+04
2.044240000000000000e+05 2.217000000000000000e+03
2.138010000000000000e+05 -5.609300000000000000e+04
1.989680000000000000e+05 -1.164490000000000000e+05
1.643570000000000000e+05 -1.745870000000000000e+05
1.108210000000000000e+05 -2.223260000000000000e+05
4.347600000000000000e+04 -2.446600000000000000e+05
-2.659700000000000000e+04 -2.460250000000000000e+05
-8.780500000000000000e+04 -2.231790000000000000e+05
-1.306000000000000000e+05 -1.824300000000000000e+05
-1.539570000000000000e+05 -1.403180000000000000e+05
-1.623120000000000000e+05 -1.115040000000000000e+05
-1.815770000000000000e+05 -8.337300000000000000e+04
-2.049350000000000000e+05 -4.739800000000000000e+04
-2.131180000000000000e+05 3.921000000000000000e+03
-2.037420000000000000e+05 5.404700000000000000e+04
-1.837940000000000000e+05 1.009340000000000000e+05
-1.515700000000000000e+05 1.428750000000000000e+05
-1.101390000000000000e+05 1.715180000000000000e+05
-6.666400000000000000e+04 1.940230000000000000e+05
-2.199400000000000000e+04 2.032300000000000000e+05
2.898400000000000000e+04 2.035710000000000000e+05
7.928000000000000000e+04 1.887380000000000000e+05
1.275300000000000000e+05 1.589020000000000000e+05
1.621410000000000000e+05 1.092870000000000000e+05
1.628230000000000000e+05 5.148900000000000000e+04
1.399770000000000000e+05 8.524000000000000000e+03
1.128680000000000000e+05 -4.092000000000000000e+03
1.014450000000000000e+05 -4.603000000000000000e+03
1.050250000000000000e+05 -4.945000000000000000e+03
1.186650000000000000e+05 -1.432200000000000000e+04
1.306000000000000000e+05 -3.171200000000000000e+04
1.428750000000000000e+05 -6.223100000000000000e+04
1.473080000000000000e+05 -1.075820000000000000e+05
1.307690000000000000e+05 -1.621410000000000000e+05
9.087400000000000000e+04 -2.167000000000000000e+05
2.011800000000000000e+04 -2.685290000000000000e+05
-7.041500000000000000e+04 -2.784180000000000000e+05
-1.599240000000000000e+05 -2.478990000000000000e+05
-2.253940000000000000e+05 -1.798730000000000000e+05
-2.494350000000000000e+05 -1.034900000000000000e+05
-2.443190000000000000e+05 -3.290500000000000000e+04
-2.197690000000000000e+05 2.097100000000000000e+04
-1.955580000000000000e+05 4.449900000000000000e+04
-1.868630000000000000e+05 6.683400000000000000e+04
-1.982860000000000000e+05 9.360200000000000000e+04
-2.028900000000000000e+05 1.491830000000000000e+05
-1.764620000000000000e+05 2.311920000000000000e+05
-9.445500000000000000e+04 3.062100000000000000e+05
1.875500000000000000e+04 3.380920000000000000e+05
1.352030000000000000e+05 3.200200000000000000e+05
2.211330000000000000e+05 2.548900000000000000e+05
2.751800000000000000e+05 1.740760000000000000e+05
2.973440000000000000e+05 8.627000000000000000e+04
2.958090000000000000e+05 6.819000000000000000e+03
2.688710000000000000e+05 -7.246000000000000000e+04
2.320440000000000000e+05 -1.343500000000000000e+05
1.744160000000000000e+05 -1.851580000000000000e+05
1.067300000000000000e+05 -2.120960000000000000e+05
4.194200000000000000e+04 -2.085160000000000000e+05
1.023000000000000000e+03 -1.820880000000000000e+05
-1.466200000000000000e+04 -1.614590000000000000e+05
-2.131200000000000000e+04 -1.548100000000000000e+05
-3.034900000000000000e+04 -1.565140000000000000e+05
-4.790900000000000000e+04 -1.566850000000000000e+05
-7.689400000000000000e+04 -1.699830000000000000e+05
-1.099690000000000000e+05 -1.699840000000000000e+05
-1.522520000000000000e+05 -1.643570000000000000e+05
-2.003310000000000000e+05 -1.428740000000000000e+05
-2.461950000000000000e+05 -9.615900000000000000e+04
-2.808060000000000000e+05 -3.307600000000000000e+04
-2.802940000000000000e+05 6.103800000000000000e+04
-2.385220000000000000e+05 1.512290000000000000e+05
-1.646990000000000000e+05 2.100500000000000000e+05
-9.530700000000000000e+04 2.129480000000000000e+05
-4.876100000000000000e+04 1.972620000000000000e+05
-2.233500000000000000e+04 1.752690000000000000e+05
-1.704900000000000000e+04 1.643570000000000000e+05
-1.653800000000000000e+04 1.739050000000000000e+05
-4.944000000000000000e+03 1.953870000000000000e+05
2.710900000000000000e+04 2.231780000000000000e+05
8.354300000000000000e+04 2.467070000000000000e+05
1.686200000000000000e+05 2.421030000000000000e+05
2.335790000000000000e+05 2.090270000000000000e+05
2.913760000000000000e+05 1.343510000000000000e+05
3.181440000000000000e+05 4.228200000000000000e+04
3.113240000000000000e+05 -6.052600000000000000e+04
2.681890000000000000e+05 -1.430450000000000000e+05
2.085160000000000000e+05 -1.986270000000000000e+05
1.430450000000000000e+05 -2.313620000000000000e+05
8.507700000000000000e+04 -2.441490000000000000e+05
3.154100000000000000e+04 -2.465360000000000000e+05
-1.074100000000000000e+04 -2.339190000000000000e+05
-4.705700000000000000e+04 -2.182340000000000000e+05
-8.064400000000000000e+04 -2.016960000000000000e+05
-1.051960000000000000e+05 -1.839640000000000000e+05
-1.290650000000000000e+05 -1.653800000000000000e+05
-1.548090000000000000e+05 -1.467970000000000000e+05
-1.769740000000000000e+05 -1.237800000000000000e+05
-2.001610000000000000e+05 -9.002200000000000000e+04
-2.166990000000000000e+05 -5.353600000000000000e+04
-2.308500000000000000e+05 -1.023000000000000000e+04
-2.378400000000000000e+05 3.836100000000000000e+04
-2.306800000000000000e+05 1.028090000000000000e+05
-1.977750000000000000e+05 1.727120000000000000e+05
-1.406580000000000000e+05 2.289750000000000000e+05
-5.830900000000000000e+04 2.507980000000000000e+05
6.479000000000000000e+03 2.288050000000000000e+05
4.535200000000000000e+04 1.880560000000000000e+05
5.677500000000000000e+04 1.498650000000000000e+05
5.643400000000000000e+04 1.259950000000000000e+05
5.251300000000000000e+04 1.205400000000000000e+05
6.052600000000000000e+04 1.213920000000000000e+05
7.450600000000000000e+04 1.236090000000000000e+05
1.029790000000000000e+05 1.266780000000000000e+05
1.323050000000000000e+05 1.161070000000000000e+05
1.650390000000000000e+05 9.479500000000000000e+04
1.976040000000000000e+05 5.029600000000000000e+04
2.100500000000000000e+05 -4.433000000000000000e+03
2.042540000000000000e+05 -6.308400000000000000e+04
1.713470000000000000e+05 -1.149140000000000000e+05
1.311110000000000000e+05 -1.520820000000000000e+05
8.593000000000000000e+04 -1.682790000000000000e+05
5.370600000000000000e+04 -1.713480000000000000e+05
2.352900000000000000e+04 -1.653800000000000000e+05
4.774000000000000000e+03 -1.606060000000000000e+05
-1.858400000000000000e+04 -1.582190000000000000e+05
-3.409900000000000000e+04 -1.681080000000000000e+05
-6.666300000000000000e+04 -1.733940000000000000e+05
-1.099700000000000000e+05 -1.711780000000000000e+05
-1.520820000000000000e+05 -1.478200000000000000e+05
-1.836230000000000000e+05 -1.094580000000000000e+05
-2.034000000000000000e+05 -6.206100000000000000e+04
-2.052760000000000000e+05 -1.398100000000000000e+04
-1.986260000000000000e+05 3.410000000000000000e+04
-1.858390000000000000e+05 8.064400000000000000e+04
-1.618000000000000000e+05 1.205400000000000000e+05
-1.299170000000000000e+05 1.573670000000000000e+05
-8.456500000000000000e+04 1.875450000000000000e+05
-3.580400000000000000e+04 2.032300000000000000e+05
2.284700000000000000e+04 1.947050000000000000e+05
5.762800000000000000e+04 1.633340000000000000e+05
7.382400000000000000e+04 1.229270000000000000e+05
7.160800000000000000e+04 1.041730000000000000e+05
7.109700000000000000e+04 9.581900000000000000e+04
8.149700000000000000e+04 9.070300000000000000e+04
9.292000000000000000e+04 9.019200000000000000e+04
1.070710000000000000e+05 8.371300000000000000e+04
1.294060000000000000e+05 7.706300000000000000e+04
1.532750000000000000e+05 5.353600000000000000e+04
1.682790000000000000e+05 2.011900000000000000e+04
1.756100000000000000e+05 -2.301700000000000000e+04
1.646990000000000000e+05 -7.638200000000000000e+04
1.365660000000000000e+05 -1.188360000000000000e+05
9.650100000000000000e+04 -1.462850000000000000e+05
5.387700000000000000e+04 -1.599250000000000000e+05
2.165300000000000000e+04 -1.561740000000000000e+05
0.000000000000000000e+00 -1.474780000000000000e+05
-1.739000000000000000e+04 -1.363960000000000000e+05
-3.017700000000000000e+04 -1.357150000000000000e+05
-4.057800000000000000e+04 -1.415100000000000000e+05
-6.103700000000000000e+04 -1.505470000000000000e+05
-9.428400000000000000e+04 -1.585600000000000000e+05
-1.406580000000000000e+05 -1.496950000000000000e+05
-1.873740000000000000e+05 -1.164490000000000000e+05
-2.233480000000000000e+05 -6.461800000000000000e+04
-2.328960000000000000e+05 -3.410000000000000000e+02
-2.168690000000000000e+05 6.393600000000000000e+04
-1.854980000000000000e+05 1.222450000000000000e+05
-1.467960000000000000e+05 1.585610000000000000e+05
-9.974000000000000000e+04 1.854980000000000000e+05
-5.370600000000000000e+04 1.970920000000000000e+05
-1.415100000000000000e+04 1.991380000000000000e+05
2.949600000000000000e+04 1.887380000000000000e+05
5.865100000000000000e+04 1.761210000000000000e+05
8.661200000000000000e+04 1.560030000000000000e+05
1.077530000000000000e+05 1.353730000000000000e+05
1.362260000000000000e+05 1.137200000000000000e+05
1.524230000000000000e+05 9.138500000000000000e+04
1.665740000000000000e+05 6.819800000000000000e+04
1.814070000000000000e+05 3.631600000000000000e+04
1.870330000000000000e+05 -3.921000000000000000e+03
1.880560000000000000e+05 -4.398800000000000000e+04
1.783380000000000000e+05 -9.275000000000000000e+04
1.566850000000000000e+05 -1.389530000000000000e+05
1.138910000000000000e+05 -1.819190000000000000e+05
6.069600000000000000e+04 -2.086860000000000000e+05
-1.710000000000000000e+02 -2.100500000000000000e+05
-5.149000000000000000e+04 -1.904430000000000000e+05
