-2.277810000000000000e+05 7.450600000000000000e+04
-9.684100000000000000e+04 1.375900000000000000e+05
-7.502000000000000000e+03 1.123560000000000000e+05
1.722000000000000000e+04 7.808700000000000000e+04
3.171200000000000000e+04 8.149700000000000000e+04
7.501800000000000000e+04 8.064400000000000000e+04
1.386120000000000000e+05 5.080800000000000000e+04
1.766330000000000000e+05 -2.489200000000000000e+04
1.377600000000000000e+05 -1.239500000000000000e+05
1.670800000000000000e+04 -1.798720000000000000e+05
-1.183240000000000000e+05 -1.449210000000000000e+05
-1.747570000000000000e+05 -2.608600000000000000e+04
-1.411700000000000000e+05 6.478800000000000000e+04
-5.506900000000000000e+04 9.871700000000000000e+04
2.217000000000000000e+03 7.535900000000000000e+04
3.358800000000000000e+04 4.279500000000000000e+04
3.836100000000000000e+04 3.529200000000000000e+04
5.353600000000000000e+04 3.836100000000000000e+04
8.507700000000000000e+04 2.028900000000000000e+04
9.820600000000000000e+04 -2.250500000000000000e+04
7.331300000000000000e+04 -7.706300000000000000e+04
4.262000000000000000e+03 -1.057070000000000000e+05
-6.888000000000000000e+04 -8.882800000000000000e+04
-1.120150000000000000e+05 -3.000700000000000000e+04
-9.513600000000000000e+04 3.273500000000000000e+04
-4.143000000000000000e+04 6.444800000000000000e+04
3.410000000000000000e+03 5.234200000000000000e+04
2.676800000000000000e+04 2.830200000000000000e+04
-7.502000000000000000e+03 1.977700000000000000e+04
-5.115000000000000000e+03 2.540300000000000000e+04
2.046000000000000000e+03 3.802100000000000000e+04
2.949600000000000000e+04 4.501100000000000000e+04
5.796900000000000000e+04 3.239400000000000000e+04
7.450600000000000000e+04 -8.183000000000000000e+03
5.336400000000000000e+04 -5.200100000000000000e+04
2.216000000000000000e+03 -6.922100000000000000e+04
-3.904300000000000000e+04 -5.302400000000000000e+04
-6.018500000000000000e+04 -1.926600000000000000e+04
-5.251200000000000000e+04 1.006000000000000000e+04
-3.495100000000000000e+04 2.250600000000000000e+04
-1.551500000000000000e+04 2.352800000000000000e+04
-1.023000000000000000e+04 2.028900000000000000e+04
-9.036000000000000000e+03 2.421000000000000000e+04
4.945000000000000000e+03 3.785000000000000000e+04
2.591600000000000000e+04 3.444000000000000000e+04
4.705700000000000000e+04 1.551500000000000000e+04
5.370600000000000000e+04 -1.602600000000000000e+04
2.915500000000000000e+04 -4.756800000000000000e+04
-1.534400000000000000e+04 -5.524000000000000000e+04
-5.251300000000000000e+04 -3.324600000000000000e+04
-5.370600000000000000e+04 -1.705000000000000000e+03
-4.023700000000000000e+04 2.386900000000000000e+04
-2.131200000000000000e+04 2.659800000000000000e+04
-4.774000000000000000e+03 2.455200000000000000e+04
-5.120000000000000000e+02 2.284700000000000000e+04
1.005900000000000000e+04 2.813100000000000000e+04
2.438100000000000000e+04 3.137100000000000000e+04
4.023600000000000000e+04 2.097100000000000000e+04
4.825000000000000000e+04 8.525000000000000000e+03
4.245300000000000000e+04 -5.115000000000000000e+03
4.637400000000000000e+04 -2.284700000000000000e+04
4.364600000000000000e+04 -6.240200000000000000e+04
-1.790200000000000000e+04 -1.597540000000000000e+05
-2.250530000000000000e+05 1.108300000000000000e+04
-2.745000000000000000e+04 1.544690000000000000e+05
6.512900000000000000e+04 1.074100000000000000e+04
2.216500000000000000e+04 6.309000000000000000e+03
1.756100000000000000e+04 2.728000000000000000e+03
1.739100000000000000e+04 -8.354000000000000000e+03
2.080100000000000000e+04 -1.636800000000000000e+04
1.023000000000000000e+04 -2.676800000000000000e+04
-5.626000000000000000e+03 -2.404000000000000000e+04
-1.602600000000000000e+04 -1.790200000000000000e+04
-2.045900000000000000e+04 -6.649000000000000000e+03
-1.756100000000000000e+04 6.308000000000000000e+03
-6.649000000000000000e+03 1.176400000000000000e+04
-8.530000000000000000e+02 1.091100000000000000e+04
-5.110000000000000000e+02 8.866000000000000000e+03
2.898000000000000000e+03 3.580000000000000000e+03
1.194000000000000000e+03 4.774000000000000000e+03
3.751000000000000000e+03 3.410000000000000000e+03
4.603000000000000000e+03 5.115000000000000000e+03
8.696000000000000000e+03 -1.364000000000000000e+03
9.036000000000000000e+03 -9.036000000000000000e+03
3.410000000000000000e+02 -1.261700000000000000e+04
-4.944000000000000000e+03 -1.142300000000000000e+04
-1.346900000000000000e+04 -6.991000000000000000e+03
-1.244600000000000000e+04 6.820000000000000000e+02
-9.889000000000000000e+03 5.285000000000000000e+03
-4.262000000000000000e+03 8.525000000000000000e+03
-2.216000000000000000e+03 8.183000000000000000e+03
3.580000000000000000e+03 4.262000000000000000e+03
1.364000000000000000e+03 6.308000000000000000e+03
1.535000000000000000e+03 9.036000000000000000e+03
6.309000000000000000e+03 6.649000000000000000e+03
1.074100000000000000e+04 -1.710000000000000000e+02
1.074100000000000000e+04 -9.036000000000000000e+03
4.774000000000000000e+03 -1.517400000000000000e+04
-3.239000000000000000e+03 -1.329800000000000000e+04
-1.295700000000000000e+04 -7.502000000000000000e+03
