-1.029790000000000000e+05 -1.537860000000000000e+05
-1.097980000000000000e+05 -1.391250000000000000e+05
-1.159360000000000000e+05 -1.212220000000000000e+05
-1.207100000000000000e+05 -1.109930000000000000e+05
-1.241210000000000000e+05 -9.922800000000000000e+04
-1.280420000000000000e+05 -9.104500000000000000e+04
-1.314510000000000000e+05 -8.166700000000000000e+04
-1.362250000000000000e+05 -6.905100000000000000e+04
-1.403170000000000000e+05 -6.461800000000000000e+04
-1.456030000000000000e+05 -5.455900000000000000e+04
-1.529340000000000000e+05 -4.091900000000000000e+04
-1.585600000000000000e+05 -2.898400000000000000e+04
-1.665740000000000000e+05 -1.722000000000000000e+04
-1.691310000000000000e+05 -3.410000000000000000e+02
-1.701540000000000000e+05 1.381000000000000000e+04
-1.699840000000000000e+05 3.750900000000000000e+04
-1.670850000000000000e+05 5.728700000000000000e+04
-1.565140000000000000e+05 7.979200000000000000e+04
-1.449210000000000000e+05 1.012740000000000000e+05
-1.338380000000000000e+05 1.208810000000000000e+05
-1.159360000000000000e+05 1.343500000000000000e+05
-9.513600000000000000e+04 1.447500000000000000e+05
-7.945000000000000000e+04 1.525930000000000000e+05
-5.882000000000000000e+04 1.592420000000000000e+05
-3.767900000000000000e+04 1.609470000000000000e+05
-2.455100000000000000e+04 1.600950000000000000e+05
-1.074100000000000000e+04 1.561730000000000000e+05
1.364000000000000000e+03 1.548090000000000000e+05
1.023000000000000000e+04 1.527640000000000000e+05
2.080100000000000000e+04 1.505480000000000000e+05
3.000800000000000000e+04 1.512290000000000000e+05
4.381700000000000000e+04 1.537870000000000000e+05
5.490000000000000000e+04 1.517400000000000000e+05
6.802700000000000000e+04 1.565140000000000000e+05
8.252000000000000000e+04 1.517410000000000000e+05
1.022970000000000000e+05 1.548090000000000000e+05
1.222450000000000000e+05 1.483310000000000000e+05
1.427050000000000000e+05 1.387830000000000000e+05
1.674260000000000000e+05 1.256550000000000000e+05
1.945350000000000000e+05 1.082640000000000000e+05
2.107320000000000000e+05 8.217800000000000000e+04
2.245420000000000000e+05 5.217100000000000000e+04
2.313620000000000000e+05 2.250500000000000000e+04
2.344310000000000000e+05 -1.568600000000000000e+04
2.327260000000000000e+05 -4.910300000000000000e+04
2.243710000000000000e+05 -8.320100000000000000e+04
2.110730000000000000e+05 -1.159370000000000000e+05
1.933420000000000000e+05 -1.450920000000000000e+05
1.708360000000000000e+05 -1.696420000000000000e+05
1.404880000000000000e+05 -1.953870000000000000e+05
1.133790000000000000e+05 -2.161870000000000000e+05
8.115600000000000000e+04 -2.277810000000000000e+05
4.944400000000000000e+04 -2.398860000000000000e+05
1.773200000000000000e+04 -2.439780000000000000e+05
-1.824300000000000000e+04 -2.477290000000000000e+05
-5.421700000000000000e+04 -2.373290000000000000e+05
-8.678200000000000000e+04 -2.267590000000000000e+05
-1.179830000000000000e+05 -2.059580000000000000e+05
-1.430450000000000000e+05 -1.853290000000000000e+05
-1.674260000000000000e+05 -1.589010000000000000e+05
-1.868630000000000000e+05 -1.283820000000000000e+05
-1.907840000000000000e+05 -9.513600000000000000e+04
-1.960690000000000000e+05 -6.376500000000000000e+04
-1.914660000000000000e+05 -3.222300000000000000e+04
-1.841350000000000000e+05 -2.557000000000000000e+03
-1.716880000000000000e+05 1.909500000000000000e+04
-1.560030000000000000e+05 4.006600000000000000e+04
-1.420220000000000000e+05 5.336500000000000000e+04
-1.287240000000000000e+05 6.427700000000000000e+04
-1.128670000000000000e+05 6.939100000000000000e+04
-9.956900000000000000e+04 7.672300000000000000e+04
-8.951000000000000000e+04 7.791600000000000000e+04
-7.808700000000000000e+04 7.859800000000000000e+04
-7.211900000000000000e+04 8.337200000000000000e+04
-6.581100000000000000e+04 8.490600000000000000e+04
-5.882000000000000000e+04 8.541800000000000000e+04
-5.507000000000000000e+04 8.865700000000000000e+04
-4.671500000000000000e+04 8.916800000000000000e+04
-4.091800000000000000e+04 9.326100000000000000e+04
-3.631500000000000000e+04 9.530700000000000000e+04
-3.154100000000000000e+04 1.019560000000000000e+05
-2.608500000000000000e+04 1.091170000000000000e+05
-1.892500000000000000e+04 1.109920000000000000e+05
-6.819000000000000000e+03 1.150840000000000000e+05
4.262000000000000000e+03 1.181530000000000000e+05
1.381000000000000000e+04 1.213920000000000000e+05
2.813200000000000000e+04 1.256550000000000000e+05
4.006600000000000000e+04 1.237790000000000000e+05
5.217200000000000000e+04 1.230980000000000000e+05
6.751600000000000000e+04 1.219040000000000000e+05
7.928100000000000000e+04 1.167890000000000000e+05
9.428400000000000000e+04 1.106520000000000000e+05
1.048550000000000000e+05 1.046840000000000000e+05
1.200290000000000000e+05 9.615900000000000000e+04
1.307700000000000000e+05 8.473600000000000000e+04
1.411700000000000000e+05 7.109600000000000000e+04
1.495250000000000000e+05 5.865000000000000000e+04
1.600950000000000000e+05 4.364700000000000000e+04
1.686200000000000000e+05 2.762000000000000000e+04
1.723710000000000000e+05 5.115000000000000000e+03
1.791900000000000000e+05 -1.159300000000000000e+04
1.791900000000000000e+05 -3.256400000000000000e+04
1.756100000000000000e+05 -5.865000000000000000e+04
1.716880000000000000e+05 -7.928000000000000000e+04
1.633340000000000000e+05 -1.082640000000000000e+05
1.502060000000000000e+05 -1.319630000000000000e+05
1.329860000000000000e+05 -1.554920000000000000e+05
1.109930000000000000e+05 -1.754390000000000000e+05
8.524800000000000000e+04 -1.965810000000000000e+05
5.813900000000000000e+04 -2.102200000000000000e+05
2.608600000000000000e+04 -2.177220000000000000e+05
-6.819000000000000000e+03 -2.172110000000000000e+05
-4.347600000000000000e+04 -2.153350000000000000e+05
-7.212000000000000000e+04 -2.044240000000000000e+05
-9.905800000000000000e+04 -1.923190000000000000e+05
-1.263370000000000000e+05 -1.742460000000000000e+05
-1.430450000000000000e+05 -1.520810000000000000e+05
-1.578780000000000000e+05 -1.302580000000000000e+05
-1.706660000000000000e+05 -1.029790000000000000e+05
-1.783380000000000000e+05 -7.365400000000000000e+04
-1.829410000000000000e+05 -4.552200000000000000e+04
-1.790200000000000000e+05 -2.233500000000000000e+04
-1.718590000000000000e+05 -8.520000000000000000e+02
-1.641870000000000000e+05 2.063000000000000000e+04
-1.447500000000000000e+05 4.279400000000000000e+04
-1.392940000000000000e+05 5.728700000000000000e+04
-1.236090000000000000e+05 7.041400000000000000e+04
-1.067290000000000000e+05 8.132600000000000000e+04
-9.360200000000000000e+04 8.627100000000000000e+04
-7.859800000000000000e+04 9.087400000000000000e+04
-6.649300000000000000e+04 9.172700000000000000e+04
-5.711500000000000000e+04 8.831700000000000000e+04
-4.876100000000000000e+04 8.814600000000000000e+04
-4.228300000000000000e+04 8.217900000000000000e+04
-3.784900000000000000e+04 8.490700000000000000e+04
-3.017800000000000000e+04 8.252000000000000000e+04
-3.205300000000000000e+04 8.269000000000000000e+04
-3.034800000000000000e+04 8.558900000000000000e+04
-2.864300000000000000e+04 8.899900000000000000e+04
-2.301700000000000000e+04 9.598800000000000000e+04
-1.739000000000000000e+04 9.888700000000000000e+04
-1.057000000000000000e+04 1.048550000000000000e+05
-2.557000000000000000e+03 1.109920000000000000e+05
9.378000000000000000e+03 1.162780000000000000e+05
1.773200000000000000e+04 1.213930000000000000e+05
3.375800000000000000e+04 1.254850000000000000e+05
4.569300000000000000e+04 1.234380000000000000e+05
6.189000000000000000e+04 1.265070000000000000e+05
7.825800000000000000e+04 1.213920000000000000e+05
9.530700000000000000e+04 1.154250000000000000e+05
1.086060000000000000e+05 1.082640000000000000e+05
1.236090000000000000e+05 9.803500000000000000e+04
1.386120000000000000e+05 8.422500000000000000e+04
1.496950000000000000e+05 6.751600000000000000e+04
1.594130000000000000e+05 4.825000000000000000e+04
1.655510000000000000e+05 3.120100000000000000e+04
1.701540000000000000e+05 9.718000000000000000e+03
1.732230000000000000e+05 -1.091200000000000000e+04
1.667450000000000000e+05 -3.120100000000000000e+04
1.618000000000000000e+05 -5.575200000000000000e+04
1.549800000000000000e+05 -7.433500000000000000e+04
1.456030000000000000e+05 -9.547700000000000000e+04
1.370780000000000000e+05 -1.040020000000000000e+05
1.121860000000000000e+05 -1.254840000000000000e+05
9.616000000000000000e+04 -1.415110000000000000e+05
7.723500000000000000e+04 -1.534460000000000000e+05
5.643400000000000000e+04 -1.618000000000000000e+05
3.358700000000000000e+04 -1.643570000000000000e+05
1.057100000000000000e+04 -1.693020000000000000e+05
-1.074100000000000000e+04 -1.715180000000000000e+05
-3.137100000000000000e+04 -1.616290000000000000e+05
-5.592200000000000000e+04 -1.580490000000000000e+05
-7.570000000000000000e+04 -1.517410000000000000e+05
-9.240800000000000000e+04 -1.377600000000000000e+05
-1.060480000000000000e+05 -1.266780000000000000e+05
-1.198580000000000000e+05 -1.111630000000000000e+05
-1.319630000000000000e+05 -9.360100000000000000e+04
-1.394650000000000000e+05 -7.399500000000000000e+04
-1.440690000000000000e+05 -5.677500000000000000e+04
-1.462840000000000000e+05 -3.836200000000000000e+04
-1.461150000000000000e+05 -2.182400000000000000e+04
-1.423640000000000000e+05 -2.557000000000000000e+03
-1.352030000000000000e+05 9.378000000000000000e+03
-1.263370000000000000e+05 2.131200000000000000e+04
-1.173010000000000000e+05 3.461100000000000000e+04
-1.057070000000000000e+05 4.074900000000000000e+04
-9.240800000000000000e+04 4.859100000000000000e+04
-8.320200000000000000e+04 5.353500000000000000e+04
-7.331300000000000000e+04 5.831000000000000000e+04
-6.274200000000000000e+04 6.547000000000000000e+04
-5.404700000000000000e+04 6.274300000000000000e+04
-4.807900000000000000e+04 6.478900000000000000e+04
-3.836100000000000000e+04 6.291200000000000000e+04
-3.750900000000000000e+04 6.308400000000000000e+04
-3.495200000000000000e+04 6.717500000000000000e+04
-3.358700000000000000e+04 6.444700000000000000e+04
-2.881400000000000000e+04 6.444700000000000000e+04
-3.188300000000000000e+04 7.024400000000000000e+04
-3.034800000000000000e+04 7.467700000000000000e+04
-2.591500000000000000e+04 7.876900000000000000e+04
-2.403900000000000000e+04 8.712300000000000000e+04
-1.773100000000000000e+04 9.871700000000000000e+04
-8.013000000000000000e+03 1.096290000000000000e+05
3.069000000000000000e+03 1.212220000000000000e+05
2.045900000000000000e+04 1.297470000000000000e+05
3.921400000000000000e+04 1.343500000000000000e+05
5.831000000000000000e+04 1.382710000000000000e+05
7.825800000000000000e+04 1.367370000000000000e+05
1.038320000000000000e+05 1.345200000000000000e+05
1.254850000000000000e+05 1.234390000000000000e+05
1.450920000000000000e+05 1.092870000000000000e+05
1.607770000000000000e+05 9.189700000000000000e+04
1.739050000000000000e+05 6.836800000000000000e+04
1.836230000000000000e+05 4.160100000000000000e+04
1.868630000000000000e+05 1.500400000000000000e+04
1.892490000000000000e+05 -1.278700000000000000e+04
1.854990000000000000e+05 -4.228300000000000000e+04
1.737340000000000000e+05 -7.382500000000000000e+04
1.594130000000000000e+05 -9.633000000000000000e+04
1.396360000000000000e+05 -1.205400000000000000e+05
1.179830000000000000e+05 -1.456030000000000000e+05
9.002200000000000000e+04 -1.612880000000000000e+05
6.836800000000000000e+04 -1.790200000000000000e+05
3.478100000000000000e+04 -1.875450000000000000e+05
4.092000000000000000e+03 -1.945350000000000000e+05
-2.608500000000000000e+04 -1.943650000000000000e+05
-5.592300000000000000e+04 -1.863510000000000000e+05
-8.047400000000000000e+04 -1.790200000000000000e+05
-1.031500000000000000e+05 -1.606070000000000000e+05
-1.234380000000000000e+05 -1.423640000000000000e+05
-1.386120000000000000e+05 -1.174710000000000000e+05
-1.561740000000000000e+05 -9.581800000000000000e+04
-1.612880000000000000e+05 -6.461700000000000000e+04
-1.631640000000000000e+05 -3.802000000000000000e+04
-1.611180000000000000e+05 -1.568600000000000000e+04
-1.537860000000000000e+05 8.355000000000000000e+03
-1.442390000000000000e+05 2.813200000000000000e+04
-1.328150000000000000e+05 4.467000000000000000e+04
-1.159360000000000000e+05 5.507000000000000000e+04
-9.974000000000000000e+04 6.581200000000000000e+04
-8.507700000000000000e+04 6.905000000000000000e+04
-7.280100000000000000e+04 7.314200000000000000e+04
-5.524100000000000000e+04 7.518800000000000000e+04
-4.825000000000000000e+04 7.928100000000000000e+04
-3.614500000000000000e+04 7.706400000000000000e+04
-2.727900000000000000e+04 7.314300000000000000e+04
-1.892500000000000000e+04 7.570000000000000000e+04
-1.210500000000000000e+04 7.416500000000000000e+04
-6.479000000000000000e+03 7.041400000000000000e+04
-5.110000000000000000e+02 7.007300000000000000e+04
1.364000000000000000e+03 6.768600000000000000e+04
8.866000000000000000e+03 7.075500000000000000e+04
1.312800000000000000e+04 6.734500000000000000e+04
1.653800000000000000e+04 6.871000000000000000e+04
2.011800000000000000e+04 7.126600000000000000e+04
2.301700000000000000e+04 6.956200000000000000e+04
2.915500000000000000e+04 7.314200000000000000e+04
3.017700000000000000e+04 7.672200000000000000e+04
3.972500000000000000e+04 7.638200000000000000e+04
4.569300000000000000e+04 7.842800000000000000e+04
5.063700000000000000e+04 7.672200000000000000e+04
5.728700000000000000e+04 7.706400000000000000e+04
6.325400000000000000e+04 7.928000000000000000e+04
7.365400000000000000e+04 7.297200000000000000e+04
8.524800000000000000e+04 7.194800000000000000e+04
9.547800000000000000e+04 6.666300000000000000e+04
1.086050000000000000e+05 6.223100000000000000e+04
1.166190000000000000e+05 5.472900000000000000e+04
1.271900000000000000e+05 4.381700000000000000e+04
1.384420000000000000e+05 3.017700000000000000e+04
1.491830000000000000e+05 1.466300000000000000e+04
1.561730000000000000e+05 -4.944000000000000000e+03
1.570260000000000000e+05 -3.188300000000000000e+04
1.565150000000000000e+05 -5.489900000000000000e+04
1.503770000000000000e+05 -8.081500000000000000e+04
1.387830000000000000e+05 -1.094570000000000000e+05
1.225860000000000000e+05 -1.316220000000000000e+05
1.050250000000000000e+05 -1.577080000000000000e+05
7.689300000000000000e+04 -1.768030000000000000e+05
4.927300000000000000e+04 -1.882270000000000000e+05
1.841400000000000000e+04 -2.010130000000000000e+05
-1.415100000000000000e+04 -2.018660000000000000e+05
-4.057800000000000000e+04 -2.018660000000000000e+05
-6.836800000000000000e+04 -1.974330000000000000e+05
-9.667000000000000000e+04 -1.846460000000000000e+05
-1.191760000000000000e+05 -1.691310000000000000e+05
-1.411700000000000000e+05 -1.495240000000000000e+05
-1.546390000000000000e+05 -1.275300000000000000e+05
-1.704950000000000000e+05 -1.026380000000000000e+05
-1.771440000000000000e+05 -7.774500000000000000e+04
-1.849870000000000000e+05 -5.353500000000000000e+04
-1.865220000000000000e+05 -2.267600000000000000e+04
-1.820890000000000000e+05 5.115000000000000000e+03
-1.718590000000000000e+05 3.086000000000000000e+04
-1.633340000000000000e+05 5.541000000000000000e+04
-1.486710000000000000e+05 7.484700000000000000e+04
-1.311100000000000000e+05 9.275000000000000000e+04
-1.128680000000000000e+05 1.087760000000000000e+05
-8.865700000000000000e+04 1.201990000000000000e+05
-6.512900000000000000e+04 1.246320000000000000e+05
-4.467000000000000000e+04 1.237800000000000000e+05
-2.676800000000000000e+04 1.195170000000000000e+05
-1.005900000000000000e+04 1.135500000000000000e+05
4.604000000000000000e+03 1.065600000000000000e+05
1.585600000000000000e+04 9.616000000000000000e+04
2.080100000000000000e+04 8.490600000000000000e+04
2.557400000000000000e+04 8.166700000000000000e+04
2.966600000000000000e+04 7.382400000000000000e+04
3.239400000000000000e+04 6.734600000000000000e+04
3.478100000000000000e+04 6.052600000000000000e+04
3.409900000000000000e+04 5.711600000000000000e+04
3.205300000000000000e+04 5.592200000000000000e+04
2.966600000000000000e+04 5.149000000000000000e+04
3.648600000000000000e+04 5.131900000000000000e+04
3.478100000000000000e+04 5.421700000000000000e+04
3.563400000000000000e+04 5.370600000000000000e+04
4.006600000000000000e+04 5.285400000000000000e+04
4.074800000000000000e+04 4.893200000000000000e+04
4.330600000000000000e+04 5.404700000000000000e+04
4.773900000000000000e+04 4.722700000000000000e+04
5.404700000000000000e+04 5.063700000000000000e+04
5.472900000000000000e+04 4.688600000000000000e+04
5.899200000000000000e+04 4.808000000000000000e+04
6.427700000000000000e+04 4.756800000000000000e+04
7.075500000000000000e+04 3.887300000000000000e+04
7.553000000000000000e+04 3.682700000000000000e+04
8.183800000000000000e+04 3.051900000000000000e+04
8.661200000000000000e+04 2.267600000000000000e+04
8.814600000000000000e+04 1.449200000000000000e+04
9.564800000000000000e+04 6.138000000000000000e+03
9.667100000000000000e+04 -3.239000000000000000e+03
9.769400000000000000e+04 -1.142300000000000000e+04
9.684200000000000000e+04 -1.977700000000000000e+04
9.530700000000000000e+04 -3.341700000000000000e+04
9.564800000000000000e+04 -4.023700000000000000e+04
9.240900000000000000e+04 -5.183100000000000000e+04
8.354300000000000000e+04 -6.001400000000000000e+04
7.842800000000000000e+04 -7.229000000000000000e+04
7.177800000000000000e+04 -8.320200000000000000e+04
5.950300000000000000e+04 -9.172600000000000000e+04
4.773900000000000000e+04 -1.034900000000000000e+05
3.512200000000000000e+04 -1.113330000000000000e+05
2.421100000000000000e+04 -1.126970000000000000e+05
4.092000000000000000e+03 -1.220750000000000000e+05
-9.547000000000000000e+03 -1.210520000000000000e+05
-2.745000000000000000e+04 -1.225860000000000000e+05
-4.313500000000000000e+04 -1.137200000000000000e+05
-5.643400000000000000e+04 -1.051950000000000000e+05
-6.956200000000000000e+04 -9.496600000000000000e+04
-7.450600000000000000e+04 -8.047400000000000000e+04
4.433000000000000000e+03 -9.548000000000000000e+03
8.866000000000000000e+03 -1.534500000000000000e+04
1.295800000000000000e+04 -1.278800000000000000e+04
1.261700000000000000e+04 -1.534500000000000000e+04
1.023000000000000000e+04 -1.534400000000000000e+04
5.456000000000000000e+03 -1.381000000000000000e+04
1.705000000000000000e+03 -1.449300000000000000e+04
-1.710000000000000000e+02 -1.381000000000000000e+04
-6.649000000000000000e+03 -1.653800000000000000e+04
-7.672000000000000000e+03 -1.398000000000000000e+04
-8.184000000000000000e+03 -1.500400000000000000e+04
-1.466300000000000000e+04 -1.261700000000000000e+04
-1.619700000000000000e+04 -1.261700000000000000e+04
-1.585600000000000000e+04 -1.312800000000000000e+04
-1.312900000000000000e+04 -8.013000000000000000e+03
-1.210600000000000000e+04 -7.331000000000000000e+03
-1.125200000000000000e+04 1.705000000000000000e+03
-2.148200000000000000e+04 6.990000000000000000e+03
-1.790200000000000000e+04 4.603000000000000000e+03
-1.619700000000000000e+04 6.138000000000000000e+03
-1.244700000000000000e+04 6.308000000000000000e+03
-1.159400000000000000e+04 5.797000000000000000e+03
-9.719000000000000000e+03 7.672000000000000000e+03
-1.261600000000000000e+04 3.921000000000000000e+03
-1.159400000000000000e+04 3.240000000000000000e+03
-9.718000000000000000e+03 2.727000000000000000e+03
-7.502000000000000000e+03 2.728000000000000000e+03
-1.057100000000000000e+04 4.433000000000000000e+03
-5.456000000000000000e+03 4.262000000000000000e+03
-8.184000000000000000e+03 9.889000000000000000e+03
-8.013000000000000000e+03 1.057100000000000000e+04
-1.142300000000000000e+04 9.889000000000000000e+03
-9.378000000000000000e+03 9.548000000000000000e+03
-1.057100000000000000e+04 1.108200000000000000e+04
-1.023000000000000000e+04 1.381100000000000000e+04
-8.354000000000000000e+03 1.585600000000000000e+04
-8.184000000000000000e+03 1.551500000000000000e+04
-7.332000000000000000e+03 1.875500000000000000e+04
-6.820000000000000000e+03 1.841400000000000000e+04
-3.068000000000000000e+03 2.199400000000000000e+04
2.045000000000000000e+03 2.352800000000000000e+04
5.627000000000000000e+03 2.506300000000000000e+04
8.355000000000000000e+03 2.506300000000000000e+04
1.449200000000000000e+04 2.301700000000000000e+04
1.739000000000000000e+04 2.284600000000000000e+04
2.182300000000000000e+04 2.165300000000000000e+04
2.045900000000000000e+04 2.216400000000000000e+04
2.966600000000000000e+04 1.773200000000000000e+04
3.341700000000000000e+04 1.602700000000000000e+04
3.665700000000000000e+04 1.159400000000000000e+04
3.767900000000000000e+04 8.696000000000000000e+03
3.955400000000000000e+04 2.899000000000000000e+03
4.194200000000000000e+04 -3.069000000000000000e+03
4.313500000000000000e+04 -6.478000000000000000e+03
4.330600000000000000e+04 -1.312800000000000000e+04
4.501000000000000000e+04 -1.756100000000000000e+04
4.091800000000000000e+04 -2.216400000000000000e+04
3.802000000000000000e+04 -3.017800000000000000e+04
3.614500000000000000e+04 -1.534400000000000000e+04
2.830200000000000000e+04 -3.682700000000000000e+04
2.131200000000000000e+04 -4.637400000000000000e+04
1.722000000000000000e+04 -4.944300000000000000e+04
9.718000000000000000e+03 -5.234200000000000000e+04
8.520000000000000000e+02 -5.472900000000000000e+04
-6.138000000000000000e+03 -5.353600000000000000e+04
-1.773100000000000000e+04 -5.336500000000000000e+04
-2.727900000000000000e+04 -4.859100000000000000e+04
-3.375800000000000000e+04 -4.637400000000000000e+04
-3.904300000000000000e+04 -4.040800000000000000e+04
-5.149000000000000000e+04 -3.154200000000000000e+04
-5.575100000000000000e+04 -2.506300000000000000e+04
-5.711600000000000000e+04 -2.148300000000000000e+04
-5.967300000000000000e+04 -9.888000000000000000e+03
-5.831000000000000000e+04 -4.433000000000000000e+03
-5.933200000000000000e+04 2.387000000000000000e+03
-5.694500000000000000e+04 6.479000000000000000e+03
-5.575100000000000000e+04 1.381000000000000000e+04
-5.131900000000000000e+04 1.909600000000000000e+04
-4.535200000000000000e+04 2.472200000000000000e+04
-4.330600000000000000e+04 3.017800000000000000e+04
-3.870200000000000000e+04 3.120100000000000000e+04
-3.273500000000000000e+04 3.631500000000000000e+04
-2.745000000000000000e+04 3.461000000000000000e+04
-2.267500000000000000e+04 3.324600000000000000e+04
-1.875400000000000000e+04 3.563400000000000000e+04
-1.466300000000000000e+04 3.665600000000000000e+04
-1.159300000000000000e+04 3.478100000000000000e+04
-1.210500000000000000e+04 3.375800000000000000e+04
-7.502000000000000000e+03 3.461100000000000000e+04
-9.036000000000000000e+03 3.665600000000000000e+04
-3.921000000000000000e+03 3.648600000000000000e+04
-6.820000000000000000e+02 3.921400000000000000e+04
-1.023000000000000000e+03 4.126000000000000000e+04
6.649000000000000000e+03 4.398800000000000000e+04
6.820000000000000000e+03 4.108900000000000000e+04
1.210500000000000000e+04 4.211300000000000000e+04
1.568600000000000000e+04 4.194200000000000000e+04
1.875400000000000000e+04 4.262400000000000000e+04
2.625700000000000000e+04 4.347600000000000000e+04
3.392800000000000000e+04 4.296500000000000000e+04
4.296500000000000000e+04 4.040700000000000000e+04
4.876200000000000000e+04 4.023700000000000000e+04
5.217200000000000000e+04 3.358800000000000000e+04
6.291300000000000000e+04 2.949600000000000000e+04
6.649300000000000000e+04 2.915500000000000000e+04
7.655200000000000000e+04 1.875500000000000000e+04
8.183800000000000000e+04 8.695000000000000000e+03
8.388400000000000000e+04 1.023000000000000000e+03
8.780500000000000000e+04 -6.138000000000000000e+03
8.593000000000000000e+04 -1.619700000000000000e+04
8.507700000000000000e+04 -3.034800000000000000e+04
8.422500000000000000e+04 -4.330600000000000000e+04
9.513600000000000000e+04 1.670800000000000000e+04
1.002510000000000000e+05 5.967000000000000000e+03
1.000800000000000000e+05 -5.285000000000000000e+03
1.028090000000000000e+05 -1.841400000000000000e+04
9.513600000000000000e+04 -3.375800000000000000e+04
9.104500000000000000e+04 -4.415800000000000000e+04
8.456500000000000000e+04 -5.541100000000000000e+04
7.774500000000000000e+04 -6.359500000000000000e+04
6.836900000000000000e+04 -7.297200000000000000e+04
5.370500000000000000e+04 -8.030300000000000000e+04
4.381700000000000000e+04 -8.712300000000000000e+04
2.642700000000000000e+04 -8.951000000000000000e+04
1.449200000000000000e+04 -9.189700000000000000e+04
0.000000000000000000e+00 -9.496600000000000000e+04
-1.449200000000000000e+04 -9.274900000000000000e+04
-2.779100000000000000e+04 -8.916900000000000000e+04
-3.836100000000000000e+04 -8.371300000000000000e+04
-5.080800000000000000e+04 -7.672200000000000000e+04
-5.882100000000000000e+04 -6.922100000000000000e+04
-7.126700000000000000e+04 -6.189000000000000000e+04
-7.655300000000000000e+04 -5.438700000000000000e+04
-8.439500000000000000e+04 -4.262300000000000000e+04
-8.814600000000000000e+04 -2.949500000000000000e+04
-8.661200000000000000e+04 -1.807300000000000000e+04
-8.797500000000000000e+04 -9.547000000000000000e+03
-8.780500000000000000e+04 3.410000000000000000e+02
-8.337200000000000000e+04 1.176500000000000000e+04
-7.859900000000000000e+04 1.977800000000000000e+04
-7.058500000000000000e+04 2.540400000000000000e+04
-6.615300000000000000e+04 3.256500000000000000e+04
-6.001500000000000000e+04 3.409900000000000000e+04
-5.183000000000000000e+04 3.802000000000000000e+04
-4.978500000000000000e+04 3.853200000000000000e+04
-4.160100000000000000e+04 3.904300000000000000e+04
-3.512200000000000000e+04 4.143100000000000000e+04
-3.392800000000000000e+04 3.887300000000000000e+04
-2.966600000000000000e+04 3.597500000000000000e+04
-2.676800000000000000e+04 3.529200000000000000e+04
