1.232680000000000000e+05 -9.384050000000000000e+05
-3.234290000000000000e+05 -9.407920000000000000e+05
-5.871850000000000000e+05 -8.308230000000000000e+05
-7.660350000000000000e+05 -6.920400000000000000e+05
-8.950990000000000000e+05 -5.464370000000000000e+05
-9.748910000000000000e+05 -3.938430000000000000e+05
-1.027403000000000000e+06 -2.506270000000000000e+05
-1.054853000000000000e+06 -1.164480000000000000e+05
-1.062696000000000000e+06 2.080000000000000000e+04
-1.049056000000000000e+06 1.577080000000000000e+05
-1.030984000000000000e+06 2.872840000000000000e+05
-9.883600000000000000e+05 4.114050000000000000e+05
-9.329490000000000000e+05 5.268290000000000000e+05
-8.673080000000000000e+05 6.391870000000000000e+05
-7.861530000000000000e+05 7.397780000000000000e+05
-6.889710000000000000e+05 8.384950000000000000e+05
-5.847980000000000000e+05 9.193100000000000000e+05
-4.659630000000000000e+05 9.869960000000000000e+05
-3.285440000000000000e+05 1.040873000000000000e+06
-1.827700000000000000e+05 1.072414000000000000e+06
-2.182300000000000000e+04 1.079235000000000000e+06
1.525930000000000000e+05 1.048204000000000000e+06
3.222360000000000000e+05 9.762560000000000000e+05
4.739760000000000000e+05 8.517940000000000000e+05
5.743980000000000000e+05 6.795940000000000000e+05
6.105430000000000000e+05 4.847180000000000000e+05
5.783190000000000000e+05 2.923990000000000000e+05
4.825020000000000000e+05 1.370790000000000000e+05
3.556530000000000000e+05 4.023700000000000000e+04
2.282930000000000000e+05 6.138000000000000000e+03
1.176420000000000000e+05 1.653800000000000000e+04
3.068900000000000000e+04 5.472800000000000000e+04
-2.659800000000000000e+04 1.087750000000000000e+05
-6.120700000000000000e+04 1.715180000000000000e+05
-7.621200000000000000e+04 2.291450000000000000e+05
-7.399500000000000000e+04 2.876250000000000000e+05
-5.950300000000000000e+04 3.416720000000000000e+05
-3.478100000000000000e+04 3.863410000000000000e+05
-1.363000000000000000e+03 4.282840000000000000e+05
3.853100000000000000e+04 4.596540000000000000e+05
8.405400000000000000e+04 4.872750000000000000e+05
1.324750000000000000e+05 5.079050000000000000e+05
1.817480000000000000e+05 5.212040000000000000e+05
2.325550000000000000e+05 5.310920000000000000e+05
2.888180000000000000e+05 5.396170000000000000e+05
3.455940000000000000e+05 5.334790000000000000e+05
4.008340000000000000e+05 5.273410000000000000e+05
4.617000000000000000e+05 5.046660000000000000e+05
5.184750000000000000e+05 4.947770000000000000e+05
5.769550000000000000e+05 4.686910000000000000e+05
6.330480000000000000e+05 4.359560000000000000e+05
6.879480000000000000e+05 3.943550000000000000e+05
7.389260000000000000e+05 3.466160000000000000e+05
7.904150000000000000e+05 2.915460000000000000e+05
8.355970000000000000e+05 2.267590000000000000e+05
8.741290000000000000e+05 1.524230000000000000e+05
9.060120000000000000e+05 7.177800000000000000e+04
9.326080000000000000e+05 -1.534500000000000000e+04
9.424970000000000000e+05 -1.108210000000000000e+05
9.428380000000000000e+05 -2.086860000000000000e+05
9.281750000000000000e+05 -3.108120000000000000e+05
9.015780000000000000e+05 -4.165190000000000000e+05
8.582720000000000000e+05 -5.212040000000000000e+05
7.963830000000000000e+05 -6.209430000000000000e+05
7.215350000000000000e+05 -7.107940000000000000e+05
6.308320000000000000e+05 -7.895620000000000000e+05
5.285350000000000000e+05 -8.575900000000000000e+05
4.218050000000000000e+05 -9.083980000000000000e+05
3.120060000000000000e+05 -9.384050000000000000e+05
1.984560000000000000e+05 -9.525560000000000000e+05
9.428300000000000000e+04 -9.498290000000000000e+05
-8.013000000000000000e+03 -9.300510000000000000e+05
-1.005930000000000000e+05 -8.983390000000000000e+05
-1.819190000000000000e+05 -8.570790000000000000e+05
-2.603460000000000000e+05 -8.038840000000000000e+05
-3.184850000000000000e+05 -7.454050000000000000e+05
-3.680980000000000000e+05 -6.850490000000000000e+05
-4.061190000000000000e+05 -6.200910000000000000e+05
-4.333990000000000000e+05 -5.605880000000000000e+05
-4.557330000000000000e+05 -4.985270000000000000e+05
-4.669860000000000000e+05 -4.395360000000000000e+05
-4.698840000000000000e+05 -3.779880000000000000e+05
-4.674980000000000000e+05 -3.276920000000000000e+05
-4.572680000000000000e+05 -2.750090000000000000e+05
-4.451630000000000000e+05 -2.250540000000000000e+05
-4.264090000000000000e+05 -1.812360000000000000e+05
-4.074830000000000000e+05 -1.435570000000000000e+05
-3.827610000000000000e+05 -1.048540000000000000e+05
-3.541180000000000000e+05 -7.501700000000000000e+04
-3.227470000000000000e+05 -5.183100000000000000e+04
-2.831930000000000000e+05 -3.137100000000000000e+04
-2.509690000000000000e+05 -1.670900000000000000e+04
-2.126080000000000000e+05 -9.377000000000000000e+03
-1.675970000000000000e+05 -1.381000000000000000e+04
-1.294060000000000000e+05 -2.574500000000000000e+04
-8.950900000000000000e+04 -4.893300000000000000e+04
-5.404700000000000000e+04 -8.405400000000000000e+04
-2.625600000000000000e+04 -1.352030000000000000e+05
-1.329800000000000000e+04 -1.993090000000000000e+05
-1.602600000000000000e+04 -2.792710000000000000e+05
-4.722800000000000000e+04 -3.617900000000000000e+05
-1.113330000000000000e+05 -4.455040000000000000e+05
-2.066400000000000000e+05 -5.183050000000000000e+05
-3.331480000000000000e+05 -5.593950000000000000e+05
-4.664740000000000000e+05 -5.645090000000000000e+05
-5.878680000000000000e+05 -5.205220000000000000e+05
-6.930630000000000000e+05 -4.451630000000000000e+05
-7.697860000000000000e+05 -3.505380000000000000e+05
-8.202520000000000000e+05 -2.450010000000000000e+05
-8.494070000000000000e+05 -1.406580000000000000e+05
-8.519640000000000000e+05 -3.665600000000000000e+04
-8.413930000000000000e+05 5.455900000000000000e+04
-8.188880000000000000e+05 1.398060000000000000e+05
-7.909270000000000000e+05 2.172100000000000000e+05
-7.597270000000000000e+05 2.864320000000000000e+05
-7.203420000000000000e+05 3.462760000000000000e+05
-6.838560000000000000e+05 4.033920000000000000e+05
-6.391870000000000000e+05 4.519830000000000000e+05
-5.982670000000000000e+05 4.971640000000000000e+05
-5.517220000000000000e+05 5.377420000000000000e+05
-5.106330000000000000e+05 5.745680000000000000e+05
-4.632360000000000000e+05 6.148050000000000000e+05
-4.141330000000000000e+05 6.432780000000000000e+05
-3.672460000000000000e+05 6.724330000000000000e+05
-3.195070000000000000e+05 6.951090000000000000e+05
-2.729630000000000000e+05 7.182960000000000000e+05
-2.178930000000000000e+05 7.409710000000000000e+05
-1.694720000000000000e+05 7.571690000000000000e+05
-1.171300000000000000e+05 7.747290000000000000e+05
-6.683400000000000000e+04 7.851300000000000000e+05
-1.312800000000000000e+04 7.945070000000000000e+05
4.228300000000000000e+04 8.009860000000000000e+05
1.004210000000000000e+05 8.021790000000000000e+05
1.532750000000000000e+05 8.014980000000000000e+05
2.097090000000000000e+05 7.977460000000000000e+05
2.710870000000000000e+05 7.890520000000000000e+05
3.256450000000000000e+05 7.752410000000000000e+05
3.810560000000000000e+05 7.585320000000000000e+05
4.385130000000000000e+05 7.334700000000000000e+05
4.896620000000000000e+05 7.065310000000000000e+05
5.460950000000000000e+05 6.732850000000000000e+05
5.948570000000000000e+05 6.320250000000000000e+05
6.436200000000000000e+05 5.846280000000000000e+05
6.918690000000000000e+05 5.341610000000000000e+05
7.333000000000000000e+05 4.738060000000000000e+05
7.667160000000000000e+05 4.042440000000000000e+05
7.984280000000000000e+05 3.346820000000000000e+05
8.153080000000000000e+05 2.571060000000000000e+05
8.262190000000000000e+05 1.776550000000000000e+05
8.299700000000000000e+05 9.530700000000000000e+04
8.115560000000000000e+05 1.705000000000000000e+03
7.825730000000000000e+05 -8.507800000000000000e+04
7.385840000000000000e+05 -1.643570000000000000e+05
6.818100000000000000e+05 -2.424440000000000000e+05
6.064510000000000000e+05 -3.092790000000000000e+05
5.177930000000000000e+05 -3.447410000000000000e+05
4.282830000000000000e+05 -3.641770000000000000e+05
3.421830000000000000e+05 -3.559940000000000000e+05
2.693820000000000000e+05 -3.179740000000000000e+05
2.213030000000000000e+05 -2.635850000000000000e+05
2.005030000000000000e+05 -1.984570000000000000e+05
2.109030000000000000e+05 -1.406580000000000000e+05
2.468760000000000000e+05 -9.786500000000000000e+04
2.889890000000000000e+05 -7.757500000000000000e+04
3.345110000000000000e+05 -7.706400000000000000e+04
3.774760000000000000e+05 -9.223800000000000000e+04
4.110640000000000000e+05 -1.234380000000000000e+05
4.327170000000000000e+05 -1.621410000000000000e+05
4.458450000000000000e+05 -2.054470000000000000e+05
4.528350000000000000e+05 -2.521620000000000000e+05
4.456750000000000000e+05 -2.975140000000000000e+05
4.306710000000000000e+05 -3.484920000000000000e+05
4.132800000000000000e+05 -3.928210000000000000e+05
3.912870000000000000e+05 -4.364680000000000000e+05
3.694630000000000000e+05 -4.833540000000000000e+05
3.253050000000000000e+05 -5.143840000000000000e+05
2.918880000000000000e+05 -5.466080000000000000e+05
2.514810000000000000e+05 -5.817290000000000000e+05
2.136300000000000000e+05 -6.064510000000000000e+05
1.689600000000000000e+05 -6.310030000000000000e+05
1.220750000000000000e+05 -6.538490000000000000e+05
7.996200000000000000e+04 -6.698760000000000000e+05
3.051900000000000000e+04 -6.857320000000000000e+05
-2.046000000000000000e+04 -6.961320000000000000e+05
-6.853900000000000000e+04 -7.003940000000000000e+05
-1.202000000000000000e+05 -7.073850000000000000e+05
-1.696430000000000000e+05 -7.055090000000000000e+05
-2.236900000000000000e+05 -7.032930000000000000e+05
-2.782480000000000000e+05 -6.932330000000000000e+05
-3.254760000000000000e+05 -6.852200000000000000e+05
-3.795220000000000000e+05 -6.669770000000000000e+05
-4.286250000000000000e+05 -6.446420000000000000e+05
-4.732950000000000000e+05 -6.199200000000000000e+05
-5.223970000000000000e+05 -5.917890000000000000e+05
-5.679190000000000000e+05 -5.607580000000000000e+05
-6.079850000000000000e+05 -5.194990000000000000e+05
-6.507800000000000000e+05 -4.763630000000000000e+05
-6.836850000000000000e+05 -4.294770000000000000e+05
-7.126690000000000000e+05 -3.725320000000000000e+05
-7.346630000000000000e+05 -3.162680000000000000e+05
-7.549530000000000000e+05 -2.565950000000000000e+05
-7.636470000000000000e+05 -1.897620000000000000e+05
-7.706370000000000000e+05 -1.225860000000000000e+05
-7.673990000000000000e+05 -5.387700000000000000e+04
-7.558050000000000000e+05 1.500300000000000000e+04
-7.396070000000000000e+05 8.166700000000000000e+04
-7.148860000000000000e+05 1.456030000000000000e+05
-6.787410000000000000e+05 2.068100000000000000e+05
-6.420850000000000000e+05 2.658020000000000000e+05
-5.998010000000000000e+05 3.145630000000000000e+05
-5.471190000000000000e+05 3.616200000000000000e+05
-4.956290000000000000e+05 4.033920000000000000e+05
-4.407300000000000000e+05 4.323760000000000000e+05
-3.839550000000000000e+05 4.545400000000000000e+05
-3.273510000000000000e+05 4.693730000000000000e+05
-2.683590000000000000e+05 4.770450000000000000e+05
-2.139710000000000000e+05 4.796030000000000000e+05
-1.594120000000000000e+05 4.722720000000000000e+05
-1.111620000000000000e+05 4.569270000000000000e+05
-6.836900000000000000e+04 4.352740000000000000e+05
-2.830200000000000000e+04 4.083360000000000000e+05
3.410000000000000000e+03 3.738960000000000000e+05
2.250600000000000000e+04 3.346810000000000000e+05
3.358800000000000000e+04 2.917170000000000000e+05
2.506300000000000000e+04 2.525030000000000000e+05
1.176400000000000000e+04 2.189160000000000000e+05
-1.312800000000000000e+04 1.952170000000000000e+05
-4.194200000000000000e+04 1.890790000000000000e+05
-6.700400000000000000e+04 1.974330000000000000e+05
-8.541800000000000000e+04 2.172100000000000000e+05
-9.206800000000000000e+04 2.361360000000000000e+05
-9.104400000000000000e+04 2.649490000000000000e+05
-8.132600000000000000e+04 2.893300000000000000e+05
-6.308300000000000000e+04 3.121760000000000000e+05
-4.194200000000000000e+04 3.268390000000000000e+05
-1.619800000000000000e+04 3.404790000000000000e+05
6.820000000000000000e+03 3.478100000000000000e+05
3.307700000000000000e+04 3.508790000000000000e+05
5.813900000000000000e+04 3.515610000000000000e+05
8.030400000000000000e+04 3.529250000000000000e+05
1.026380000000000000e+05 3.503670000000000000e+05
1.259960000000000000e+05 3.438880000000000000e+05
1.442390000000000000e+05 3.374100000000000000e+05
1.675970000000000000e+05 3.290550000000000000e+05
1.841350000000000000e+05 3.193370000000000000e+05
2.005020000000000000e+05 3.091080000000000000e+05
2.189160000000000000e+05 2.999010000000000000e+05
2.339200000000000000e+05 2.864310000000000000e+05
2.485820000000000000e+05 2.736450000000000000e+05
2.623920000000000000e+05 2.618810000000000000e+05
2.750090000000000000e+05 2.513100000000000000e+05
2.876260000000000000e+05 2.397160000000000000e+05
2.999010000000000000e+05 2.230080000000000000e+05
3.126880000000000000e+05 2.119250000000000000e+05
3.227480000000000000e+05 1.958990000000000000e+05
3.363870000000000000e+05 1.797010000000000000e+05
3.449120000000000000e+05 1.640160000000000000e+05
3.600860000000000000e+05 1.450910000000000000e+05
3.672470000000000000e+05 1.251430000000000000e+05
3.805450000000000000e+05 1.060480000000000000e+05
3.865130000000000000e+05 8.678200000000000000e+04
3.935030000000000000e+05 6.751600000000000000e+04
4.033920000000000000e+05 3.887200000000000000e+04
4.093590000000000000e+05 1.670800000000000000e+04
4.144740000000000000e+05 -8.866000000000000000e+03
4.182240000000000000e+05 -3.989600000000000000e+04
4.238510000000000000e+05 -7.160800000000000000e+04
4.177130000000000000e+05 -1.043430000000000000e+05
4.170310000000000000e+05 -1.384420000000000000e+05
4.114050000000000000e+05 -1.786790000000000000e+05
4.008340000000000000e+05 -2.167000000000000000e+05
3.819090000000000000e+05 -2.562550000000000000e+05
3.646900000000000000e+05 -2.990490000000000000e+05
3.319540000000000000e+05 -3.380920000000000000e+05
2.988780000000000000e+05 -3.762830000000000000e+05
2.543790000000000000e+05 -4.095300000000000000e+05
2.011840000000000000e+05 -4.354440000000000000e+05
1.490130000000000000e+05 -4.543700000000000000e+05
8.593000000000000000e+04 -4.673280000000000000e+05
2.472200000000000000e+04 -4.628940000000000000e+05
-3.205300000000000000e+04 -4.426050000000000000e+05
-7.996200000000000000e+04 -4.137920000000000000e+05
-1.227560000000000000e+05 -3.767950000000000000e+05
-1.491830000000000000e+05 -3.326360000000000000e+05
-1.652090000000000000e+05 -2.866020000000000000e+05
-1.727110000000000000e+05 -2.444900000000000000e+05
-1.657210000000000000e+05 -2.068110000000000000e+05
-1.500350000000000000e+05 -1.727120000000000000e+05
-1.338380000000000000e+05 -1.456030000000000000e+05
-1.178120000000000000e+05 -1.232680000000000000e+05
-9.667000000000000000e+04 -1.132090000000000000e+05
-7.689300000000000000e+04 -1.029790000000000000e+05
-5.711600000000000000e+04 -1.033200000000000000e+05
-4.023700000000000000e+04 -1.063890000000000000e+05
-2.642600000000000000e+04 -1.115040000000000000e+05
-1.704900000000000000e+04 -1.251430000000000000e+05
-9.547000000000000000e+03 -1.416820000000000000e+05
-6.137000000000000000e+03 -1.556620000000000000e+05
-6.137000000000000000e+03 -1.747570000000000000e+05
-1.074100000000000000e+04 -1.919770000000000000e+05
-2.148300000000000000e+04 -2.103910000000000000e+05
-3.137100000000000000e+04 -2.267590000000000000e+05
-5.063700000000000000e+04 -2.407390000000000000e+05
-6.853900000000000000e+04 -2.514810000000000000e+05
-9.257900000000000000e+04 -2.588110000000000000e+05
-1.144020000000000000e+05 -2.693830000000000000e+05
-1.399760000000000000e+05 -2.692120000000000000e+05
-1.677670000000000000e+05 -2.668250000000000000e+05
-1.960690000000000000e+05 -2.603460000000000000e+05
-2.160170000000000000e+05 -2.513100000000000000e+05
-2.424440000000000000e+05 -2.403980000000000000e+05
-2.639260000000000000e+05 -2.228380000000000000e+05
-2.837040000000000000e+05 -2.040830000000000000e+05
-3.007530000000000000e+05 -1.861810000000000000e+05
-3.179730000000000000e+05 -1.595830000000000000e+05
-3.293970000000000000e+05 -1.340100000000000000e+05
-3.372390000000000000e+05 -1.079230000000000000e+05
-3.437180000000000000e+05 -8.047400000000000000e+04
-3.467870000000000000e+05 -5.472900000000000000e+04
-3.476400000000000000e+05 -2.438100000000000000e+04
-3.461050000000000000e+05 1.364000000000000000e+03
-3.426950000000000000e+05 3.017700000000000000e+04
-3.343410000000000000e+05 5.507000000000000000e+04
-3.259860000000000000e+05 8.234900000000000000e+04
-3.154160000000000000e+05 1.065600000000000000e+05
-3.033110000000000000e+05 1.285530000000000000e+05
-2.922290000000000000e+05 1.549800000000000000e+05
-2.746680000000000000e+05 1.745870000000000000e+05
-2.547190000000000000e+05 1.957290000000000000e+05
-2.361360000000000000e+05 2.119260000000000000e+05
-2.155060000000000000e+05 2.284630000000000000e+05
-1.930000000000000000e+05 2.414210000000000000e+05
-1.687900000000000000e+05 2.521620000000000000e+05
-1.447510000000000000e+05 2.627330000000000000e+05
-1.224150000000000000e+05 2.705760000000000000e+05
-9.684100000000000000e+04 2.744970000000000000e+05
-6.888000000000000000e+04 2.777370000000000000e+05
-4.569200000000000000e+04 2.760310000000000000e+05
-2.097100000000000000e+04 2.777370000000000000e+05
3.921000000000000000e+03 2.710870000000000000e+05
2.898400000000000000e+04 2.647790000000000000e+05
4.927300000000000000e+04 2.521620000000000000e+05
7.058500000000000000e+04 2.407400000000000000e+05
8.968000000000000000e+04 2.267580000000000000e+05
1.082640000000000000e+05 2.051060000000000000e+05
1.254840000000000000e+05 1.868630000000000000e+05
1.348620000000000000e+05 1.640170000000000000e+05
1.452620000000000000e+05 1.374190000000000000e+05
1.481600000000000000e+05 1.130380000000000000e+05
1.403180000000000000e+05 8.644100000000000000e+04
1.334970000000000000e+05 6.154900000000000000e+04
1.227570000000000000e+05 4.245400000000000000e+04
1.045140000000000000e+05 2.591600000000000000e+04
8.899900000000000000e+04 1.926600000000000000e+04
7.092600000000000000e+04 1.346900000000000000e+04
6.223100000000000000e+04 1.415200000000000000e+04
4.586300000000000000e+04 1.329900000000000000e+04
4.074900000000000000e+04 1.773100000000000000e+04
3.392800000000000000e+04 1.994800000000000000e+04
3.017700000000000000e+04 2.472200000000000000e+04
2.932500000000000000e+04 2.745000000000000000e+04
2.659800000000000000e+04 2.949600000000000000e+04
2.335800000000000000e+04 3.222400000000000000e+04
2.591600000000000000e+04 3.478100000000000000e+04
2.932600000000000000e+04 3.409900000000000000e+04
2.557500000000000000e+04 3.512200000000000000e+04
2.608600000000000000e+04 3.546300000000000000e+04
2.728000000000000000e+04 3.767900000000000000e+04
2.404000000000000000e+04 3.955500000000000000e+04
2.540400000000000000e+04 3.955500000000000000e+04
2.762100000000000000e+04 3.853200000000000000e+04
2.745000000000000000e+04 3.921400000000000000e+04
2.659800000000000000e+04 3.921400000000000000e+04
2.779100000000000000e+04 3.853200000000000000e+04
2.830200000000000000e+04 3.921400000000000000e+04
2.710900000000000000e+04 4.109000000000000000e+04
3.000800000000000000e+04 3.699700000000000000e+04
3.188300000000000000e+04 4.177100000000000000e+04
3.256500000000000000e+04 4.109000000000000000e+04
2.966600000000000000e+04 4.466900000000000000e+04
3.290600000000000000e+04 4.245300000000000000e+04
3.546300000000000000e+04 3.972600000000000000e+04
3.478100000000000000e+04 4.023700000000000000e+04
3.358800000000000000e+04 4.040800000000000000e+04
3.665700000000000000e+04 4.535200000000000000e+04
3.682700000000000000e+04 4.296500000000000000e+04
4.347600000000000000e+04 4.671600000000000000e+04
4.467000000000000000e+04 4.398800000000000000e+04
4.432900000000000000e+04 4.842100000000000000e+04
4.842000000000000000e+04 5.012500000000000000e+04
5.114800000000000000e+04 5.183000000000000000e+04
5.660400000000000000e+04 4.978400000000000000e+04
5.967300000000000000e+04 5.234200000000000000e+04
6.564100000000000000e+04 5.234200000000000000e+04
7.194800000000000000e+04 4.842100000000000000e+04
7.552900000000000000e+04 4.961400000000000000e+04
8.371300000000000000e+04 4.705700000000000000e+04
9.087400000000000000e+04 4.347600000000000000e+04
9.530700000000000000e+04 4.074800000000000000e+04
9.905800000000000000e+04 3.682600000000000000e+04
1.072420000000000000e+05 2.659800000000000000e+04
1.109930000000000000e+05 1.994800000000000000e+04
1.147430000000000000e+05 7.331000000000000000e+03
1.188350000000000000e+05 -2.557000000000000000e+03
1.150850000000000000e+05 -1.329900000000000000e+04
1.111630000000000000e+05 -2.335800000000000000e+04
1.038310000000000000e+05 -3.171200000000000000e+04
9.837600000000000000e+04 -3.802100000000000000e+04
8.934000000000000000e+04 -4.518200000000000000e+04
7.825700000000000000e+04 -5.131900000000000000e+04
7.246000000000000000e+04 -5.302400000000000000e+04
6.359500000000000000e+04 -5.558100000000000000e+04
5.609300000000000000e+04 -5.524000000000000000e+04
4.876100000000000000e+04 -5.234200000000000000e+04
4.347600000000000000e+04 -4.876200000000000000e+04
3.887200000000000000e+04 -4.773800000000000000e+04
3.086000000000000000e+04 -4.228300000000000000e+04
3.171200000000000000e+04 -3.819100000000000000e+04
2.625700000000000000e+04 -3.256400000000000000e+04
2.421100000000000000e+04 -2.813200000000000000e+04
2.216500000000000000e+04 -2.404000000000000000e+04
2.455100000000000000e+04 -2.080000000000000000e+04
2.335700000000000000e+04 -1.398100000000000000e+04
2.455100000000000000e+04 -1.193500000000000000e+04
2.949500000000000000e+04 -5.115000000000000000e+03
2.966700000000000000e+04 -2.216000000000000000e+03
3.427000000000000000e+04 2.898000000000000000e+03
3.870200000000000000e+04 7.502000000000000000e+03
4.535100000000000000e+04 8.013000000000000000e+03
5.336500000000000000e+04 1.091100000000000000e+04
6.018500000000000000e+04 1.244600000000000000e+04
7.314200000000000000e+04 1.517400000000000000e+04
8.132700000000000000e+04 1.193500000000000000e+04
9.087400000000000000e+04 9.889000000000000000e+03
1.057070000000000000e+05 4.432000000000000000e+03
1.171300000000000000e+05 0.000000000000000000e+00
1.294060000000000000e+05 -1.108300000000000000e+04
1.435570000000000000e+05 -2.455200000000000000e+04
1.542980000000000000e+05 -3.802100000000000000e+04
1.648680000000000000e+05 -5.899200000000000000e+04
1.733930000000000000e+05 -8.013300000000000000e+04
1.757800000000000000e+05 -1.043430000000000000e+05
1.737350000000000000e+05 -1.348610000000000000e+05
1.701550000000000000e+05 -1.633350000000000000e+05
1.592430000000000000e+05 -1.899310000000000000e+05
1.457740000000000000e+05 -2.197680000000000000e+05
1.227560000000000000e+05 -2.467070000000000000e+05
9.939900000000000000e+04 -2.702350000000000000e+05
6.819800000000000000e+04 -2.898420000000000000e+05
4.091800000000000000e+04 -3.079140000000000000e+05
5.286000000000000000e+03 -3.138810000000000000e+05
-3.358800000000000000e+04 -3.244530000000000000e+05
-6.223100000000000000e+04 -3.229180000000000000e+05
-9.991000000000000000e+04 -3.195080000000000000e+05
-1.300870000000000000e+05 -3.128580000000000000e+05
-1.612880000000000000e+05 -3.031410000000000000e+05
-1.892490000000000000e+05 -2.905240000000000000e+05
-2.185740000000000000e+05 -2.729630000000000000e+05
-2.414210000000000000e+05 -2.584710000000000000e+05
-2.680180000000000000e+05 -2.327260000000000000e+05
-2.881360000000000000e+05 -2.090270000000000000e+05
-3.036520000000000000e+05 -1.841350000000000000e+05
-3.234290000000000000e+05 -1.575380000000000000e+05
-3.345110000000000000e+05 -1.288950000000000000e+05
-3.442300000000000000e+05 -1.016160000000000000e+05
-3.530950000000000000e+05 -7.177800000000000000e+04
-3.576980000000000000e+05 -3.648600000000000000e+04
-3.583810000000000000e+05 -9.548000000000000000e+03
-3.563340000000000000e+05 2.148200000000000000e+04
-3.501970000000000000e+05 5.234200000000000000e+04
-3.406490000000000000e+05 8.200800000000000000e+04
-3.329770000000000000e+05 1.118440000000000000e+05
-3.154160000000000000e+05 1.425340000000000000e+05
-2.981960000000000000e+05 1.665730000000000000e+05
-2.763720000000000000e+05 1.909550000000000000e+05
-2.579590000000000000e+05 2.109030000000000000e+05
-2.340900000000000000e+05 2.260770000000000000e+05
-2.062990000000000000e+05 2.438080000000000000e+05
-1.773150000000000000e+05 2.533550000000000000e+05
-1.459430000000000000e+05 2.598340000000000000e+05
-1.229270000000000000e+05 2.634150000000000000e+05
-9.820500000000000000e+04 2.593230000000000000e+05
-7.058500000000000000e+04 2.562540000000000000e+05
-4.825000000000000000e+04 2.473890000000000000e+05
-2.813100000000000000e+04 2.335780000000000000e+05
-1.500300000000000000e+04 2.197680000000000000e+05
-4.092000000000000000e+03 2.018660000000000000e+05
3.410000000000000000e+02 1.870330000000000000e+05
-1.023000000000000000e+03 1.694720000000000000e+05
-1.023000000000000000e+03 1.602650000000000000e+05
-9.206000000000000000e+03 1.500350000000000000e+05
-1.705000000000000000e+04 1.491830000000000000e+05
-2.557400000000000000e+04 1.485010000000000000e+05
-2.455100000000000000e+04 1.529340000000000000e+05
-2.727900000000000000e+04 1.633340000000000000e+05
-2.523300000000000000e+04 1.703240000000000000e+05
-2.233400000000000000e+04 1.786780000000000000e+05
-1.926600000000000000e+04 1.892490000000000000e+05
-1.091100000000000000e+04 1.947050000000000000e+05
-1.023000000000000000e+03 2.023770000000000000e+05
6.650000000000000000e+03 2.064700000000000000e+05
1.909600000000000000e+04 2.139710000000000000e+05
3.290600000000000000e+04 2.163580000000000000e+05
4.432900000000000000e+04 2.197680000000000000e+05
5.796900000000000000e+04 2.223250000000000000e+05
7.194900000000000000e+04 2.211320000000000000e+05
8.439500000000000000e+04 2.236890000000000000e+05
9.974000000000000000e+04 2.238600000000000000e+05
1.111630000000000000e+05 2.202800000000000000e+05
1.253140000000000000e+05 2.148240000000000000e+05
1.394650000000000000e+05 2.109030000000000000e+05
1.524220000000000000e+05 2.085150000000000000e+05
1.687910000000000000e+05 1.998200000000000000e+05
1.810660000000000000e+05 1.974330000000000000e+05
1.962400000000000000e+05 1.872030000000000000e+05
2.100500000000000000e+05 1.793610000000000000e+05
2.282930000000000000e+05 1.733940000000000000e+05
2.414210000000000000e+05 1.629930000000000000e+05
2.531850000000000000e+05 1.479890000000000000e+05
2.681890000000000000e+05 1.374190000000000000e+05
2.850680000000000000e+05 1.212220000000000000e+05
2.995600000000000000e+05 1.075820000000000000e+05
3.094490000000000000e+05 8.473600000000000000e+04
3.222360000000000000e+05 6.768700000000000000e+04
3.230880000000000000e+05 5.524000000000000000e+04
3.442300000000000000e+05 1.875400000000000000e+04
3.532660000000000000e+05 -8.525000000000000000e+03
3.594040000000000000e+05 -4.006700000000000000e+04
3.599160000000000000e+05 -7.092600000000000000e+04
3.548010000000000000e+05 -1.051950000000000000e+05
3.484920000000000000e+05 -1.386130000000000000e+05
3.377510000000000000e+05 -1.735640000000000000e+05
3.188260000000000000e+05 -2.100490000000000000e+05
2.941040000000000000e+05 -2.426150000000000000e+05
2.646080000000000000e+05 -2.733040000000000000e+05
2.282930000000000000e+05 -2.987070000000000000e+05
1.912950000000000000e+05 -3.159270000000000000e+05
1.479900000000000000e+05 -3.304200000000000000e+05
1.075830000000000000e+05 -3.336590000000000000e+05
6.649300000000000000e+04 -3.288860000000000000e+05
3.051800000000000000e+04 -3.203600000000000000e+05
-3.069000000000000000e+03 -3.050150000000000000e+05
-3.120100000000000000e+04 -2.857490000000000000e+05
-4.859100000000000000e+04 -2.640970000000000000e+05
-6.529900000000000000e+04 -2.395460000000000000e+05
-7.655200000000000000e+04 -2.167000000000000000e+05
-8.183700000000000000e+04 -1.947050000000000000e+05
-8.644100000000000000e+04 -1.728820000000000000e+05
-8.524700000000000000e+04 -1.575380000000000000e+05
-7.911000000000000000e+04 -1.398060000000000000e+05
-7.706400000000000000e+04 -1.251440000000000000e+05
-7.058500000000000000e+04 -1.149130000000000000e+05
-6.137800000000000000e+04 -1.067290000000000000e+05
-4.944300000000000000e+04 -9.854600000000000000e+04
-3.853200000000000000e+04 -9.411400000000000000e+04
-2.949500000000000000e+04 -9.530700000000000000e+04
-1.756100000000000000e+04 -9.002100000000000000e+04
-8.865000000000000000e+03 -9.343200000000000000e+04
-5.120000000000000000e+02 -1.012740000000000000e+05
6.990000000000000000e+03 -1.115040000000000000e+05
1.636800000000000000e+04 -1.166190000000000000e+05
2.318700000000000000e+04 -1.341790000000000000e+05
2.608600000000000000e+04 -1.493540000000000000e+05
2.745000000000000000e+04 -1.686200000000000000e+05
2.182400000000000000e+04 -1.875440000000000000e+05
1.790200000000000000e+04 -2.097090000000000000e+05
6.479000000000000000e+03 -2.344300000000000000e+05
-9.718000000000000000e+03 -2.542090000000000000e+05
-3.034800000000000000e+04 -2.819990000000000000e+05
-5.745700000000000000e+04 -3.029700000000000000e+05
-8.763400000000000000e+04 -3.200200000000000000e+05
-1.256550000000000000e+05 -3.380920000000000000e+05
-1.677670000000000000e+05 -3.455940000000000000e+05
-2.139710000000000000e+05 -3.481510000000000000e+05
-2.623920000000000000e+05 -3.425250000000000000e+05
-3.060390000000000000e+05 -3.305900000000000000e+05
-3.536070000000000000e+05 -3.097890000000000000e+05
-3.902630000000000000e+05 -2.828510000000000000e+05
-4.241910000000000000e+05 -2.489230000000000000e+05
-4.560750000000000000e+05 -2.109030000000000000e+05
-4.765340000000000000e+05 -1.670860000000000000e+05
-4.930720000000000000e+05 -1.275300000000000000e+05
-5.009140000000000000e+05 -8.320100000000000000e+04
-5.067120000000000000e+05 -4.006600000000000000e+04
-5.089280000000000000e+05 3.410000000000000000e+03
-5.034720000000000000e+05 4.381700000000000000e+04
-4.917080000000000000e+05 8.610000000000000000e+04
-4.818190000000000000e+05 1.239500000000000000e+05
-4.688610000000000000e+05 1.568560000000000000e+05
-4.501070000000000000e+05 1.969220000000000000e+05
-4.318640000000000000e+05 2.267590000000000000e+05
-4.129390000000000000e+05 2.611980000000000000e+05
-3.921380000000000000e+05 2.889890000000000000e+05
-3.645180000000000000e+05 3.130290000000000000e+05
-3.394560000000000000e+05 3.401370000000000000e+05
-3.104720000000000000e+05 3.653710000000000000e+05
-2.823390000000000000e+05 3.851490000000000000e+05
-2.521620000000000000e+05 4.074830000000000000e+05
-2.214730000000000000e+05 4.209530000000000000e+05
-1.882260000000000000e+05 4.381720000000000000e+05
-1.587310000000000000e+05 4.524940000000000000e+05
-1.201990000000000000e+05 4.598260000000000000e+05
-8.610000000000000000e+04 4.695440000000000000e+05
-5.097800000000000000e+04 4.705660000000000000e+05
-1.329900000000000000e+04 4.705670000000000000e+05
2.369900000000000000e+04 4.722710000000000000e+05
5.796900000000000000e+04 4.630650000000000000e+05
9.189700000000000000e+04 4.533460000000000000e+05
1.224160000000000000e+05 4.376610000000000000e+05
1.554920000000000000e+05 4.194180000000000000e+05
1.790200000000000000e+05 3.981060000000000000e+05
2.042530000000000000e+05 3.759420000000000000e+05
2.252240000000000000e+05 3.472990000000000000e+05
2.361360000000000000e+05 3.195080000000000000e+05
2.461950000000000000e+05 2.954680000000000000e+05
2.502870000000000000e+05 2.659720000000000000e+05
2.478990000000000000e+05 2.407390000000000000e+05
2.448310000000000000e+05 2.207910000000000000e+05
2.340900000000000000e+05 2.049350000000000000e+05
2.257360000000000000e+05 1.889090000000000000e+05
2.127780000000000000e+05 1.851570000000000000e+05
2.006730000000000000e+05 1.826000000000000000e+05
1.918070000000000000e+05 1.877150000000000000e+05
1.890790000000000000e+05 1.979450000000000000e+05
1.935120000000000000e+05 2.146530000000000000e+05
2.027190000000000000e+05 2.317030000000000000e+05
2.158470000000000000e+05 2.421040000000000000e+05
2.450020000000000000e+05 2.560840000000000000e+05
2.738160000000000000e+05 2.632450000000000000e+05
3.133700000000000000e+05 2.560830000000000000e+05
3.437190000000000000e+05 2.562540000000000000e+05
3.805450000000000000e+05 2.412510000000000000e+05
4.141330000000000000e+05 2.192560000000000000e+05
4.429470000000000000e+05 1.899320000000000000e+05
4.681800000000000000e+05 1.541280000000000000e+05
4.872750000000000000e+05 1.162780000000000000e+05
4.997210000000000000e+05 7.587000000000000000e+04
5.104620000000000000e+05 3.478100000000000000e+04
5.096100000000000000e+05 -4.433000000000000000e+03
5.102920000000000000e+05 -4.467000000000000000e+04
5.060290000000000000e+05 -8.286000000000000000e+04
4.952880000000000000e+05 -1.173000000000000000e+05
4.802850000000000000e+05 -1.542980000000000000e+05
4.702250000000000000e+05 -1.894200000000000000e+05
4.499370000000000000e+05 -2.197690000000000000e+05
4.330580000000000000e+05 -2.514800000000000000e+05
4.114050000000000000e+05 -2.828510000000000000e+05
3.907750000000000000e+05 -3.074030000000000000e+05
3.694630000000000000e+05 -3.345120000000000000e+05
3.469580000000000000e+05 -3.588920000000000000e+05
3.188260000000000000e+05 -3.831020000000000000e+05
2.913770000000000000e+05 -4.027090000000000000e+05
2.632440000000000000e+05 -4.195890000000000000e+05
2.351130000000000000e+05 -4.400480000000000000e+05
2.042540000000000000e+05 -4.582910000000000000e+05
1.708370000000000000e+05 -4.724420000000000000e+05
1.399760000000000000e+05 -4.855700000000000000e+05
1.067300000000000000e+05 -4.992100000000000000e+05
6.956200000000000000e+04 -5.106330000000000000e+05
3.461000000000000000e+04 -5.189870000000000000e+05
-2.387000000000000000e+03 -5.266600000000000000e+05
-4.381700000000000000e+04 -5.278530000000000000e+05
-8.320100000000000000e+04 -5.287050000000000000e+05
-1.249730000000000000e+05 -5.273410000000000000e+05
-1.655510000000000000e+05 -5.188170000000000000e+05
-2.098790000000000000e+05 -5.053470000000000000e+05
-2.513090000000000000e+05 -4.942650000000000000e+05
-2.949570000000000000e+05 -4.741470000000000000e+05
-3.346820000000000000e+05 -4.448220000000000000e+05
-3.706560000000000000e+05 -4.160090000000000000e+05
-4.054380000000000000e+05 -3.778170000000000000e+05
-4.361260000000000000e+05 -3.350230000000000000e+05
-4.540280000000000000e+05 -2.877960000000000000e+05
-4.714190000000000000e+05 -2.392050000000000000e+05
-4.736360000000000000e+05 -1.889080000000000000e+05
-4.739760000000000000e+05 -1.370790000000000000e+05
-4.625530000000000000e+05 -9.223800000000000000e+04
-4.453330000000000000e+05 -4.364700000000000000e+04
-4.226570000000000000e+05 -7.673000000000000000e+03
-3.933320000000000000e+05 2.386900000000000000e+04
-3.633250000000000000e+05 4.432900000000000000e+04
-3.326360000000000000e+05 6.598100000000000000e+04
-3.053560000000000000e+05 7.109700000000000000e+04
-2.796120000000000000e+05 7.604000000000000000e+04
-2.502870000000000000e+05 7.126700000000000000e+04
-2.308500000000000000e+05 6.717500000000000000e+04
-2.187450000000000000e+05 5.319500000000000000e+04
-2.071520000000000000e+05 4.177100000000000000e+04
-2.042530000000000000e+05 2.796100000000000000e+04
-2.006720000000000000e+05 1.483300000000000000e+04
-2.064690000000000000e+05 5.626000000000000000e+03
-2.170400000000000000e+05 -7.843000000000000000e+03
-2.323850000000000000e+05 -1.278800000000000000e+04
-2.465350000000000000e+05 -2.165300000000000000e+04
-2.623920000000000000e+05 -1.858400000000000000e+04
-2.830220000000000000e+05 -1.807300000000000000e+04
-3.060390000000000000e+05 -1.278700000000000000e+04
-3.259870000000000000e+05 2.898000000000000000e+03
-3.457640000000000000e+05 2.216400000000000000e+04
-3.624720000000000000e+05 4.432800000000000000e+04
-3.740660000000000000e+05 7.194800000000000000e+04
-3.858300000000000000e+05 1.028090000000000000e+05
-3.936730000000000000e+05 1.381010000000000000e+05
-3.916270000000000000e+05 1.745870000000000000e+05
-3.849780000000000000e+05 2.090270000000000000e+05
-3.745770000000000000e+05 2.458540000000000000e+05
-3.609380000000000000e+05 2.842150000000000000e+05
-3.396260000000000000e+05 3.181440000000000000e+05
-3.131990000000000000e+05 3.469570000000000000e+05
-2.852380000000000000e+05 3.773060000000000000e+05
-2.562540000000000000e+05 4.035610000000000000e+05
-2.235190000000000000e+05 4.267490000000000000e+05
-1.853280000000000000e+05 4.424350000000000000e+05
-1.481600000000000000e+05 4.582910000000000000e+05
-1.135490000000000000e+05 4.678380000000000000e+05
-7.416500000000000000e+04 4.758520000000000000e+05
-3.955400000000000000e+04 4.819890000000000000e+05
-1.700000000000000000e+02 4.826720000000000000e+05
3.290600000000000000e+04 4.828420000000000000e+05
6.973300000000000000e+04 4.770450000000000000e+05
1.038310000000000000e+05 4.690320000000000000e+05
1.381020000000000000e+05 4.603370000000000000e+05
1.713480000000000000e+05 4.502770000000000000e+05
2.006730000000000000e+05 4.400480000000000000e+05
2.340900000000000000e+05 4.224860000000000000e+05
2.610280000000000000e+05 4.052670000000000000e+05
2.893300000000000000e+05 3.854900000000000000e+05
3.147340000000000000e+05 3.663940000000000000e+05
3.409900000000000000e+05 3.432060000000000000e+05
3.633260000000000000e+05 3.201890000000000000e+05
3.829320000000000000e+05 2.918870000000000000e+05
4.037330000000000000e+05 2.634150000000000000e+05
4.209530000000000000e+05 2.356240000000000000e+05
4.357860000000000000e+05 2.066400000000000000e+05
4.484020000000000000e+05 1.689610000000000000e+05
4.570980000000000000e+05 1.328160000000000000e+05
4.676690000000000000e+05 9.581900000000000000e+04
4.659630000000000000e+05 6.291300000000000000e+04
4.669870000000000000e+05 2.472200000000000000e+04
4.622120000000000000e+05 -1.347000000000000000e+04
4.511300000000000000e+05 -4.944400000000000000e+04
4.402190000000000000e+05 -8.661100000000000000e+04
4.187360000000000000e+05 -1.195170000000000000e+05
3.989580000000000000e+05 -1.469670000000000000e+05
3.687810000000000000e+05 -1.771450000000000000e+05
3.401380000000000000e+05 -1.984560000000000000e+05
3.085970000000000000e+05 -2.119260000000000000e+05
2.811460000000000000e+05 -2.226670000000000000e+05
2.526740000000000000e+05 -2.260770000000000000e+05
2.264170000000000000e+05 -2.236900000000000000e+05
2.022080000000000000e+05 -2.185750000000000000e+05
1.848170000000000000e+05 -2.074930000000000000e+05
1.699830000000000000e+05 -1.982860000000000000e+05
1.674270000000000000e+05 -1.873740000000000000e+05
1.648690000000000000e+05 -1.771440000000000000e+05
1.665740000000000000e+05 -1.684490000000000000e+05
1.779970000000000000e+05 -1.641870000000000000e+05
1.872040000000000000e+05 -1.624820000000000000e+05
2.025490000000000000e+05 -1.681080000000000000e+05
2.168700000000000000e+05 -1.750980000000000000e+05
2.296570000000000000e+05 -1.914660000000000000e+05
2.426140000000000000e+05 -2.100500000000000000e+05
2.487530000000000000e+05 -2.368180000000000000e+05
2.572780000000000000e+05 -2.666550000000000000e+05
2.519920000000000000e+05 -2.978550000000000000e+05
2.450020000000000000e+05 -3.357050000000000000e+05
2.306800000000000000e+05 -3.730430000000000000e+05
2.131190000000000000e+05 -4.148150000000000000e+05
1.858400000000000000e+05 -4.514710000000000000e+05
1.502060000000000000e+05 -4.847180000000000000e+05
1.086060000000000000e+05 -5.177940000000000000e+05
6.274200000000000000e+04 -5.447320000000000000e+05
1.244600000000000000e+04 -5.634860000000000000e+05
-3.955500000000000000e+04 -5.795120000000000000e+05
-9.701100000000000000e+04 -5.851390000000000000e+05
-1.554910000000000000e+05 -5.815590000000000000e+05
-2.088570000000000000e+05 -5.701360000000000000e+05
-2.605170000000000000e+05 -5.564970000000000000e+05
-3.108120000000000000e+05 -5.358660000000000000e+05
-3.542890000000000000e+05 -5.094390000000000000e+05
-3.960600000000000000e+05 -4.761930000000000000e+05
-4.318640000000000000e+05 -4.410710000000000000e+05
-4.613600000000000000e+05 -3.998110000000000000e+05
-4.893210000000000000e+05 -3.614500000000000000e+05
-5.121670000000000000e+05 -3.201900000000000000e+05
-5.273410000000000000e+05 -2.804650000000000000e+05
-5.423450000000000000e+05 -2.359650000000000000e+05
-5.535980000000000000e+05 -1.987970000000000000e+05
-5.600770000000000000e+05 -1.568560000000000000e+05
-5.643390000000000000e+05 -1.150840000000000000e+05
-5.645090000000000000e+05 -7.024400000000000000e+04
-5.633160000000000000e+05 -3.546300000000000000e+04
-5.573490000000000000e+05 6.308000000000000000e+03
-5.486530000000000000e+05 4.143000000000000000e+04
-5.406400000000000000e+05 7.689300000000000000e+04
-5.293870000000000000e+05 1.144020000000000000e+05
-5.166000000000000000e+05 1.447500000000000000e+05
-5.024490000000000000e+05 1.819180000000000000e+05
-4.853990000000000000e+05 2.146530000000000000e+05
-4.685200000000000000e+05 2.453430000000000000e+05
-4.489140000000000000e+05 2.717700000000000000e+05
-4.252150000000000000e+05 3.005830000000000000e+05
-3.993000000000000000e+05 3.287140000000000000e+05
-3.744070000000000000e+05 3.582100000000000000e+05
-3.454230000000000000e+05 3.786700000000000000e+05
-3.126880000000000000e+05 4.008340000000000000e+05
-2.794420000000000000e+05 4.187360000000000000e+05
-2.479000000000000000e+05 4.374900000000000000e+05
-2.091970000000000000e+05 4.497660000000000000e+05
-1.693010000000000000e+05 4.579500000000000000e+05
-1.331570000000000000e+05 4.640870000000000000e+05
-9.206700000000000000e+04 4.605070000000000000e+05
-5.438800000000000000e+04 4.598250000000000000e+05
-2.028900000000000000e+04 4.449930000000000000e+05
1.125300000000000000e+04 4.299890000000000000e+05
3.870300000000000000e+04 4.131100000000000000e+05
5.984400000000000000e+04 3.911160000000000000e+05
7.331300000000000000e+04 3.689510000000000000e+05
8.269000000000000000e+04 3.461050000000000000e+05
8.627100000000000000e+04 3.268400000000000000e+05
8.541800000000000000e+04 3.138810000000000000e+05
8.200800000000000000e+04 3.068910000000000000e+05
7.928100000000000000e+04 3.019470000000000000e+05
8.064400000000000000e+04 3.070620000000000000e+05
8.081500000000000000e+04 3.080850000000000000e+05
8.985100000000000000e+04 3.160980000000000000e+05
9.667100000000000000e+04 3.244530000000000000e+05
1.106520000000000000e+05 3.362160000000000000e+05
1.311110000000000000e+05 3.425250000000000000e+05
1.483310000000000000e+05 3.491740000000000000e+05
1.737340000000000000e+05 3.578690000000000000e+05
2.013550000000000000e+05 3.534360000000000000e+05
2.293160000000000000e+05 3.529240000000000000e+05
2.581300000000000000e+05 3.444010000000000000e+05
2.859210000000000000e+05 3.351940000000000000e+05
3.152460000000000000e+05 3.220650000000000000e+05
3.408200000000000000e+05 3.051860000000000000e+05
3.652000000000000000e+05 2.843860000000000000e+05
3.892410000000000000e+05 2.610280000000000000e+05
4.042440000000000000e+05 2.388630000000000000e+05
4.293070000000000000e+05 2.110730000000000000e+05
4.395370000000000000e+05 1.798730000000000000e+05
4.504480000000000000e+05 1.498650000000000000e+05
4.632360000000000000e+05 1.190060000000000000e+05
4.681790000000000000e+05 8.865700000000000000e+04
4.714190000000000000e+05 5.694500000000000000e+04
4.734650000000000000e+05 2.693800000000000000e+04
4.712490000000000000e+05 -5.626000000000000000e+03
4.686910000000000000e+05 -3.495100000000000000e+04
4.618720000000000000e+05 -6.734500000000000000e+04
4.521530000000000000e+05 -9.326100000000000000e+04
4.470380000000000000e+05 -1.186650000000000000e+05
4.344220000000000000e+05 -1.507180000000000000e+05
4.223170000000000000e+05 -1.745870000000000000e+05
4.103820000000000000e+05 -1.979450000000000000e+05
3.948670000000000000e+05 -2.224970000000000000e+05
3.791820000000000000e+05 -2.472170000000000000e+05
3.607680000000000000e+05 -2.676780000000000000e+05
3.406490000000000000e+05 -2.901830000000000000e+05
3.241120000000000000e+05 -3.118360000000000000e+05
2.999010000000000000e+05 -3.302500000000000000e+05
2.808050000000000000e+05 -3.486620000000000000e+05
2.547200000000000000e+05 -3.626430000000000000e+05
2.301690000000000000e+05 -3.784990000000000000e+05
2.064700000000000000e+05 -3.919690000000000000e+05
1.762920000000000000e+05 -4.020270000000000000e+05
1.519110000000000000e+05 -4.170310000000000000e+05
1.224150000000000000e+05 -4.274310000000000000e+05
9.275000000000000000e+04 -4.351030000000000000e+05
5.967400000000000000e+04 -4.356150000000000000e+05
3.137100000000000000e+04 -4.415820000000000000e+05
-5.115000000000000000e+03 -4.371500000000000000e+05
-3.870200000000000000e+04 -4.310120000000000000e+05
-6.871000000000000000e+04 -4.231690000000000000e+05
-1.021270000000000000e+05 -4.078250000000000000e+05
-1.329860000000000000e+05 -3.883880000000000000e+05
-1.575370000000000000e+05 -3.663940000000000000e+05
-1.771440000000000000e+05 -3.392850000000000000e+05
-1.952170000000000000e+05 -3.101310000000000000e+05
-2.035710000000000000e+05 -2.838740000000000000e+05
-2.057870000000000000e+05 -2.484120000000000000e+05
-2.054460000000000000e+05 -2.250540000000000000e+05
-1.935120000000000000e+05 -2.003320000000000000e+05
-1.889080000000000000e+05 -1.797020000000000000e+05
-1.788500000000000000e+05 -1.621410000000000000e+05
-1.638450000000000000e+05 -1.531050000000000000e+05
-1.539570000000000000e+05 -1.483310000000000000e+05
-1.421930000000000000e+05 -1.466260000000000000e+05
-1.307700000000000000e+05 -1.464560000000000000e+05
-1.229270000000000000e+05 -1.517410000000000000e+05
-1.207110000000000000e+05 -1.568550000000000000e+05
-1.176420000000000000e+05 -1.640160000000000000e+05
-1.210510000000000000e+05 -1.745870000000000000e+05
-1.203700000000000000e+05 -1.814070000000000000e+05
-1.263370000000000000e+05 -1.875440000000000000e+05
-1.369070000000000000e+05 -1.979450000000000000e+05
-1.450910000000000000e+05 -2.071510000000000000e+05
-1.611180000000000000e+05 -2.168700000000000000e+05
-1.762920000000000000e+05 -2.204510000000000000e+05
-1.916360000000000000e+05 -2.265880000000000000e+05
-2.143130000000000000e+05 -2.279520000000000000e+05
-2.351120000000000000e+05 -2.303390000000000000e+05
-2.571070000000000000e+05 -2.293160000000000000e+05
-2.821690000000000000e+05 -2.213030000000000000e+05
-3.080850000000000000e+05 -2.175520000000000000e+05
-3.340000000000000000e+05 -2.022080000000000000e+05
-3.604270000000000000e+05 -1.902730000000000000e+05
-3.844670000000000000e+05 -1.737350000000000000e+05
-4.085060000000000000e+05 -1.493540000000000000e+05
-4.335690000000000000e+05 -1.222450000000000000e+05
-4.530060000000000000e+05 -9.240800000000000000e+04
-4.717600000000000000e+05 -5.831000000000000000e+04
-4.842060000000000000e+05 -2.011900000000000000e+04
-4.925610000000000000e+05 2.131200000000000000e+04
-4.975040000000000000e+05 6.427700000000000000e+04
-4.925610000000000000e+05 1.067290000000000000e+05
-4.884690000000000000e+05 1.510590000000000000e+05
-4.736350000000000000e+05 1.931710000000000000e+05
-4.591430000000000000e+05 2.346010000000000000e+05
-4.368090000000000000e+05 2.698940000000000000e+05
-4.108930000000000000e+05 3.108130000000000000e+05
-3.824210000000000000e+05 3.415020000000000000e+05
-3.495150000000000000e+05 3.669050000000000000e+05
-3.128590000000000000e+05 3.941850000000000000e+05
-2.785890000000000000e+05 4.151550000000000000e+05
-2.407390000000000000e+05 4.325460000000000000e+05
-2.061280000000000000e+05 4.437990000000000000e+05
-1.689600000000000000e+05 4.506180000000000000e+05
-1.350320000000000000e+05 4.541990000000000000e+05
-1.022970000000000000e+05 4.584610000000000000e+05
-6.922100000000000000e+04 4.582900000000000000e+05
-3.563400000000000000e+04 4.562450000000000000e+05
-3.240000000000000000e+03 4.499370000000000000e+05
2.301700000000000000e+04 4.412410000000000000e+05
5.012600000000000000e+04 4.313520000000000000e+05
7.587000000000000000e+04 4.218050000000000000e+05
9.803500000000000000e+04 4.069720000000000000e+05
1.207100000000000000e+05 3.953780000000000000e+05
1.391240000000000000e+05 3.798630000000000000e+05
1.585610000000000000e+05 3.624730000000000000e+05
1.750990000000000000e+05 3.501970000000000000e+05
1.892490000000000000e+05 3.321250000000000000e+05
2.013550000000000000e+05 3.123470000000000000e+05
2.127780000000000000e+05 2.978550000000000000e+05
2.235190000000000000e+05 2.818280000000000000e+05
2.248830000000000000e+05 2.642670000000000000e+05
2.294870000000000000e+05 2.478990000000000000e+05
2.346020000000000000e+05 2.318730000000000000e+05
2.342600000000000000e+05 2.185740000000000000e+05
2.339200000000000000e+05 2.056170000000000000e+05
2.344310000000000000e+05 1.933410000000000000e+05
2.322150000000000000e+05 1.889080000000000000e+05
2.299980000000000000e+05 1.815770000000000000e+05
2.294870000000000000e+05 1.783380000000000000e+05
2.339190000000000000e+05 1.793610000000000000e+05
2.380120000000000000e+05 1.802140000000000000e+05
2.489230000000000000e+05 1.827710000000000000e+05
2.577880000000000000e+05 1.854980000000000000e+05
2.714290000000000000e+05 1.865210000000000000e+05
2.935920000000000000e+05 1.856690000000000000e+05
3.137110000000000000e+05 1.776550000000000000e+05
3.351930000000000000e+05 1.650390000000000000e+05
3.568470000000000000e+05 1.534450000000000000e+05
3.766240000000000000e+05 1.350320000000000000e+05
3.965710000000000000e+05 1.116740000000000000e+05
4.108940000000000000e+05 8.848700000000000000e+04
4.250440000000000000e+05 6.120800000000000000e+04
4.349330000000000000e+05 3.239400000000000000e+04
4.407300000000000000e+05 -3.410000000000000000e+02
4.480610000000000000e+05 -3.239500000000000000e+04
4.478910000000000000e+05 -6.495900000000000000e+04
4.451630000000000000e+05 -9.581900000000000000e+04
4.374910000000000000e+05 -1.290650000000000000e+05
4.311820000000000000e+05 -1.607770000000000000e+05
4.209530000000000000e+05 -1.919770000000000000e+05
4.066310000000000000e+05 -2.240310000000000000e+05
3.871950000000000000e+05 -2.572770000000000000e+05
3.682690000000000000e+05 -2.826810000000000000e+05
3.471280000000000000e+05 -3.121770000000000000e+05
3.247940000000000000e+05 -3.348520000000000000e+05
3.010940000000000000e+05 -3.592330000000000000e+05
2.687000000000000000e+05 -3.788410000000000000e+05
2.429560000000000000e+05 -3.974240000000000000e+05
2.168700000000000000e+05 -4.158380000000000000e+05
1.851580000000000000e+05 -4.325460000000000000e+05
1.531040000000000000e+05 -4.407300000000000000e+05
1.219040000000000000e+05 -4.535170000000000000e+05
9.121500000000000000e+04 -4.623830000000000000e+05
5.796900000000000000e+04 -4.651110000000000000e+05
2.710900000000000000e+04 -4.681800000000000000e+05
-6.479000000000000000e+03 -4.715900000000000000e+05
-3.239400000000000000e+04 -4.671560000000000000e+05
-6.512900000000000000e+04 -4.639180000000000000e+05
-9.837600000000000000e+04 -4.625540000000000000e+05
-1.280420000000000000e+05 -4.489140000000000000e+05
-1.621410000000000000e+05 -4.439690000000000000e+05
-1.872040000000000000e+05 -4.322060000000000000e+05
-2.166990000000000000e+05 -4.151560000000000000e+05
-2.427850000000000000e+05 -3.974240000000000000e+05
-2.649500000000000000e+05 -3.824200000000000000e+05
