-1.312800000000000000e+04 -5.110000000000000000e+02
-1.159400000000000000e+04 3.239000000000000000e+03
-6.649000000000000000e+03 8.184000000000000000e+03
-4.603000000000000000e+03 1.023000000000000000e+04
-1.705000000000000000e+03 1.074100000000000000e+04
-1.023000000000000000e+03 1.278700000000000000e+04
5.626000000000000000e+03 9.548000000000000000e+03
1.466200000000000000e+04 9.206000000000000000e+03
1.670800000000000000e+04 -2.217000000000000000e+03
1.176500000000000000e+04 -1.517400000000000000e+04
1.023000000000000000e+03 -1.568600000000000000e+04
-1.091100000000000000e+04 -1.534500000000000000e+04
-1.432200000000000000e+04 -6.138000000000000000e+03
-1.346900000000000000e+04 5.115000000000000000e+03
-3.239000000000000000e+03 1.091100000000000000e+04
-1.710000000000000000e+02 1.074100000000000000e+04
-1.534000000000000000e+03 6.649000000000000000e+03
-6.820000000000000000e+02 9.377000000000000000e+03
1.023000000000000000e+03 1.176400000000000000e+04
8.184000000000000000e+03 1.074100000000000000e+04
1.329900000000000000e+04 5.120000000000000000e+02
1.364000000000000000e+04 -1.381000000000000000e+04
6.479000000000000000e+03 -1.943600000000000000e+04
-5.797000000000000000e+03 -1.892500000000000000e+04
-1.091200000000000000e+04 -7.843000000000000000e+03
-1.023000000000000000e+04 3.580000000000000000e+03
-6.478000000000000000e+03 9.377000000000000000e+03
-2.216000000000000000e+03 1.210500000000000000e+04
-1.704000000000000000e+03 1.312800000000000000e+04
-2.046000000000000000e+03 7.161000000000000000e+03
6.820000000000000000e+02 6.479000000000000000e+03
2.728000000000000000e+03 5.285000000000000000e+03
1.329900000000000000e+04 -3.410000000000000000e+03
1.364000000000000000e+04 -8.524000000000000000e+03
1.142300000000000000e+04 -1.312900000000000000e+04
-1.700000000000000000e+02 -1.773100000000000000e+04
-9.377000000000000000e+03 -1.210500000000000000e+04
-1.415100000000000000e+04 8.530000000000000000e+02
-1.244600000000000000e+04 9.547000000000000000e+03
-3.409000000000000000e+03 7.843000000000000000e+03
1.364000000000000000e+03 4.945000000000000000e+03
5.626000000000000000e+03 3.069000000000000000e+03
5.968000000000000000e+03 1.023000000000000000e+03
1.432200000000000000e+04 5.796000000000000000e+03
1.381000000000000000e+04 6.990000000000000000e+03
1.057100000000000000e+04 1.705000000000000000e+03
6.479000000000000000e+03 -5.967000000000000000e+03
-3.410000000000000000e+03 -9.889000000000000000e+03
-1.364000000000000000e+04 -6.138000000000000000e+03
-1.534500000000000000e+04 1.700000000000000000e+02
-1.142300000000000000e+04 5.115000000000000000e+03
-8.530000000000000000e+02 1.176400000000000000e+04
3.580000000000000000e+03 1.278700000000000000e+04
3.921000000000000000e+03 1.023000000000000000e+04
5.285000000000000000e+03 6.138000000000000000e+03
4.774000000000000000e+03 4.092000000000000000e+03
6.990000000000000000e+03 6.820000000000000000e+02
6.308000000000000000e+03 -2.046000000000000000e+03
3.580000000000000000e+03 -6.820000000000000000e+03
-6.820000000000000000e+02 -1.347000000000000000e+04
-5.285000000000000000e+03 -1.074100000000000000e+04
-9.548000000000000000e+03 -6.990000000000000000e+03
-8.355000000000000000e+03 -1.364000000000000000e+03
-1.040000000000000000e+04 -0.000000000000000000e+00
-1.875000000000000000e+03 3.921000000000000000e+03
4.944000000000000000e+03 5.797000000000000000e+03
2.728000000000000000e+03 3.239000000000000000e+03
-5.120000000000000000e+02 4.604000000000000000e+03
1.535000000000000000e+03 2.046000000000000000e+03
5.797000000000000000e+03 3.580000000000000000e+03
6.138000000000000000e+03 1.705000000000000000e+03
-5.120000000000000000e+02 -7.331000000000000000e+03
-6.650000000000000000e+03 -8.354000000000000000e+03
-7.843000000000000000e+03 -9.718000000000000000e+03
-8.525000000000000000e+03 -7.331000000000000000e+03
-1.108200000000000000e+04 -4.603000000000000000e+03
-4.774000000000000000e+03 5.110000000000000000e+02
-1.023000000000000000e+03 2.387000000000000000e+03
8.525000000000000000e+03 1.705000000000000000e+03
3.751000000000000000e+03 5.120000000000000000e+02
6.138000000000000000e+03 -1.194000000000000000e+03
6.138000000000000000e+03 2.557000000000000000e+03
8.695000000000000000e+03 -3.410000000000000000e+02
8.354000000000000000e+03 3.069000000000000000e+03
4.433000000000000000e+03 5.967000000000000000e+03
-1.483300000000000000e+04 5.627000000000000000e+03
-2.915400000000000000e+04 -1.023000000000000000e+03
-3.307600000000000000e+04 -1.346900000000000000e+04
-1.619700000000000000e+04 -2.250500000000000000e+04
8.184000000000000000e+03 -2.028900000000000000e+04
2.489300000000000000e+04 -6.990000000000000000e+03
2.097100000000000000e+04 5.797000000000000000e+03
1.653800000000000000e+04 1.176500000000000000e+04
1.329900000000000000e+04 1.295800000000000000e+04
1.023000000000000000e+04 1.994800000000000000e+04
3.581000000000000000e+03 2.438100000000000000e+04
-1.312800000000000000e+04 2.915500000000000000e+04
-4.364600000000000000e+04 2.659800000000000000e+04
-7.024400000000000000e+04 -1.057000000000000000e+04
-5.114900000000000000e+04 -6.223000000000000000e+04
