-2.240310000000000000e+05 -3.795220000000000000e+05
-3.026290000000000000e+05 -3.130290000000000000e+05
-3.529240000000000000e+05 -2.131190000000000000e+05
-3.660530000000000000e+05 -9.598900000000000000e+04
-3.174620000000000000e+05 3.581000000000000000e+03
-2.414210000000000000e+05 4.944300000000000000e+04
-1.984560000000000000e+05 4.415800000000000000e+04
-1.943640000000000000e+05 3.205300000000000000e+04
-2.059580000000000000e+05 3.222300000000000000e+04
-2.293160000000000000e+05 5.507000000000000000e+04
-2.472180000000000000e+05 9.530600000000000000e+04
-2.497750000000000000e+05 1.551500000000000000e+05
-2.293160000000000000e+05 2.293160000000000000e+05
-1.814060000000000000e+05 3.096190000000000000e+05
-9.428300000000000000e+04 3.773050000000000000e+05
1.824300000000000000e+04 4.064600000000000000e+05
1.307700000000000000e+05 3.873650000000000000e+05
2.190870000000000000e+05 3.207010000000000000e+05
2.659720000000000000e+05 2.342600000000000000e+05
2.726220000000000000e+05 1.554920000000000000e+05
2.610280000000000000e+05 9.326100000000000000e+04
2.346020000000000000e+05 5.438800000000000000e+04
2.132890000000000000e+05 3.784900000000000000e+04
2.163580000000000000e+05 3.733800000000000000e+04
2.461950000000000000e+05 2.864300000000000000e+04
2.920590000000000000e+05 -1.278700000000000000e+04
3.130290000000000000e+05 -9.530700000000000000e+04
2.942750000000000000e+05 -1.918070000000000000e+05
2.369890000000000000e+05 -2.855790000000000000e+05
1.496950000000000000e+05 -3.507090000000000000e+05
4.654500000000000000e+04 -3.923100000000000000e+05
3.418430000000000000e+05 -2.063000000000000000e+05
2.710870000000000000e+05 -2.884780000000000000e+05
1.745870000000000000e+05 -3.571880000000000000e+05
6.734500000000000000e+04 -3.870240000000000000e+05
-4.722700000000000000e+04 -3.822500000000000000e+05
-1.515700000000000000e+05 -3.387740000000000000e+05
-2.233480000000000000e+05 -2.606870000000000000e+05
-2.472180000000000000e+05 -1.641870000000000000e+05
-2.284640000000000000e+05 -1.045140000000000000e+05
-2.093680000000000000e+05 -7.535900000000000000e+04
-2.073220000000000000e+05 -6.052600000000000000e+04
-2.201090000000000000e+05 -3.870200000000000000e+04
-2.299980000000000000e+05 -6.990000000000000000e+03
-2.359650000000000000e+05 2.847200000000000000e+04
-2.332370000000000000e+05 8.746400000000000000e+04
-2.105620000000000000e+05 1.353730000000000000e+05
-1.817480000000000000e+05 1.890790000000000000e+05
-1.288940000000000000e+05 2.289750000000000000e+05
-6.274200000000000000e+04 2.603460000000000000e+05
1.108300000000000000e+04 2.630740000000000000e+05
7.808700000000000000e+04 2.422740000000000000e+05
1.239500000000000000e+05 1.958980000000000000e+05
1.478200000000000000e+05 1.449210000000000000e+05
1.440680000000000000e+05 9.786400000000000000e+04
1.290650000000000000e+05 6.819800000000000000e+04
1.121860000000000000e+05 6.171900000000000000e+04
1.130380000000000000e+05 6.427600000000000000e+04
1.312810000000000000e+05 6.495900000000000000e+04
1.561740000000000000e+05 5.813800000000000000e+04
1.856690000000000000e+05 3.290500000000000000e+04
2.069820000000000000e+05 -6.991000000000000000e+03
2.153350000000000000e+05 -5.967300000000000000e+04
2.001610000000000000e+05 -1.181540000000000000e+05
1.722000000000000000e+05 -1.756100000000000000e+05
1.191770000000000000e+05 -2.206210000000000000e+05
5.728600000000000000e+04 -2.504570000000000000e+05
-1.432200000000000000e+04 -2.584710000000000000e+05
-8.047400000000000000e+04 -2.482410000000000000e+05
-1.432160000000000000e+05 -2.132900000000000000e+05
-1.872030000000000000e+05 -1.636760000000000000e+05
-2.081750000000000000e+05 -1.091170000000000000e+05
-2.051060000000000000e+05 -5.762700000000000000e+04
-2.005020000000000000e+05 -1.722000000000000000e+04
-1.945350000000000000e+05 1.466200000000000000e+04
-1.952170000000000000e+05 5.114900000000000000e+04
-1.793610000000000000e+05 9.581800000000000000e+04
-1.488420000000000000e+05 1.341800000000000000e+05
-1.067300000000000000e+05 1.662320000000000000e+05
-6.853900000000000000e+04 1.885680000000000000e+05
-2.045900000000000000e+04 1.960690000000000000e+05
2.557500000000000000e+04 1.945340000000000000e+05
7.160800000000000000e+04 1.817470000000000000e+05
1.150840000000000000e+05 1.592420000000000000e+05
1.461150000000000000e+05 1.256540000000000000e+05
1.703250000000000000e+05 7.791600000000000000e+04
1.722010000000000000e+05 2.404000000000000000e+04
1.473080000000000000e+05 -2.352900000000000000e+04
1.166180000000000000e+05 -4.978400000000000000e+04
8.575900000000000000e+04 -5.285400000000000000e+04
7.740500000000000000e+04 -5.149000000000000000e+04
7.501700000000000000e+04 -5.200100000000000000e+04
7.757500000000000000e+04 -5.745700000000000000e+04
7.962200000000000000e+04 -7.501800000000000000e+04
7.757500000000000000e+04 -9.786500000000000000e+04
6.206100000000000000e+04 -1.277010000000000000e+05
3.802000000000000000e+04 -1.571960000000000000e+05
1.710000000000000000e+02 -1.831120000000000000e+05
-5.524100000000000000e+04 -1.909540000000000000e+05
-1.142320000000000000e+05 -1.832820000000000000e+05
-1.653800000000000000e+05 -1.447510000000000000e+05
-2.028900000000000000e+05 -8.933900000000000000e+04
-2.105610000000000000e+05 -2.642700000000000000e+04
-2.006730000000000000e+05 2.063000000000000000e+04
-1.716890000000000000e+05 6.342500000000000000e+04
-1.505480000000000000e+05 8.303100000000000000e+04
-1.350330000000000000e+05 9.991000000000000000e+04
-1.287240000000000000e+05 1.232680000000000000e+05
-1.167900000000000000e+05 1.631640000000000000e+05
-8.013200000000000000e+04 2.175520000000000000e+05
-1.005900000000000000e+04 2.565950000000000000e+05
7.996200000000000000e+04 2.591530000000000000e+05
1.653800000000000000e+05 2.242010000000000000e+05
2.226670000000000000e+05 1.650400000000000000e+05
2.518210000000000000e+05 9.121500000000000000e+04
2.540380000000000000e+05 1.909600000000000000e+04
2.369880000000000000e+05 -4.893200000000000000e+04
2.069810000000000000e+05 -1.063890000000000000e+05
1.652100000000000000e+05 -1.517400000000000000e+05
1.094580000000000000e+05 -1.814060000000000000e+05
4.722700000000000000e+04 -1.982860000000000000e+05
-5.967000000000000000e+03 -1.860100000000000000e+05
-3.409900000000000000e+04 -1.585610000000000000e+05
-4.825000000000000000e+04 -1.278710000000000000e+05
-4.773900000000000000e+04 -1.178120000000000000e+05
-5.319500000000000000e+04 -1.137200000000000000e+05
-6.512900000000000000e+04 -1.152550000000000000e+05
-7.791600000000000000e+04 -1.176420000000000000e+05
-9.956900000000000000e+04 -1.123560000000000000e+05
-1.283820000000000000e+05 -1.036610000000000000e+05
-1.597540000000000000e+05 -8.524700000000000000e+04
-1.894200000000000000e+05 -5.506900000000000000e+04
-2.120960000000000000e+05 -7.331000000000000000e+03
-2.163580000000000000e+05 5.592200000000000000e+04
-1.921480000000000000e+05 1.181530000000000000e+05
-1.392950000000000000e+05 1.665740000000000000e+05
-8.422500000000000000e+04 1.829420000000000000e+05
-4.160100000000000000e+04 1.752690000000000000e+05
-1.670900000000000000e+04 1.616290000000000000e+05
-8.354000000000000000e+03 1.510580000000000000e+05
-1.705000000000000000e+03 1.512290000000000000e+05
6.138000000000000000e+03 1.619710000000000000e+05
2.966600000000000000e+04 1.892500000000000000e+05
7.893900000000000000e+04 2.160180000000000000e+05
1.331570000000000000e+05 2.213020000000000000e+05
2.098800000000000000e+05 1.993080000000000000e+05
2.721100000000000000e+05 1.338380000000000000e+05
3.055270000000000000e+05 4.125900000000000000e+04
3.009240000000000000e+05 -5.626300000000000000e+04
2.637560000000000000e+05 -1.394650000000000000e+05
2.020370000000000000e+05 -2.018660000000000000e+05
1.362260000000000000e+05 -2.363060000000000000e+05
7.382400000000000000e+04 -2.542090000000000000e+05
1.483300000000000000e+04 -2.494350000000000000e+05
-3.631500000000000000e+04 -2.351130000000000000e+05
-7.928000000000000000e+04 -2.056170000000000000e+05
-1.057070000000000000e+05 -1.786790000000000000e+05
-1.207110000000000000e+05 -1.493540000000000000e+05
-1.317930000000000000e+05 -1.300880000000000000e+05
-1.420230000000000000e+05 -1.092870000000000000e+05
-1.566850000000000000e+05 -9.087400000000000000e+04
-1.710070000000000000e+05 -6.905100000000000000e+04
-1.832820000000000000e+05 -4.569300000000000000e+04
-1.923190000000000000e+05 -1.159400000000000000e+04
-2.023770000000000000e+05 2.642600000000000000e+04
-2.044230000000000000e+05 6.888000000000000000e+04
-1.926590000000000000e+05 1.246320000000000000e+05
-1.618000000000000000e+05 1.815770000000000000e+05
-1.031490000000000000e+05 2.276110000000000000e+05
-3.750900000000000000e+04 2.371590000000000000e+05
2.045900000000000000e+04 2.138010000000000000e+05
4.961400000000000000e+04 1.761210000000000000e+05
5.779800000000000000e+04 1.466250000000000000e+05
5.711600000000000000e+04 1.333270000000000000e+05
6.512900000000000000e+04 1.316220000000000000e+05
7.331300000000000000e+04 1.343500000000000000e+05
1.011030000000000000e+05 1.438980000000000000e+05
1.336680000000000000e+05 1.440680000000000000e+05
1.797020000000000000e+05 1.259960000000000000e+05
2.228370000000000000e+05 8.303100000000000000e+04
2.511390000000000000e+05 1.977700000000000000e+04
2.554020000000000000e+05 -5.575200000000000000e+04
2.340900000000000000e+05 -1.353730000000000000e+05
1.858400000000000000e+05 -1.962400000000000000e+05
1.227570000000000000e+05 -2.328960000000000000e+05
5.967400000000000000e+04 -2.494340000000000000e+05
2.046000000000000000e+03 -2.410800000000000000e+05
-3.750900000000000000e+04 -2.255650000000000000e+05
-7.211900000000000000e+04 -2.011850000000000000e+05
-9.769400000000000000e+04 -1.836240000000000000e+05
-1.237790000000000000e+05 -1.722010000000000000e+05
-1.529340000000000000e+05 -1.565150000000000000e+05
-1.865220000000000000e+05 -1.232680000000000000e+05
-2.074920000000000000e+05 -8.149700000000000000e+04
-2.182330000000000000e+05 -3.427000000000000000e+04
-2.190860000000000000e+05 1.295700000000000000e+04
-2.097090000000000000e+05 5.796800000000000000e+04
-1.955580000000000000e+05 1.024680000000000000e+05
-1.720290000000000000e+05 1.440680000000000000e+05
-1.435570000000000000e+05 1.832830000000000000e+05
-1.029790000000000000e+05 2.226660000000000000e+05
-4.484000000000000000e+04 2.489230000000000000e+05
2.028900000000000000e+04 2.569360000000000000e+05
8.899900000000000000e+04 2.342600000000000000e+05
1.340100000000000000e+05 1.832820000000000000e+05
1.456030000000000000e+05 1.333270000000000000e+05
1.420220000000000000e+05 9.991100000000000000e+04
1.408290000000000000e+05 7.842800000000000000e+04
1.444090000000000000e+05 6.649400000000000000e+04
1.563440000000000000e+05 5.609300000000000000e+04
1.739050000000000000e+05 3.836100000000000000e+04
1.841350000000000000e+05 5.456000000000000000e+03
1.933420000000000000e+05 -3.188200000000000000e+04
1.947050000000000000e+05 -8.388300000000000000e+04
1.762920000000000000e+05 -1.392950000000000000e+05
1.396360000000000000e+05 -1.868620000000000000e+05
8.593000000000000000e+04 -2.262470000000000000e+05
1.670900000000000000e+04 -2.373290000000000000e+05
-3.904400000000000000e+04 -2.279520000000000000e+05
-8.524700000000000000e+04 -1.969220000000000000e+05
-1.111630000000000000e+05 -1.643570000000000000e+05
-1.265080000000000000e+05 -1.348620000000000000e+05
-1.280420000000000000e+05 -1.118440000000000000e+05
-1.401470000000000000e+05 -9.769400000000000000e+04
-1.513990000000000000e+05 -8.780500000000000000e+04
-1.740760000000000000e+05 -7.229000000000000000e+04
-2.010140000000000000e+05 -3.887300000000000000e+04
-2.143120000000000000e+05 1.295700000000000000e+04
-2.132900000000000000e+05 7.433500000000000000e+04
-1.877150000000000000e+05 1.307700000000000000e+05
-1.449210000000000000e+05 1.761220000000000000e+05
-9.684100000000000000e+04 2.066400000000000000e+05
-4.449900000000000000e+04 2.209610000000000000e+05
6.138000000000000000e+03 2.279520000000000000e+05
5.472900000000000000e+04 2.240300000000000000e+05
9.956900000000000000e+04 2.061290000000000000e+05
1.432160000000000000e+05 1.761210000000000000e+05
1.718590000000000000e+05 1.343500000000000000e+05
1.982860000000000000e+05 7.399400000000000000e+04
1.906130000000000000e+05 2.949500000000000000e+04
1.766330000000000000e+05 -1.125200000000000000e+04
1.606060000000000000e+05 -3.426900000000000000e+04
1.491840000000000000e+05 -5.728700000000000000e+04
1.425340000000000000e+05 -7.979200000000000000e+04
1.256550000000000000e+05 -1.051950000000000000e+05
1.034910000000000000e+05 -1.331570000000000000e+05
7.672300000000000000e+04 -1.597540000000000000e+05
4.415800000000000000e+04 -1.783370000000000000e+05
-1.193000000000000000e+03 -1.926600000000000000e+05
-4.995500000000000000e+04 -1.887380000000000000e+05
