-6.819000000000000000e+03 -2.387000000000000000e+03
-5.967000000000000000e+03 8.520000000000000000e+02
-1.312800000000000000e+04 4.433000000000000000e+03
-1.261700000000000000e+04 1.108200000000000000e+04
-4.262000000000000000e+03 1.841300000000000000e+04
3.580000000000000000e+03 1.960700000000000000e+04
1.466200000000000000e+04 1.398100000000000000e+04
1.977700000000000000e+04 -0.000000000000000000e+00
1.381000000000000000e+04 -1.040100000000000000e+04
5.285000000000000000e+03 -1.483300000000000000e+04
-5.285000000000000000e+03 -1.193400000000000000e+04
-6.990000000000000000e+03 -6.479000000000000000e+03
-2.558000000000000000e+03 -1.023000000000000000e+03
-3.580000000000000000e+03 -0.000000000000000000e+00
-1.091200000000000000e+04 1.705000000000000000e+03
-8.355000000000000000e+03 8.525000000000000000e+03
-7.502000000000000000e+03 1.312900000000000000e+04
2.216000000000000000e+03 1.722000000000000000e+04
1.295800000000000000e+04 1.261600000000000000e+04
1.722000000000000000e+04 3.751000000000000000e+03
1.398100000000000000e+04 -7.502000000000000000e+03
3.069000000000000000e+03 -1.517400000000000000e+04
-3.239000000000000000e+03 -1.432200000000000000e+04
-5.456000000000000000e+03 -9.548000000000000000e+03
-2.216000000000000000e+03 -2.898000000000000000e+03
-2.728000000000000000e+03 5.115000000000000000e+03
-5.626000000000000000e+03 2.898000000000000000e+03
-1.005900000000000000e+04 5.285000000000000000e+03
-9.206000000000000000e+03 1.091200000000000000e+04
-3.921000000000000000e+03 1.381000000000000000e+04
7.502000000000000000e+03 1.432100000000000000e+04
1.551600000000000000e+04 3.409000000000000000e+03
1.756100000000000000e+04 -8.014000000000000000e+03
9.719000000000000000e+03 -1.415100000000000000e+04
-3.751000000000000000e+03 -1.653800000000000000e+04
-6.990000000000000000e+03 -8.525000000000000000e+03
-5.285000000000000000e+03 -2.898000000000000000e+03
-3.580000000000000000e+03 3.410000000000000000e+02
-3.409000000000000000e+03 1.364000000000000000e+03
-4.944000000000000000e+03 1.535000000000000000e+03
-9.206000000000000000e+03 6.990000000000000000e+03
-1.023000000000000000e+03 1.074100000000000000e+04
6.820000000000000000e+03 1.261700000000000000e+04
1.807300000000000000e+04 7.501000000000000000e+03
2.267600000000000000e+04 3.581000000000000000e+03
1.329900000000000000e+04 -3.409000000000000000e+03
-3.751000000000000000e+03 -5.796000000000000000e+03
-1.449200000000000000e+04 -6.990000000000000000e+03
-1.023000000000000000e+04 -2.216000000000000000e+03
-6.138000000000000000e+03 3.750000000000000000e+03
-3.751000000000000000e+03 3.069000000000000000e+03
-6.308000000000000000e+03 5.456000000000000000e+03
-3.922000000000000000e+03 6.820000000000000000e+03
-3.069000000000000000e+03 7.672000000000000000e+03
2.728000000000000000e+03 1.125300000000000000e+04
9.377000000000000000e+03 9.036000000000000000e+03
1.364000000000000000e+04 3.069000000000000000e+03
9.036000000000000000e+03 -5.796000000000000000e+03
1.710000000000000000e+02 -1.057100000000000000e+04
-8.524000000000000000e+03 -9.548000000000000000e+03
-5.967000000000000000e+03 -9.718000000000000000e+03
-4.603000000000000000e+03 -2.046000000000000000e+03
-4.774000000000000000e+03 -1.710000000000000000e+02
-2.728000000000000000e+03 -1.875000000000000000e+03
-4.433000000000000000e+03 5.110000000000000000e+02
-4.433000000000000000e+03 3.069000000000000000e+03
-1.710000000000000000e+02 5.115000000000000000e+03
6.138000000000000000e+03 7.672000000000000000e+03
7.502000000000000000e+03 7.501000000000000000e+03
7.502000000000000000e+03 2.387000000000000000e+03
3.410000000000000000e+02 -2.557000000000000000e+03
-6.820000000000000000e+03 -6.991000000000000000e+03
-1.040000000000000000e+04 -9.378000000000000000e+03
-9.377000000000000000e+03 -6.820000000000000000e+03
-4.774000000000000000e+03 -2.899000000000000000e+03
-2.558000000000000000e+03 -1.023000000000000000e+03
-1.023000000000000000e+03 1.194000000000000000e+03
-2.046000000000000000e+03 -3.069000000000000000e+03
-1.023000000000000000e+03 -2.387000000000000000e+03
1.705000000000000000e+03 2.557000000000000000e+03
7.502000000000000000e+03 1.700000000000000000e+02
1.500400000000000000e+04 1.700000000000000000e+02
1.346900000000000000e+04 1.535000000000000000e+03
6.138000000000000000e+03 6.990000000000000000e+03
-9.377000000000000000e+03 3.410000000000000000e+03
-2.114100000000000000e+04 2.046000000000000000e+03
-2.182400000000000000e+04 -1.057100000000000000e+04
-1.432100000000000000e+04 -1.449200000000000000e+04
-4.944000000000000000e+03 -1.483300000000000000e+04
1.023000000000000000e+03 -1.363900000000000000e+04
5.456000000000000000e+03 -8.354000000000000000e+03
1.364000000000000000e+04 -5.797000000000000000e+03
2.625700000000000000e+04 -3.410000000000000000e+02
3.597500000000000000e+04 1.636800000000000000e+04
1.977800000000000000e+04 3.631600000000000000e+04
-9.036000000000000000e+03 4.074800000000000000e+04
-4.432900000000000000e+04 2.710900000000000000e+04
-6.325300000000000000e+04 -7.331000000000000000e+03
-4.825000000000000000e+04 -4.023700000000000000e+04
-1.227500000000000000e+04 -4.944300000000000000e+04
