-2.064700000000000000e+05 -8.934000000000000000e+04
-2.366470000000000000e+05 -4.449900000000000000e+04
-2.547190000000000000e+05 9.718000000000000000e+03
-2.533560000000000000e+05 7.893900000000000000e+04
-2.248830000000000000e+05 1.401470000000000000e+05
-1.691310000000000000e+05 1.928300000000000000e+05
-9.155600000000000000e+04 2.211320000000000000e+05
-1.636700000000000000e+04 2.265880000000000000e+05
5.285300000000000000e+04 2.120960000000000000e+05
1.053660000000000000e+05 1.824300000000000000e+05
1.474790000000000000e+05 1.445800000000000000e+05
1.793610000000000000e+05 1.040020000000000000e+05
1.931710000000000000e+05 6.018500000000000000e+04
1.892490000000000000e+05 1.568600000000000000e+04
1.826000000000000000e+05 -2.540300000000000000e+04
1.609470000000000000e+05 -6.223100000000000000e+04
1.299170000000000000e+05 -8.763400000000000000e+04
9.377200000000000000e+04 -9.956900000000000000e+04
6.410600000000000000e+04 -1.004220000000000000e+05
3.273500000000000000e+04 -9.240800000000000000e+04
1.568600000000000000e+04 -8.115500000000000000e+04
3.580000000000000000e+03 -7.314300000000000000e+04
1.023000000000000000e+03 -6.342400000000000000e+04
-1.710000000000000000e+02 -6.461800000000000000e+04
-4.433000000000000000e+03 -6.512900000000000000e+04
-1.312800000000000000e+04 -7.280100000000000000e+04
-2.745000000000000000e+04 -7.791600000000000000e+04
-4.961500000000000000e+04 -8.354200000000000000e+04
-7.535900000000000000e+04 -7.893900000000000000e+04
-1.043430000000000000e+05 -6.529900000000000000e+04
-1.265080000000000000e+05 -4.347600000000000000e+04
-1.457730000000000000e+05 -1.176400000000000000e+04
-1.534450000000000000e+05 2.267600000000000000e+04
-1.432160000000000000e+05 5.438800000000000000e+04
-1.242900000000000000e+05 8.524800000000000000e+04
-8.934000000000000000e+04 9.939900000000000000e+04
-6.393600000000000000e+04 1.312810000000000000e+05
-1.892500000000000000e+04 1.410000000000000000e+05
2.983600000000000000e+04 1.365660000000000000e+05
7.570000000000000000e+04 1.244610000000000000e+05
1.140620000000000000e+05 1.007630000000000000e+05
1.437270000000000000e+05 6.734600000000000000e+04
1.524230000000000000e+05 2.881400000000000000e+04
1.450920000000000000e+05 -9.548000000000000000e+03
1.273600000000000000e+05 -3.989600000000000000e+04
1.029800000000000000e+05 -6.001400000000000000e+04
7.484700000000000000e+04 -7.297200000000000000e+04
5.046700000000000000e+04 -7.638100000000000000e+04
2.659700000000000000e+04 -7.501800000000000000e+04
1.074100000000000000e+04 -7.177900000000000000e+04
-5.627000000000000000e+03 -5.813800000000000000e+04
-1.415100000000000000e+04 -4.961400000000000000e+04
-1.670800000000000000e+04 -4.143000000000000000e+04
-1.909500000000000000e+04 -3.444000000000000000e+04
-1.875500000000000000e+04 -3.375800000000000000e+04
-1.926600000000000000e+04 -3.461100000000000000e+04
-2.506200000000000000e+04 -3.733800000000000000e+04
-2.676800000000000000e+04 -4.091900000000000000e+04
-3.768000000000000000e+04 -4.262400000000000000e+04
-4.944300000000000000e+04 -3.768000000000000000e+04
-6.581200000000000000e+04 -3.103000000000000000e+04
-8.013200000000000000e+04 -1.875400000000000000e+04
-8.678300000000000000e+04 -1.194000000000000000e+03
-9.206700000000000000e+04 1.875400000000000000e+04
-8.865800000000000000e+04 4.074800000000000000e+04
-7.109700000000000000e+04 5.882100000000000000e+04
-4.671600000000000000e+04 7.467700000000000000e+04
-1.824300000000000000e+04 8.252000000000000000e+04
1.295700000000000000e+04 8.524800000000000000e+04
-6.802700000000000000e+04 5.472900000000000000e+04
-4.381800000000000000e+04 6.751600000000000000e+04
-2.216500000000000000e+04 7.501800000000000000e+04
4.092000000000000000e+03 7.706400000000000000e+04
2.642700000000000000e+04 7.399500000000000000e+04
4.739700000000000000e+04 6.206100000000000000e+04
6.427700000000000000e+04 4.893200000000000000e+04
7.246000000000000000e+04 3.461100000000000000e+04
7.638200000000000000e+04 1.585600000000000000e+04
6.939200000000000000e+04 3.239000000000000000e+03
5.899200000000000000e+04 -1.108200000000000000e+04
4.944400000000000000e+04 -2.028900000000000000e+04
3.870200000000000000e+04 -2.199400000000000000e+04
2.830200000000000000e+04 -2.386900000000000000e+04
2.131200000000000000e+04 -2.097000000000000000e+04
1.159400000000000000e+04 -1.858400000000000000e+04
1.074200000000000000e+04 -2.063000000000000000e+04
1.023000000000000000e+04 -1.909500000000000000e+04
1.022900000000000000e+04 -2.182300000000000000e+04
8.866000000000000000e+03 -2.267600000000000000e+04
6.649000000000000000e+03 -2.966600000000000000e+04
4.433000000000000000e+03 -3.648600000000000000e+04
-4.603000000000000000e+03 -4.091900000000000000e+04
-1.415100000000000000e+04 -4.313500000000000000e+04
-2.710900000000000000e+04 -4.108900000000000000e+04
-4.245400000000000000e+04 -4.160000000000000000e+04
-5.524000000000000000e+04 -3.239400000000000000e+04
-6.410600000000000000e+04 -1.670900000000000000e+04
-7.246000000000000000e+04 -6.649000000000000000e+03
-7.484700000000000000e+04 8.695000000000000000e+03
-6.990300000000000000e+04 2.404000000000000000e+04
-6.530000000000000000e+04 3.768000000000000000e+04
-4.552200000000000000e+04 5.217200000000000000e+04
-2.915500000000000000e+04 6.086700000000000000e+04
-8.866000000000000000e+03 5.813900000000000000e+04
8.184000000000000000e+03 5.728700000000000000e+04
2.557400000000000000e+04 5.251200000000000000e+04
3.563400000000000000e+04 4.518200000000000000e+04
4.245300000000000000e+04 3.137100000000000000e+04
4.620400000000000000e+04 2.131200000000000000e+04
4.126000000000000000e+04 9.889000000000000000e+03
4.091900000000000000e+04 -1.193000000000000000e+03
3.887300000000000000e+04 -8.354000000000000000e+03
3.000800000000000000e+04 -1.227500000000000000e+04
2.216500000000000000e+04 -1.398000000000000000e+04
1.756100000000000000e+04 -1.670800000000000000e+04
1.159400000000000000e+04 -1.619700000000000000e+04
9.548000000000000000e+03 -1.585600000000000000e+04
5.286000000000000000e+03 -1.312800000000000000e+04
8.525000000000000000e+03 -1.312800000000000000e+04
6.308000000000000000e+03 -1.943600000000000000e+04
5.797000000000000000e+03 -1.773200000000000000e+04
2.387000000000000000e+03 -2.233500000000000000e+04
3.410000000000000000e+02 -2.659700000000000000e+04
-7.161000000000000000e+03 -3.580400000000000000e+04
-1.687900000000000000e+04 -3.563300000000000000e+04
-3.051900000000000000e+04 -3.341700000000000000e+04
-4.415800000000000000e+04 -2.830200000000000000e+04
-5.319500000000000000e+04 -1.926600000000000000e+04
-6.086700000000000000e+04 -3.580000000000000000e+03
-6.274300000000000000e+04 9.718000000000000000e+03
-6.171900000000000000e+04 2.438100000000000000e+04
-5.302400000000000000e+04 3.716800000000000000e+04
-4.211300000000000000e+04 4.995500000000000000e+04
-2.813200000000000000e+04 5.728600000000000000e+04
-9.036000000000000000e+03 5.984400000000000000e+04
1.074100000000000000e+04 5.762800000000000000e+04
3.341700000000000000e+04 5.285400000000000000e+04
3.921400000000000000e+04 4.620400000000000000e+04
4.842000000000000000e+04 3.546300000000000000e+04
5.285300000000000000e+04 1.704900000000000000e+04
5.200100000000000000e+04 1.125300000000000000e+04
4.296500000000000000e+04 6.820000000000000000e+02
3.938400000000000000e+04 -2.387000000000000000e+03
3.239400000000000000e+04 -5.968000000000000000e+03
3.103000000000000000e+04 -7.673000000000000000e+03
2.710900000000000000e+04 -8.184000000000000000e+03
2.028900000000000000e+04 -6.990000000000000000e+03
1.943600000000000000e+04 -5.286000000000000000e+03
1.960700000000000000e+04 -8.520000000000000000e+02
1.960700000000000000e+04 -3.069000000000000000e+03
1.875500000000000000e+04 -5.968000000000000000e+03
2.472200000000000000e+04 -4.092000000000000000e+03
3.290600000000000000e+04 -1.005900000000000000e+04
4.330600000000000000e+04 -1.892500000000000000e+04
6.103700000000000000e+04 -3.137100000000000000e+04
1.048540000000000000e+05 -6.308300000000000000e+04
3.597400000000000000e+04 -2.080040000000000000e+05
-1.011030000000000000e+05 -2.375000000000000000e+05
-2.163580000000000000e+05 -1.674260000000000000e+05
-2.792710000000000000e+05 -2.625700000000000000e+04
-2.579590000000000000e+05 1.290650000000000000e+05
-1.413410000000000000e+05 2.594930000000000000e+05
5.131900000000000000e+04 2.666540000000000000e+05
1.626520000000000000e+05 7.007400000000000000e+04
1.164480000000000000e+05 2.881400000000000000e+04
9.462500000000000000e+04 2.046000000000000000e+03
7.194900000000000000e+04 -1.466300000000000000e+04
4.927300000000000000e+04 -2.438100000000000000e+04
3.682700000000000000e+04 -3.017700000000000000e+04
2.267600000000000000e+04 -3.426900000000000000e+04
1.500400000000000000e+04 -2.864300000000000000e+04
7.843000000000000000e+03 -3.273500000000000000e+04
1.023000000000000000e+03 -3.171300000000000000e+04
-4.432000000000000000e+03 -2.352800000000000000e+04
-1.108200000000000000e+04 -1.875400000000000000e+04
-7.331000000000000000e+03 -1.500400000000000000e+04
-1.057100000000000000e+04 -1.244600000000000000e+04
-9.206000000000000000e+03 -1.040100000000000000e+04
-9.206000000000000000e+03 -5.285000000000000000e+03
-9.036000000000000000e+03 -7.502000000000000000e+03
-4.092000000000000000e+03 -8.184000000000000000e+03
-6.308000000000000000e+03 -8.866000000000000000e+03
-1.023000000000000000e+04 -8.014000000000000000e+03
-5.967000000000000000e+03 -6.649000000000000000e+03
-8.183000000000000000e+03 -5.627000000000000000e+03
-1.057000000000000000e+04 -4.774000000000000000e+03
-1.091100000000000000e+04 -5.626000000000000000e+03
-1.040000000000000000e+04 -1.023000000000000000e+03
-1.381000000000000000e+04 -5.110000000000000000e+02
-1.517400000000000000e+04 3.921000000000000000e+03
-1.125200000000000000e+04 7.161000000000000000e+03
-1.398000000000000000e+04 1.023000000000000000e+04
-1.074100000000000000e+04 1.244700000000000000e+04
-6.308000000000000000e+03 1.739100000000000000e+04
-3.069000000000000000e+03 1.807300000000000000e+04
2.046000000000000000e+03 1.449200000000000000e+04
6.138000000000000000e+03 1.943600000000000000e+04
7.502000000000000000e+03 1.227600000000000000e+04
1.176500000000000000e+04 8.696000000000000000e+03
1.398100000000000000e+04 4.604000000000000000e+03
1.500300000000000000e+04 -0.000000000000000000e+00
1.159400000000000000e+04 -1.023000000000000000e+03
8.695000000000000000e+03 -5.456000000000000000e+03
7.161000000000000000e+03 -8.524000000000000000e+03
5.967000000000000000e+03 -8.014000000000000000e+03
3.069000000000000000e+03 -8.013000000000000000e+03
-3.410000000000000000e+02 -6.479000000000000000e+03
1.364000000000000000e+03 -8.014000000000000000e+03
-2.046000000000000000e+03 -8.184000000000000000e+03
-4.263000000000000000e+03 -9.206000000000000000e+03
-6.820000000000000000e+02 -4.262000000000000000e+03
-3.751000000000000000e+03 -4.433000000000000000e+03
-1.705000000000000000e+03 -4.944000000000000000e+03
-1.364000000000000000e+03 -3.069000000000000000e+03
-1.705000000000000000e+03 -5.627000000000000000e+03
-2.728000000000000000e+03 -4.433000000000000000e+03
-2.045000000000000000e+03 -7.502000000000000000e+03
-6.137000000000000000e+03 -7.673000000000000000e+03
-6.649000000000000000e+03 -6.990000000000000000e+03
-8.184000000000000000e+03 -2.387000000000000000e+03
-6.990000000000000000e+03 -3.922000000000000000e+03
-1.057000000000000000e+04 -8.520000000000000000e+02
-1.159300000000000000e+04 3.921000000000000000e+03
-9.889000000000000000e+03 6.478000000000000000e+03
-8.354000000000000000e+03 8.184000000000000000e+03
-7.331000000000000000e+03 1.125200000000000000e+04
-4.091000000000000000e+03 1.483300000000000000e+04
-3.921000000000000000e+03 1.278700000000000000e+04
6.820000000000000000e+02 1.500400000000000000e+04
2.387000000000000000e+03 1.756100000000000000e+04
8.184000000000000000e+03 1.159300000000000000e+04
1.023000000000000000e+04 8.354000000000000000e+03
1.244600000000000000e+04 5.456000000000000000e+03
1.040100000000000000e+04 4.092000000000000000e+03
8.184000000000000000e+03 -3.410000000000000000e+02
6.820000000000000000e+03 -1.875000000000000000e+03
8.696000000000000000e+03 -5.797000000000000000e+03
4.604000000000000000e+03 -4.774000000000000000e+03
3.069000000000000000e+03 -6.479000000000000000e+03
5.120000000000000000e+02 -6.138000000000000000e+03
3.410000000000000000e+02 -5.797000000000000000e+03
1.705000000000000000e+03 -9.548000000000000000e+03
-3.410000000000000000e+02 -7.332000000000000000e+03
1.364000000000000000e+03 -7.672000000000000000e+03
-3.410000000000000000e+02 -7.502000000000000000e+03
0.000000000000000000e+00 -7.843000000000000000e+03
-1.023000000000000000e+03 -7.672000000000000000e+03
-4.944000000000000000e+03 -8.866000000000000000e+03
-2.386000000000000000e+03 -7.672000000000000000e+03
-5.796000000000000000e+03 -1.057100000000000000e+04
