-1.938530000000000000e+05 -8.524800000000000000e+04
-2.098790000000000000e+05 -6.939200000000000000e+04
-2.218140000000000000e+05 -4.637500000000000000e+04
-2.366470000000000000e+05 -2.216400000000000000e+04
-2.409090000000000000e+05 5.797000000000000000e+03
-2.436370000000000000e+05 3.239400000000000000e+04
-2.450010000000000000e+05 6.598100000000000000e+04
-2.357940000000000000e+05 9.752300000000000000e+04
-2.202790000000000000e+05 1.273600000000000000e+05
-1.981150000000000000e+05 1.568560000000000000e+05
-1.727110000000000000e+05 1.807250000000000000e+05
-1.420230000000000000e+05 1.993090000000000000e+05
-1.053660000000000000e+05 2.138010000000000000e+05
-6.615200000000000000e+04 2.218140000000000000e+05
-2.779100000000000000e+04 2.253950000000000000e+05
9.889000000000000000e+03 2.211330000000000000e+05
4.091900000000000000e+04 2.110730000000000000e+05
7.229000000000000000e+04 2.011840000000000000e+05
9.888700000000000000e+04 1.856700000000000000e+05
1.213930000000000000e+05 1.727120000000000000e+05
1.418520000000000000e+05 1.507180000000000000e+05
1.580490000000000000e+05 1.345210000000000000e+05
1.742460000000000000e+05 1.128680000000000000e+05
1.776560000000000000e+05 9.326100000000000000e+04
1.890790000000000000e+05 6.785700000000000000e+04
1.923180000000000000e+05 4.671600000000000000e+04
1.931710000000000000e+05 2.250500000000000000e+04
1.979450000000000000e+05 3.922000000000000000e+03
1.889090000000000000e+05 -1.705000000000000000e+04
1.846470000000000000e+05 -4.074900000000000000e+04
1.720300000000000000e+05 -5.711600000000000000e+04
1.592430000000000000e+05 -7.484700000000000000e+04
1.408290000000000000e+05 -8.712300000000000000e+04
1.266780000000000000e+05 -9.718200000000000000e+04
1.080940000000000000e+05 -1.034910000000000000e+05
8.524700000000000000e+04 -1.072420000000000000e+05
6.956200000000000000e+04 -1.111630000000000000e+05
5.097800000000000000e+04 -1.077530000000000000e+05
3.716800000000000000e+04 -1.040020000000000000e+05
2.284700000000000000e+04 -9.974000000000000000e+04
1.193400000000000000e+04 -9.189700000000000000e+04
3.921000000000000000e+03 -8.558800000000000000e+04
-3.410000000000000000e+03 -8.251900000000000000e+04
-5.627000000000000000e+03 -7.876900000000000000e+04
-1.142400000000000000e+04 -7.297200000000000000e+04
-8.695000000000000000e+03 -6.785700000000000000e+04
-1.244700000000000000e+04 -6.666400000000000000e+04
-1.381000000000000000e+04 -6.427600000000000000e+04
-1.295800000000000000e+04 -6.291300000000000000e+04
-1.585600000000000000e+04 -6.308300000000000000e+04
-2.131200000000000000e+04 -6.444700000000000000e+04
-2.659800000000000000e+04 -6.819800000000000000e+04
-3.205300000000000000e+04 -7.212000000000000000e+04
-3.938400000000000000e+04 -7.075600000000000000e+04
-4.910300000000000000e+04 -7.297200000000000000e+04
-5.694600000000000000e+04 -7.314300000000000000e+04
-7.092600000000000000e+04 -7.143700000000000000e+04
-8.558900000000000000e+04 -6.939100000000000000e+04
-9.667100000000000000e+04 -6.086700000000000000e+04
-1.096280000000000000e+05 -5.302400000000000000e+04
-1.200290000000000000e+05 -4.347600000000000000e+04
-1.266780000000000000e+05 -2.779100000000000000e+04
-1.362260000000000000e+05 -1.432100000000000000e+04
-1.421930000000000000e+05 -6.820000000000000000e+02
-1.432160000000000000e+05 1.773100000000000000e+04
-1.421930000000000000e+05 3.495100000000000000e+04
-1.358850000000000000e+05 5.046700000000000000e+04
-1.282130000000000000e+05 6.478800000000000000e+04
-1.179830000000000000e+05 8.030300000000000000e+04
-1.051960000000000000e+05 9.087400000000000000e+04
-9.138500000000000000e+04 9.104500000000000000e+04
-8.814600000000000000e+04 1.087760000000000000e+05
-7.024400000000000000e+04 1.246320000000000000e+05
-4.484000000000000000e+04 1.321340000000000000e+05
-2.404000000000000000e+04 1.334980000000000000e+05
-4.262000000000000000e+03 1.391240000000000000e+05
1.909500000000000000e+04 1.360550000000000000e+05
4.330600000000000000e+04 1.345210000000000000e+05
6.615200000000000000e+04 1.287240000000000000e+05
8.593000000000000000e+04 1.193460000000000000e+05
1.080940000000000000e+05 1.063890000000000000e+05
1.225860000000000000e+05 9.138500000000000000e+04
1.369080000000000000e+05 7.382500000000000000e+04
1.459440000000000000e+05 5.080700000000000000e+04
1.525930000000000000e+05 3.529200000000000000e+04
1.462850000000000000e+05 1.363900000000000000e+04
1.476480000000000000e+05 -1.705000000000000000e+03
1.406590000000000000e+05 -1.756100000000000000e+04
1.357140000000000000e+05 -3.461100000000000000e+04
1.201990000000000000e+05 -5.029600000000000000e+04
1.092870000000000000e+05 -5.950200000000000000e+04
9.701200000000000000e+04 -6.734500000000000000e+04
8.405400000000000000e+04 -7.314200000000000000e+04
7.229000000000000000e+04 -7.535900000000000000e+04
5.796800000000000000e+04 -8.217800000000000000e+04
4.262300000000000000e+04 -8.183700000000000000e+04
2.966600000000000000e+04 -8.030300000000000000e+04
2.011800000000000000e+04 -7.774500000000000000e+04
1.040000000000000000e+04 -7.638200000000000000e+04
-2.728000000000000000e+03 -7.246100000000000000e+04
-7.501000000000000000e+03 -6.717500000000000000e+04
-1.347000000000000000e+04 -6.103700000000000000e+04
-2.046000000000000000e+04 -5.779800000000000000e+04
-1.790200000000000000e+04 -5.200100000000000000e+04
-2.489300000000000000e+04 -4.688600000000000000e+04
-2.199400000000000000e+04 -4.074900000000000000e+04
-2.523400000000000000e+04 -3.819100000000000000e+04
-2.369900000000000000e+04 -3.375800000000000000e+04
-2.489300000000000000e+04 -3.461100000000000000e+04
-2.591600000000000000e+04 -3.358800000000000000e+04
-2.762000000000000000e+04 -3.171200000000000000e+04
-2.267600000000000000e+04 -3.273500000000000000e+04
-2.676800000000000000e+04 -3.154100000000000000e+04
-2.745000000000000000e+04 -3.256400000000000000e+04
-2.676800000000000000e+04 -3.512200000000000000e+04
-3.017800000000000000e+04 -3.478100000000000000e+04
-3.614500000000000000e+04 -3.853200000000000000e+04
-4.245400000000000000e+04 -3.614500000000000000e+04
-4.790900000000000000e+04 -3.512200000000000000e+04
-5.353600000000000000e+04 -3.085900000000000000e+04
-5.762800000000000000e+04 -2.847300000000000000e+04
-6.461800000000000000e+04 -2.267600000000000000e+04
-7.126600000000000000e+04 -1.841300000000000000e+04
-7.484700000000000000e+04 -1.193500000000000000e+04
-8.183700000000000000e+04 -3.069000000000000000e+03
-8.286100000000000000e+04 5.797000000000000000e+03
-8.763400000000000000e+04 1.483300000000000000e+04
-8.780500000000000000e+04 2.540400000000000000e+04
-8.098600000000000000e+04 3.256400000000000000e+04
-7.740500000000000000e+04 4.535200000000000000e+04
-7.041500000000000000e+04 5.183100000000000000e+04
-6.103800000000000000e+04 5.984400000000000000e+04
-5.131900000000000000e+04 7.024400000000000000e+04
-3.171300000000000000e+04 7.672300000000000000e+04
-2.386900000000000000e+04 7.996200000000000000e+04
-1.040100000000000000e+04 8.064400000000000000e+04
2.558000000000000000e+03 8.269000000000000000e+04
-8.047400000000000000e+04 4.279400000000000000e+04
-6.939200000000000000e+04 5.097800000000000000e+04
-6.410700000000000000e+04 5.796800000000000000e+04
-5.097800000000000000e+04 5.984400000000000000e+04
-3.938500000000000000e+04 6.751600000000000000e+04
-2.557400000000000000e+04 7.194900000000000000e+04
-1.790200000000000000e+04 7.928100000000000000e+04
-2.898000000000000000e+03 7.604100000000000000e+04
1.159300000000000000e+04 7.433600000000000000e+04
2.062900000000000000e+04 7.672300000000000000e+04
3.478100000000000000e+04 7.331300000000000000e+04
4.330500000000000000e+04 7.024400000000000000e+04
5.404700000000000000e+04 6.172000000000000000e+04
6.069600000000000000e+04 5.575200000000000000e+04
6.888000000000000000e+04 4.910300000000000000e+04
7.246000000000000000e+04 4.091900000000000000e+04
7.433500000000000000e+04 3.137200000000000000e+04
7.587000000000000000e+04 2.318700000000000000e+04
7.518800000000000000e+04 1.500300000000000000e+04
7.194800000000000000e+04 5.115000000000000000e+03
6.836900000000000000e+04 -1.875000000000000000e+03
6.137800000000000000e+04 -1.329900000000000000e+04
5.950300000000000000e+04 -1.466300000000000000e+04
5.217100000000000000e+04 -1.977800000000000000e+04
4.756800000000000000e+04 -2.369900000000000000e+04
3.853100000000000000e+04 -2.284600000000000000e+04
3.392900000000000000e+04 -2.727900000000000000e+04
2.830300000000000000e+04 -2.642700000000000000e+04
2.318700000000000000e+04 -2.727900000000000000e+04
1.875500000000000000e+04 -2.574500000000000000e+04
1.500300000000000000e+04 -2.625600000000000000e+04
1.176400000000000000e+04 -2.557400000000000000e+04
9.888000000000000000e+03 -2.421000000000000000e+04
5.796000000000000000e+03 -1.994800000000000000e+04
3.751000000000000000e+03 -2.165300000000000000e+04
7.843000000000000000e+03 -2.028900000000000000e+04
4.432000000000000000e+03 -1.926600000000000000e+04
6.478000000000000000e+03 -2.421000000000000000e+04
3.580000000000000000e+03 -2.352800000000000000e+04
5.967000000000000000e+03 -2.199400000000000000e+04
5.967000000000000000e+03 -2.796100000000000000e+04
1.193000000000000000e+03 -2.745000000000000000e+04
4.091000000000000000e+03 -3.120100000000000000e+04
6.820000000000000000e+02 -3.290600000000000000e+04
-1.193000000000000000e+03 -3.682700000000000000e+04
-7.843000000000000000e+03 -4.074800000000000000e+04
-5.456000000000000000e+03 -4.057800000000000000e+04
-1.585600000000000000e+04 -4.228300000000000000e+04
-1.517500000000000000e+04 -4.381700000000000000e+04
-2.540300000000000000e+04 -4.177100000000000000e+04
-3.239400000000000000e+04 -4.194100000000000000e+04
-3.819100000000000000e+04 -3.921400000000000000e+04
-4.535100000000000000e+04 -3.750900000000000000e+04
-5.097800000000000000e+04 -3.290500000000000000e+04
-5.404700000000000000e+04 -2.932500000000000000e+04
-6.308300000000000000e+04 -2.148200000000000000e+04
-6.478800000000000000e+04 -1.346900000000000000e+04
-6.905000000000000000e+04 -8.866000000000000000e+03
-7.331300000000000000e+04 -3.240000000000000000e+03
-7.212000000000000000e+04 3.751000000000000000e+03
-7.263100000000000000e+04 1.074100000000000000e+04
-7.399400000000000000e+04 2.148200000000000000e+04
-6.478800000000000000e+04 2.625700000000000000e+04
-6.120800000000000000e+04 3.597400000000000000e+04
-5.745700000000000000e+04 4.381700000000000000e+04
-4.876100000000000000e+04 4.859100000000000000e+04
-4.040800000000000000e+04 5.507000000000000000e+04
-3.171300000000000000e+04 5.933300000000000000e+04
-2.165300000000000000e+04 6.240200000000000000e+04
-1.159400000000000000e+04 6.137900000000000000e+04
-4.092000000000000000e+03 6.001400000000000000e+04
5.456000000000000000e+03 6.035500000000000000e+04
1.040100000000000000e+04 5.592200000000000000e+04
2.165300000000000000e+04 5.438800000000000000e+04
2.830200000000000000e+04 5.455900000000000000e+04
3.171300000000000000e+04 4.501100000000000000e+04
3.972500000000000000e+04 4.006600000000000000e+04
4.262400000000000000e+04 3.529300000000000000e+04
4.876100000000000000e+04 2.779100000000000000e+04
4.620400000000000000e+04 2.455100000000000000e+04
4.944300000000000000e+04 1.943600000000000000e+04
4.688700000000000000e+04 1.534500000000000000e+04
4.654500000000000000e+04 8.184000000000000000e+03
4.381700000000000000e+04 2.046000000000000000e+03
4.501000000000000000e+04 -3.410000000000000000e+03
4.006600000000000000e+04 -9.377000000000000000e+03
3.546300000000000000e+04 -9.547000000000000000e+03
3.205300000000000000e+04 -1.653800000000000000e+04
2.762100000000000000e+04 -1.756100000000000000e+04
2.369900000000000000e+04 -1.824300000000000000e+04
2.114100000000000000e+04 -1.875400000000000000e+04
1.977700000000000000e+04 -1.926600000000000000e+04
1.210600000000000000e+04 -1.858400000000000000e+04
1.381000000000000000e+04 -1.551500000000000000e+04
8.865000000000000000e+03 -1.602700000000000000e+04
6.649000000000000000e+03 -1.636800000000000000e+04
3.409000000000000000e+03 -1.722000000000000000e+04
5.456000000000000000e+03 -1.585600000000000000e+04
3.239000000000000000e+03 -1.824300000000000000e+04
5.115000000000000000e+03 -1.687900000000000000e+04
3.581000000000000000e+03 -1.619700000000000000e+04
4.773000000000000000e+03 -1.773100000000000000e+04
2.387000000000000000e+03 -1.722000000000000000e+04
4.091000000000000000e+03 -1.739100000000000000e+04
2.557000000000000000e+03 -2.045900000000000000e+04
6.820000000000000000e+02 -2.335800000000000000e+04
1.705000000000000000e+03 -2.284600000000000000e+04
-2.387000000000000000e+03 -2.693800000000000000e+04
-3.921000000000000000e+03 -2.898400000000000000e+04
-6.650000000000000000e+03 -3.137100000000000000e+04
-1.091200000000000000e+04 -3.597500000000000000e+04
-1.773200000000000000e+04 -3.307600000000000000e+04
-2.404000000000000000e+04 -3.512200000000000000e+04
-2.779100000000000000e+04 -3.495100000000000000e+04
-3.000800000000000000e+04 -3.103000000000000000e+04
-4.228300000000000000e+04 -2.369800000000000000e+04
-4.637500000000000000e+04 -2.642700000000000000e+04
-5.217200000000000000e+04 -2.063000000000000000e+04
-5.114900000000000000e+04 -1.346900000000000000e+04
-5.813900000000000000e+04 -8.695000000000000000e+03
-6.086700000000000000e+04 1.193000000000000000e+03
-6.206100000000000000e+04 7.502000000000000000e+03
-6.257200000000000000e+04 1.483300000000000000e+04
-5.779800000000000000e+04 2.131200000000000000e+04
-5.711600000000000000e+04 2.745000000000000000e+04
-5.404700000000000000e+04 3.461100000000000000e+04
-4.825000000000000000e+04 4.364700000000000000e+04
-4.330600000000000000e+04 4.603400000000000000e+04
-3.682700000000000000e+04 4.790900000000000000e+04
-3.154200000000000000e+04 5.626300000000000000e+04
-2.284600000000000000e+04 5.745700000000000000e+04
-1.005900000000000000e+04 5.831000000000000000e+04
-3.240000000000000000e+03 5.882100000000000000e+04
6.649000000000000000e+03 5.865100000000000000e+04
1.517400000000000000e+04 5.950300000000000000e+04
2.335800000000000000e+04 5.438800000000000000e+04
3.427000000000000000e+04 5.148900000000000000e+04
3.955500000000000000e+04 4.211200000000000000e+04
4.279400000000000000e+04 4.160100000000000000e+04
4.586300000000000000e+04 3.409900000000000000e+04
5.080700000000000000e+04 2.898400000000000000e+04
5.114900000000000000e+04 2.267600000000000000e+04
5.029600000000000000e+04 1.551500000000000000e+04
5.012600000000000000e+04 1.108200000000000000e+04
4.944300000000000000e+04 6.309000000000000000e+03
4.739700000000000000e+04 1.876000000000000000e+03
4.432800000000000000e+04 -2.728000000000000000e+03
4.040700000000000000e+04 -3.239000000000000000e+03
4.108900000000000000e+04 -3.751000000000000000e+03
3.631500000000000000e+04 -6.991000000000000000e+03
3.478100000000000000e+04 -7.673000000000000000e+03
3.069000000000000000e+04 -5.115000000000000000e+03
2.915400000000000000e+04 -1.057000000000000000e+04
2.438000000000000000e+04 -6.990000000000000000e+03
2.301600000000000000e+04 -8.866000000000000000e+03
2.318700000000000000e+04 -8.184000000000000000e+03
1.875400000000000000e+04 -4.433000000000000000e+03
1.739100000000000000e+04 -4.774000000000000000e+03
1.909600000000000000e+04 -5.967000000000000000e+03
1.705000000000000000e+04 -4.433000000000000000e+03
1.295700000000000000e+04 -2.387000000000000000e+03
1.449200000000000000e+04 -5.797000000000000000e+03
1.875400000000000000e+04 -1.535000000000000000e+03
1.653800000000000000e+04 -4.262000000000000000e+03
2.045900000000000000e+04 -4.092000000000000000e+03
2.097100000000000000e+04 -7.502000000000000000e+03
2.045900000000000000e+04 -4.092000000000000000e+03
2.727900000000000000e+04 -8.354000000000000000e+03
3.171200000000000000e+04 -1.108200000000000000e+04
3.836200000000000000e+04 -1.585600000000000000e+04
4.654500000000000000e+04 -2.063000000000000000e+04
5.711600000000000000e+04 -2.898400000000000000e+04
7.331300000000000000e+04 -4.211200000000000000e+04
9.752400000000000000e+04 -5.950300000000000000e+04
1.150850000000000000e+05 -8.541800000000000000e+04
4.108900000000000000e+04 -1.960690000000000000e+05
-2.659700000000000000e+04 -2.262470000000000000e+05
-9.138600000000000000e+04 -2.279520000000000000e+05
-1.471370000000000000e+05 -2.054460000000000000e+05
-1.984560000000000000e+05 -1.686200000000000000e+05
-2.398870000000000000e+05 -1.109920000000000000e+05
-2.661430000000000000e+05 -4.177200000000000000e+04
-2.748390000000000000e+05 3.171200000000000000e+04
-2.565950000000000000e+05 1.137200000000000000e+05
-2.153350000000000000e+05 1.870330000000000000e+05
-1.522520000000000000e+05 2.484120000000000000e+05
-6.581100000000000000e+04 2.794420000000000000e+05
3.478100000000000000e+04 2.729630000000000000e+05
1.633340000000000000e+05 1.265070000000000000e+05
1.594130000000000000e+05 7.825700000000000000e+04
1.331570000000000000e+05 5.353500000000000000e+04
1.173010000000000000e+05 3.358800000000000000e+04
1.051960000000000000e+05 1.381000000000000000e+04
9.343200000000000000e+04 5.797000000000000000e+03
8.524800000000000000e+04 -5.967000000000000000e+03
7.621200000000000000e+04 -1.108200000000000000e+04
6.888000000000000000e+04 -1.892500000000000000e+04
5.660500000000000000e+04 -2.318800000000000000e+04
4.808000000000000000e+04 -2.949600000000000000e+04
4.313600000000000000e+04 -3.171300000000000000e+04
3.205300000000000000e+04 -3.086000000000000000e+04
2.830300000000000000e+04 -3.068900000000000000e+04
2.114200000000000000e+04 -3.222300000000000000e+04
1.585600000000000000e+04 -2.983700000000000000e+04
1.653800000000000000e+04 -3.904300000000000000e+04
9.889000000000000000e+03 -3.444000000000000000e+04
8.520000000000000000e+02 -3.120000000000000000e+04
-1.193000000000000000e+03 -2.796100000000000000e+04
-4.092000000000000000e+03 -2.966700000000000000e+04
-3.410000000000000000e+03 -2.762000000000000000e+04
-8.695000000000000000e+03 -2.250500000000000000e+04
-1.022900000000000000e+04 -2.199400000000000000e+04
-1.176400000000000000e+04 -1.739000000000000000e+04
-1.193400000000000000e+04 -1.756100000000000000e+04
-1.312800000000000000e+04 -1.517400000000000000e+04
-1.193500000000000000e+04 -1.023000000000000000e+04
-1.125200000000000000e+04 -1.193500000000000000e+04
-1.108200000000000000e+04 -8.014000000000000000e+03
-1.227600000000000000e+04 -8.013000000000000000e+03
-1.329800000000000000e+04 -9.037000000000000000e+03
-9.377000000000000000e+03 -1.074100000000000000e+04
-8.695000000000000000e+03 -5.797000000000000000e+03
-9.377000000000000000e+03 -4.604000000000000000e+03
-5.626000000000000000e+03 -5.456000000000000000e+03
-7.842000000000000000e+03 -5.285000000000000000e+03
-6.308000000000000000e+03 -6.308000000000000000e+03
-8.184000000000000000e+03 -5.797000000000000000e+03
-6.309000000000000000e+03 -4.603000000000000000e+03
-6.478000000000000000e+03 -5.967000000000000000e+03
-7.672000000000000000e+03 -9.547000000000000000e+03
-6.649000000000000000e+03 -7.843000000000000000e+03
-3.922000000000000000e+03 -4.433000000000000000e+03
-1.091200000000000000e+04 -6.649000000000000000e+03
-6.308000000000000000e+03 -3.921000000000000000e+03
-8.354000000000000000e+03 -5.286000000000000000e+03
-1.005900000000000000e+04 -2.557000000000000000e+03
-1.176400000000000000e+04 3.410000000000000000e+02
-1.091100000000000000e+04 -1.193000000000000000e+03
-1.415100000000000000e+04 5.120000000000000000e+02
-1.568600000000000000e+04 1.534000000000000000e+03
-1.227500000000000000e+04 4.603000000000000000e+03
-1.534400000000000000e+04 2.728000000000000000e+03
-1.278700000000000000e+04 6.650000000000000000e+03
-1.193500000000000000e+04 6.650000000000000000e+03
-1.364000000000000000e+04 7.842000000000000000e+03
-1.142400000000000000e+04 1.108200000000000000e+04
-1.227600000000000000e+04 1.057100000000000000e+04
-1.057000000000000000e+04 1.415200000000000000e+04
-9.036000000000000000e+03 1.159400000000000000e+04
-6.990000000000000000e+03 1.739100000000000000e+04
-3.921000000000000000e+03 1.534500000000000000e+04
-4.603000000000000000e+03 1.398100000000000000e+04
-8.520000000000000000e+02 1.568600000000000000e+04
3.751000000000000000e+03 1.670800000000000000e+04
3.239000000000000000e+03 1.551500000000000000e+04
5.967000000000000000e+03 1.841400000000000000e+04
7.672000000000000000e+03 1.227600000000000000e+04
7.161000000000000000e+03 9.207000000000000000e+03
1.023000000000000000e+04 1.057100000000000000e+04
1.295800000000000000e+04 6.479000000000000000e+03
1.261700000000000000e+04 5.968000000000000000e+03
1.329900000000000000e+04 6.479000000000000000e+03
1.210500000000000000e+04 4.604000000000000000e+03
1.568600000000000000e+04 2.217000000000000000e+03
1.244600000000000000e+04 1.023000000000000000e+03
1.449200000000000000e+04 -3.239000000000000000e+03
1.227600000000000000e+04 -3.068000000000000000e+03
1.108200000000000000e+04 -2.728000000000000000e+03
9.548000000000000000e+03 -4.773000000000000000e+03
6.138000000000000000e+03 -5.796000000000000000e+03
6.650000000000000000e+03 -4.944000000000000000e+03
4.604000000000000000e+03 -6.479000000000000000e+03
7.673000000000000000e+03 -8.695000000000000000e+03
3.751000000000000000e+03 -7.843000000000000000e+03
2.898000000000000000e+03 -4.263000000000000000e+03
-1.193000000000000000e+03 -8.525000000000000000e+03
6.820000000000000000e+02 -9.718000000000000000e+03
8.520000000000000000e+02 -7.843000000000000000e+03
-5.120000000000000000e+02 -9.377000000000000000e+03
-5.120000000000000000e+02 -8.184000000000000000e+03
8.530000000000000000e+02 -9.548000000000000000e+03
-6.820000000000000000e+02 -6.649000000000000000e+03
-3.580000000000000000e+03 -6.649000000000000000e+03
-3.239000000000000000e+03 -3.410000000000000000e+02
-3.410000000000000000e+03 -4.774000000000000000e+03
-4.433000000000000000e+03 -5.968000000000000000e+03
-2.046000000000000000e+03 -6.479000000000000000e+03
-4.604000000000000000e+03 -6.308000000000000000e+03
-3.581000000000000000e+03 -3.580000000000000000e+03
-4.603000000000000000e+03 -4.604000000000000000e+03
-3.581000000000000000e+03 -2.558000000000000000e+03
-8.530000000000000000e+02 -7.502000000000000000e+03
-2.046000000000000000e+03 -3.751000000000000000e+03
-3.410000000000000000e+02 -1.023000000000000000e+03
-4.944000000000000000e+03 -5.286000000000000000e+03
-5.115000000000000000e+03 -7.332000000000000000e+03
-2.557000000000000000e+03 -8.525000000000000000e+03
-5.626000000000000000e+03 -4.433000000000000000e+03
-5.115000000000000000e+03 -6.308000000000000000e+03
-6.990000000000000000e+03 -4.433000000000000000e+03
-6.649000000000000000e+03 -5.456000000000000000e+03
-9.206000000000000000e+03 -4.092000000000000000e+03
-1.244600000000000000e+04 -1.193000000000000000e+03
-5.285000000000000000e+03 -1.364000000000000000e+03
-1.364000000000000000e+04 -1.534000000000000000e+03
-1.074100000000000000e+04 -2.046000000000000000e+03
-1.005900000000000000e+04 3.240000000000000000e+03
-1.005900000000000000e+04 4.433000000000000000e+03
-9.718000000000000000e+03 4.774000000000000000e+03
-9.037000000000000000e+03 8.354000000000000000e+03
-8.696000000000000000e+03 7.842000000000000000e+03
-1.176400000000000000e+04 9.036000000000000000e+03
-8.183000000000000000e+03 9.718000000000000000e+03
-8.524000000000000000e+03 1.091100000000000000e+04
-5.455000000000000000e+03 1.125200000000000000e+04
-8.013000000000000000e+03 1.108200000000000000e+04
-5.285000000000000000e+03 1.125300000000000000e+04
-7.331000000000000000e+03 1.346900000000000000e+04
-5.456000000000000000e+03 1.244600000000000000e+04
3.410000000000000000e+02 1.244600000000000000e+04
3.580000000000000000e+03 1.381000000000000000e+04
1.876000000000000000e+03 1.278700000000000000e+04
4.433000000000000000e+03 1.687900000000000000e+04
6.308000000000000000e+03 1.159400000000000000e+04
1.023000000000000000e+04 1.261600000000000000e+04
8.866000000000000000e+03 1.244600000000000000e+04
9.207000000000000000e+03 1.040000000000000000e+04
1.329900000000000000e+04 7.502000000000000000e+03
1.074100000000000000e+04 2.557000000000000000e+03
1.261700000000000000e+04 4.262000000000000000e+03
9.207000000000000000e+03 -5.110000000000000000e+02
9.548000000000000000e+03 -2.899000000000000000e+03
1.210600000000000000e+04 -2.899000000000000000e+03
9.207000000000000000e+03 -1.875000000000000000e+03
1.023000000000000000e+04 -2.557000000000000000e+03
9.207000000000000000e+03 -4.774000000000000000e+03
9.037000000000000000e+03 -5.456000000000000000e+03
4.262000000000000000e+03 -3.921000000000000000e+03
4.774000000000000000e+03 -5.115000000000000000e+03
4.944000000000000000e+03 -8.354000000000000000e+03
8.520000000000000000e+02 -8.354000000000000000e+03
1.535000000000000000e+03 -7.161000000000000000e+03
-2.557000000000000000e+03 -8.354000000000000000e+03
1.705000000000000000e+03 -6.649000000000000000e+03
-5.110000000000000000e+02 -4.092000000000000000e+03
1.023000000000000000e+03 -7.843000000000000000e+03
1.194000000000000000e+03 -8.013000000000000000e+03
5.110000000000000000e+02 -4.433000000000000000e+03
-3.410000000000000000e+02 -8.013000000000000000e+03
-1.710000000000000000e+02 -5.797000000000000000e+03
1.705000000000000000e+03 -7.502000000000000000e+03
-2.898000000000000000e+03 -6.138000000000000000e+03
3.410000000000000000e+02 -5.456000000000000000e+03
-2.216000000000000000e+03 -5.456000000000000000e+03
-5.110000000000000000e+02 -5.797000000000000000e+03
5.110000000000000000e+02 -8.184000000000000000e+03
-2.558000000000000000e+03 -6.820000000000000000e+03
-3.410000000000000000e+03 -4.092000000000000000e+03
-4.092000000000000000e+03 -6.649000000000000000e+03
-2.046000000000000000e+03 -5.285000000000000000e+03
-3.751000000000000000e+03 -9.889000000000000000e+03
-7.502000000000000000e+03 -1.023000000000000000e+04
-5.797000000000000000e+03 -5.456000000000000000e+03
