-2.149950000000000000e+05 7.672200000000000000e+04
-1.667440000000000000e+05 1.135490000000000000e+05
-1.178120000000000000e+05 1.265070000000000000e+05
-7.160800000000000000e+04 1.282120000000000000e+05
-3.648600000000000000e+04 1.200280000000000000e+05
-1.312800000000000000e+04 1.036610000000000000e+05
6.820000000000000000e+02 9.206700000000000000e+04
6.820000000000000000e+03 8.541800000000000000e+04
1.125300000000000000e+04 8.030300000000000000e+04
1.670900000000000000e+04 7.962100000000000000e+04
2.864300000000000000e+04 8.354300000000000000e+04
4.501000000000000000e+04 8.882800000000000000e+04
6.529900000000000000e+04 8.797600000000000000e+04
8.780500000000000000e+04 8.388400000000000000e+04
1.149130000000000000e+05 7.143700000000000000e+04
1.425340000000000000e+05 5.029600000000000000e+04
1.672560000000000000e+05 2.011900000000000000e+04
1.778260000000000000e+05 -1.244600000000000000e+04
1.793600000000000000e+05 -5.029600000000000000e+04
1.631640000000000000e+05 -9.223800000000000000e+04
1.358850000000000000e+05 -1.278710000000000000e+05
9.291900000000000000e+04 -1.587310000000000000e+05
3.921400000000000000e+04 -1.774850000000000000e+05
-1.722000000000000000e+04 -1.808950000000000000e+05
-7.467700000000000000e+04 -1.641860000000000000e+05
-1.207110000000000000e+05 -1.355440000000000000e+05
-1.549800000000000000e+05 -9.377200000000000000e+04
-1.735650000000000000e+05 -5.319500000000000000e+04
-1.711770000000000000e+05 -6.308000000000000000e+03
-1.587310000000000000e+05 3.188300000000000000e+04
-1.329860000000000000e+05 6.768700000000000000e+04
-1.005920000000000000e+05 8.490600000000000000e+04
-6.922100000000000000e+04 9.616000000000000000e+04
-3.716800000000000000e+04 9.360200000000000000e+04
-9.207000000000000000e+03 8.797500000000000000e+04
2.898000000000000000e+03 6.973200000000000000e+04
2.284600000000000000e+04 6.154900000000000000e+04
2.898400000000000000e+04 4.978500000000000000e+04
3.154100000000000000e+04 4.040800000000000000e+04
3.051900000000000000e+04 3.512200000000000000e+04
3.461000000000000000e+04 3.563300000000000000e+04
3.819100000000000000e+04 3.870300000000000000e+04
5.302400000000000000e+04 3.955500000000000000e+04
6.137900000000000000e+04 3.904400000000000000e+04
7.263100000000000000e+04 3.239400000000000000e+04
8.831600000000000000e+04 2.011900000000000000e+04
9.462500000000000000e+04 5.285000000000000000e+03
1.000810000000000000e+05 -1.500300000000000000e+04
1.041720000000000000e+05 -3.733900000000000000e+04
8.865800000000000000e+04 -6.308300000000000000e+04
7.314300000000000000e+04 -7.928000000000000000e+04
4.842100000000000000e+04 -9.581800000000000000e+04
1.756100000000000000e+04 -1.048550000000000000e+05
-1.432200000000000000e+04 -1.040020000000000000e+05
-4.364600000000000000e+04 -9.973900000000000000e+04
-7.126700000000000000e+04 -8.644100000000000000e+04
-9.292000000000000000e+04 -6.478800000000000000e+04
-1.057070000000000000e+05 -3.853200000000000000e+04
-1.087750000000000000e+05 -1.176400000000000000e+04
-1.075820000000000000e+05 1.091200000000000000e+04
-9.138500000000000000e+04 3.546300000000000000e+04
-7.194800000000000000e+04 5.148900000000000000e+04
-5.131900000000000000e+04 5.831000000000000000e+04
-2.966600000000000000e+04 6.103800000000000000e+04
-1.159400000000000000e+04 5.813900000000000000e+04
2.899000000000000000e+03 4.927400000000000000e+04
1.756100000000000000e+04 4.177100000000000000e+04
1.994800000000000000e+04 3.307600000000000000e+04
2.455100000000000000e+04 2.506300000000000000e+04
-1.415200000000000000e+04 2.216500000000000000e+04
-1.125300000000000000e+04 1.960700000000000000e+04
-9.036000000000000000e+03 1.824300000000000000e+04
-8.695000000000000000e+03 1.926600000000000000e+04
-7.331000000000000000e+03 2.523300000000000000e+04
-1.363000000000000000e+03 3.392900000000000000e+04
2.046000000000000000e+03 4.160100000000000000e+04
1.210500000000000000e+04 4.790900000000000000e+04
2.267600000000000000e+04 5.080700000000000000e+04
3.597500000000000000e+04 4.825000000000000000e+04
5.080800000000000000e+04 4.040700000000000000e+04
6.001400000000000000e+04 3.239500000000000000e+04
6.956200000000000000e+04 1.705000000000000000e+04
7.672300000000000000e+04 -1.193000000000000000e+03
7.177800000000000000e+04 -1.824300000000000000e+04
6.393600000000000000e+04 -3.733800000000000000e+04
4.791000000000000000e+04 -4.910300000000000000e+04
3.034800000000000000e+04 -6.189000000000000000e+04
9.036000000000000000e+03 -6.649400000000000000e+04
-8.354000000000000000e+03 -6.836900000000000000e+04
-2.693800000000000000e+04 -6.206000000000000000e+04
-4.279400000000000000e+04 -5.012500000000000000e+04
-5.370600000000000000e+04 -3.785000000000000000e+04
-6.154800000000000000e+04 -2.540400000000000000e+04
-6.206000000000000000e+04 -1.227600000000000000e+04
-5.882000000000000000e+04 2.046000000000000000e+03
-5.370600000000000000e+04 1.108200000000000000e+04
-4.569200000000000000e+04 1.773100000000000000e+04
-3.495100000000000000e+04 2.301700000000000000e+04
-2.898400000000000000e+04 2.199400000000000000e+04
-2.165200000000000000e+04 2.352800000000000000e+04
-1.670800000000000000e+04 2.182300000000000000e+04
-1.568500000000000000e+04 1.705000000000000000e+04
-1.329900000000000000e+04 1.824300000000000000e+04
-1.517400000000000000e+04 1.687900000000000000e+04
-1.227500000000000000e+04 1.994800000000000000e+04
-1.023000000000000000e+04 2.932500000000000000e+04
-6.819000000000000000e+03 3.034900000000000000e+04
-8.530000000000000000e+02 3.716800000000000000e+04
8.525000000000000000e+03 4.006600000000000000e+04
1.841400000000000000e+04 3.870200000000000000e+04
2.762100000000000000e+04 3.733800000000000000e+04
3.853200000000000000e+04 3.000700000000000000e+04
4.671600000000000000e+04 2.301700000000000000e+04
5.285400000000000000e+04 9.207000000000000000e+03
5.728600000000000000e+04 -2.728000000000000000e+03
5.302400000000000000e+04 -1.756100000000000000e+04
4.637500000000000000e+04 -3.392900000000000000e+04
3.205300000000000000e+04 -4.449900000000000000e+04
1.994800000000000000e+04 -5.217100000000000000e+04
6.820000000000000000e+02 -5.762700000000000000e+04
-1.841400000000000000e+04 -5.728600000000000000e+04
-3.529200000000000000e+04 -4.654500000000000000e+04
-4.501000000000000000e+04 -3.921400000000000000e+04
-5.302400000000000000e+04 -2.540300000000000000e+04
-5.694500000000000000e+04 -1.022900000000000000e+04
-5.336400000000000000e+04 1.875000000000000000e+03
-5.080800000000000000e+04 7.161000000000000000e+03
-4.108900000000000000e+04 1.892500000000000000e+04
-3.392900000000000000e+04 2.352900000000000000e+04
-2.557500000000000000e+04 2.369900000000000000e+04
-1.892500000000000000e+04 2.557500000000000000e+04
-1.483300000000000000e+04 2.250600000000000000e+04
-8.524000000000000000e+03 2.352800000000000000e+04
-6.991000000000000000e+03 2.080000000000000000e+04
-5.456000000000000000e+03 2.438100000000000000e+04
-6.308000000000000000e+03 2.523400000000000000e+04
1.705000000000000000e+03 2.949600000000000000e+04
5.114000000000000000e+03 2.813200000000000000e+04
9.206000000000000000e+03 3.239400000000000000e+04
1.688000000000000000e+04 3.358700000000000000e+04
2.762000000000000000e+04 3.188300000000000000e+04
3.631500000000000000e+04 2.796100000000000000e+04
4.125900000000000000e+04 2.387000000000000000e+04
4.467000000000000000e+04 1.483300000000000000e+04
4.859100000000000000e+04 1.125200000000000000e+04
5.183000000000000000e+04 7.673000000000000000e+03
4.671600000000000000e+04 1.535000000000000000e+03
4.552200000000000000e+04 -3.069000000000000000e+03
4.603400000000000000e+04 -9.718000000000000000e+03
4.518200000000000000e+04 -1.585600000000000000e+04
4.023700000000000000e+04 -2.114200000000000000e+04
4.739700000000000000e+04 -3.478100000000000000e+04
4.586300000000000000e+04 -5.080700000000000000e+04
3.887300000000000000e+04 -6.990300000000000000e+04
3.307600000000000000e+04 -1.053660000000000000e+05
-2.506200000000000000e+04 -1.575380000000000000e+05
-1.948760000000000000e+05 -1.866930000000000000e+05
-2.272700000000000000e+05 -4.688600000000000000e+04
-1.870330000000000000e+05 6.564000000000000000e+04
-1.106520000000000000e+05 1.300880000000000000e+05
-2.779100000000000000e+04 1.459440000000000000e+05
4.450000000000000000e+04 1.115040000000000000e+05
1.048540000000000000e+05 1.875500000000000000e+04
4.364700000000000000e+04 9.207000000000000000e+03
3.086000000000000000e+04 7.161000000000000000e+03
2.557400000000000000e+04 8.525000000000000000e+03
1.943700000000000000e+04 5.285000000000000000e+03
2.114100000000000000e+04 5.967000000000000000e+03
2.148300000000000000e+04 2.898000000000000000e+03
1.994800000000000000e+04 -1.705000000000000000e+03
1.500300000000000000e+04 -9.548000000000000000e+03
2.404000000000000000e+04 -9.548000000000000000e+03
2.045900000000000000e+04 -1.483300000000000000e+04
1.807300000000000000e+04 -2.045900000000000000e+04
1.466300000000000000e+04 -2.267600000000000000e+04
8.184000000000000000e+03 -2.284700000000000000e+04
-3.410000000000000000e+02 -2.693900000000000000e+04
-5.286000000000000000e+03 -2.591500000000000000e+04
-1.040000000000000000e+04 -2.267600000000000000e+04
-1.483300000000000000e+04 -1.875400000000000000e+04
-1.636800000000000000e+04 -1.568600000000000000e+04
-2.438100000000000000e+04 -1.790200000000000000e+04
-2.063000000000000000e+04 -7.843000000000000000e+03
-1.943600000000000000e+04 -5.286000000000000000e+03
-1.960700000000000000e+04 -0.000000000000000000e+00
-1.466200000000000000e+04 7.161000000000000000e+03
-1.381000000000000000e+04 9.377000000000000000e+03
-9.206000000000000000e+03 1.005900000000000000e+04
-7.160000000000000000e+03 1.108200000000000000e+04
-4.773000000000000000e+03 1.278700000000000000e+04
-4.092000000000000000e+03 1.261600000000000000e+04
3.069000000000000000e+03 9.718000000000000000e+03
-1.023000000000000000e+03 9.889000000000000000e+03
-1.700000000000000000e+02 6.478000000000000000e+03
4.092000000000000000e+03 3.410000000000000000e+03
3.410000000000000000e+03 6.308000000000000000e+03
1.710000000000000000e+02 3.069000000000000000e+03
1.364000000000000000e+03 4.091000000000000000e+03
0.000000000000000000e+00 1.193000000000000000e+03
0.000000000000000000e+00 5.456000000000000000e+03
4.604000000000000000e+03 4.433000000000000000e+03
2.387000000000000000e+03 4.944000000000000000e+03
7.673000000000000000e+03 6.649000000000000000e+03
8.695000000000000000e+03 2.898000000000000000e+03
9.377000000000000000e+03 2.899000000000000000e+03
9.548000000000000000e+03 -3.410000000000000000e+02
1.023000000000000000e+04 -3.581000000000000000e+03
9.889000000000000000e+03 -9.889000000000000000e+03
4.774000000000000000e+03 -9.718000000000000000e+03
7.161000000000000000e+03 -1.142300000000000000e+04
2.728000000000000000e+03 -1.142300000000000000e+04
-3.410000000000000000e+03 -1.568600000000000000e+04
-5.627000000000000000e+03 -1.381000000000000000e+04
-6.478000000000000000e+03 -1.329900000000000000e+04
-7.331000000000000000e+03 -8.355000000000000000e+03
-1.381000000000000000e+04 -9.036000000000000000e+03
-1.415100000000000000e+04 -4.092000000000000000e+03
-1.261600000000000000e+04 -1.535000000000000000e+03
-1.210500000000000000e+04 1.875000000000000000e+03
-1.074100000000000000e+04 4.773000000000000000e+03
-1.005900000000000000e+04 6.308000000000000000e+03
-3.750000000000000000e+03 8.865000000000000000e+03
-3.410000000000000000e+03 8.354000000000000000e+03
-8.530000000000000000e+02 7.672000000000000000e+03
-1.535000000000000000e+03 7.160000000000000000e+03
1.534000000000000000e+03 8.695000000000000000e+03
-1.023000000000000000e+03 5.626000000000000000e+03
1.710000000000000000e+02 4.092000000000000000e+03
-1.705000000000000000e+03 5.967000000000000000e+03
-2.046000000000000000e+03 5.967000000000000000e+03
2.046000000000000000e+03 5.967000000000000000e+03
5.110000000000000000e+02 5.797000000000000000e+03
1.534000000000000000e+03 8.354000000000000000e+03
1.705000000000000000e+03 7.331000000000000000e+03
3.069000000000000000e+03 7.160000000000000000e+03
5.797000000000000000e+03 8.695000000000000000e+03
9.037000000000000000e+03 2.899000000000000000e+03
1.227500000000000000e+04 1.876000000000000000e+03
1.091200000000000000e+04 -6.820000000000000000e+02
1.312800000000000000e+04 -6.309000000000000000e+03
9.889000000000000000e+03 -8.866000000000000000e+03
8.184000000000000000e+03 -1.125200000000000000e+04
5.968000000000000000e+03 -1.210600000000000000e+04
3.410000000000000000e+03 -1.312800000000000000e+04
-1.534000000000000000e+03 -1.346900000000000000e+04
-3.410000000000000000e+02 -1.381000000000000000e+04
-6.649000000000000000e+03 -1.227600000000000000e+04
-1.108200000000000000e+04 -1.091200000000000000e+04
-1.619700000000000000e+04 -8.184000000000000000e+03
-1.500300000000000000e+04 -1.876000000000000000e+03
