1.292350000000000000e+05 -9.326080000000000000e+05
-8.904960000000000000e+05 -5.522330000000000000e+05
-1.060138000000000000e+06 1.347000000000000000e+04
-9.326080000000000000e+05 5.200100000000000000e+05
-5.863330000000000000e+05 9.092500000000000000e+05
-2.301700000000000000e+04 1.076336000000000000e+06
5.704770000000000000e+05 6.855610000000000000e+05
3.588920000000000000e+05 4.279400000000000000e+04
-2.540400000000000000e+04 1.062190000000000000e+05
-5.865100000000000000e+04 3.394560000000000000e+05
8.388400000000000000e+04 4.853990000000000000e+05
2.883070000000000000e+05 5.377420000000000000e+05
5.194980000000000000e+05 4.908560000000000000e+05
7.389250000000000000e+05 3.444000000000000000e+05
9.020890000000000000e+05 6.990300000000000000e+04
9.227190000000000000e+05 -3.133700000000000000e+05
7.119870000000000000e+05 -7.097720000000000000e+05
3.079140000000000000e+05 -9.305620000000000000e+05
-9.820600000000000000e+04 -8.922010000000000000e+05
-3.594040000000000000e+05 -6.807870000000000000e+05
-4.569270000000000000e+05 -4.362970000000000000e+05
-4.407300000000000000e+05 -2.288040000000000000e+05
-3.486630000000000000e+05 -7.945100000000000000e+04
-2.115840000000000000e+05 -1.381100000000000000e+04
-5.677500000000000000e+04 -8.610000000000000000e+04
-4.825000000000000000e+04 -3.517310000000000000e+05
-4.507890000000000000e+05 -5.491650000000000000e+05
-8.103640000000000000e+05 -2.542080000000000000e+05
-8.175250000000000000e+05 1.280420000000000000e+05
-6.845380000000000000e+05 3.941840000000000000e+05
-5.137020000000000000e+05 5.726930000000000000e+05
-3.275210000000000000e+05 6.937450000000000000e+05
-1.258250000000000000e+05 7.731950000000000000e+05
9.019100000000000000e+04 8.009860000000000000e+05
3.152450000000000000e+05 7.750700000000000000e+05
5.321160000000000000e+05 6.695340000000000000e+05
7.200000000000000000e+05 4.782390000000000000e+05
8.129200000000000000e+05 1.824290000000000000e+05
7.321060000000000000e+05 -1.512290000000000000e+05
4.403880000000000000e+05 -3.409910000000000000e+05
2.274400000000000000e+05 -2.061290000000000000e+05
3.333180000000000000e+05 -9.223800000000000000e+04
4.286250000000000000e+05 -2.083450000000000000e+05
3.998110000000000000e+05 -3.815680000000000000e+05
2.876250000000000000e+05 -5.322860000000000000e+05
1.263370000000000000e+05 -6.303200000000000000e+05
-5.268300000000000000e+04 -6.758430000000000000e+05
-2.497760000000000000e+05 -6.702170000000000000e+05
-4.380020000000000000e+05 -6.093490000000000000e+05
-6.021890000000000000e+05 -4.746580000000000000e+05
-7.143750000000000000e+05 -2.797820000000000000e+05
-7.315950000000000000e+05 -2.932600000000000000e+04
-6.396980000000000000e+05 2.178930000000000000e+05
-4.553930000000000000e+05 3.917980000000000000e+05
-2.385230000000000000e+05 4.461850000000000000e+05
-6.206100000000000000e+04 3.861710000000000000e+05
-5.967000000000000000e+03 2.540370000000000000e+05
-7.689400000000000000e+04 1.919780000000000000e+05
-1.111620000000000000e+05 2.791010000000000000e+05
-3.341700000000000000e+04 3.559930000000000000e+05
7.314200000000000000e+04 3.698040000000000000e+05
1.614580000000000000e+05 3.471280000000000000e+05
2.390340000000000000e+05 3.109830000000000000e+05
2.981960000000000000e+05 2.562540000000000000e+05
3.496860000000000000e+05 1.883970000000000000e+05
3.953780000000000000e+05 1.130380000000000000e+05
4.241920000000000000e+05 1.568600000000000000e+04
4.328870000000000000e+05 -1.041730000000000000e+05
3.894110000000000000e+05 -2.586410000000000000e+05
2.596650000000000000e+05 -4.042440000000000000e+05
5.472900000000000000e+04 -4.446520000000000000e+05
-1.084350000000000000e+05 -3.442290000000000000e+05
-1.277000000000000000e+05 -2.049350000000000000e+05
-7.058500000000000000e+04 -1.425340000000000000e+05
-1.602700000000000000e+04 -1.621410000000000000e+05
-1.977700000000000000e+04 -2.233480000000000000e+05
-8.558800000000000000e+04 -2.818290000000000000e+05
-1.875440000000000000e+05 -2.954680000000000000e+05
-2.883070000000000000e+05 -2.480710000000000000e+05
-3.634950000000000000e+05 -1.553210000000000000e+05
-3.888990000000000000e+05 -4.467000000000000000e+04
-3.749180000000000000e+05 7.160800000000000000e+04
-3.263280000000000000e+05 1.762920000000000000e+05
-2.441490000000000000e+05 2.634150000000000000e+05
-1.435570000000000000e+05 3.196780000000000000e+05
-2.591500000000000000e+04 3.341700000000000000e+05
8.831600000000000000e+04 2.932510000000000000e+05
1.711770000000000000e+05 1.955580000000000000e+05
1.524230000000000000e+05 7.587000000000000000e+04
8.627100000000000000e+04 3.444000000000000000e+04
5.251300000000000000e+04 4.296500000000000000e+04
4.808000000000000000e+04 5.370600000000000000e+04
5.711600000000000000e+04 5.234200000000000000e+04
6.223100000000000000e+04 5.183000000000000000e+04
6.581100000000000000e+04 4.569300000000000000e+04
7.808600000000000000e+04 3.648600000000000000e+04
8.183800000000000000e+04 3.086000000000000000e+04
8.951000000000000000e+04 2.131100000000000000e+04
9.564800000000000000e+04 9.377000000000000000e+03
1.016150000000000000e+05 -1.176400000000000000e+04
1.017860000000000000e+05 -3.137100000000000000e+04
8.507700000000000000e+04 -5.967300000000000000e+04
5.558100000000000000e+04 -7.518800000000000000e+04
2.318800000000000000e+04 -6.649400000000000000e+04
7.501000000000000000e+03 -4.415900000000000000e+04
6.138000000000000000e+03 -2.932600000000000000e+04
1.363900000000000000e+04 -1.705000000000000000e+04
2.796100000000000000e+04 -5.285000000000000000e+03
5.200100000000000000e+04 -1.091200000000000000e+04
7.621100000000000000e+04 -2.710900000000000000e+04
9.854600000000000000e+04 -7.109600000000000000e+04
8.951000000000000000e+04 -1.410000000000000000e+05
3.068900000000000000e+04 -2.049350000000000000e+05
-5.933300000000000000e+04 -2.328960000000000000e+05
-1.505480000000000000e+05 -2.127780000000000000e+05
-2.228380000000000000e+05 -1.549800000000000000e+05
-2.685300000000000000e+05 -7.467700000000000000e+04
-2.838740000000000000e+05 1.261700000000000000e+04
-2.637560000000000000e+05 1.057070000000000000e+05
-2.045950000000000000e+05 1.797020000000000000e+05
-1.248020000000000000e+05 2.221550000000000000e+05
-4.279400000000000000e+04 2.207910000000000000e+05
6.820000000000000000e+03 1.812370000000000000e+05
3.751000000000000000e+03 1.486710000000000000e+05
3.240000000000000000e+03 1.524220000000000000e+05
2.216500000000000000e+04 1.693020000000000000e+05
5.813900000000000000e+04 1.779970000000000000e+05
1.005920000000000000e+05 1.793610000000000000e+05
1.454330000000000000e+05 1.606060000000000000e+05
1.921480000000000000e+05 1.365670000000000000e+05
2.344310000000000000e+05 9.462400000000000000e+04
2.639260000000000000e+05 3.614500000000000000e+04
2.923990000000000000e+05 -4.876200000000000000e+04
2.722810000000000000e+05 -1.551500000000000000e+05
1.877150000000000000e+05 -2.506280000000000000e+05
5.899200000000000000e+04 -2.811460000000000000e+05
-3.870300000000000000e+04 -2.325550000000000000e+05
-7.655200000000000000e+04 -1.633340000000000000e+05
-6.649300000000000000e+04 -1.132090000000000000e+05
-3.750900000000000000e+04 -9.138600000000000000e+04
-8.013000000000000000e+03 -1.041730000000000000e+05
4.945000000000000000e+03 -1.461140000000000000e+05
-2.318700000000000000e+04 -2.076630000000000000e+05
-1.101400000000000000e+05 -2.697230000000000000e+05
-2.518210000000000000e+05 -2.772250000000000000e+05
-3.810570000000000000e+05 -1.962400000000000000e+05
-4.487430000000000000e+05 -5.285300000000000000e+04
-4.369790000000000000e+05 9.684100000000000000e+04
-3.813980000000000000e+05 2.213020000000000000e+05
-2.954680000000000000e+05 3.210420000000000000e+05
-1.848160000000000000e+05 3.888990000000000000e+05
-6.547000000000000000e+04 4.260680000000000000e+05
6.154900000000000000e+04 4.168610000000000000e+05
1.691310000000000000e+05 3.648600000000000000e+05
2.267590000000000000e+05 2.804640000000000000e+05
2.296570000000000000e+05 2.086860000000000000e+05
2.124370000000000000e+05 1.912960000000000000e+05
2.484120000000000000e+05 2.185740000000000000e+05
3.527550000000000000e+05 2.044230000000000000e+05
4.436280000000000000e+05 1.017860000000000000e+05
4.693730000000000000e+05 -4.245300000000000000e+04
4.368090000000000000e+05 -1.762920000000000000e+05
3.675880000000000000e+05 -2.872840000000000000e+05
2.688710000000000000e+05 -3.730430000000000000e+05
1.571970000000000000e+05 -4.439700000000000000e+05
3.154200000000000000e+04 -4.876160000000000000e+05
-1.155950000000000000e+05 -4.927300000000000000e+05
-2.738150000000000000e+05 -4.410710000000000000e+05
-3.992990000000000000e+05 -3.239400000000000000e+05
-4.495960000000000000e+05 -1.500360000000000000e+05
-3.866830000000000000e+05 2.045000000000000000e+03
-2.862610000000000000e+05 6.905100000000000000e+04
-2.163580000000000000e+05 5.438700000000000000e+04
-2.076630000000000000e+05 2.148200000000000000e+04
-2.492640000000000000e+05 7.501000000000000000e+03
-3.143930000000000000e+05 4.552200000000000000e+04
-3.467870000000000000e+05 1.459440000000000000e+05
-3.200190000000000000e+05 2.743260000000000000e+05
-2.223250000000000000e+05 3.812270000000000000e+05
-9.002100000000000000e+04 4.419230000000000000e+05
4.995500000000000000e+04 4.477200000000000000e+05
1.778260000000000000e+05 4.148140000000000000e+05
2.831920000000000000e+05 3.520720000000000000e+05
3.708270000000000000e+05 2.596640000000000000e+05
4.238500000000000000e+05 1.450910000000000000e+05
4.385130000000000000e+05 2.148200000000000000e+04
3.958900000000000000e+05 -1.041730000000000000e+05
3.120060000000000000e+05 -1.931710000000000000e+05
2.243710000000000000e+05 -2.163590000000000000e+05
1.824300000000000000e+05 -1.987970000000000000e+05
1.996500000000000000e+05 -1.970920000000000000e+05
2.236900000000000000e+05 -2.673370000000000000e+05
1.936820000000000000e+05 -3.933320000000000000e+05
6.700500000000000000e+04 -5.140420000000000000e+05
-1.304290000000000000e+05 -5.570080000000000000e+05
-3.290550000000000000e+05 -5.002330000000000000e+05
-4.695440000000000000e+05 -3.698040000000000000e+05
-5.397870000000000000e+05 -2.074920000000000000e+05
-5.578600000000000000e+05 -4.876200000000000000e+04
-5.309210000000000000e+05 1.017860000000000000e+05
-4.736350000000000000e+05 2.346010000000000000e+05
-3.829320000000000000e+05 3.476390000000000000e+05
-2.603460000000000000e+05 4.354440000000000000e+05
-1.115030000000000000e+05 4.707370000000000000e+05
2.847300000000000000e+04 4.362970000000000000e+05
1.048550000000000000e+05 3.590630000000000000e+05
1.205400000000000000e+05 3.041630000000000000e+05
1.367370000000000000e+05 3.063800000000000000e+05
2.034010000000000000e+05 3.183140000000000000e+05
2.978550000000000000e+05 2.908640000000000000e+05
3.810560000000000000e+05 2.163580000000000000e+05
4.277730000000000000e+05 1.154250000000000000e+05
4.426050000000000000e+05 3.410000000000000000e+02
4.231690000000000000e+05 -1.040020000000000000e+05
3.771360000000000000e+05 -2.006730000000000000e+05
3.109830000000000000e+05 -2.809760000000000000e+05
2.351130000000000000e+05 -3.450820000000000000e+05
1.418520000000000000e+05 -3.883880000000000000e+05
3.478100000000000000e+04 -4.102120000000000000e+05
-7.587000000000000000e+04 -3.887290000000000000e+05
-1.650390000000000000e+05 -3.167800000000000000e+05
-1.938530000000000000e+05 -2.252240000000000000e+05
-1.701540000000000000e+05 -1.675970000000000000e+05
-1.413410000000000000e+05 -1.609470000000000000e+05
-1.485010000000000000e+05 -1.815780000000000000e+05
-1.885670000000000000e+05 -2.064700000000000000e+05
-2.632450000000000000e+05 -2.109030000000000000e+05
-3.588920000000000000e+05 -1.739050000000000000e+05
-4.426050000000000000e+05 -8.217900000000000000e+04
-4.922190000000000000e+05 6.120800000000000000e+04
-4.572680000000000000e+05 2.267590000000000000e+05
-3.594030000000000000e+05 3.663940000000000000e+05
-2.182340000000000000e+05 4.484020000000000000e+05
-7.416500000000000000e+04 4.722720000000000000e+05
4.978500000000000000e+04 4.562450000000000000e+05
1.485010000000000000e+05 4.049260000000000000e+05
2.165290000000000000e+05 3.379210000000000000e+05
2.610280000000000000e+05 2.690410000000000000e+05
2.770540000000000000e+05 2.054470000000000000e+05
2.825100000000000000e+05 1.679380000000000000e+05
3.084250000000000000e+05 1.488420000000000000e+05
3.675880000000000000e+05 1.109920000000000000e+05
4.202710000000000000e+05 1.773200000000000000e+04
4.255560000000000000e+05 -9.718300000000000000e+04
3.895820000000000000e+05 -2.178930000000000000e+05
3.149050000000000000e+05 -3.210420000000000000e+05
2.134600000000000000e+05 -3.941850000000000000e+05
9.769400000000000000e+04 -4.381730000000000000e+05
-2.045900000000000000e+04 -4.495960000000000000e+05
-1.282120000000000000e+05 -4.294780000000000000e+05
