-2.311910000000000000e+05 -3.773060000000000000e+05
-2.552310000000000000e+05 -3.655420000000000000e+05
-2.770540000000000000e+05 -3.455930000000000000e+05
-2.942740000000000000e+05 -3.230880000000000000e+05
-3.131990000000000000e+05 -3.038220000000000000e+05
-3.311010000000000000e+05 -2.818290000000000000e+05
-3.421840000000000000e+05 -2.559130000000000000e+05
-3.530950000000000000e+05 -2.284630000000000000e+05
-3.628140000000000000e+05 -2.018670000000000000e+05
-3.701450000000000000e+05 -1.718590000000000000e+05
-3.735550000000000000e+05 -1.433860000000000000e+05
-3.699740000000000000e+05 -1.115040000000000000e+05
-3.663940000000000000e+05 -7.962200000000000000e+04
-3.553120000000000000e+05 -5.421800000000000000e+04
-3.411610000000000000e+05 -2.949500000000000000e+04
-3.249640000000000000e+05 -3.751000000000000000e+03
-3.075730000000000000e+05 1.466200000000000000e+04
-2.879660000000000000e+05 3.051800000000000000e+04
-2.705750000000000000e+05 4.006600000000000000e+04
-2.516510000000000000e+05 4.790900000000000000e+04
-2.351130000000000000e+05 4.927400000000000000e+04
-2.192570000000000000e+05 5.063700000000000000e+04
-2.086860000000000000e+05 4.944400000000000000e+04
-2.022070000000000000e+05 4.705700000000000000e+04
-1.938530000000000000e+05 3.853200000000000000e+04
-1.897610000000000000e+05 3.716700000000000000e+04
-1.885670000000000000e+05 3.427000000000000000e+04
-1.894200000000000000e+05 3.239400000000000000e+04
-1.877150000000000000e+05 3.222300000000000000e+04
-1.945350000000000000e+05 2.915500000000000000e+04
-1.991380000000000000e+05 3.205300000000000000e+04
-2.034000000000000000e+05 2.710800000000000000e+04
-2.061280000000000000e+05 3.222400000000000000e+04
-2.131190000000000000e+05 3.767900000000000000e+04
-2.172110000000000000e+05 4.330600000000000000e+04
-2.269290000000000000e+05 4.978400000000000000e+04
-2.296570000000000000e+05 5.762700000000000000e+04
-2.340900000000000000e+05 6.666400000000000000e+04
-2.385220000000000000e+05 7.910900000000000000e+04
-2.417620000000000000e+05 8.746400000000000000e+04
-2.504580000000000000e+05 1.069010000000000000e+05
-2.489230000000000000e+05 1.181530000000000000e+05
-2.497750000000000000e+05 1.348620000000000000e+05
-2.514800000000000000e+05 1.525930000000000000e+05
-2.506280000000000000e+05 1.657210000000000000e+05
-2.468770000000000000e+05 1.851570000000000000e+05
-2.426150000000000000e+05 1.996490000000000000e+05
-2.340900000000000000e+05 2.209620000000000000e+05
-2.248830000000000000e+05 2.417620000000000000e+05
-2.253940000000000000e+05 2.634150000000000000e+05
-2.034000000000000000e+05 2.838740000000000000e+05
-1.897610000000000000e+05 3.036510000000000000e+05
-1.725410000000000000e+05 3.193370000000000000e+05
-1.517400000000000000e+05 3.350230000000000000e+05
-1.300870000000000000e+05 3.512200000000000000e+05
-1.026380000000000000e+05 3.675880000000000000e+05
-7.757500000000000000e+04 3.805450000000000000e+05
-5.336500000000000000e+04 3.871940000000000000e+05
-2.216400000000000000e+04 3.931620000000000000e+05
4.263000000000000000e+03 3.991290000000000000e+05
3.495100000000000000e+04 4.016870000000000000e+05
6.393600000000000000e+04 3.977650000000000000e+05
9.087400000000000000e+04 3.888990000000000000e+05
1.181530000000000000e+05 3.846370000000000000e+05
1.438980000000000000e+05 3.711680000000000000e+05
1.664030000000000000e+05 3.576980000000000000e+05
1.889090000000000000e+05 3.416720000000000000e+05
2.080040000000000000e+05 3.235990000000000000e+05
2.236900000000000000e+05 3.068910000000000000e+05
2.337490000000000000e+05 2.866020000000000000e+05
2.468770000000000000e+05 2.634150000000000000e+05
2.569360000000000000e+05 2.426150000000000000e+05
2.610280000000000000e+05 2.216430000000000000e+05
2.681890000000000000e+05 2.013540000000000000e+05
2.681890000000000000e+05 1.827700000000000000e+05
2.695530000000000000e+05 1.609470000000000000e+05
2.659720000000000000e+05 1.447500000000000000e+05
2.627330000000000000e+05 1.285530000000000000e+05
2.598350000000000000e+05 1.120150000000000000e+05
2.540380000000000000e+05 9.974000000000000000e+04
2.467070000000000000e+05 8.763500000000000000e+04
2.444900000000000000e+05 7.177800000000000000e+04
2.369890000000000000e+05 6.342400000000000000e+04
2.322150000000000000e+05 5.694500000000000000e+04
2.253950000000000000e+05 5.046600000000000000e+04
2.189160000000000000e+05 4.449900000000000000e+04
2.105610000000000000e+05 4.091900000000000000e+04
2.080040000000000000e+05 3.955500000000000000e+04
2.042530000000000000e+05 3.836100000000000000e+04
2.037420000000000000e+05 4.040700000000000000e+04
2.023780000000000000e+05 3.563300000000000000e+04
2.069810000000000000e+05 3.972500000000000000e+04
2.110730000000000000e+05 3.836100000000000000e+04
2.158470000000000000e+05 3.733800000000000000e+04
2.253950000000000000e+05 4.330600000000000000e+04
2.340900000000000000e+05 3.699800000000000000e+04
2.432970000000000000e+05 3.205300000000000000e+04
2.555730000000000000e+05 2.267600000000000000e+04
2.693820000000000000e+05 1.619700000000000000e+04
2.808050000000000000e+05 -1.704000000000000000e+03
2.903540000000000000e+05 -1.602600000000000000e+04
2.966620000000000000e+05 -3.154200000000000000e+04
3.060390000000000000e+05 -5.285300000000000000e+04
3.097900000000000000e+05 -7.535900000000000000e+04
3.103010000000000000e+05 -9.888700000000000000e+04
3.068920000000000000e+05 -1.222450000000000000e+05
3.087670000000000000e+05 -1.471370000000000000e+05
2.988780000000000000e+05 -1.732230000000000000e+05
2.893300000000000000e+05 -1.979450000000000000e+05
2.797830000000000000e+05 -2.195980000000000000e+05
2.634150000000000000e+05 -2.392050000000000000e+05
2.477300000000000000e+05 -2.646080000000000000e+05
2.310210000000000000e+05 -2.831930000000000000e+05
2.107320000000000000e+05 -3.019470000000000000e+05
1.892500000000000000e+05 -3.225770000000000000e+05
1.677680000000000000e+05 -3.353640000000000000e+05
1.406590000000000000e+05 -3.471280000000000000e+05
1.188350000000000000e+05 -3.621320000000000000e+05
9.445400000000000000e+04 -3.704860000000000000e+05
7.024400000000000000e+04 -3.784990000000000000e+05
3.972500000000000000e+04 -3.861720000000000000e+05
1.381000000000000000e+04 -3.894110000000000000e+05
-1.432100000000000000e+04 -3.936730000000000000e+05
-4.143000000000000000e+04 -3.953780000000000000e+05
3.336590000000000000e+05 -2.062990000000000000e+05
3.183150000000000000e+05 -2.308500000000000000e+05
3.022880000000000000e+05 -2.484120000000000000e+05
2.828510000000000000e+05 -2.727930000000000000e+05
2.594940000000000000e+05 -2.879660000000000000e+05
2.414210000000000000e+05 -3.058690000000000000e+05
2.165290000000000000e+05 -3.230890000000000000e+05
1.933420000000000000e+05 -3.391150000000000000e+05
1.677670000000000000e+05 -3.529250000000000000e+05
1.433870000000000000e+05 -3.648600000000000000e+05
1.133800000000000000e+05 -3.698040000000000000e+05
8.507700000000000000e+04 -3.773060000000000000e+05
5.916200000000000000e+04 -3.819100000000000000e+05
2.608600000000000000e+04 -3.834440000000000000e+05
2.557000000000000000e+03 -3.834430000000000000e+05
-2.710900000000000000e+04 -3.831030000000000000e+05
-5.626400000000000000e+04 -3.756010000000000000e+05
-8.149700000000000000e+04 -3.701450000000000000e+05
-1.101400000000000000e+05 -3.576990000000000000e+05
-1.338390000000000000e+05 -3.428660000000000000e+05
-1.577080000000000000e+05 -3.278630000000000000e+05
-1.797020000000000000e+05 -3.094490000000000000e+05
-1.987970000000000000e+05 -2.888190000000000000e+05
-2.170410000000000000e+05 -2.669960000000000000e+05
-2.250530000000000000e+05 -2.429560000000000000e+05
-2.364770000000000000e+05 -2.236890000000000000e+05
-2.419330000000000000e+05 -1.991390000000000000e+05
-2.417620000000000000e+05 -1.768040000000000000e+05
-2.419320000000000000e+05 -1.573670000000000000e+05
-2.369880000000000000e+05 -1.328160000000000000e+05
-2.322150000000000000e+05 -1.212220000000000000e+05
-2.260760000000000000e+05 -1.091170000000000000e+05
-2.185750000000000000e+05 -9.581800000000000000e+04
-2.120960000000000000e+05 -8.899900000000000000e+04
-2.061290000000000000e+05 -8.047400000000000000e+04
-2.054460000000000000e+05 -7.604100000000000000e+04
-2.020360000000000000e+05 -7.246000000000000000e+04
-1.998200000000000000e+05 -6.649400000000000000e+04
-1.989680000000000000e+05 -6.683400000000000000e+04
-1.993090000000000000e+05 -6.240100000000000000e+04
-2.022070000000000000e+05 -5.677500000000000000e+04
-2.044240000000000000e+05 -5.472900000000000000e+04
-2.071520000000000000e+05 -4.756900000000000000e+04
-2.124370000000000000e+05 -4.091900000000000000e+04
-2.129480000000000000e+05 -3.682700000000000000e+04
-2.172110000000000000e+05 -2.608600000000000000e+04
-2.180630000000000000e+05 -1.926600000000000000e+04
-2.223250000000000000e+05 -1.006000000000000000e+04
-2.238600000000000000e+05 -3.409000000000000000e+03
-2.253950000000000000e+05 8.866000000000000000e+03
-2.259060000000000000e+05 1.875400000000000000e+04
-2.291460000000000000e+05 2.318700000000000000e+04
-2.272700000000000000e+05 4.108900000000000000e+04
-2.252240000000000000e+05 5.490000000000000000e+04
-2.270990000000000000e+05 6.342400000000000000e+04
-2.231780000000000000e+05 7.484700000000000000e+04
-2.213020000000000000e+05 8.797500000000000000e+04
-2.180630000000000000e+05 9.854700000000000000e+04
-2.136300000000000000e+05 1.157660000000000000e+05
-2.059580000000000000e+05 1.242910000000000000e+05
-2.015250000000000000e+05 1.413410000000000000e+05
-1.952170000000000000e+05 1.515700000000000000e+05
-1.860100000000000000e+05 1.614590000000000000e+05
-1.764620000000000000e+05 1.745870000000000000e+05
-1.681080000000000000e+05 1.863510000000000000e+05
-1.539570000000000000e+05 1.989670000000000000e+05
-1.421930000000000000e+05 2.078340000000000000e+05
-1.311100000000000000e+05 2.139720000000000000e+05
-1.140610000000000000e+05 2.214730000000000000e+05
-1.014450000000000000e+05 2.310210000000000000e+05
-8.695200000000000000e+04 2.378400000000000000e+05
-6.905100000000000000e+04 2.415920000000000000e+05
-5.507000000000000000e+04 2.467060000000000000e+05
-3.580400000000000000e+04 2.504570000000000000e+05
-2.028900000000000000e+04 2.489230000000000000e+05
-2.558000000000000000e+03 2.499460000000000000e+05
1.500400000000000000e+04 2.472180000000000000e+05
3.120000000000000000e+04 2.455120000000000000e+05
4.501100000000000000e+04 2.373300000000000000e+05
6.189000000000000000e+04 2.352830000000000000e+05
7.553000000000000000e+04 2.267590000000000000e+05
8.780500000000000000e+04 2.182330000000000000e+05
1.002510000000000000e+05 2.064700000000000000e+05
1.091170000000000000e+05 1.948750000000000000e+05
1.190050000000000000e+05 1.824290000000000000e+05
1.236090000000000000e+05 1.686200000000000000e+05
1.300880000000000000e+05 1.583900000000000000e+05
1.331560000000000000e+05 1.454330000000000000e+05
1.370780000000000000e+05 1.326450000000000000e+05
1.346910000000000000e+05 1.220740000000000000e+05
1.358850000000000000e+05 1.103100000000000000e+05
1.334980000000000000e+05 1.000810000000000000e+05
1.324750000000000000e+05 9.019200000000000000e+04
1.256550000000000000e+05 8.269000000000000000e+04
1.236090000000000000e+05 7.774600000000000000e+04
1.203700000000000000e+05 6.871000000000000000e+04
1.154260000000000000e+05 6.717500000000000000e+04
1.113340000000000000e+05 6.427700000000000000e+04
1.089460000000000000e+05 6.257100000000000000e+04
1.048540000000000000e+05 6.325400000000000000e+04
1.036610000000000000e+05 6.325400000000000000e+04
1.017860000000000000e+05 5.950300000000000000e+04
1.014450000000000000e+05 6.223000000000000000e+04
1.038320000000000000e+05 6.461800000000000000e+04
1.063890000000000000e+05 6.512900000000000000e+04
1.057070000000000000e+05 6.768700000000000000e+04
1.109920000000000000e+05 6.683400000000000000e+04
1.140610000000000000e+05 6.836900000000000000e+04
1.222450000000000000e+05 7.024400000000000000e+04
1.248030000000000000e+05 6.700500000000000000e+04
1.334980000000000000e+05 6.700500000000000000e+04
1.410000000000000000e+05 6.308300000000000000e+04
1.488430000000000000e+05 6.086700000000000000e+04
1.554920000000000000e+05 5.830900000000000000e+04
1.629930000000000000e+05 4.995500000000000000e+04
1.740750000000000000e+05 4.552200000000000000e+04
1.768030000000000000e+05 3.802000000000000000e+04
1.831120000000000000e+05 3.034900000000000000e+04
1.902730000000000000e+05 2.028900000000000000e+04
1.953880000000000000e+05 8.355000000000000000e+03
2.005030000000000000e+05 -1.364000000000000000e+03
2.047650000000000000e+05 -1.381000000000000000e+04
2.066400000000000000e+05 -2.199400000000000000e+04
2.102200000000000000e+05 -3.631600000000000000e+04
2.057870000000000000e+05 -4.944300000000000000e+04
2.076630000000000000e+05 -6.444700000000000000e+04
2.068100000000000000e+05 -7.911000000000000000e+04
2.042540000000000000e+05 -9.343100000000000000e+04
2.013550000000000000e+05 -1.086050000000000000e+05
1.948760000000000000e+05 -1.227560000000000000e+05
1.870340000000000000e+05 -1.370780000000000000e+05
1.829410000000000000e+05 -1.478200000000000000e+05
1.701540000000000000e+05 -1.657210000000000000e+05
1.607770000000000000e+05 -1.742460000000000000e+05
1.493540000000000000e+05 -1.892490000000000000e+05
1.357150000000000000e+05 -2.001610000000000000e+05
1.248020000000000000e+05 -2.126070000000000000e+05
1.132090000000000000e+05 -2.189160000000000000e+05
9.462500000000000000e+04 -2.272700000000000000e+05
8.081500000000000000e+04 -2.352830000000000000e+05
6.308400000000000000e+04 -2.410800000000000000e+05
4.739800000000000000e+04 -2.456830000000000000e+05
3.017800000000000000e+04 -2.506270000000000000e+05
1.381000000000000000e+04 -2.536960000000000000e+05
-5.286000000000000000e+03 -2.550600000000000000e+05
-2.386900000000000000e+04 -2.504570000000000000e+05
-3.921300000000000000e+04 -2.480710000000000000e+05
-5.438800000000000000e+04 -2.477290000000000000e+05
-7.365300000000000000e+04 -2.415920000000000000e+05
-8.882800000000000000e+04 -2.392050000000000000e+05
-1.038320000000000000e+05 -2.294870000000000000e+05
-1.200290000000000000e+05 -2.199390000000000000e+05
-1.324740000000000000e+05 -2.134600000000000000e+05
-1.425330000000000000e+05 -2.032300000000000000e+05
-1.551500000000000000e+05 -1.918080000000000000e+05
-1.667440000000000000e+05 -1.757810000000000000e+05
-1.727110000000000000e+05 -1.664030000000000000e+05
-1.834520000000000000e+05 -1.515700000000000000e+05
-1.877150000000000000e+05 -1.348620000000000000e+05
-1.931710000000000000e+05 -1.246320000000000000e+05
-1.970920000000000000e+05 -1.104810000000000000e+05
-1.969210000000000000e+05 -9.957000000000000000e+04
-1.981150000000000000e+05 -8.644100000000000000e+04
-1.984560000000000000e+05 -7.450600000000000000e+04
-1.967510000000000000e+05 -6.376500000000000000e+04
-1.962400000000000000e+05 -5.268300000000000000e+04
-1.948760000000000000e+05 -4.228300000000000000e+04
-1.964100000000000000e+05 -3.870200000000000000e+04
-1.924890000000000000e+05 -2.796200000000000000e+04
-1.950460000000000000e+05 -2.233400000000000000e+04
-1.912950000000000000e+05 -1.193400000000000000e+04
-1.935120000000000000e+05 -6.308000000000000000e+03
-1.914660000000000000e+05 3.751000000000000000e+03
-1.928300000000000000e+05 1.398100000000000000e+04
-1.970930000000000000e+05 2.284700000000000000e+04
-1.911250000000000000e+05 3.563400000000000000e+04
-1.918070000000000000e+05 4.262400000000000000e+04
-1.930000000000000000e+05 5.490000000000000000e+04
-1.873740000000000000e+05 6.717500000000000000e+04
-1.837940000000000000e+05 7.655200000000000000e+04
-1.769740000000000000e+05 8.627100000000000000e+04
-1.742460000000000000e+05 9.616000000000000000e+04
-1.675970000000000000e+05 1.074120000000000000e+05
-1.595830000000000000e+05 1.207100000000000000e+05
-1.493530000000000000e+05 1.278710000000000000e+05
-1.411700000000000000e+05 1.363960000000000000e+05
-1.334980000000000000e+05 1.459440000000000000e+05
-1.246320000000000000e+05 1.514000000000000000e+05
-1.115040000000000000e+05 1.571960000000000000e+05
-1.024680000000000000e+05 1.669150000000000000e+05
-9.445400000000000000e+04 1.686200000000000000e+05
-8.132600000000000000e+04 1.742460000000000000e+05
-7.177800000000000000e+04 1.783380000000000000e+05
-5.916100000000000000e+04 1.829420000000000000e+05
-5.114900000000000000e+04 1.873740000000000000e+05
-3.767900000000000000e+04 1.894200000000000000e+05
-2.608600000000000000e+04 1.899320000000000000e+05
-1.790200000000000000e+04 1.935120000000000000e+05
-6.138000000000000000e+03 1.918070000000000000e+05
8.354000000000000000e+03 1.928300000000000000e+05
1.807300000000000000e+04 1.919780000000000000e+05
2.898500000000000000e+04 1.909550000000000000e+05
3.955500000000000000e+04 1.897620000000000000e+05
5.490000000000000000e+04 1.877150000000000000e+05
6.291300000000000000e+04 1.834530000000000000e+05
7.229000000000000000e+04 1.768030000000000000e+05
8.575900000000000000e+04 1.744160000000000000e+05
9.274900000000000000e+04 1.694720000000000000e+05
1.031500000000000000e+05 1.619700000000000000e+05
1.133800000000000000e+05 1.558330000000000000e+05
1.236090000000000000e+05 1.483310000000000000e+05
1.321340000000000000e+05 1.370790000000000000e+05
1.408290000000000000e+05 1.304290000000000000e+05
1.491840000000000000e+05 1.201990000000000000e+05
1.534460000000000000e+05 1.075820000000000000e+05
1.602650000000000000e+05 9.871700000000000000e+04
1.652100000000000000e+05 8.354300000000000000e+04
1.660620000000000000e+05 7.092600000000000000e+04
1.706660000000000000e+05 5.728700000000000000e+04
1.681090000000000000e+05 4.313600000000000000e+04
1.655510000000000000e+05 2.693800000000000000e+04
1.635050000000000000e+05 1.619800000000000000e+04
1.585600000000000000e+05 5.626000000000000000e+03
1.491830000000000000e+05 -6.478000000000000000e+03
1.474790000000000000e+05 -1.807200000000000000e+04
1.350320000000000000e+05 -2.745000000000000000e+04
1.280420000000000000e+05 -3.103100000000000000e+04
1.225860000000000000e+05 -3.409900000000000000e+04
1.138910000000000000e+05 -4.057800000000000000e+04
1.051950000000000000e+05 -4.177200000000000000e+04
9.974000000000000000e+04 -4.722700000000000000e+04
9.445500000000000000e+04 -4.313500000000000000e+04
8.661100000000000000e+04 -4.228300000000000000e+04
8.422500000000000000e+04 -4.160100000000000000e+04
8.234900000000000000e+04 -4.347600000000000000e+04
8.115600000000000000e+04 -4.279400000000000000e+04
7.911000000000000000e+04 -4.143100000000000000e+04
8.132600000000000000e+04 -3.938400000000000000e+04
7.979200000000000000e+04 -3.836100000000000000e+04
8.166700000000000000e+04 -4.296500000000000000e+04
7.996200000000000000e+04 -4.143000000000000000e+04
8.183800000000000000e+04 -4.398800000000000000e+04
8.439500000000000000e+04 -4.705700000000000000e+04
8.473600000000000000e+04 -4.978500000000000000e+04
8.695300000000000000e+04 -5.234200000000000000e+04
8.882800000000000000e+04 -5.779800000000000000e+04
9.445400000000000000e+04 -6.240100000000000000e+04
9.036200000000000000e+04 -6.581200000000000000e+04
9.189700000000000000e+04 -7.041400000000000000e+04
9.274900000000000000e+04 -8.064400000000000000e+04
9.275000000000000000e+04 -8.320200000000000000e+04
8.968100000000000000e+04 -9.053300000000000000e+04
9.155600000000000000e+04 -9.837600000000000000e+04
8.797600000000000000e+04 -1.057060000000000000e+05
8.269100000000000000e+04 -1.123560000000000000e+05
7.672300000000000000e+04 -1.183240000000000000e+05
7.825800000000000000e+04 -1.300880000000000000e+05
7.263100000000000000e+04 -1.367370000000000000e+05
6.581100000000000000e+04 -1.478190000000000000e+05
5.967300000000000000e+04 -1.536170000000000000e+05
5.012600000000000000e+04 -1.652100000000000000e+05
4.143000000000000000e+04 -1.732230000000000000e+05
3.239400000000000000e+04 -1.795320000000000000e+05
1.875400000000000000e+04 -1.872040000000000000e+05
4.774000000000000000e+03 -1.914660000000000000e+05
-4.944000000000000000e+03 -1.972630000000000000e+05
-1.943600000000000000e+04 -2.015250000000000000e+05
-3.461100000000000000e+04 -2.071520000000000000e+05
-5.200100000000000000e+04 -2.062990000000000000e+05
-7.092600000000000000e+04 -2.066400000000000000e+05
-8.371400000000000000e+04 -1.998200000000000000e+05
-1.016160000000000000e+05 -1.991380000000000000e+05
-1.184940000000000000e+05 -1.919770000000000000e+05
-1.328160000000000000e+05 -1.894200000000000000e+05
-1.464550000000000000e+05 -1.764620000000000000e+05
-1.611180000000000000e+05 -1.669140000000000000e+05
-1.722000000000000000e+05 -1.551500000000000000e+05
-1.837940000000000000e+05 -1.415110000000000000e+05
-1.974330000000000000e+05 -1.270180000000000000e+05
-2.016960000000000000e+05 -1.113330000000000000e+05
-2.114140000000000000e+05 -9.581800000000000000e+04
-2.119260000000000000e+05 -7.910900000000000000e+04
-2.156770000000000000e+05 -6.615200000000000000e+04
-2.190870000000000000e+05 -5.029600000000000000e+04
-2.178930000000000000e+05 -3.427000000000000000e+04
-2.132900000000000000e+05 -1.960700000000000000e+04
-2.126080000000000000e+05 -8.695000000000000000e+03
-2.097090000000000000e+05 7.161000000000000000e+03
-2.010140000000000000e+05 1.722000000000000000e+04
-1.967510000000000000e+05 2.949600000000000000e+04
-1.912950000000000000e+05 3.853200000000000000e+04
-1.846460000000000000e+05 4.586300000000000000e+04
-1.783380000000000000e+05 5.438800000000000000e+04
-1.737340000000000000e+05 6.291300000000000000e+04
-1.657220000000000000e+05 6.871000000000000000e+04
-1.604360000000000000e+05 7.331300000000000000e+04
-1.563440000000000000e+05 7.825700000000000000e+04
-1.537870000000000000e+05 8.269000000000000000e+04
-1.474780000000000000e+05 8.610000000000000000e+04
-1.478190000000000000e+05 9.121500000000000000e+04
-1.454330000000000000e+05 9.581900000000000000e+04
-1.433860000000000000e+05 1.004210000000000000e+05
-1.367370000000000000e+05 1.077530000000000000e+05
-1.435570000000000000e+05 1.164480000000000000e+05
-1.447500000000000000e+05 1.241210000000000000e+05
-1.375900000000000000e+05 1.338380000000000000e+05
-1.389540000000000000e+05 1.456030000000000000e+05
-1.328160000000000000e+05 1.558330000000000000e+05
-1.312810000000000000e+05 1.725410000000000000e+05
-1.229270000000000000e+05 1.846460000000000000e+05
-1.145720000000000000e+05 1.976040000000000000e+05
-9.871700000000000000e+04 2.134600000000000000e+05
-8.678200000000000000e+04 2.260760000000000000e+05
-7.450600000000000000e+04 2.405680000000000000e+05
-5.097800000000000000e+04 2.530150000000000000e+05
-2.813200000000000000e+04 2.640970000000000000e+05
-1.142300000000000000e+04 2.712580000000000000e+05
1.193500000000000000e+04 2.743270000000000000e+05
3.750900000000000000e+04 2.729630000000000000e+05
6.189000000000000000e+04 2.787600000000000000e+05
8.524800000000000000e+04 2.753490000000000000e+05
1.069000000000000000e+05 2.678480000000000000e+05
1.302590000000000000e+05 2.600050000000000000e+05
1.500360000000000000e+05 2.489230000000000000e+05
1.715180000000000000e+05 2.335790000000000000e+05
1.860100000000000000e+05 2.236900000000000000e+05
2.030600000000000000e+05 2.035710000000000000e+05
2.187460000000000000e+05 1.882260000000000000e+05
2.293160000000000000e+05 1.679370000000000000e+05
2.373290000000000000e+05 1.532750000000000000e+05
2.477290000000000000e+05 1.309400000000000000e+05
2.533560000000000000e+05 1.126970000000000000e+05
2.576180000000000000e+05 9.496600000000000000e+04
2.574470000000000000e+05 7.297200000000000000e+04
2.661430000000000000e+05 5.592300000000000000e+04
2.600050000000000000e+05 3.989600000000000000e+04
2.635860000000000000e+05 2.165300000000000000e+04
2.579590000000000000e+05 4.262000000000000000e+03
2.577890000000000000e+05 -1.534400000000000000e+04
2.484120000000000000e+05 -3.103000000000000000e+04
2.455130000000000000e+05 -4.756800000000000000e+04
2.368180000000000000e+05 -6.564100000000000000e+04
2.318740000000000000e+05 -7.945100000000000000e+04
2.231780000000000000e+05 -9.360200000000000000e+04
2.119260000000000000e+05 -1.082650000000000000e+05
2.015260000000000000e+05 -1.191760000000000000e+05
1.919770000000000000e+05 -1.331570000000000000e+05
1.771450000000000000e+05 -1.433860000000000000e+05
1.694730000000000000e+05 -1.544690000000000000e+05
1.539570000000000000e+05 -1.667440000000000000e+05
1.399760000000000000e+05 -1.747570000000000000e+05
1.273600000000000000e+05 -1.848160000000000000e+05
1.108220000000000000e+05 -1.909550000000000000e+05
9.803500000000000000e+04 -1.918070000000000000e+05
8.286100000000000000e+04 -1.947050000000000000e+05
6.836800000000000000e+04 -1.972630000000000000e+05
4.978500000000000000e+04 -1.991380000000000000e+05
3.444000000000000000e+04 -2.005020000000000000e+05
2.267600000000000000e+04 -1.984560000000000000e+05
1.125300000000000000e+04 -1.911250000000000000e+05
-2.558000000000000000e+03 -1.865210000000000000e+05
-1.432100000000000000e+04 -1.783380000000000000e+05
-1.875400000000000000e+04 -1.732230000000000000e+05
-2.762000000000000000e+04 -1.648680000000000000e+05
-3.290600000000000000e+04 -1.587310000000000000e+05
-3.631500000000000000e+04 -1.495240000000000000e+05
-3.648600000000000000e+04 -1.425340000000000000e+05
-4.126000000000000000e+04 -1.357140000000000000e+05
-4.040700000000000000e+04 -1.353730000000000000e+05
-4.143000000000000000e+04 -1.295760000000000000e+05
-4.296400000000000000e+04 -1.265070000000000000e+05
-4.518100000000000000e+04 -1.242910000000000000e+05
-4.160000000000000000e+04 -1.244620000000000000e+05
-4.705700000000000000e+04 -1.239500000000000000e+05
-4.739700000000000000e+04 -1.234380000000000000e+05
-4.688600000000000000e+04 -1.178120000000000000e+05
-4.449900000000000000e+04 -1.282130000000000000e+05
-4.790900000000000000e+04 -1.234380000000000000e+05
-5.626400000000000000e+04 -1.183240000000000000e+05
-5.916100000000000000e+04 -1.227560000000000000e+05
-6.495800000000000000e+04 -1.207100000000000000e+05
-6.888000000000000000e+04 -1.230980000000000000e+05
-6.973200000000000000e+04 -1.193470000000000000e+05
-7.740400000000000000e+04 -1.217330000000000000e+05
-8.115600000000000000e+04 -1.229270000000000000e+05
-8.473600000000000000e+04 -1.244610000000000000e+05
-9.206800000000000000e+04 -1.232680000000000000e+05
-9.820500000000000000e+04 -1.237790000000000000e+05
-1.060480000000000000e+05 -1.224160000000000000e+05
-1.147430000000000000e+05 -1.183230000000000000e+05
-1.208810000000000000e+05 -1.161070000000000000e+05
-1.302580000000000000e+05 -1.142310000000000000e+05
-1.374190000000000000e+05 -1.121860000000000000e+05
-1.416820000000000000e+05 -1.070710000000000000e+05
-1.519110000000000000e+05 -1.011040000000000000e+05
-1.607770000000000000e+05 -1.004220000000000000e+05
-1.699830000000000000e+05 -9.172600000000000000e+04
-1.790200000000000000e+05 -8.558900000000000000e+04
-1.853280000000000000e+05 -7.791600000000000000e+04
-1.943650000000000000e+05 -6.922100000000000000e+04
-2.022070000000000000e+05 -5.984400000000000000e+04
-2.103910000000000000e+05 -4.842000000000000000e+04
-2.160180000000000000e+05 -3.631600000000000000e+04
-2.253950000000000000e+05 -1.875500000000000000e+04
-2.233490000000000000e+05 -8.354000000000000000e+03
-2.265880000000000000e+05 1.074100000000000000e+04
-2.299980000000000000e+05 1.773100000000000000e+04
-2.284630000000000000e+05 4.381800000000000000e+04
-2.272700000000000000e+05 6.223100000000000000e+04
-2.214730000000000000e+05 8.337200000000000000e+04
-2.143130000000000000e+05 9.786500000000000000e+04
-2.034000000000000000e+05 1.126970000000000000e+05
-1.948760000000000000e+05 1.307700000000000000e+05
-1.851570000000000000e+05 1.500360000000000000e+05
-1.727120000000000000e+05 1.568560000000000000e+05
-1.524220000000000000e+05 1.669150000000000000e+05
-1.391240000000000000e+05 1.769740000000000000e+05
-1.242910000000000000e+05 1.829410000000000000e+05
-1.108220000000000000e+05 1.848170000000000000e+05
-9.292000000000000000e+04 1.868630000000000000e+05
-8.115500000000000000e+04 1.861810000000000000e+05
-7.109600000000000000e+04 1.848170000000000000e+05
-5.865000000000000000e+04 1.824300000000000000e+05
-4.842100000000000000e+04 1.814060000000000000e+05
-4.262400000000000000e+04 1.757810000000000000e+05
-3.017700000000000000e+04 1.733940000000000000e+05
-2.318700000000000000e+04 1.708370000000000000e+05
-2.301700000000000000e+04 1.670850000000000000e+05
-1.977700000000000000e+04 1.636750000000000000e+05
-1.449200000000000000e+04 1.583900000000000000e+05
-1.295800000000000000e+04 1.577080000000000000e+05
-1.108200000000000000e+04 1.522530000000000000e+05
-1.108200000000000000e+04 1.532750000000000000e+05
-1.005900000000000000e+04 1.503770000000000000e+05
-8.354000000000000000e+03 1.531040000000000000e+05
-7.331000000000000000e+03 1.522520000000000000e+05
-6.138000000000000000e+03 1.553210000000000000e+05
-3.921000000000000000e+03 1.606060000000000000e+05
-1.876000000000000000e+03 1.624820000000000000e+05
-1.023000000000000000e+03 1.674270000000000000e+05
4.092000000000000000e+03 1.725420000000000000e+05
9.889000000000000000e+03 1.795310000000000000e+05
1.722000000000000000e+04 1.848170000000000000e+05
2.114200000000000000e+04 1.947050000000000000e+05
3.017800000000000000e+04 2.030590000000000000e+05
4.364700000000000000e+04 2.126070000000000000e+05
5.438800000000000000e+04 2.165290000000000000e+05
7.280100000000000000e+04 2.236900000000000000e+05
9.070400000000000000e+04 2.293160000000000000e+05
1.096290000000000000e+05 2.320440000000000000e+05
1.722000000000000000e+05 2.386930000000000000e+05
1.323040000000000000e+05 2.313620000000000000e+05
1.476490000000000000e+05 2.308500000000000000e+05
1.684490000000000000e+05 2.272700000000000000e+05
1.870330000000000000e+05 2.233490000000000000e+05
2.062990000000000000e+05 2.097090000000000000e+05
2.230080000000000000e+05 1.984560000000000000e+05
2.386930000000000000e+05 1.837940000000000000e+05
2.611990000000000000e+05 1.679380000000000000e+05
2.734740000000000000e+05 1.486720000000000000e+05
2.876250000000000000e+05 1.263370000000000000e+05
2.963200000000000000e+05 1.060480000000000000e+05
3.051860000000000000e+05 8.115600000000000000e+04
3.111530000000000000e+05 5.541100000000000000e+04
3.160980000000000000e+05 2.898500000000000000e+04
3.147340000000000000e+05 3.581000000000000000e+03
3.128580000000000000e+05 -1.841300000000000000e+04
3.091080000000000000e+05 -4.535100000000000000e+04
3.014350000000000000e+05 -7.024400000000000000e+04
2.961500000000000000e+05 -9.070300000000000000e+04
2.828520000000000000e+05 -1.055370000000000000e+05
2.729620000000000000e+05 -1.323040000000000000e+05
2.623920000000000000e+05 -1.503760000000000000e+05
2.458540000000000000e+05 -1.667440000000000000e+05
2.298280000000000000e+05 -1.819190000000000000e+05
2.129490000000000000e+05 -1.999910000000000000e+05
1.962400000000000000e+05 -2.083450000000000000e+05
1.790200000000000000e+05 -2.211320000000000000e+05
1.672560000000000000e+05 -2.313610000000000000e+05
1.466260000000000000e+05 -2.383520000000000000e+05
1.300870000000000000e+05 -2.397160000000000000e+05
1.121860000000000000e+05 -2.472180000000000000e+05
9.837600000000000000e+04 -2.506280000000000000e+05
8.149700000000000000e+04 -2.555720000000000000e+05
6.734600000000000000e+04 -2.550610000000000000e+05
5.046700000000000000e+04 -2.530150000000000000e+05
3.631600000000000000e+04 -2.528440000000000000e+05
2.165300000000000000e+04 -2.513100000000000000e+05
9.378000000000000000e+03 -2.499460000000000000e+05
-5.115000000000000000e+03 -2.490930000000000000e+05
-1.722000000000000000e+04 -2.421040000000000000e+05
-3.000700000000000000e+04 -2.398870000000000000e+05
-4.194200000000000000e+04 -2.356240000000000000e+05
-5.251300000000000000e+04 -2.308500000000000000e+05
-5.984400000000000000e+04 -2.240300000000000000e+05
-7.058500000000000000e+04 -2.139710000000000000e+05
-8.047400000000000000e+04 -2.068110000000000000e+05
-8.490600000000000000e+04 -1.989680000000000000e+05
-9.257900000000000000e+04 -1.945350000000000000e+05
-1.021260000000000000e+05 -1.880560000000000000e+05
-1.045140000000000000e+05 -1.803840000000000000e+05
-1.089470000000000000e+05 -1.737340000000000000e+05
-1.118450000000000000e+05 -1.667440000000000000e+05
-1.149130000000000000e+05 -1.619700000000000000e+05
-1.210510000000000000e+05 -1.560030000000000000e+05
-1.244620000000000000e+05 -1.500350000000000000e+05
-1.280420000000000000e+05 -1.438970000000000000e+05
-1.290650000000000000e+05 -1.367370000000000000e+05
-1.328160000000000000e+05 -1.353730000000000000e+05
-1.340090000000000000e+05 -1.249730000000000000e+05
-1.411700000000000000e+05 -1.225860000000000000e+05
-1.452620000000000000e+05 -1.154260000000000000e+05
-1.488430000000000000e+05 -1.121860000000000000e+05
-1.491830000000000000e+05 -1.084350000000000000e+05
-1.534460000000000000e+05 -1.017860000000000000e+05
-1.553210000000000000e+05 -9.888700000000000000e+04
-1.612880000000000000e+05 -9.275000000000000000e+04
-1.645280000000000000e+05 -8.558900000000000000e+04
-1.689600000000000000e+05 -8.115500000000000000e+04
-1.704950000000000000e+05 -7.808700000000000000e+04
-1.744170000000000000e+05 -6.973200000000000000e+04
-1.803840000000000000e+05 -6.444800000000000000e+04
-1.860100000000000000e+05 -5.694600000000000000e+04
-1.849870000000000000e+05 -5.114900000000000000e+04
-1.897610000000000000e+05 -4.364700000000000000e+04
-1.957290000000000000e+05 -3.580400000000000000e+04
-2.025480000000000000e+05 -2.966700000000000000e+04
-2.005020000000000000e+05 -2.028900000000000000e+04
-2.045940000000000000e+05 -1.210500000000000000e+04
-2.083450000000000000e+05 -1.194000000000000000e+03
-2.085150000000000000e+05 8.013000000000000000e+03
-2.071510000000000000e+05 1.790200000000000000e+04
-2.100500000000000000e+05 3.000800000000000000e+04
-2.134600000000000000e+05 4.330500000000000000e+04
-2.136310000000000000e+05 5.234200000000000000e+04
-2.151650000000000000e+05 6.768700000000000000e+04
-2.132900000000000000e+05 8.132600000000000000e+04
-2.131190000000000000e+05 9.462400000000000000e+04
-2.088560000000000000e+05 1.086050000000000000e+05
-2.052760000000000000e+05 1.261660000000000000e+05
-1.974340000000000000e+05 1.403170000000000000e+05
-1.911250000000000000e+05 1.553210000000000000e+05
-1.834530000000000000e+05 1.687900000000000000e+05
-1.696420000000000000e+05 1.832820000000000000e+05
-1.580490000000000000e+05 1.936820000000000000e+05
-1.473080000000000000e+05 2.103910000000000000e+05
-1.280420000000000000e+05 2.206210000000000000e+05
-1.104810000000000000e+05 2.299970000000000000e+05
-9.530700000000000000e+04 2.359650000000000000e+05
-7.535900000000000000e+04 2.438080000000000000e+05
-5.933300000000000000e+04 2.419330000000000000e+05
-3.904400000000000000e+04 2.431260000000000000e+05
-2.233500000000000000e+04 2.357950000000000000e+05
-1.142300000000000000e+04 2.354540000000000000e+05
7.502000000000000000e+03 2.270990000000000000e+05
1.892500000000000000e+04 2.180630000000000000e+05
2.625600000000000000e+04 2.107320000000000000e+05
3.665600000000000000e+04 2.022070000000000000e+05
4.006600000000000000e+04 1.889090000000000000e+05
5.097800000000000000e+04 1.822590000000000000e+05
5.558200000000000000e+04 1.756100000000000000e+05
5.609300000000000000e+04 1.655510000000000000e+05
5.541100000000000000e+04 1.599240000000000000e+05
5.865100000000000000e+04 1.512300000000000000e+05
6.001500000000000000e+04 1.473070000000000000e+05
5.933200000000000000e+04 1.440680000000000000e+05
6.240100000000000000e+04 1.381010000000000000e+05
5.831000000000000000e+04 1.331570000000000000e+05
6.137900000000000000e+04 1.358850000000000000e+05
6.308300000000000000e+04 1.326460000000000000e+05
6.035500000000000000e+04 1.317930000000000000e+05
6.103700000000000000e+04 1.343510000000000000e+05
6.325300000000000000e+04 1.355440000000000000e+05
6.768600000000000000e+04 1.369080000000000000e+05
6.956200000000000000e+04 1.401460000000000000e+05
7.655200000000000000e+04 1.396350000000000000e+05
8.047400000000000000e+04 1.409990000000000000e+05
8.678200000000000000e+04 1.440680000000000000e+05
9.326100000000000000e+04 1.456020000000000000e+05
1.009330000000000000e+05 1.464550000000000000e+05
1.106520000000000000e+05 1.469670000000000000e+05
1.181530000000000000e+05 1.514000000000000000e+05
1.278720000000000000e+05 1.481600000000000000e+05
1.363960000000000000e+05 1.447500000000000000e+05
1.457740000000000000e+05 1.442390000000000000e+05
1.600950000000000000e+05 1.386130000000000000e+05
1.694720000000000000e+05 1.319640000000000000e+05
1.839640000000000000e+05 1.278720000000000000e+05
1.943650000000000000e+05 1.230970000000000000e+05
2.044240000000000000e+05 1.109920000000000000e+05
2.153360000000000000e+05 9.956900000000000000e+04
2.252240000000000000e+05 8.865800000000000000e+04
2.371590000000000000e+05 7.109600000000000000e+04
2.432970000000000000e+05 5.575200000000000000e+04
2.507980000000000000e+05 4.040700000000000000e+04
2.550600000000000000e+05 2.489300000000000000e+04
2.571070000000000000e+05 1.364000000000000000e+03
2.601760000000000000e+05 -1.551500000000000000e+04
2.617100000000000000e+05 -3.341800000000000000e+04
2.608570000000000000e+05 -5.745600000000000000e+04
2.530140000000000000e+05 -7.365400000000000000e+04
2.496050000000000000e+05 -1.012740000000000000e+05
2.421030000000000000e+05 -1.162780000000000000e+05
2.313620000000000000e+05 -1.338380000000000000e+05
2.221550000000000000e+05 -1.517400000000000000e+05
2.136310000000000000e+05 -1.689610000000000000e+05
1.991390000000000000e+05 -1.819180000000000000e+05
1.875450000000000000e+05 -1.965810000000000000e+05
1.693020000000000000e+05 -2.074930000000000000e+05
1.525930000000000000e+05 -2.180630000000000000e+05
1.386130000000000000e+05 -2.250540000000000000e+05
1.239500000000000000e+05 -2.315320000000000000e+05
1.060480000000000000e+05 -2.375000000000000000e+05
9.172600000000000000e+04 -2.407390000000000000e+05
7.842800000000000000e+04 -2.443190000000000000e+05
5.916200000000000000e+04 -2.456830000000000000e+05
4.467000000000000000e+04 -2.444900000000000000e+05
3.512200000000000000e+04 -2.450010000000000000e+05
1.943700000000000000e+04 -2.417620000000000000e+05
6.990000000000000000e+03 -2.375000000000000000e+05
-4.092000000000000000e+03 -2.351130000000000000e+05
-1.602700000000000000e+04 -2.291450000000000000e+05
-2.796100000000000000e+04 -2.260760000000000000e+05
-3.648600000000000000e+04 -2.184040000000000000e+05
-4.722700000000000000e+04 -2.161880000000000000e+05
-4.927300000000000000e+04 -2.100500000000000000e+05
-5.848000000000000000e+04 -2.056180000000000000e+05
-6.564000000000000000e+04 -2.001610000000000000e+05
-7.194900000000000000e+04 -2.008430000000000000e+05
-7.757500000000000000e+04 -1.957280000000000000e+05
-8.644100000000000000e+04 -1.916370000000000000e+05
-9.189700000000000000e+04 -1.866920000000000000e+05
-9.701200000000000000e+04 -1.841350000000000000e+05
-1.021260000000000000e+05 -1.803830000000000000e+05
-1.094580000000000000e+05 -1.776560000000000000e+05
-1.176410000000000000e+05 -1.727120000000000000e+05
-1.244610000000000000e+05 -1.711780000000000000e+05
-1.288940000000000000e+05 -1.693020000000000000e+05
-1.396350000000000000e+05 -1.640170000000000000e+05
-1.476490000000000000e+05 -1.597540000000000000e+05
-1.599240000000000000e+05 -1.558320000000000000e+05
-1.638450000000000000e+05 -1.495240000000000000e+05
-1.722000000000000000e+05 -1.411700000000000000e+05
-1.843050000000000000e+05 -1.329870000000000000e+05
-1.911250000000000000e+05 -1.222450000000000000e+05
-1.998200000000000000e+05 -1.089470000000000000e+05
-2.027180000000000000e+05 -9.974000000000000000e+04
-2.093680000000000000e+05 -8.780500000000000000e+04
-2.102210000000000000e+05 -7.945100000000000000e+04
-2.168690000000000000e+05 -6.683400000000000000e+04
-2.216430000000000000e+05 -5.319500000000000000e+04
-2.201090000000000000e+05 -4.177200000000000000e+04
-2.216440000000000000e+05 -3.000700000000000000e+04
-2.202790000000000000e+05 -1.568600000000000000e+04
-2.218140000000000000e+05 -3.751000000000000000e+03
-2.197680000000000000e+05 1.005900000000000000e+04
-2.216430000000000000e+05 1.943600000000000000e+04
-2.184040000000000000e+05 3.034800000000000000e+04
-2.178930000000000000e+05 4.091900000000000000e+04
-2.127780000000000000e+05 5.438800000000000000e+04
-2.131190000000000000e+05 6.564100000000000000e+04
-2.052760000000000000e+05 7.553000000000000000e+04
-2.064690000000000000e+05 8.644100000000000000e+04
-2.008430000000000000e+05 1.002520000000000000e+05
-1.953880000000000000e+05 1.097980000000000000e+05
-1.890790000000000000e+05 1.210520000000000000e+05
-1.854980000000000000e+05 1.285530000000000000e+05
-1.807250000000000000e+05 1.435570000000000000e+05
-1.703240000000000000e+05 1.527640000000000000e+05
-1.664030000000000000e+05 1.641870000000000000e+05
-1.544680000000000000e+05 1.757800000000000000e+05
-1.476480000000000000e+05 1.856690000000000000e+05
-1.396350000000000000e+05 1.919770000000000000e+05
-1.283830000000000000e+05 2.028900000000000000e+05
-1.179820000000000000e+05 2.132890000000000000e+05
-1.080940000000000000e+05 2.248830000000000000e+05
-9.326100000000000000e+04 2.301690000000000000e+05
-8.166700000000000000e+04 2.414210000000000000e+05
-6.717500000000000000e+04 2.480710000000000000e+05
-4.961400000000000000e+04 2.530140000000000000e+05
-3.205300000000000000e+04 2.555720000000000000e+05
-1.687900000000000000e+04 2.572770000000000000e+05
1.875000000000000000e+03 2.601750000000000000e+05
1.943700000000000000e+04 2.596640000000000000e+05
3.716800000000000000e+04 2.555730000000000000e+05
5.251300000000000000e+04 2.538670000000000000e+05
6.768700000000000000e+04 2.438080000000000000e+05
8.951000000000000000e+04 2.357950000000000000e+05
1.007630000000000000e+05 2.238610000000000000e+05
1.135500000000000000e+05 2.127780000000000000e+05
1.208810000000000000e+05 2.005030000000000000e+05
1.316230000000000000e+05 1.849880000000000000e+05
1.357140000000000000e+05 1.745870000000000000e+05
1.403180000000000000e+05 1.618000000000000000e+05
1.406590000000000000e+05 1.473080000000000000e+05
1.466260000000000000e+05 1.334980000000000000e+05
1.452620000000000000e+05 1.248030000000000000e+05
1.438980000000000000e+05 1.167890000000000000e+05
1.432160000000000000e+05 1.062180000000000000e+05
1.442390000000000000e+05 1.004220000000000000e+05
1.425340000000000000e+05 9.547800000000000000e+04
1.440690000000000000e+05 9.036300000000000000e+04
1.416820000000000000e+05 8.439500000000000000e+04
1.382720000000000000e+05 8.456500000000000000e+04
1.403180000000000000e+05 7.757600000000000000e+04
1.418520000000000000e+05 7.450600000000000000e+04
1.423630000000000000e+05 7.160800000000000000e+04
1.452620000000000000e+05 6.598200000000000000e+04
1.433860000000000000e+05 6.189000000000000000e+04
1.512290000000000000e+05 6.001500000000000000e+04
1.520820000000000000e+05 6.001400000000000000e+04
1.558330000000000000e+05 5.558200000000000000e+04
1.597540000000000000e+05 4.961400000000000000e+04
1.638460000000000000e+05 4.722700000000000000e+04
1.653810000000000000e+05 3.921400000000000000e+04
1.703250000000000000e+05 3.512200000000000000e+04
1.744170000000000000e+05 2.898400000000000000e+04
1.807250000000000000e+05 2.199400000000000000e+04
1.798730000000000000e+05 1.568600000000000000e+04
1.846460000000000000e+05 6.309000000000000000e+03
1.882270000000000000e+05 -4.262000000000000000e+03
1.912950000000000000e+05 -1.176400000000000000e+04
1.930010000000000000e+05 -2.301600000000000000e+04
1.930000000000000000e+05 -3.307600000000000000e+04
1.958990000000000000e+05 -4.705600000000000000e+04
1.955580000000000000e+05 -5.933200000000000000e+04
1.947050000000000000e+05 -7.058500000000000000e+04
1.902730000000000000e+05 -8.286000000000000000e+04
1.883970000000000000e+05 -9.581800000000000000e+04
1.841350000000000000e+05 -1.080940000000000000e+05
1.750990000000000000e+05 -1.217330000000000000e+05
1.675960000000000000e+05 -1.323040000000000000e+05
1.629940000000000000e+05 -1.488420000000000000e+05
1.527640000000000000e+05 -1.619700000000000000e+05
1.427040000000000000e+05 -1.716890000000000000e+05
1.334980000000000000e+05 -1.832820000000000000e+05
1.217340000000000000e+05 -1.921480000000000000e+05
1.058770000000000000e+05 -2.028890000000000000e+05
9.019200000000000000e+04 -2.086860000000000000e+05
7.723500000000000000e+04 -2.178930000000000000e+05
6.172000000000000000e+04 -2.213030000000000000e+05
4.654500000000000000e+04 -2.250530000000000000e+05
3.427000000000000000e+04 -2.257360000000000000e+05
1.381000000000000000e+04 -2.247120000000000000e+05
3.410000000000000000e+02 -2.252240000000000000e+05
-1.210500000000000000e+04 -2.216430000000000000e+05
-2.540400000000000000e+04 -2.223250000000000000e+05
-3.972500000000000000e+04 -2.156760000000000000e+05
-5.097800000000000000e+04 -2.114140000000000000e+05
-6.223000000000000000e+04 -1.999900000000000000e+05
-7.263100000000000000e+04 -1.945350000000000000e+05
-7.979100000000000000e+04 -1.872040000000000000e+05
-9.019200000000000000e+04 -1.802130000000000000e+05
-9.462400000000000000e+04 -1.720290000000000000e+05
-9.991000000000000000e+04 -1.633340000000000000e+05
-1.034910000000000000e+05 -1.566850000000000000e+05
-1.079230000000000000e+05 -1.462850000000000000e+05
-1.091160000000000000e+05 -1.409990000000000000e+05
-1.097980000000000000e+05 -1.338390000000000000e+05
-1.135500000000000000e+05 -1.277000000000000000e+05
-1.167890000000000000e+05 -1.213930000000000000e+05
-1.138900000000000000e+05 -1.154250000000000000e+05
-1.169600000000000000e+05 -1.109920000000000000e+05
-1.190050000000000000e+05 -1.084350000000000000e+05
-1.201990000000000000e+05 -1.062180000000000000e+05
-1.225860000000000000e+05 -1.028090000000000000e+05
-1.217330000000000000e+05 -1.005920000000000000e+05
-1.236090000000000000e+05 -9.752300000000000000e+04
-1.295760000000000000e+05 -9.513600000000000000e+04
-1.304280000000000000e+05 -9.206700000000000000e+04
-1.355440000000000000e+05 -9.343100000000000000e+04
-1.386130000000000000e+05 -8.951000000000000000e+04
-1.462840000000000000e+05 -8.627100000000000000e+04
-1.490130000000000000e+05 -8.371300000000000000e+04
-1.561730000000000000e+05 -8.132600000000000000e+04
-1.628230000000000000e+05 -7.535900000000000000e+04
-1.708360000000000000e+05 -6.751600000000000000e+04
-1.778260000000000000e+05 -6.086700000000000000e+04
-1.839640000000000000e+05 -5.541100000000000000e+04
-1.899310000000000000e+05 -4.364700000000000000e+04
-1.948760000000000000e+05 -3.580400000000000000e+04
-2.034000000000000000e+05 -2.352800000000000000e+04
-2.062990000000000000e+05 -9.889000000000000000e+03
-2.086860000000000000e+05 3.239000000000000000e+03
-2.103910000000000000e+05 1.687900000000000000e+04
-2.110730000000000000e+05 2.813100000000000000e+04
-2.115840000000000000e+05 4.893200000000000000e+04
-2.085160000000000000e+05 5.916100000000000000e+04
-2.049350000000000000e+05 7.791600000000000000e+04
-1.969210000000000000e+05 9.053200000000000000e+04
-1.911250000000000000e+05 1.014450000000000000e+05
-1.832820000000000000e+05 1.173000000000000000e+05
-1.795310000000000000e+05 1.323040000000000000e+05
-1.653800000000000000e+05 1.432150000000000000e+05
-1.565150000000000000e+05 1.508880000000000000e+05
-1.450910000000000000e+05 1.621400000000000000e+05
-1.377600000000000000e+05 1.693010000000000000e+05
-1.268480000000000000e+05 1.807250000000000000e+05
-1.142320000000000000e+05 1.883970000000000000e+05
-1.017850000000000000e+05 1.936820000000000000e+05
-8.882800000000000000e+04 1.994790000000000000e+05
-7.638200000000000000e+04 2.066400000000000000e+05
-6.581100000000000000e+04 2.054470000000000000e+05
-5.217100000000000000e+04 2.114140000000000000e+05
-4.091900000000000000e+04 2.143120000000000000e+05
-2.489200000000000000e+04 2.175520000000000000e+05
-1.722000000000000000e+04 2.195980000000000000e+05
-4.433000000000000000e+03 2.172110000000000000e+05
5.797000000000000000e+03 2.184040000000000000e+05
1.858400000000000000e+04 2.189150000000000000e+05
3.239400000000000000e+04 2.148240000000000000e+05
4.586300000000000000e+04 2.160170000000000000e+05
5.490000000000000000e+04 2.134600000000000000e+05
6.410600000000000000e+04 2.122660000000000000e+05
7.928000000000000000e+04 2.064700000000000000e+05
8.916900000000000000e+04 1.984570000000000000e+05
9.939900000000000000e+04 1.947050000000000000e+05
1.118450000000000000e+05 1.878850000000000000e+05
1.239500000000000000e+05 1.836230000000000000e+05
1.288940000000000000e+05 1.725410000000000000e+05
1.392950000000000000e+05 1.652090000000000000e+05
1.495250000000000000e+05 1.546390000000000000e+05
1.578790000000000000e+05 1.438980000000000000e+05
1.645280000000000000e+05 1.365670000000000000e+05
1.657210000000000000e+05 1.230970000000000000e+05
1.730520000000000000e+05 1.091170000000000000e+05
1.837940000000000000e+05 9.053300000000000000e+04
1.793610000000000000e+05 8.695200000000000000e+04
1.861810000000000000e+05 6.649300000000000000e+04
1.836230000000000000e+05 5.830900000000000000e+04
1.829410000000000000e+05 4.432900000000000000e+04
1.831120000000000000e+05 3.188300000000000000e+04
1.803840000000000000e+05 2.284600000000000000e+04
1.730520000000000000e+05 1.568500000000000000e+04
1.728820000000000000e+05 8.525000000000000000e+03
1.723700000000000000e+05 -2.387000000000000000e+03
1.662330000000000000e+05 -7.843000000000000000e+03
1.640160000000000000e+05 -1.057100000000000000e+04
1.609470000000000000e+05 -2.011800000000000000e+04
1.583900000000000000e+05 -2.404000000000000000e+04
1.573670000000000000e+05 -3.205300000000000000e+04
1.542980000000000000e+05 -3.665600000000000000e+04
1.510580000000000000e+05 -4.194200000000000000e+04
1.490130000000000000e+05 -4.978400000000000000e+04
1.469670000000000000e+05 -5.251300000000000000e+04
1.425340000000000000e+05 -6.018500000000000000e+04
1.392950000000000000e+05 -6.291300000000000000e+04
1.382710000000000000e+05 -7.229000000000000000e+04
1.334970000000000000e+05 -7.808700000000000000e+04
1.319640000000000000e+05 -8.354200000000000000e+04
1.283830000000000000e+05 -8.968100000000000000e+04
1.261670000000000000e+05 -9.769400000000000000e+04
1.215630000000000000e+05 -1.048550000000000000e+05
1.174710000000000000e+05 -1.103110000000000000e+05
1.113330000000000000e+05 -1.162770000000000000e+05
1.086050000000000000e+05 -1.227560000000000000e+05
1.011030000000000000e+05 -1.277010000000000000e+05
9.309000000000000000e+04 -1.353730000000000000e+05
8.985100000000000000e+04 -1.408290000000000000e+05
7.945100000000000000e+04 -1.469670000000000000e+05
7.314300000000000000e+04 -1.534460000000000000e+05
6.649300000000000000e+04 -1.573670000000000000e+05
6.001500000000000000e+04 -1.665740000000000000e+05
4.398800000000000000e+04 -1.706660000000000000e+05
3.853200000000000000e+04 -1.699840000000000000e+05
2.830200000000000000e+04 -1.774850000000000000e+05
1.568500000000000000e+04 -1.808950000000000000e+05
4.774000000000000000e+03 -1.786790000000000000e+05
-7.672000000000000000e+03 -1.831120000000000000e+05
-1.687900000000000000e+04 -1.817480000000000000e+05
-2.710900000000000000e+04 -1.810660000000000000e+05
-4.160100000000000000e+04 -1.800430000000000000e+05
-5.097800000000000000e+04 -1.820890000000000000e+05
-6.359500000000000000e+04 -1.747570000000000000e+05
-7.570000000000000000e+04 -1.657220000000000000e+05
-8.661100000000000000e+04 -1.616290000000000000e+05
