-2.538670000000000000e+05 -3.776470000000000000e+05
-3.773060000000000000e+05 -1.104810000000000000e+05
-2.129480000000000000e+05 5.131900000000000000e+04
-2.018660000000000000e+05 2.472200000000000000e+04
-2.497750000000000000e+05 1.179820000000000000e+05
-1.776550000000000000e+05 3.017760000000000000e+05
6.819800000000000000e+04 3.803750000000000000e+05
2.431260000000000000e+05 2.281220000000000000e+05
2.269290000000000000e+05 6.768700000000000000e+04
1.909550000000000000e+05 4.586300000000000000e+04
2.908650000000000000e+05 -1.807300000000000000e+04
2.465360000000000000e+05 -2.409090000000000000e+05
2.813200000000000000e+04 -3.716800000000000000e+05
1.940240000000000000e+05 -3.208720000000000000e+05
-7.655200000000000000e+04 -3.559940000000000000e+05
-2.274400000000000000e+05 -1.701540000000000000e+05
-1.843050000000000000e+05 -6.956200000000000000e+04
-2.068100000000000000e+05 -9.889000000000000000e+03
-1.977740000000000000e+05 9.138500000000000000e+04
-1.178120000000000000e+05 1.890790000000000000e+05
1.347000000000000000e+04 2.114140000000000000e+05
1.057070000000000000e+05 1.328150000000000000e+05
9.172700000000000000e+04 6.393600000000000000e+04
9.206800000000000000e+04 7.706300000000000000e+04
1.623110000000000000e+05 5.728600000000000000e+04
2.039120000000000000e+05 -5.336500000000000000e+04
1.396350000000000000e+05 -1.887390000000000000e+05
-1.483300000000000000e+04 -2.422740000000000000e+05
-1.502060000000000000e+05 -1.722000000000000000e+05
-1.790200000000000000e+05 -7.109600000000000000e+04
-1.991380000000000000e+05 2.062900000000000000e+04
-1.456030000000000000e+05 1.288940000000000000e+05
-4.842100000000000000e+04 1.846460000000000000e+05
6.342400000000000000e+04 1.839640000000000000e+05
1.582190000000000000e+05 9.735200000000000000e+04
1.220750000000000000e+05 -1.670900000000000000e+04
9.138500000000000000e+04 -2.216500000000000000e+04
1.109930000000000000e+05 -4.944400000000000000e+04
1.029800000000000000e+05 -1.377600000000000000e+05
-1.398100000000000000e+04 -2.320440000000000000e+05
-1.933420000000000000e+05 -1.766330000000000000e+05
-2.265880000000000000e+05 -1.295800000000000000e+04
-1.739050000000000000e+05 6.717500000000000000e+04
-1.689610000000000000e+05 1.602660000000000000e+05
-9.037000000000000000e+03 3.050160000000000000e+05
2.231790000000000000e+05 2.199390000000000000e+05
2.801230000000000000e+05 1.841300000000000000e+04
2.032310000000000000e+05 -1.418520000000000000e+05
4.910300000000000000e+04 -2.040830000000000000e+05
-2.813200000000000000e+04 -1.440680000000000000e+05
-3.631600000000000000e+04 -1.375890000000000000e+05
-1.031500000000000000e+05 -1.464550000000000000e+05
-2.010130000000000000e+05 -1.070710000000000000e+05
-2.559130000000000000e+05 5.166100000000000000e+04
-1.299170000000000000e+05 1.950470000000000000e+05
-2.710800000000000000e+04 1.686200000000000000e+05
-1.074100000000000000e+04 1.757800000000000000e+05
8.047400000000000000e+04 2.479000000000000000e+05
2.625630000000000000e+05 1.851570000000000000e+05
3.176330000000000000e+05 -5.950300000000000000e+04
1.764620000000000000e+05 -2.282930000000000000e+05
2.182400000000000000e+04 -2.550610000000000000e+05
-7.910900000000000000e+04 -2.056170000000000000e+05
-1.324750000000000000e+05 -1.536170000000000000e+05
-1.764620000000000000e+05 -9.956900000000000000e+04
-2.236890000000000000e+05 -2.301700000000000000e+04
-2.257360000000000000e+05 1.132090000000000000e+05
-9.496600000000000000e+04 2.565950000000000000e+05
4.415800000000000000e+04 1.955580000000000000e+05
6.069700000000000000e+04 1.387830000000000000e+05
9.837500000000000000e+04 1.457730000000000000e+05
1.969220000000000000e+05 1.097990000000000000e+05
2.475590000000000000e+05 -4.859100000000000000e+04
1.546390000000000000e+05 -1.982860000000000000e+05
1.892500000000000000e+04 -2.197680000000000000e+05
-5.234200000000000000e+04 -1.848170000000000000e+05
-1.220750000000000000e+05 -1.689610000000000000e+05
-2.088560000000000000e+05 -8.865800000000000000e+04
-2.173810000000000000e+05 3.478100000000000000e+04
-1.715180000000000000e+05 1.430450000000000000e+05
-6.171900000000000000e+04 2.398870000000000000e+05
1.026380000000000000e+05 2.045940000000000000e+05
1.277010000000000000e+05 9.820500000000000000e+04
1.316230000000000000e+05 6.325400000000000000e+04
1.638460000000000000e+05 1.653800000000000000e+04
1.674270000000000000e+05 -8.013200000000000000e+04
8.541800000000000000e+04 -1.750980000000000000e+05
-2.949600000000000000e+04 -1.682780000000000000e+05
-6.956200000000000000e+04 -1.208810000000000000e+05
-8.899800000000000000e+04 -1.072410000000000000e+05
-1.570260000000000000e+05 -8.200800000000000000e+04
-2.025480000000000000e+05 3.938400000000000000e+04
-1.338390000000000000e+05 1.524220000000000000e+05
-2.506200000000000000e+04 1.958980000000000000e+05
8.644100000000000000e+04 1.793610000000000000e+05
1.490130000000000000e+05 8.814600000000000000e+04
1.488430000000000000e+05 2.028800000000000000e+04
1.427040000000000000e+05 -3.870200000000000000e+04
1.164480000000000000e+05 -1.133800000000000000e+05
2.915500000000000000e+04 -1.716890000000000000e+05
