-9.633000000000000000e+04 -1.539570000000000000e+05
-1.220740000000000000e+05 -1.166190000000000000e+05
-1.357140000000000000e+05 -7.842800000000000000e+04
-1.323040000000000000e+05 -4.364700000000000000e+04
-1.242910000000000000e+05 -2.199400000000000000e+04
-1.152540000000000000e+05 -1.108200000000000000e+04
-1.111620000000000000e+05 -5.120000000000000000e+02
-1.108210000000000000e+05 8.695000000000000000e+03
-1.150840000000000000e+05 2.676800000000000000e+04
-1.196870000000000000e+05 4.364600000000000000e+04
-1.166180000000000000e+05 7.382400000000000000e+04
-1.062180000000000000e+05 1.077520000000000000e+05
-8.303100000000000000e+04 1.471370000000000000e+05
-4.330500000000000000e+04 1.704960000000000000e+05
5.626000000000000000e+03 1.797020000000000000e+05
5.046700000000000000e+04 1.727110000000000000e+05
9.053300000000000000e+04 1.503770000000000000e+05
1.207100000000000000e+05 1.277010000000000000e+05
1.352030000000000000e+05 9.360200000000000000e+04
1.512300000000000000e+05 6.052600000000000000e+04
1.546390000000000000e+05 2.898400000000000000e+04
1.553210000000000000e+05 -3.580000000000000000e+03
1.495240000000000000e+05 -3.444000000000000000e+04
1.416810000000000000e+05 -6.853900000000000000e+04
1.196880000000000000e+05 -1.002520000000000000e+05
9.905800000000000000e+04 -1.300880000000000000e+05
6.308300000000000000e+04 -1.500360000000000000e+05
2.676800000000000000e+04 -1.616290000000000000e+05
-9.206000000000000000e+03 -1.662330000000000000e+05
-4.773800000000000000e+04 -1.629940000000000000e+05
-8.678200000000000000e+04 -1.479900000000000000e+05
-1.217330000000000000e+05 -1.217330000000000000e+05
-1.466250000000000000e+05 -8.695300000000000000e+04
-1.660620000000000000e+05 -4.330600000000000000e+04
-1.664030000000000000e+05 7.161000000000000000e+03
-1.515700000000000000e+05 4.978400000000000000e+04
-1.200280000000000000e+05 7.962200000000000000e+04
-8.951000000000000000e+04 9.547700000000000000e+04
-6.393500000000000000e+04 1.009340000000000000e+05
-4.807900000000000000e+04 9.991000000000000000e+04
-3.256500000000000000e+04 1.040020000000000000e+05
-1.994800000000000000e+04 1.103100000000000000e+05
-1.875000000000000000e+03 1.155950000000000000e+05
2.063000000000000000e+04 1.224150000000000000e+05
4.501100000000000000e+04 1.299170000000000000e+05
7.791700000000000000e+04 1.249730000000000000e+05
1.080940000000000000e+05 1.135500000000000000e+05
1.406580000000000000e+05 8.695200000000000000e+04
1.595830000000000000e+05 5.200100000000000000e+04
1.657210000000000000e+05 5.285000000000000000e+03
1.541280000000000000e+05 -3.597500000000000000e+04
1.333280000000000000e+05 -7.041400000000000000e+04
1.116740000000000000e+05 -9.019200000000000000e+04
8.422500000000000000e+04 -1.040020000000000000e+05
6.700500000000000000e+04 -1.137200000000000000e+05
4.569300000000000000e+04 -1.248020000000000000e+05
2.762100000000000000e+04 -1.409990000000000000e+05
-3.410000000000000000e+02 -1.548100000000000000e+05
-3.699700000000000000e+04 -1.635040000000000000e+05
-7.911000000000000000e+04 -1.585610000000000000e+05
-1.224150000000000000e+05 -1.379300000000000000e+05
-1.531050000000000000e+05 -1.028090000000000000e+05
-1.759510000000000000e+05 -6.001400000000000000e+04
-1.829410000000000000e+05 -1.483300000000000000e+04
-1.788490000000000000e+05 3.256400000000000000e+04
-1.633350000000000000e+05 7.518800000000000000e+04
-1.382720000000000000e+05 1.149140000000000000e+05
-1.036610000000000000e+05 1.461150000000000000e+05
-6.188900000000000000e+04 1.616290000000000000e+05
-1.705000000000000000e+04 1.711770000000000000e+05
2.404000000000000000e+04 1.614590000000000000e+05
4.842100000000000000e+04 1.418510000000000000e+05
7.263100000000000000e+04 1.224150000000000000e+05
8.712300000000000000e+04 1.040020000000000000e+05
1.009330000000000000e+05 8.951000000000000000e+04
1.144030000000000000e+05 7.007400000000000000e+04
1.232680000000000000e+05 5.779800000000000000e+04
1.311110000000000000e+05 3.410000000000000000e+04
1.399760000000000000e+05 7.331000000000000000e+03
1.435570000000000000e+05 -1.875400000000000000e+04
1.382720000000000000e+05 -5.387700000000000000e+04
1.212220000000000000e+05 -9.309000000000000000e+04
9.735300000000000000e+04 -1.171300000000000000e+05
5.848000000000000000e+04 -1.372480000000000000e+05
1.807300000000000000e+04 -1.432160000000000000e+05
-1.364000000000000000e+04 -1.352030000000000000e+05
-3.580400000000000000e+04 -1.232680000000000000e+05
-5.370600000000000000e+04 -1.094580000000000000e+05
-6.700500000000000000e+04 -1.012740000000000000e+05
-8.064400000000000000e+04 -1.011040000000000000e+05
-9.956900000000000000e+04 -9.428400000000000000e+04
-1.186640000000000000e+05 -8.695200000000000000e+04
-1.442390000000000000e+05 -6.547000000000000000e+04
-1.660620000000000000e+05 -3.426900000000000000e+04
-1.718590000000000000e+05 1.193400000000000000e+04
-1.693010000000000000e+05 6.478800000000000000e+04
-1.391240000000000000e+05 1.181530000000000000e+05
-9.667000000000000000e+04 1.539570000000000000e+05
-4.910200000000000000e+04 1.727120000000000000e+05
-1.364000000000000000e+03 1.733930000000000000e+05
4.040800000000000000e+04 1.675960000000000000e+05
7.365400000000000000e+04 1.531050000000000000e+05
1.045140000000000000e+05 1.352030000000000000e+05
1.300880000000000000e+05 1.108220000000000000e+05
1.515700000000000000e+05 7.791600000000000000e+04
1.633350000000000000e+05 4.347600000000000000e+04
1.635050000000000000e+05 -6.820000000000000000e+02
1.537870000000000000e+05 -3.597400000000000000e+04
1.302590000000000000e+05 -6.956200000000000000e+04
1.079240000000000000e+05 -9.513600000000000000e+04
7.638200000000000000e+04 -1.229270000000000000e+05
4.739800000000000000e+04 -1.357140000000000000e+05
1.176400000000000000e+04 -1.478190000000000000e+05
-2.489200000000000000e+04 -1.496950000000000000e+05
-6.223100000000000000e+04 -1.442390000000000000e+05
-1.002510000000000000e+05 -1.248030000000000000e+05
-1.256550000000000000e+05 -9.377200000000000000e+04
-1.444090000000000000e+05 -5.080700000000000000e+04
-1.416810000000000000e+05 -1.210500000000000000e+04
-1.292350000000000000e+05 1.585600000000000000e+04
-1.115030000000000000e+05 3.819100000000000000e+04
-9.735200000000000000e+04 4.876100000000000000e+04
-8.251900000000000000e+04 6.581200000000000000e+04
-7.058500000000000000e+04 7.740500000000000000e+04
-5.950300000000000000e+04 9.803500000000000000e+04
-3.836100000000000000e+04 1.155960000000000000e+05
-1.483300000000000000e+04 1.331570000000000000e+05
2.421100000000000000e+04 1.500360000000000000e+05
6.649300000000000000e+04 1.546400000000000000e+05
1.130390000000000000e+05 1.384420000000000000e+05
1.515700000000000000e+05 1.051950000000000000e+05
1.679380000000000000e+05 5.302400000000000000e+04
1.646980000000000000e+05 -8.530000000000000000e+02
1.491830000000000000e+05 -3.563300000000000000e+04
1.266780000000000000e+05 -6.137800000000000000e+04
1.046840000000000000e+05 -8.013300000000000000e+04
8.610000000000000000e+04 -9.394300000000000000e+04
6.257100000000000000e+04 -1.080940000000000000e+05
4.603400000000000000e+04 -1.254840000000000000e+05
1.466300000000000000e+04 -1.392940000000000000e+05
-2.114200000000000000e+04 -1.483310000000000000e+05
-5.933200000000000000e+04 -1.420220000000000000e+05
-9.155600000000000000e+04 -1.263370000000000000e+05
-1.099690000000000000e+05 -9.684100000000000000e+04
-1.239500000000000000e+05 -7.075500000000000000e+04
-1.321330000000000000e+05 -3.802000000000000000e+04
-1.323040000000000000e+05 -8.525000000000000000e+03
-1.259960000000000000e+05 2.062900000000000000e+04
-1.157660000000000000e+05 4.603300000000000000e+04
-1.026380000000000000e+05 7.365300000000000000e+04
-7.911000000000000000e+04 9.257900000000000000e+04
-5.097800000000000000e+04 1.029790000000000000e+05
-2.148200000000000000e+04 1.036610000000000000e+05
2.387000000000000000e+03 9.991100000000000000e+04
1.943700000000000000e+04 9.462500000000000000e+04
3.069000000000000000e+04 9.036200000000000000e+04
3.938500000000000000e+04 8.371300000000000000e+04
4.978500000000000000e+04 7.689300000000000000e+04
6.240100000000000000e+04 6.939100000000000000e+04
7.501800000000000000e+04 6.410700000000000000e+04
8.882800000000000000e+04 5.166000000000000000e+04
9.957000000000000000e+04 3.546300000000000000e+04
1.118450000000000000e+05 1.739000000000000000e+04
1.154260000000000000e+05 -1.415100000000000000e+04
1.051950000000000000e+05 -4.364700000000000000e+04
8.558900000000000000e+04 -6.888000000000000000e+04
5.967400000000000000e+04 -7.979200000000000000e+04
3.307600000000000000e+04 -7.757500000000000000e+04
1.773200000000000000e+04 -7.143800000000000000e+04
4.603000000000000000e+03 -6.530000000000000000e+04
-1.193000000000000000e+03 -6.376500000000000000e+04
-8.866000000000000000e+03 -6.325300000000000000e+04
-1.705000000000000000e+04 -6.257200000000000000e+04
-2.403900000000000000e+04 -6.069600000000000000e+04
-4.074800000000000000e+04 -5.762700000000000000e+04
7.502000000000000000e+03 -7.501000000000000000e+03
7.161000000000000000e+03 -7.332000000000000000e+03
7.161000000000000000e+03 -1.142300000000000000e+04
8.184000000000000000e+03 -9.718000000000000000e+03
1.876000000000000000e+03 -9.036000000000000000e+03
-7.161000000000000000e+03 -9.207000000000000000e+03
-8.695000000000000000e+03 -1.483300000000000000e+04
-8.695000000000000000e+03 -1.125300000000000000e+04
-7.843000000000000000e+03 -5.797000000000000000e+03
-1.040000000000000000e+04 -6.990000000000000000e+03
-1.534500000000000000e+04 5.120000000000000000e+02
-1.926600000000000000e+04 -1.705000000000000000e+03
-1.841400000000000000e+04 4.774000000000000000e+03
-1.517400000000000000e+04 8.695000000000000000e+03
-1.312800000000000000e+04 8.354000000000000000e+03
-1.057100000000000000e+04 1.483300000000000000e+04
-9.207000000000000000e+03 1.602700000000000000e+04
-5.968000000000000000e+03 2.011900000000000000e+04
-4.262000000000000000e+03 2.063000000000000000e+04
2.558000000000000000e+03 2.063000000000000000e+04
1.005900000000000000e+04 2.028900000000000000e+04
1.943600000000000000e+04 2.097100000000000000e+04
2.796100000000000000e+04 1.807300000000000000e+04
3.273500000000000000e+04 1.210600000000000000e+04
2.966600000000000000e+04 -1.193000000000000000e+03
2.932500000000000000e+04 -7.160000000000000000e+03
2.404000000000000000e+04 -1.398100000000000000e+04
1.875400000000000000e+04 -1.687900000000000000e+04
1.466300000000000000e+04 -1.756100000000000000e+04
3.580400000000000000e+04 -8.354000000000000000e+03
1.142300000000000000e+04 -2.318700000000000000e+04
9.207000000000000000e+03 -2.404000000000000000e+04
4.433000000000000000e+03 -2.881300000000000000e+04
-4.262000000000000000e+03 -3.120100000000000000e+04
-1.278700000000000000e+04 -3.580400000000000000e+04
-2.659700000000000000e+04 -3.239400000000000000e+04
-3.444000000000000000e+04 -2.540400000000000000e+04
-4.705600000000000000e+04 -1.841300000000000000e+04
-4.449900000000000000e+04 -1.040000000000000000e+04
-4.415800000000000000e+04 2.728000000000000000e+03
-4.637500000000000000e+04 8.695000000000000000e+03
-4.586300000000000000e+04 1.466300000000000000e+04
-4.279400000000000000e+04 2.011800000000000000e+04
-4.313500000000000000e+04 3.256500000000000000e+04
-3.853200000000000000e+04 4.688600000000000000e+04
-2.727900000000000000e+04 5.643400000000000000e+04
-9.718000000000000000e+03 7.109700000000000000e+04
1.312800000000000000e+04 7.177800000000000000e+04
3.290600000000000000e+04 6.615300000000000000e+04
5.660500000000000000e+04 5.404700000000000000e+04
6.939100000000000000e+04 3.870300000000000000e+04
7.774600000000000000e+04 2.301700000000000000e+04
8.166700000000000000e+04 5.967000000000000000e+03
8.269000000000000000e+04 -1.176400000000000000e+04
7.791600000000000000e+04 -2.949600000000000000e+04
7.092600000000000000e+04 -4.603400000000000000e+04
8.712300000000000000e+04 -3.750000000000000000e+03
8.217900000000000000e+04 -2.267600000000000000e+04
6.632300000000000000e+04 -4.279400000000000000e+04
4.569300000000000000e+04 -5.575200000000000000e+04
2.881400000000000000e+04 -5.626400000000000000e+04
1.415100000000000000e+04 -5.779800000000000000e+04
9.207000000000000000e+03 -5.097800000000000000e+04
1.875000000000000000e+03 -4.518100000000000000e+04
-5.456000000000000000e+03 -5.131900000000000000e+04
-1.466200000000000000e+04 -5.200100000000000000e+04
-2.455100000000000000e+04 -4.876200000000000000e+04
-3.597400000000000000e+04 -5.319500000000000000e+04
-5.063700000000000000e+04 -4.603400000000000000e+04
-6.666400000000000000e+04 -4.023700000000000000e+04
-8.047400000000000000e+04 -2.046000000000000000e+04
-8.575900000000000000e+04 -1.700000000000000000e+02
-8.490700000000000000e+04 1.278700000000000000e+04
-7.825800000000000000e+04 2.574500000000000000e+04
-7.126700000000000000e+04 3.597500000000000000e+04
