-2.262470000000000000e+05 -3.796930000000000000e+05
-2.669950000000000000e+05 -3.488330000000000000e+05
-3.062090000000000000e+05 -3.070620000000000000e+05
-3.363870000000000000e+05 -2.635860000000000000e+05
-3.590620000000000000e+05 -2.103910000000000000e+05
-3.670760000000000000e+05 -1.549800000000000000e+05
-3.643480000000000000e+05 -9.257900000000000000e+04
-3.454230000000000000e+05 -3.750900000000000000e+04
-3.166090000000000000e+05 6.990000000000000000e+03
-2.768840000000000000e+05 3.750900000000000000e+04
-2.383520000000000000e+05 5.148900000000000000e+04
-2.155050000000000000e+05 4.756800000000000000e+04
-2.003310000000000000e+05 4.279400000000000000e+04
-1.919770000000000000e+05 3.682700000000000000e+04
-1.918070000000000000e+05 3.307600000000000000e+04
-1.986270000000000000e+05 2.864300000000000000e+04
-2.081750000000000000e+05 2.693800000000000000e+04
-2.168690000000000000e+05 4.074800000000000000e+04
-2.305090000000000000e+05 5.575200000000000000e+04
-2.402280000000000000e+05 7.604000000000000000e+04
-2.436370000000000000e+05 9.684100000000000000e+04
-2.511390000000000000e+05 1.265070000000000000e+05
-2.497750000000000000e+05 1.558320000000000000e+05
-2.450010000000000000e+05 1.945350000000000000e+05
-2.327260000000000000e+05 2.317030000000000000e+05
-2.076630000000000000e+05 2.762020000000000000e+05
-1.785080000000000000e+05 3.150750000000000000e+05
-1.398060000000000000e+05 3.454230000000000000e+05
-9.394300000000000000e+04 3.778170000000000000e+05
-3.887300000000000000e+04 3.974240000000000000e+05
2.318800000000000000e+04 4.045850000000000000e+05
8.030300000000000000e+04 4.008340000000000000e+05
1.362260000000000000e+05 3.825910000000000000e+05
1.817480000000000000e+05 3.505380000000000000e+05
2.202800000000000000e+05 3.176320000000000000e+05
2.456830000000000000e+05 2.782480000000000000e+05
2.659730000000000000e+05 2.363060000000000000e+05
2.726220000000000000e+05 1.914660000000000000e+05
2.733040000000000000e+05 1.541270000000000000e+05
2.675070000000000000e+05 1.200280000000000000e+05
2.581300000000000000e+05 8.746400000000000000e+04
2.455130000000000000e+05 6.717500000000000000e+04
2.306800000000000000e+05 5.370600000000000000e+04
2.182340000000000000e+05 4.245300000000000000e+04
2.095380000000000000e+05 3.665700000000000000e+04
2.059580000000000000e+05 3.802000000000000000e+04
2.114140000000000000e+05 3.614500000000000000e+04
2.274410000000000000e+05 3.631500000000000000e+04
2.482410000000000000e+05 2.830200000000000000e+04
2.683590000000000000e+05 1.517400000000000000e+04
2.920590000000000000e+05 -1.551500000000000000e+04
3.072330000000000000e+05 -5.302400000000000000e+04
3.140520000000000000e+05 -9.735300000000000000e+04
3.103020000000000000e+05 -1.450910000000000000e+05
2.925690000000000000e+05 -1.982860000000000000e+05
2.678480000000000000e+05 -2.424440000000000000e+05
2.361360000000000000e+05 -2.845560000000000000e+05
1.912950000000000000e+05 -3.224060000000000000e+05
1.478200000000000000e+05 -3.510500000000000000e+05
9.786500000000000000e+04 -3.735550000000000000e+05
4.484000000000000000e+04 -3.887290000000000000e+05
-1.074100000000000000e+04 -3.974250000000000000e+05
3.435480000000000000e+05 -2.076640000000000000e+05
3.079140000000000000e+05 -2.533560000000000000e+05
2.687010000000000000e+05 -2.895010000000000000e+05
2.240310000000000000e+05 -3.256460000000000000e+05
1.730530000000000000e+05 -3.524140000000000000e+05
1.176420000000000000e+05 -3.747490000000000000e+05
6.564100000000000000e+04 -3.832730000000000000e+05
6.650000000000000000e+03 -3.844660000000000000e+05
-4.910300000000000000e+04 -3.841260000000000000e+05
-1.046840000000000000e+05 -3.631550000000000000e+05
-1.519110000000000000e+05 -3.392850000000000000e+05
-1.936830000000000000e+05 -3.028000000000000000e+05
-2.264180000000000000e+05 -2.543790000000000000e+05
-2.419330000000000000e+05 -2.103910000000000000e+05
-2.473890000000000000e+05 -1.641870000000000000e+05
-2.380110000000000000e+05 -1.237800000000000000e+05
-2.253950000000000000e+05 -9.888800000000000000e+04
-2.124370000000000000e+05 -8.354300000000000000e+04
-2.059580000000000000e+05 -7.263100000000000000e+04
-2.032300000000000000e+05 -6.853900000000000000e+04
-2.040820000000000000e+05 -6.069600000000000000e+04
-2.074930000000000000e+05 -5.217200000000000000e+04
-2.170400000000000000e+05 -3.972600000000000000e+04
-2.250530000000000000e+05 -2.489200000000000000e+04
-2.288050000000000000e+05 -5.285000000000000000e+03
-2.305090000000000000e+05 1.398000000000000000e+04
-2.317020000000000000e+05 3.461100000000000000e+04
-2.315320000000000000e+05 6.103700000000000000e+04
-2.272690000000000000e+05 8.405400000000000000e+04
-2.223260000000000000e+05 1.104810000000000000e+05
-2.093680000000000000e+05 1.358840000000000000e+05
-1.923180000000000000e+05 1.645270000000000000e+05
-1.752690000000000000e+05 1.912950000000000000e+05
-1.549800000000000000e+05 2.112440000000000000e+05
-1.237790000000000000e+05 2.325550000000000000e+05
-9.462500000000000000e+04 2.492640000000000000e+05
-6.035500000000000000e+04 2.552310000000000000e+05
-2.284600000000000000e+04 2.630740000000000000e+05
1.227600000000000000e+04 2.603460000000000000e+05
4.535200000000000000e+04 2.523330000000000000e+05
7.518800000000000000e+04 2.386930000000000000e+05
1.057070000000000000e+05 2.195980000000000000e+05
1.268490000000000000e+05 1.950470000000000000e+05
1.357150000000000000e+05 1.694720000000000000e+05
1.457730000000000000e+05 1.403180000000000000e+05
1.471370000000000000e+05 1.166180000000000000e+05
1.415110000000000000e+05 9.598800000000000000e+04
1.346910000000000000e+05 7.996200000000000000e+04
1.277010000000000000e+05 6.871000000000000000e+04
1.176420000000000000e+05 6.240100000000000000e+04
1.113340000000000000e+05 6.257100000000000000e+04
1.101400000000000000e+05 6.223100000000000000e+04
1.106510000000000000e+05 6.308300000000000000e+04
1.195180000000000000e+05 6.581100000000000000e+04
1.270190000000000000e+05 6.547000000000000000e+04
1.391240000000000000e+05 6.308300000000000000e+04
1.517410000000000000e+05 5.728600000000000000e+04
1.677670000000000000e+05 4.739800000000000000e+04
1.826000000000000000e+05 3.836200000000000000e+04
1.957290000000000000e+05 1.722000000000000000e+04
2.015260000000000000e+05 -4.945000000000000000e+03
2.131190000000000000e+05 -3.017800000000000000e+04
2.105610000000000000e+05 -6.069600000000000000e+04
2.115840000000000000e+05 -8.644100000000000000e+04
2.034010000000000000e+05 -1.162780000000000000e+05
1.890790000000000000e+05 -1.461140000000000000e+05
1.708370000000000000e+05 -1.718590000000000000e+05
1.471370000000000000e+05 -1.972630000000000000e+05
1.234380000000000000e+05 -2.201100000000000000e+05
9.121500000000000000e+04 -2.342600000000000000e+05
5.899100000000000000e+04 -2.496050000000000000e+05
2.506300000000000000e+04 -2.555730000000000000e+05
-1.227600000000000000e+04 -2.586410000000000000e+05
-4.790900000000000000e+04 -2.555720000000000000e+05
-7.945100000000000000e+04 -2.467060000000000000e+05
-1.125260000000000000e+05 -2.317030000000000000e+05
-1.382720000000000000e+05 -2.148240000000000000e+05
-1.628230000000000000e+05 -1.918070000000000000e+05
-1.834520000000000000e+05 -1.657220000000000000e+05
-1.976030000000000000e+05 -1.372490000000000000e+05
-2.066400000000000000e+05 -1.086050000000000000e+05
-2.047640000000000000e+05 -8.064400000000000000e+04
-2.045950000000000000e+05 -5.831000000000000000e+04
-2.020370000000000000e+05 -3.682700000000000000e+04
-1.974330000000000000e+05 -2.369900000000000000e+04
-1.965800000000000000e+05 -2.899000000000000000e+03
-1.962400000000000000e+05 1.244600000000000000e+04
-1.989670000000000000e+05 3.273500000000000000e+04
-1.919770000000000000e+05 5.149000000000000000e+04
-1.868630000000000000e+05 7.297200000000000000e+04
-1.773150000000000000e+05 9.326000000000000000e+04
-1.653800000000000000e+05 1.142320000000000000e+05
-1.500360000000000000e+05 1.334980000000000000e+05
-1.288940000000000000e+05 1.544690000000000000e+05
-1.115030000000000000e+05 1.619700000000000000e+05
-9.053200000000000000e+04 1.778260000000000000e+05
-6.530000000000000000e+04 1.843050000000000000e+05
-4.160000000000000000e+04 1.921480000000000000e+05
-2.165300000000000000e+04 1.958990000000000000e+05
4.603000000000000000e+03 1.953880000000000000e+05
2.335800000000000000e+04 1.957280000000000000e+05
5.063700000000000000e+04 1.880560000000000000e+05
7.109600000000000000e+04 1.826000000000000000e+05
9.292000000000000000e+04 1.728820000000000000e+05
1.120160000000000000e+05 1.614580000000000000e+05
1.292350000000000000e+05 1.432160000000000000e+05
1.478200000000000000e+05 1.288940000000000000e+05
1.606070000000000000e+05 1.026390000000000000e+05
1.693020000000000000e+05 7.825700000000000000e+04
1.703250000000000000e+05 5.336500000000000000e+04
1.710070000000000000e+05 2.386900000000000000e+04
1.635040000000000000e+05 -1.535000000000000000e+03
1.485010000000000000e+05 -2.489200000000000000e+04
1.283830000000000000e+05 -3.785000000000000000e+04
1.130380000000000000e+05 -4.876200000000000000e+04
9.769400000000000000e+04 -5.268300000000000000e+04
8.746400000000000000e+04 -4.910300000000000000e+04
7.757600000000000000e+04 -4.756800000000000000e+04
7.433600000000000000e+04 -4.739800000000000000e+04
7.604100000000000000e+04 -4.535200000000000000e+04
7.706400000000000000e+04 -5.114900000000000000e+04
7.962100000000000000e+04 -5.148900000000000000e+04
8.064500000000000000e+04 -5.830900000000000000e+04
8.337300000000000000e+04 -6.461800000000000000e+04
8.149700000000000000e+04 -7.348300000000000000e+04
8.149700000000000000e+04 -8.456600000000000000e+04
7.808700000000000000e+04 -9.752400000000000000e+04
7.450600000000000000e+04 -1.157670000000000000e+05
6.905000000000000000e+04 -1.288940000000000000e+05
5.677500000000000000e+04 -1.444090000000000000e+05
4.330500000000000000e+04 -1.573670000000000000e+05
2.472200000000000000e+04 -1.754390000000000000e+05
6.820000000000000000e+02 -1.861810000000000000e+05
-2.608600000000000000e+04 -1.914660000000000000e+05
-5.336500000000000000e+04 -1.989680000000000000e+05
-8.814600000000000000e+04 -1.930000000000000000e+05
-1.166190000000000000e+05 -1.851580000000000000e+05
-1.459440000000000000e+05 -1.696420000000000000e+05
-1.713480000000000000e+05 -1.476490000000000000e+05
-1.890790000000000000e+05 -1.198580000000000000e+05
-1.964100000000000000e+05 -9.206700000000000000e+04
-2.132900000000000000e+05 -6.001400000000000000e+04
-2.124370000000000000e+05 -3.205300000000000000e+04
-2.086860000000000000e+05 -3.410000000000000000e+03
-1.994790000000000000e+05 2.182400000000000000e+04
-1.882260000000000000e+05 4.296500000000000000e+04
-1.778270000000000000e+05 5.950300000000000000e+04
-1.623110000000000000e+05 7.382400000000000000e+04
-1.496950000000000000e+05 8.371300000000000000e+04
-1.404880000000000000e+05 9.138500000000000000e+04
-1.314520000000000000e+05 1.004210000000000000e+05
-1.328160000000000000e+05 1.103110000000000000e+05
-1.307700000000000000e+05 1.229270000000000000e+05
-1.285540000000000000e+05 1.447510000000000000e+05
-1.205400000000000000e+05 1.669150000000000000e+05
-1.028090000000000000e+05 1.923190000000000000e+05
-8.132600000000000000e+04 2.204500000000000000e+05
-4.637500000000000000e+04 2.436370000000000000e+05
-7.501000000000000000e+03 2.594940000000000000e+05
3.563300000000000000e+04 2.678480000000000000e+05
8.593000000000000000e+04 2.629030000000000000e+05
1.242910000000000000e+05 2.516510000000000000e+05
1.660620000000000000e+05 2.282930000000000000e+05
1.982860000000000000e+05 1.994800000000000000e+05
2.248830000000000000e+05 1.657220000000000000e+05
2.415920000000000000e+05 1.317930000000000000e+05
2.540380000000000000e+05 8.865700000000000000e+04
2.567660000000000000e+05 5.626300000000000000e+04
2.550610000000000000e+05 1.960700000000000000e+04
2.509690000000000000e+05 -1.363900000000000000e+04
2.393750000000000000e+05 -4.705600000000000000e+04
2.267590000000000000e+05 -7.825700000000000000e+04
2.097090000000000000e+05 -1.069000000000000000e+05
1.885680000000000000e+05 -1.300880000000000000e+05
1.665740000000000000e+05 -1.541280000000000000e+05
1.375890000000000000e+05 -1.696420000000000000e+05
1.091170000000000000e+05 -1.858400000000000000e+05
8.269100000000000000e+04 -1.962400000000000000e+05
5.029600000000000000e+04 -1.982850000000000000e+05
2.250600000000000000e+04 -1.941930000000000000e+05
-6.138000000000000000e+03 -1.853280000000000000e+05
-2.063000000000000000e+04 -1.713480000000000000e+05
-3.631600000000000000e+04 -1.558320000000000000e+05
-4.449900000000000000e+04 -1.403170000000000000e+05
-4.398700000000000000e+04 -1.302580000000000000e+05
-4.398700000000000000e+04 -1.205400000000000000e+05
-4.893200000000000000e+04 -1.167890000000000000e+05
-4.995500000000000000e+04 -1.164480000000000000e+05
-5.251300000000000000e+04 -1.178120000000000000e+05
-5.012600000000000000e+04 -1.084340000000000000e+05
-6.342400000000000000e+04 -1.171300000000000000e+05
-7.126700000000000000e+04 -1.173000000000000000e+05
-8.115500000000000000e+04 -1.149140000000000000e+05
-9.053300000000000000e+04 -1.155950000000000000e+05
-1.004210000000000000e+05 -1.154250000000000000e+05
-1.155950000000000000e+05 -1.097990000000000000e+05
-1.299170000000000000e+05 -1.043430000000000000e+05
-1.444090000000000000e+05 -9.956900000000000000e+04
-1.616290000000000000e+05 -8.695300000000000000e+04
-1.771450000000000000e+05 -7.484700000000000000e+04
-1.916370000000000000e+05 -5.575200000000000000e+04
-2.074930000000000000e+05 -3.256500000000000000e+04
-2.132890000000000000e+05 -6.820000000000000000e+03
-2.172100000000000000e+05 2.421100000000000000e+04
-2.211320000000000000e+05 5.796900000000000000e+04
-2.083450000000000000e+05 9.070300000000000000e+04
-1.902730000000000000e+05 1.212220000000000000e+05
-1.693010000000000000e+05 1.512300000000000000e+05
-1.411700000000000000e+05 1.675970000000000000e+05
-1.118440000000000000e+05 1.786790000000000000e+05
-8.661200000000000000e+04 1.863520000000000000e+05
-6.325400000000000000e+04 1.822590000000000000e+05
-4.381700000000000000e+04 1.757800000000000000e+05
-2.318700000000000000e+04 1.727120000000000000e+05
-1.824300000000000000e+04 1.602650000000000000e+05
-1.142300000000000000e+04 1.561730000000000000e+05
-6.990000000000000000e+03 1.493540000000000000e+05
-5.285000000000000000e+03 1.502060000000000000e+05
-6.479000000000000000e+03 1.519120000000000000e+05
-2.728000000000000000e+03 1.537870000000000000e+05
5.967000000000000000e+03 1.667440000000000000e+05
1.398100000000000000e+04 1.785080000000000000e+05
2.659700000000000000e+04 1.926590000000000000e+05
4.978500000000000000e+04 2.080040000000000000e+05
8.234900000000000000e+04 2.170410000000000000e+05
1.563440000000000000e+05 2.189160000000000000e+05
1.367370000000000000e+05 2.231780000000000000e+05
1.706650000000000000e+05 2.161880000000000000e+05
2.103910000000000000e+05 1.981160000000000000e+05
2.467070000000000000e+05 1.703250000000000000e+05
2.763730000000000000e+05 1.333280000000000000e+05
2.973430000000000000e+05 8.797600000000000000e+04
3.074020000000000000e+05 4.228300000000000000e+04
3.101310000000000000e+05 -1.227500000000000000e+04
3.033110000000000000e+05 -6.086600000000000000e+04
2.828520000000000000e+05 -1.017850000000000000e+05
2.598350000000000000e+05 -1.427040000000000000e+05
2.339200000000000000e+05 -1.774850000000000000e+05
1.994790000000000000e+05 -2.025480000000000000e+05
1.670850000000000000e+05 -2.235190000000000000e+05
1.338390000000000000e+05 -2.363060000000000000e+05
1.046840000000000000e+05 -2.490930000000000000e+05
7.126700000000000000e+04 -2.511390000000000000e+05
4.262400000000000000e+04 -2.526740000000000000e+05
1.261700000000000000e+04 -2.487530000000000000e+05
-1.653800000000000000e+04 -2.415920000000000000e+05
-3.785000000000000000e+04 -2.352830000000000000e+05
-6.120800000000000000e+04 -2.195980000000000000e+05
-7.706400000000000000e+04 -2.068110000000000000e+05
-9.309100000000000000e+04 -1.938530000000000000e+05
-1.031500000000000000e+05 -1.790200000000000000e+05
-1.113330000000000000e+05 -1.635050000000000000e+05
-1.220740000000000000e+05 -1.529350000000000000e+05
-1.292360000000000000e+05 -1.398060000000000000e+05
-1.326450000000000000e+05 -1.275310000000000000e+05
-1.372490000000000000e+05 -1.196880000000000000e+05
-1.432160000000000000e+05 -1.108220000000000000e+05
-1.498650000000000000e+05 -1.002510000000000000e+05
-1.573670000000000000e+05 -9.206700000000000000e+04
-1.643570000000000000e+05 -7.979200000000000000e+04
-1.703240000000000000e+05 -6.615300000000000000e+04
-1.779970000000000000e+05 -5.677500000000000000e+04
-1.861800000000000000e+05 -4.040700000000000000e+04
-1.894200000000000000e+05 -2.813200000000000000e+04
-1.979450000000000000e+05 -1.125300000000000000e+04
-1.989670000000000000e+05 2.216000000000000000e+03
-2.052760000000000000e+05 2.727900000000000000e+04
-2.062990000000000000e+05 4.688600000000000000e+04
-2.059580000000000000e+05 7.433500000000000000e+04
-2.016950000000000000e+05 9.786400000000000000e+04
-1.928300000000000000e+05 1.270190000000000000e+05
-1.819180000000000000e+05 1.556620000000000000e+05
-1.590720000000000000e+05 1.861800000000000000e+05
-1.314510000000000000e+05 2.109020000000000000e+05
-1.016150000000000000e+05 2.282920000000000000e+05
-6.410600000000000000e+04 2.397160000000000000e+05
-3.273500000000000000e+04 2.344310000000000000e+05
-1.705000000000000000e+03 2.267590000000000000e+05
2.352900000000000000e+04 2.071520000000000000e+05
4.126000000000000000e+04 1.955580000000000000e+05
5.114900000000000000e+04 1.768030000000000000e+05
5.336500000000000000e+04 1.606060000000000000e+05
5.865100000000000000e+04 1.447510000000000000e+05
5.899200000000000000e+04 1.398060000000000000e+05
5.916200000000000000e+04 1.321340000000000000e+05
6.086700000000000000e+04 1.319630000000000000e+05
6.308300000000000000e+04 1.316220000000000000e+05
6.836900000000000000e+04 1.326450000000000000e+05
7.672300000000000000e+04 1.348620000000000000e+05
9.070400000000000000e+04 1.420220000000000000e+05
1.009330000000000000e+05 1.416810000000000000e+05
1.205400000000000000e+05 1.447500000000000000e+05
1.389540000000000000e+05 1.413400000000000000e+05
1.614590000000000000e+05 1.367370000000000000e+05
1.814070000000000000e+05 1.222450000000000000e+05
2.076630000000000000e+05 1.060480000000000000e+05
2.279520000000000000e+05 8.269000000000000000e+04
2.453430000000000000e+05 5.251300000000000000e+04
2.562540000000000000e+05 1.790200000000000000e+04
2.605170000000000000e+05 -1.858400000000000000e+04
2.567660000000000000e+05 -6.223100000000000000e+04
2.473890000000000000e+05 -1.014440000000000000e+05
2.313620000000000000e+05 -1.396360000000000000e+05
2.124370000000000000e+05 -1.718600000000000000e+05
1.798730000000000000e+05 -1.991380000000000000e+05
1.491830000000000000e+05 -2.211320000000000000e+05
1.176410000000000000e+05 -2.380110000000000000e+05
8.814600000000000000e+04 -2.426140000000000000e+05
5.848000000000000000e+04 -2.461950000000000000e+05
2.745000000000000000e+04 -2.450010000000000000e+05
1.364000000000000000e+03 -2.409100000000000000e+05
-2.131200000000000000e+04 -2.305090000000000000e+05
-3.989600000000000000e+04 -2.206210000000000000e+05
-5.745700000000000000e+04 -2.109020000000000000e+05
-7.518900000000000000e+04 -2.034010000000000000e+05
-8.507700000000000000e+04 -1.950460000000000000e+05
-9.667000000000000000e+04 -1.836240000000000000e+05
-1.121850000000000000e+05 -1.805550000000000000e+05
-1.236090000000000000e+05 -1.735640000000000000e+05
-1.394650000000000000e+05 -1.662330000000000000e+05
-1.561740000000000000e+05 -1.536160000000000000e+05
-1.737350000000000000e+05 -1.401470000000000000e+05
-1.872030000000000000e+05 -1.242910000000000000e+05
-2.008430000000000000e+05 -1.055360000000000000e+05
-2.124370000000000000e+05 -8.047400000000000000e+04
-2.187450000000000000e+05 -5.694500000000000000e+04
-2.204500000000000000e+05 -3.358700000000000000e+04
-2.204500000000000000e+05 -9.889000000000000000e+03
-2.199380000000000000e+05 1.500400000000000000e+04
-2.173810000000000000e+05 3.802000000000000000e+04
-2.062990000000000000e+05 6.223000000000000000e+04
-2.049350000000000000e+05 8.200800000000000000e+04
-1.969220000000000000e+05 1.024680000000000000e+05
-1.873740000000000000e+05 1.265070000000000000e+05
-1.701540000000000000e+05 1.483300000000000000e+05
-1.597540000000000000e+05 1.679370000000000000e+05
-1.435560000000000000e+05 1.902730000000000000e+05
-1.225860000000000000e+05 2.052760000000000000e+05
-9.871600000000000000e+04 2.253940000000000000e+05
-7.314200000000000000e+04 2.412510000000000000e+05
-4.211200000000000000e+04 2.542080000000000000e+05
-1.193400000000000000e+04 2.610280000000000000e+05
2.625700000000000000e+04 2.598340000000000000e+05
6.069600000000000000e+04 2.530140000000000000e+05
9.394300000000000000e+04 2.328960000000000000e+05
1.155960000000000000e+05 2.091980000000000000e+05
1.309410000000000000e+05 1.841350000000000000e+05
1.435570000000000000e+05 1.566860000000000000e+05
1.423640000000000000e+05 1.346910000000000000e+05
1.461150000000000000e+05 1.128680000000000000e+05
1.415110000000000000e+05 1.017860000000000000e+05
1.415110000000000000e+05 8.712300000000000000e+04
1.389540000000000000e+05 7.808700000000000000e+04
1.438980000000000000e+05 7.501700000000000000e+04
1.432160000000000000e+05 6.717600000000000000e+04
1.522520000000000000e+05 6.103700000000000000e+04
1.548090000000000000e+05 5.302400000000000000e+04
1.631640000000000000e+05 4.637400000000000000e+04
1.701550000000000000e+05 3.000800000000000000e+04
1.793610000000000000e+05 2.438100000000000000e+04
1.863520000000000000e+05 4.433000000000000000e+03
1.945350000000000000e+05 -1.381000000000000000e+04
1.964110000000000000e+05 -3.699700000000000000e+04
1.984560000000000000e+05 -5.830900000000000000e+04
1.940240000000000000e+05 -8.405500000000000000e+04
1.836230000000000000e+05 -1.137200000000000000e+05
1.730530000000000000e+05 -1.398060000000000000e+05
1.546390000000000000e+05 -1.657220000000000000e+05
1.346910000000000000e+05 -1.894200000000000000e+05
1.074120000000000000e+05 -2.081750000000000000e+05
7.945100000000000000e+04 -2.221560000000000000e+05
4.586300000000000000e+04 -2.352830000000000000e+05
1.415100000000000000e+04 -2.354540000000000000e+05
-1.534400000000000000e+04 -2.306800000000000000e+05
-4.381700000000000000e+04 -2.226660000000000000e+05
-6.649300000000000000e+04 -2.056170000000000000e+05
-8.490600000000000000e+04 -1.935120000000000000e+05
-9.922800000000000000e+04 -1.774860000000000000e+05
-1.086050000000000000e+05 -1.587310000000000000e+05
-1.186640000000000000e+05 -1.444090000000000000e+05
-1.196870000000000000e+05 -1.331560000000000000e+05
-1.230970000000000000e+05 -1.201990000000000000e+05
-1.258250000000000000e+05 -1.101400000000000000e+05
-1.314510000000000000e+05 -1.040020000000000000e+05
-1.352030000000000000e+05 -9.803500000000000000e+04
-1.396350000000000000e+05 -9.274900000000000000e+04
-1.502060000000000000e+05 -8.695300000000000000e+04
-1.626520000000000000e+05 -7.893900000000000000e+04
-1.761210000000000000e+05 -6.870900000000000000e+04
-1.870330000000000000e+05 -5.558200000000000000e+04
-1.994790000000000000e+05 -3.546300000000000000e+04
-2.083450000000000000e+05 -1.432200000000000000e+04
-2.160170000000000000e+05 1.449200000000000000e+04
-2.166990000000000000e+05 4.091800000000000000e+04
-2.085150000000000000e+05 7.518800000000000000e+04
-1.987970000000000000e+05 1.029790000000000000e+05
-1.837940000000000000e+05 1.341790000000000000e+05
-1.616290000000000000e+05 1.577080000000000000e+05
-1.435570000000000000e+05 1.740750000000000000e+05
-1.212220000000000000e+05 1.918070000000000000e+05
-9.087400000000000000e+04 2.001610000000000000e+05
-6.768700000000000000e+04 2.136300000000000000e+05
-4.347600000000000000e+04 2.195970000000000000e+05
-1.739100000000000000e+04 2.228370000000000000e+05
7.161000000000000000e+03 2.247130000000000000e+05
3.171200000000000000e+04 2.209620000000000000e+05
5.421800000000000000e+04 2.197680000000000000e+05
8.098500000000000000e+04 2.102210000000000000e+05
1.007620000000000000e+05 2.013540000000000000e+05
1.242910000000000000e+05 1.877150000000000000e+05
1.430460000000000000e+05 1.728820000000000000e+05
1.590720000000000000e+05 1.524230000000000000e+05
1.730520000000000000e+05 1.309400000000000000e+05
1.923190000000000000e+05 9.871600000000000000e+04
1.921480000000000000e+05 7.177900000000000000e+04
1.943650000000000000e+05 4.927300000000000000e+04
1.890790000000000000e+05 2.574400000000000000e+04
1.831120000000000000e+05 6.649000000000000000e+03
1.725410000000000000e+05 -8.696000000000000000e+03
1.667450000000000000e+05 -2.233500000000000000e+04
1.599240000000000000e+05 -3.290600000000000000e+04
1.561730000000000000e+05 -4.467000000000000000e+04
1.498660000000000000e+05 -5.438800000000000000e+04
1.438980000000000000e+05 -6.649300000000000000e+04
1.375900000000000000e+05 -8.200800000000000000e+04
1.309400000000000000e+05 -9.479500000000000000e+04
1.278710000000000000e+05 -1.087760000000000000e+05
1.150850000000000000e+05 -1.179830000000000000e+05
1.033200000000000000e+05 -1.341800000000000000e+05
9.377300000000000000e+04 -1.478190000000000000e+05
7.706400000000000000e+04 -1.607770000000000000e+05
5.745700000000000000e+04 -1.693020000000000000e+05
4.194200000000000000e+04 -1.764630000000000000e+05
2.318800000000000000e+04 -1.853290000000000000e+05
6.820000000000000000e+02 -1.890790000000000000e+05
-2.659700000000000000e+04 -1.894210000000000000e+05
-4.978500000000000000e+04 -1.846470000000000000e+05
-7.433600000000000000e+04 -1.802130000000000000e+05
