1.312810000000000000e+05 -9.322670000000000000e+05
-8.899850000000000000e+05 -5.520630000000000000e+05
-1.057923000000000000e+06 1.432200000000000000e+04
-9.370410000000000000e+05 5.242720000000000000e+05
-5.885490000000000000e+05 9.114670000000000000e+05
-2.421000000000000000e+04 1.077870000000000000e+06
5.742270000000000000e+05 6.830030000000000000e+05
3.559940000000000000e+05 4.313500000000000000e+04
-2.830200000000000000e+04 1.050250000000000000e+05
-5.694600000000000000e+04 3.389440000000000000e+05
8.337200000000000000e+04 4.865940000000000000e+05
2.922290000000000000e+05 5.362070000000000000e+05
5.176240000000000000e+05 4.940950000000000000e+05
7.363680000000000000e+05 3.435480000000000000e+05
9.031120000000000000e+05 6.939200000000000000e+04
9.235720000000000000e+05 -3.169510000000000000e+05
7.153970000000000000e+05 -7.073850000000000000e+05
3.101310000000000000e+05 -9.324380000000000000e+05
-9.667100000000000000e+04 -8.882800000000000000e+05
-3.600860000000000000e+05 -6.772070000000000000e+05
-4.564160000000000000e+05 -4.369790000000000000e+05
-4.380020000000000000e+05 -2.233490000000000000e+05
-3.498560000000000000e+05 -8.149700000000000000e+04
-2.112440000000000000e+05 -1.466300000000000000e+04
-5.882100000000000000e+04 -8.303100000000000000e+04
-4.910300000000000000e+04 -3.566760000000000000e+05
-4.484030000000000000e+05 -5.524050000000000000e+05
-8.120680000000000000e+05 -2.557430000000000000e+05
-8.183770000000000000e+05 1.285530000000000000e+05
-6.860720000000000000e+05 3.960600000000000000e+05
-5.172820000000000000e+05 5.679200000000000000e+05
-3.283740000000000000e+05 6.930620000000000000e+05
-1.217330000000000000e+05 7.720020000000000000e+05
9.377200000000000000e+04 8.013270000000000000e+05
3.169500000000000000e+05 7.721720000000000000e+05
5.374010000000000000e+05 6.751610000000000000e+05
7.220470000000000000e+05 4.753400000000000000e+05
8.154790000000000000e+05 1.815780000000000000e+05
7.329590000000000000e+05 -1.527640000000000000e+05
4.381720000000000000e+05 -3.444000000000000000e+05
2.209620000000000000e+05 -2.039130000000000000e+05
3.304190000000000000e+05 -9.036300000000000000e+04
4.313520000000000000e+05 -2.051060000000000000e+05
4.044140000000000000e+05 -3.858300000000000000e+05
2.876250000000000000e+05 -5.283640000000000000e+05
1.263370000000000000e+05 -6.277630000000000000e+05
-5.779700000000000000e+04 -6.772070000000000000e+05
-2.499460000000000000e+05 -6.744790000000000000e+05
-4.419230000000000000e+05 -6.088380000000000000e+05
-6.062810000000000000e+05 -4.761930000000000000e+05
-7.157380000000000000e+05 -2.762020000000000000e+05
-7.344920000000000000e+05 -2.659800000000000000e+04
-6.402090000000000000e+05 2.221550000000000000e+05
-4.540290000000000000e+05 3.936730000000000000e+05
-2.368180000000000000e+05 4.487430000000000000e+05
-6.052500000000000000e+04 3.900930000000000000e+05
4.262000000000000000e+03 2.571060000000000000e+05
-7.450700000000000000e+04 1.931710000000000000e+05
-1.053650000000000000e+05 2.802940000000000000e+05
-2.813200000000000000e+04 3.508790000000000000e+05
7.655200000000000000e+04 3.677580000000000000e+05
1.641870000000000000e+05 3.461050000000000000e+05
2.381820000000000000e+05 3.048450000000000000e+05
2.975140000000000000e+05 2.514800000000000000e+05
3.474690000000000000e+05 1.880560000000000000e+05
3.929910000000000000e+05 1.149130000000000000e+05
4.257270000000000000e+05 1.125300000000000000e+04
4.308420000000000000e+05 -1.113330000000000000e+05
3.870240000000000000e+05 -2.656320000000000000e+05
2.531850000000000000e+05 -4.068010000000000000e+05
4.518200000000000000e+04 -4.484020000000000000e+05
-1.173000000000000000e+05 -3.384330000000000000e+05
-1.299170000000000000e+05 -1.969220000000000000e+05
-6.836800000000000000e+04 -1.375900000000000000e+05
-1.653800000000000000e+04 -1.595840000000000000e+05
-1.858400000000000000e+04 -2.247120000000000000e+05
-8.814600000000000000e+04 -2.816580000000000000e+05
-1.873740000000000000e+05 -2.924000000000000000e+05
-2.881360000000000000e+05 -2.421030000000000000e+05
-3.587210000000000000e+05 -1.493540000000000000e+05
-3.822500000000000000e+05 -3.682700000000000000e+04
-3.706560000000000000e+05 7.791600000000000000e+04
-3.189960000000000000e+05 1.779970000000000000e+05
-2.386930000000000000e+05 2.623920000000000000e+05
-1.321340000000000000e+05 3.126880000000000000e+05
-1.773100000000000000e+04 3.259870000000000000e+05
9.394300000000000000e+04 2.869430000000000000e+05
1.669150000000000000e+05 1.875450000000000000e+05
1.502060000000000000e+05 6.990300000000000000e+04
7.979200000000000000e+04 2.898400000000000000e+04
4.910300000000000000e+04 3.836100000000000000e+04
4.825000000000000000e+04 5.217100000000000000e+04
5.285300000000000000e+04 5.200100000000000000e+04
5.933200000000000000e+04 4.893300000000000000e+04
6.530000000000000000e+04 4.211300000000000000e+04
6.802800000000000000e+04 3.665600000000000000e+04
7.570000000000000000e+04 3.034800000000000000e+04
8.166800000000000000e+04 2.301600000000000000e+04
9.189600000000000000e+04 1.261700000000000000e+04
9.837600000000000000e+04 -2.728000000000000000e+03
9.854700000000000000e+04 -2.693800000000000000e+04
8.763400000000000000e+04 -5.319400000000000000e+04
5.796800000000000000e+04 -6.905000000000000000e+04
2.608500000000000000e+04 -6.257200000000000000e+04
1.193400000000000000e+04 -4.791000000000000000e+04
5.626000000000000000e+03 -2.983700000000000000e+04
1.227500000000000000e+04 -1.500400000000000000e+04
2.966600000000000000e+04 -4.944000000000000000e+03
5.558100000000000000e+04 -7.161000000000000000e+03
8.405400000000000000e+04 -2.745000000000000000e+04
1.070700000000000000e+05 -7.314200000000000000e+04
9.837600000000000000e+04 -1.418520000000000000e+05
3.955400000000000000e+04 -2.161880000000000000e+05
-5.762700000000000000e+04 -2.421030000000000000e+05
-1.520820000000000000e+05 -2.228370000000000000e+05
-2.286340000000000000e+05 -1.636750000000000000e+05
-2.780770000000000000e+05 -8.320100000000000000e+04
-2.898420000000000000e+05 1.295800000000000000e+04
-2.678470000000000000e+05 1.057070000000000000e+05
-2.097090000000000000e+05 1.863510000000000000e+05
-1.258250000000000000e+05 2.305100000000000000e+05
-4.296500000000000000e+04 2.230080000000000000e+05
8.696000000000000000e+03 1.817480000000000000e+05
5.797000000000000000e+03 1.466260000000000000e+05
-2.046000000000000000e+03 1.532750000000000000e+05
1.909500000000000000e+04 1.747570000000000000e+05
5.933300000000000000e+04 1.837940000000000000e+05
1.036610000000000000e+05 1.829410000000000000e+05
1.503770000000000000e+05 1.677670000000000000e+05
1.909550000000000000e+05 1.411700000000000000e+05
2.378410000000000000e+05 1.017860000000000000e+05
2.777360000000000000e+05 4.108900000000000000e+04
2.985370000000000000e+05 -4.654500000000000000e+04
2.808050000000000000e+05 -1.585610000000000000e+05
1.923180000000000000e+05 -2.564250000000000000e+05
5.813900000000000000e+04 -2.866030000000000000e+05
-4.006600000000000000e+04 -2.351130000000000000e+05
-7.604100000000000000e+04 -1.657210000000000000e+05
-6.461800000000000000e+04 -1.118450000000000000e+05
-3.103000000000000000e+04 -9.121500000000000000e+04
-5.626000000000000000e+03 -1.022970000000000000e+05
6.138000000000000000e+03 -1.469660000000000000e+05
-2.455100000000000000e+04 -2.156760000000000000e+05
-1.128670000000000000e+05 -2.773960000000000000e+05
-2.593230000000000000e+05 -2.831920000000000000e+05
-3.917980000000000000e+05 -1.958990000000000000e+05
-4.584610000000000000e+05 -4.995500000000000000e+04
-4.437980000000000000e+05 1.017860000000000000e+05
-3.839550000000000000e+05 2.284630000000000000e+05
-2.985370000000000000e+05 3.270100000000000000e+05
-1.841340000000000000e+05 3.958900000000000000e+05
-6.069600000000000000e+04 4.298190000000000000e+05
6.871000000000000000e+04 4.255560000000000000e+05
1.713480000000000000e+05 3.701440000000000000e+05
2.299980000000000000e+05 2.765430000000000000e+05
2.296570000000000000e+05 2.052770000000000000e+05
2.115840000000000000e+05 1.912950000000000000e+05
2.501170000000000000e+05 2.226660000000000000e+05
3.571880000000000000e+05 2.052760000000000000e+05
4.511310000000000000e+05 1.011030000000000000e+05
4.750000000000000000e+05 -4.432900000000000000e+04
4.381720000000000000e+05 -1.805540000000000000e+05
3.662240000000000000e+05 -2.929110000000000000e+05
2.709170000000000000e+05 -3.822500000000000000e+05
1.614590000000000000e+05 -4.497670000000000000e+05
2.540400000000000000e+04 -4.905140000000000000e+05
-1.217330000000000000e+05 -4.959710000000000000e+05
-2.770540000000000000e+05 -4.437990000000000000e+05
-4.062890000000000000e+05 -3.193370000000000000e+05
-4.504480000000000000e+05 -1.433870000000000000e+05
-3.883870000000000000e+05 9.377000000000000000e+03
-2.843860000000000000e+05 7.143800000000000000e+04
-2.160170000000000000e+05 5.541100000000000000e+04
-2.078340000000000000e+05 1.994800000000000000e+04
-2.552310000000000000e+05 3.750000000000000000e+03
-3.183140000000000000e+05 4.671500000000000000e+04
-3.532650000000000000e+05 1.534450000000000000e+05
-3.193370000000000000e+05 2.825100000000000000e+05
-2.180630000000000000e+05 3.900930000000000000e+05
-8.388300000000000000e+04 4.460150000000000000e+05
5.694600000000000000e+04 4.494250000000000000e+05
1.802140000000000000e+05 4.160080000000000000e+05
2.906940000000000000e+05 3.507080000000000000e+05
3.738960000000000000e+05 2.594940000000000000e+05
4.277730000000000000e+05 1.430450000000000000e+05
4.412410000000000000e+05 1.449200000000000000e+04
3.946970000000000000e+05 -1.149130000000000000e+05
3.060390000000000000e+05 -1.974330000000000000e+05
2.202800000000000000e+05 -2.178930000000000000e+05
1.797020000000000000e+05 -1.941940000000000000e+05
1.994800000000000000e+05 -1.953870000000000000e+05
2.253950000000000000e+05 -2.669950000000000000e+05
1.936830000000000000e+05 -3.967420000000000000e+05
5.865100000000000000e+04 -5.166000000000000000e+05
-1.404880000000000000e+05 -5.582010000000000000e+05
-3.334890000000000000e+05 -5.002330000000000000e+05
-4.719300000000000000e+05 -3.646890000000000000e+05
-5.428560000000000000e+05 -2.047650000000000000e+05
-5.588830000000000000e+05 -4.330600000000000000e+04
-5.317740000000000000e+05 1.069000000000000000e+05
-4.685210000000000000e+05 2.359660000000000000e+05
-3.802040000000000000e+05 3.471280000000000000e+05
-2.535260000000000000e+05 4.313530000000000000e+05
-1.062190000000000000e+05 4.685210000000000000e+05
2.983600000000000000e+04 4.362970000000000000e+05
1.058780000000000000e+05 3.534360000000000000e+05
1.173010000000000000e+05 3.039930000000000000e+05
1.367370000000000000e+05 3.099600000000000000e+05
2.034010000000000000e+05 3.212130000000000000e+05
2.997310000000000000e+05 2.927400000000000000e+05
3.841260000000000000e+05 2.160170000000000000e+05
4.322050000000000000e+05 1.142320000000000000e+05
4.451630000000000000e+05 -4.603000000000000000e+03
4.229980000000000000e+05 -1.043430000000000000e+05
3.750900000000000000e+05 -2.080040000000000000e+05
3.128590000000000000e+05 -2.838750000000000000e+05
2.320440000000000000e+05 -3.491740000000000000e+05
1.367370000000000000e+05 -3.926510000000000000e+05
3.051900000000000000e+04 -4.120870000000000000e+05
-8.303100000000000000e+04 -3.854900000000000000e+05
-1.715180000000000000e+05 -3.109830000000000000e+05
-1.936820000000000000e+05 -2.187450000000000000e+05
-1.650390000000000000e+05 -1.621410000000000000e+05
-1.392950000000000000e+05 -1.600950000000000000e+05
-1.464550000000000000e+05 -1.824300000000000000e+05
-1.916360000000000000e+05 -2.071510000000000000e+05
-2.640970000000000000e+05 -2.112440000000000000e+05
-3.602560000000000000e+05 -1.698130000000000000e+05
-4.460150000000000000e+05 -7.791700000000000000e+04
-4.874450000000000000e+05 6.939200000000000000e+04
-4.521530000000000000e+05 2.344300000000000000e+05
-3.520720000000000000e+05 3.713380000000000000e+05
-2.081750000000000000e+05 4.473790000000000000e+05
-6.581100000000000000e+04 4.680090000000000000e+05
5.643400000000000000e+04 4.482310000000000000e+05
1.502070000000000000e+05 3.969130000000000000e+05
2.231780000000000000e+05 3.370690000000000000e+05
2.629040000000000000e+05 2.605170000000000000e+05
2.736450000000000000e+05 2.011840000000000000e+05
2.762020000000000000e+05 1.686200000000000000e+05
3.080850000000000000e+05 1.514000000000000000e+05
3.698040000000000000e+05 1.091160000000000000e+05
4.209530000000000000e+05 1.977800000000000000e+04
4.277730000000000000e+05 -1.002510000000000000e+05
3.900930000000000000e+05 -2.221560000000000000e+05
3.097900000000000000e+05 -3.273510000000000000e+05
2.115840000000000000e+05 -3.977650000000000000e+05
9.326100000000000000e+04 -4.436280000000000000e+05
-2.438100000000000000e+04 -4.516420000000000000e+05
-1.317920000000000000e+05 -4.298180000000000000e+05
