1.283820000000000000e+05 -9.360180000000000000e+05
-3.087670000000000000e+05 -9.413030000000000000e+05
-5.793420000000000000e+05 -8.337210000000000000e+05
-7.612610000000000000e+05 -6.956210000000000000e+05
-8.887920000000000000e+05 -5.466070000000000000e+05
-9.690940000000000000e+05 -4.018570000000000000e+05
-1.021095000000000000e+06 -2.586410000000000000e+05
-1.048886000000000000e+06 -1.219050000000000000e+05
-1.059627000000000000e+06 1.687900000000000000e+04
-1.048885000000000000e+06 1.522520000000000000e+05
-1.025017000000000000e+06 2.823400000000000000e+05
-9.897240000000000000e+05 4.064600000000000000e+05
-9.344830000000000000e+05 5.208620000000000000e+05
-8.693540000000000000e+05 6.340710000000000000e+05
-7.883690000000000000e+05 7.350050000000000000e+05
-6.956200000000000000e+05 8.306520000000000000e+05
-5.895720000000000000e+05 9.128300000000000000e+05
-4.695430000000000000e+05 9.830750000000000000e+05
-3.355340000000000000e+05 1.035928000000000000e+06
-1.846460000000000000e+05 1.072585000000000000e+06
-2.165300000000000000e+04 1.079405000000000000e+06
1.456030000000000000e+05 1.051955000000000000e+06
3.201900000000000000e+05 9.788120000000000000e+05
4.674980000000000000e+05 8.543510000000000000e+05
5.728630000000000000e+05 6.865840000000000000e+05
6.120770000000000000e+05 4.874450000000000000e+05
5.769550000000000000e+05 2.939340000000000000e+05
4.842060000000000000e+05 1.425330000000000000e+05
3.565060000000000000e+05 3.887300000000000000e+04
2.284630000000000000e+05 7.331000000000000000e+03
1.150850000000000000e+05 1.687900000000000000e+04
3.034900000000000000e+04 5.063800000000000000e+04
-2.796200000000000000e+04 1.062190000000000000e+05
-5.950300000000000000e+04 1.677670000000000000e+05
-7.723400000000000000e+04 2.301690000000000000e+05
-7.570000000000000000e+04 2.891600000000000000e+05
-6.086700000000000000e+04 3.418430000000000000e+05
-3.767900000000000000e+04 3.856600000000000000e+05
-1.704000000000000000e+03 4.270900000000000000e+05
3.341700000000000000e+04 4.606780000000000000e+05
8.047400000000000000e+04 4.879570000000000000e+05
1.275300000000000000e+05 5.072230000000000000e+05
1.739050000000000000e+05 5.230790000000000000e+05
2.322140000000000000e+05 5.321150000000000000e+05
2.843860000000000000e+05 5.368900000000000000e+05
3.428660000000000000e+05 5.339910000000000000e+05
3.975940000000000000e+05 5.290460000000000000e+05
4.586310000000000000e+05 5.166000000000000000e+05
5.145550000000000000e+05 4.942660000000000000e+05
5.718410000000000000e+05 4.692030000000000000e+05
6.291270000000000000e+05 4.357860000000000000e+05
6.814690000000000000e+05 3.958900000000000000e+05
7.363680000000000000e+05 3.484920000000000000e+05
7.854710000000000000e+05 2.912060000000000000e+05
8.335500000000000000e+05 2.257360000000000000e+05
8.685030000000000000e+05 1.524230000000000000e+05
9.043060000000000000e+05 7.484700000000000000e+04
9.291980000000000000e+05 -1.364000000000000000e+04
9.377230000000000000e+05 -1.091160000000000000e+05
9.399400000000000000e+05 -2.051060000000000000e+05
9.269810000000000000e+05 -3.082550000000000000e+05
8.983390000000000000e+05 -4.134500000000000000e+05
8.562270000000000000e+05 -5.114860000000000000e+05
7.950180000000000000e+05 -6.161700000000000000e+05
7.193190000000000000e+05 -7.080660000000000000e+05
6.299790000000000000e+05 -7.878580000000000000e+05
5.290460000000000000e+05 -8.528170000000000000e+05
4.247030000000000000e+05 -9.041350000000000000e+05
3.154160000000000000e+05 -9.331200000000000000e+05
2.052760000000000000e+05 -9.455660000000000000e+05
9.871700000000000000e+04 -9.440320000000000000e+05
-3.069000000000000000e+03 -9.259590000000000000e+05
-9.564800000000000000e+04 -8.937350000000000000e+05
-1.781670000000000000e+05 -8.526460000000000000e+05
-2.494350000000000000e+05 -7.989400000000000000e+05
-3.104720000000000000e+05 -7.442110000000000000e+05
-3.592340000000000000e+05 -6.877780000000000000e+05
-3.986180000000000000e+05 -6.258880000000000000e+05
-4.277730000000000000e+05 -5.629740000000000000e+05
-4.494260000000000000e+05 -5.009150000000000000e+05
-4.589730000000000000e+05 -4.371490000000000000e+05
-4.671560000000000000e+05 -3.800340000000000000e+05
-4.632360000000000000e+05 -3.268400000000000000e+05
-4.531760000000000000e+05 -2.762020000000000000e+05
-4.422640000000000000e+05 -2.281230000000000000e+05
-4.241920000000000000e+05 -1.870330000000000000e+05
-4.037330000000000000e+05 -1.440690000000000000e+05
-3.795220000000000000e+05 -1.072410000000000000e+05
-3.512200000000000000e+05 -7.808700000000000000e+04
-3.203610000000000000e+05 -5.404700000000000000e+04
-2.847270000000000000e+05 -3.154200000000000000e+04
-2.494350000000000000e+05 -2.216400000000000000e+04
-2.119250000000000000e+05 -1.261700000000000000e+04
-1.675970000000000000e+05 -1.636800000000000000e+04
-1.311110000000000000e+05 -2.540400000000000000e+04
-8.985100000000000000e+04 -5.166000000000000000e+04
-5.490000000000000000e+04 -8.610000000000000000e+04
-2.591500000000000000e+04 -1.353740000000000000e+05
-1.602600000000000000e+04 -2.015250000000000000e+05
-2.165200000000000000e+04 -2.794420000000000000e+05
-4.467000000000000000e+04 -3.600860000000000000e+05
-1.094580000000000000e+05 -4.419230000000000000e+05
-2.011850000000000000e+05 -5.148950000000000000e+05
-3.195080000000000000e+05 -5.571780000000000000e+05
-4.615300000000000000e+05 -5.554740000000000000e+05
-5.801950000000000000e+05 -5.223980000000000000e+05
-6.870950000000000000e+05 -4.495960000000000000e+05
-7.651830000000000000e+05 -3.565060000000000000e+05
-8.173540000000000000e+05 -2.536970000000000000e+05
-8.398590000000000000e+05 -1.473080000000000000e+05
-8.477020000000000000e+05 -4.654500000000000000e+04
-8.393480000000000000e+05 4.961400000000000000e+04
-8.199110000000000000e+05 1.328160000000000000e+05
-7.946780000000000000e+05 2.074930000000000000e+05
-7.622840000000000000e+05 2.770540000000000000e+05
-7.230700000000000000e+05 3.408200000000000000e+05
-6.862430000000000000e+05 3.989590000000000000e+05
-6.466880000000000000e+05 4.460150000000000000e+05
-6.033830000000000000e+05 4.915370000000000000e+05
-5.602470000000000000e+05 5.324560000000000000e+05
-5.133610000000000000e+05 5.715000000000000000e+05
-4.707370000000000000e+05 6.078150000000000000e+05
-4.216340000000000000e+05 6.383340000000000000e+05
-3.761130000000000000e+05 6.690230000000000000e+05
-3.292260000000000000e+05 6.940860000000000000e+05
-2.763730000000000000e+05 7.157390000000000000e+05
-2.255650000000000000e+05 7.379020000000000000e+05
-1.757800000000000000e+05 7.588730000000000000e+05
-1.227570000000000000e+05 7.704670000000000000e+05
-7.041400000000000000e+04 7.851300000000000000e+05
-1.824300000000000000e+04 7.897330000000000000e+05
3.597400000000000000e+04 7.972350000000000000e+05
9.394300000000000000e+04 8.018390000000000000e+05
1.493530000000000000e+05 7.994510000000000000e+05
2.042530000000000000e+05 7.953590000000000000e+05
2.611980000000000000e+05 7.854710000000000000e+05
3.183140000000000000e+05 7.725130000000000000e+05
3.747480000000000000e+05 7.563160000000000000e+05
4.260670000000000000e+05 7.331290000000000000e+05
4.847170000000000000e+05 7.039740000000000000e+05
5.348430000000000000e+05 6.726030000000000000e+05
5.887190000000000000e+05 6.357760000000000000e+05
6.379920000000000000e+05 5.887190000000000000e+05
6.852200000000000000e+05 5.334790000000000000e+05
7.263090000000000000e+05 4.777270000000000000e+05
7.621130000000000000e+05 4.102110000000000000e+05
7.892220000000000000e+05 3.426950000000000000e+05
8.076350000000000000e+05 2.644380000000000000e+05
8.214450000000000000e+05 1.831120000000000000e+05
8.221280000000000000e+05 9.496600000000000000e+04
8.096810000000000000e+05 8.695000000000000000e+03
7.800150000000000000e+05 -7.467700000000000000e+04
7.368800000000000000e+05 -1.573670000000000000e+05
6.794230000000000000e+05 -2.327260000000000000e+05
6.050870000000000000e+05 -2.961500000000000000e+05
5.256360000000000000e+05 -3.348530000000000000e+05
4.335690000000000000e+05 -3.568460000000000000e+05
3.503670000000000000e+05 -3.483220000000000000e+05
2.792710000000000000e+05 -3.094490000000000000e+05
2.293160000000000000e+05 -2.608570000000000000e+05
2.173810000000000000e+05 -2.023780000000000000e+05
2.235190000000000000e+05 -1.473080000000000000e+05
2.530140000000000000e+05 -1.046840000000000000e+05
2.900120000000000000e+05 -8.115600000000000000e+04
3.326360000000000000e+05 -8.269000000000000000e+04
3.733840000000000000e+05 -9.394300000000000000e+04
4.071420000000000000e+05 -1.251430000000000000e+05
4.298180000000000000e+05 -1.607770000000000000e+05
4.434570000000000000e+05 -2.032310000000000000e+05
4.458440000000000000e+05 -2.480710000000000000e+05
4.400480000000000000e+05 -2.978550000000000000e+05
4.298180000000000000e+05 -3.413320000000000000e+05
4.122570000000000000e+05 -3.883880000000000000e+05
3.883870000000000000e+05 -4.262380000000000000e+05
3.471280000000000000e+05 -4.652810000000000000e+05
3.295670000000000000e+05 -5.027900000000000000e+05
2.963200000000000000e+05 -5.372300000000000000e+05
2.562540000000000000e+05 -5.703060000000000000e+05
2.149940000000000000e+05 -5.948570000000000000e+05
1.723700000000000000e+05 -6.163400000000000000e+05
1.294050000000000000e+05 -6.420850000000000000e+05
8.166800000000000000e+04 -6.589640000000000000e+05
3.767900000000000000e+04 -6.743090000000000000e+05
-8.525000000000000000e+03 -6.843670000000000000e+05
-5.848000000000000000e+04 -6.901640000000000000e+05
-1.108210000000000000e+05 -6.930630000000000000e+05
-1.561740000000000000e+05 -6.961320000000000000e+05
-2.136300000000000000e+05 -6.930630000000000000e+05
-2.611990000000000000e+05 -6.859020000000000000e+05
-3.103010000000000000e+05 -6.770370000000000000e+05
-3.612790000000000000e+05 -6.594750000000000000e+05
-4.091890000000000000e+05 -6.431070000000000000e+05
-4.569270000000000000e+05 -6.173630000000000000e+05
-5.050060000000000000e+05 -5.895720000000000000e+05
-5.522340000000000000e+05 -5.590530000000000000e+05
-5.895720000000000000e+05 -5.217150000000000000e+05
-6.296380000000000000e+05 -4.784100000000000000e+05
-6.601580000000000000e+05 -4.349330000000000000e+05
-6.944270000000000000e+05 -3.837840000000000000e+05
-7.167610000000000000e+05 -3.285440000000000000e+05
-7.379030000000000000e+05 -2.681890000000000000e+05
-7.537580000000000000e+05 -2.047650000000000000e+05
-7.597270000000000000e+05 -1.406590000000000000e+05
-7.571690000000000000e+05 -7.467700000000000000e+04
-7.442120000000000000e+05 -8.013000000000000000e+03
-7.331290000000000000e+05 6.052600000000000000e+04
-7.116470000000000000e+05 1.251430000000000000e+05
-6.799350000000000000e+05 1.870330000000000000e+05
-6.422550000000000000e+05 2.424440000000000000e+05
-6.074740000000000000e+05 2.941040000000000000e+05
-5.559850000000000000e+05 3.423540000000000000e+05
-5.038130000000000000e+05 3.825910000000000000e+05
-4.482320000000000000e+05 4.125980000000000000e+05
-3.928210000000000000e+05 4.342510000000000000e+05
-3.367280000000000000e+05 4.559040000000000000e+05
-2.813170000000000000e+05 4.634050000000000000e+05
-2.255660000000000000e+05 4.652810000000000000e+05
-1.737350000000000000e+05 4.640870000000000000e+05
-1.266770000000000000e+05 4.487430000000000000e+05
-8.030300000000000000e+04 4.284540000000000000e+05
-4.398700000000000000e+04 4.006630000000000000e+05
-1.295700000000000000e+04 3.692920000000000000e+05
8.013000000000000000e+03 3.328060000000000000e+05
1.960600000000000000e+04 2.930810000000000000e+05
1.142400000000000000e+04 2.538670000000000000e+05
2.728000000000000000e+03 2.294860000000000000e+05
-2.080000000000000000e+04 2.025480000000000000e+05
-4.449900000000000000e+04 1.916360000000000000e+05
-6.905100000000000000e+04 1.943640000000000000e+05
-9.155600000000000000e+04 2.107320000000000000e+05
-1.007630000000000000e+05 2.334070000000000000e+05
-9.667100000000000000e+04 2.606870000000000000e+05
-9.274900000000000000e+04 2.854080000000000000e+05
-7.638100000000000000e+04 3.091080000000000000e+05
-5.575200000000000000e+04 3.278620000000000000e+05
-3.188300000000000000e+04 3.413310000000000000e+05
-9.547000000000000000e+03 3.495150000000000000e+05
1.841300000000000000e+04 3.580400000000000000e+05
3.938400000000000000e+04 3.611080000000000000e+05
6.819800000000000000e+04 3.604260000000000000e+05
9.240900000000000000e+04 3.566750000000000000e+05
1.152550000000000000e+05 3.541180000000000000e+05
1.350320000000000000e+05 3.455940000000000000e+05
1.580490000000000000e+05 3.391150000000000000e+05
1.756100000000000000e+05 3.304200000000000000e+05
1.950470000000000000e+05 3.207010000000000000e+05
2.131190000000000000e+05 3.082550000000000000e+05
2.308510000000000000e+05 2.995600000000000000e+05
2.431260000000000000e+05 2.864320000000000000e+05
2.583000000000000000e+05 2.748380000000000000e+05
2.746680000000000000e+05 2.637560000000000000e+05
2.866030000000000000e+05 2.489220000000000000e+05
2.985370000000000000e+05 2.340900000000000000e+05
3.108130000000000000e+05 2.223250000000000000e+05
3.244520000000000000e+05 2.042530000000000000e+05
3.392860000000000000e+05 1.894200000000000000e+05
3.479800000000000000e+05 1.747570000000000000e+05
3.585520000000000000e+05 1.577080000000000000e+05
3.696340000000000000e+05 1.370780000000000000e+05
3.788400000000000000e+05 1.178120000000000000e+05
3.900930000000000000e+05 9.530600000000000000e+04
3.972540000000000000e+05 7.228900000000000000e+04
4.061190000000000000e+05 5.114900000000000000e+04
4.124280000000000000e+05 2.693800000000000000e+04
4.204410000000000000e+05 -4.263000000000000000e+03
4.235100000000000000e+05 -2.796100000000000000e+04
4.252150000000000000e+05 -5.950300000000000000e+04
4.250450000000000000e+05 -9.223800000000000000e+04
4.252150000000000000e+05 -1.270190000000000000e+05
4.178830000000000000e+05 -1.628230000000000000e+05
4.098710000000000000e+05 -2.018660000000000000e+05
3.948670000000000000e+05 -2.402280000000000000e+05
3.738960000000000000e+05 -2.831920000000000000e+05
3.500270000000000000e+05 -3.171210000000000000e+05
3.171210000000000000e+05 -3.602570000000000000e+05
2.738150000000000000e+05 -3.936740000000000000e+05
2.257350000000000000e+05 -4.235100000000000000e+05
1.781680000000000000e+05 -4.463560000000000000e+05
1.162780000000000000e+05 -4.562450000000000000e+05
5.831000000000000000e+04 -4.584610000000000000e+05
1.700000000000000000e+02 -4.504490000000000000e+05
-5.080700000000000000e+04 -4.264080000000000000e+05
-9.223800000000000000e+04 -3.948670000000000000e+05
-1.254840000000000000e+05 -3.510490000000000000e+05
-1.471370000000000000e+05 -3.132000000000000000e+05
-1.590720000000000000e+05 -2.721110000000000000e+05
-1.585610000000000000e+05 -2.305100000000000000e+05
-1.519110000000000000e+05 -1.984570000000000000e+05
-1.377600000000000000e+05 -1.682790000000000000e+05
-1.188350000000000000e+05 -1.457730000000000000e+05
-1.000810000000000000e+05 -1.287240000000000000e+05
-8.251900000000000000e+04 -1.220740000000000000e+05
-6.512900000000000000e+04 -1.179830000000000000e+05
-4.535100000000000000e+04 -1.164490000000000000e+05
-3.222300000000000000e+04 -1.254850000000000000e+05
-2.097000000000000000e+04 -1.346910000000000000e+05
-1.227500000000000000e+04 -1.450910000000000000e+05
-8.524000000000000000e+03 -1.624820000000000000e+05
-7.160000000000000000e+03 -1.786790000000000000e+05
-1.176400000000000000e+04 -1.962400000000000000e+05
-1.960700000000000000e+04 -2.148240000000000000e+05
-3.307600000000000000e+04 -2.296570000000000000e+05
-4.876200000000000000e+04 -2.451720000000000000e+05
-6.905100000000000000e+04 -2.622210000000000000e+05
-8.934000000000000000e+04 -2.687010000000000000e+05
-1.154250000000000000e+05 -2.770540000000000000e+05
-1.381010000000000000e+05 -2.784190000000000000e+05
-1.638450000000000000e+05 -2.777370000000000000e+05
-1.914660000000000000e+05 -2.738150000000000000e+05
-2.173810000000000000e+05 -2.654610000000000000e+05
-2.438080000000000000e+05 -2.569360000000000000e+05
-2.647790000000000000e+05 -2.378410000000000000e+05
-2.845560000000000000e+05 -2.204500000000000000e+05
-3.050150000000000000e+05 -1.989680000000000000e+05
-3.355350000000000000e+05 -1.713480000000000000e+05
-3.331470000000000000e+05 -1.532750000000000000e+05
-3.445710000000000000e+05 -1.258250000000000000e+05
-3.534360000000000000e+05 -9.956900000000000000e+04
-3.616200000000000000e+05 -7.433600000000000000e+04
-3.612790000000000000e+05 -4.501100000000000000e+04
-3.636660000000000000e+05 -1.466200000000000000e+04
-3.592330000000000000e+05 1.346900000000000000e+04
-3.530960000000000000e+05 3.921300000000000000e+04
-3.483220000000000000e+05 6.888000000000000000e+04
-3.357050000000000000e+05 9.598900000000000000e+04
-3.254750000000000000e+05 1.208810000000000000e+05
-3.104710000000000000e+05 1.457730000000000000e+05
-2.958090000000000000e+05 1.696420000000000000e+05
-2.797820000000000000e+05 1.914660000000000000e+05
-2.611980000000000000e+05 2.091980000000000000e+05
-2.397160000000000000e+05 2.311910000000000000e+05
-2.216430000000000000e+05 2.473880000000000000e+05
-1.941940000000000000e+05 2.615390000000000000e+05
-1.716880000000000000e+05 2.707460000000000000e+05
-1.440680000000000000e+05 2.837030000000000000e+05
-1.203690000000000000e+05 2.896710000000000000e+05
-9.564800000000000000e+04 2.970020000000000000e+05
-6.888000000000000000e+04 2.995600000000000000e+05
-4.228300000000000000e+04 3.004120000000000000e+05
-1.466200000000000000e+04 2.981950000000000000e+05
9.888000000000000000e+03 2.910350000000000000e+05
3.682700000000000000e+04 2.850670000000000000e+05
6.069700000000000000e+04 2.724510000000000000e+05
8.490700000000000000e+04 2.565960000000000000e+05
1.050250000000000000e+05 2.397160000000000000e+05
1.234390000000000000e+05 2.202800000000000000e+05
1.391240000000000000e+05 1.935110000000000000e+05
1.476490000000000000e+05 1.687900000000000000e+05
1.583900000000000000e+05 1.369080000000000000e+05
1.551510000000000000e+05 1.063890000000000000e+05
1.502060000000000000e+05 8.354300000000000000e+04
1.377600000000000000e+05 5.848000000000000000e+04
1.251440000000000000e+05 4.040800000000000000e+04
1.058780000000000000e+05 2.762000000000000000e+04
8.780500000000000000e+04 2.097100000000000000e+04
7.177900000000000000e+04 1.943600000000000000e+04
6.291300000000000000e+04 1.722000000000000000e+04
5.012600000000000000e+04 1.943700000000000000e+04
4.245300000000000000e+04 2.233500000000000000e+04
3.870200000000000000e+04 2.676800000000000000e+04
3.563400000000000000e+04 2.983700000000000000e+04
3.631500000000000000e+04 3.086000000000000000e+04
3.188300000000000000e+04 3.750900000000000000e+04
3.392900000000000000e+04 3.665600000000000000e+04
3.358800000000000000e+04 4.023700000000000000e+04
3.409900000000000000e+04 3.887300000000000000e+04
3.546300000000000000e+04 4.160100000000000000e+04
3.563300000000000000e+04 4.091900000000000000e+04
4.006600000000000000e+04 4.569300000000000000e+04
3.989600000000000000e+04 4.484000000000000000e+04
3.904300000000000000e+04 4.671600000000000000e+04
3.887300000000000000e+04 4.535200000000000000e+04
4.347600000000000000e+04 4.245300000000000000e+04
4.091900000000000000e+04 4.330600000000000000e+04
4.296500000000000000e+04 4.040700000000000000e+04
4.432900000000000000e+04 3.955500000000000000e+04
4.432900000000000000e+04 3.989600000000000000e+04
4.739700000000000000e+04 4.194200000000000000e+04
4.705700000000000000e+04 4.279400000000000000e+04
4.790900000000000000e+04 3.972500000000000000e+04
4.876200000000000000e+04 4.057800000000000000e+04
4.637500000000000000e+04 3.836100000000000000e+04
5.012600000000000000e+04 3.767900000000000000e+04
4.808000000000000000e+04 3.631500000000000000e+04
5.183100000000000000e+04 3.767900000000000000e+04
5.063700000000000000e+04 3.887300000000000000e+04
5.387600000000000000e+04 3.580400000000000000e+04
5.660500000000000000e+04 3.887300000000000000e+04
5.643400000000000000e+04 3.870300000000000000e+04
5.950300000000000000e+04 4.057800000000000000e+04
6.325400000000000000e+04 3.972500000000000000e+04
6.700500000000000000e+04 3.733800000000000000e+04
6.768700000000000000e+04 3.426900000000000000e+04
7.211900000000000000e+04 3.478100000000000000e+04
7.484700000000000000e+04 3.375900000000000000e+04
8.081500000000000000e+04 3.239400000000000000e+04
8.558800000000000000e+04 2.949600000000000000e+04
8.865800000000000000e+04 2.165300000000000000e+04
9.223800000000000000e+04 1.790200000000000000e+04
9.820600000000000000e+04 1.432200000000000000e+04
1.009340000000000000e+05 9.036000000000000000e+03
1.055370000000000000e+05 -2.216000000000000000e+03
1.007630000000000000e+05 -8.184000000000000000e+03
1.017860000000000000e+05 -1.773200000000000000e+04
9.974000000000000000e+04 -2.574500000000000000e+04
9.820500000000000000e+04 -3.392900000000000000e+04
8.831700000000000000e+04 -4.126000000000000000e+04
8.712300000000000000e+04 -4.773900000000000000e+04
7.672200000000000000e+04 -5.302400000000000000e+04
7.058500000000000000e+04 -5.524000000000000000e+04
5.933300000000000000e+04 -5.677500000000000000e+04
5.285300000000000000e+04 -5.967300000000000000e+04
4.603400000000000000e+04 -5.711600000000000000e+04
3.819100000000000000e+04 -5.421700000000000000e+04
3.631500000000000000e+04 -5.404700000000000000e+04
3.137100000000000000e+04 -4.552200000000000000e+04
2.762000000000000000e+04 -4.313500000000000000e+04
2.523300000000000000e+04 -3.836100000000000000e+04
2.199300000000000000e+04 -3.563400000000000000e+04
2.097000000000000000e+04 -3.154200000000000000e+04
1.807200000000000000e+04 -2.608600000000000000e+04
1.943600000000000000e+04 -2.063000000000000000e+04
2.148200000000000000e+04 -1.619700000000000000e+04
2.421000000000000000e+04 -1.312800000000000000e+04
2.591500000000000000e+04 -1.006000000000000000e+04
2.881300000000000000e+04 -6.138000000000000000e+03
3.017800000000000000e+04 1.710000000000000000e+02
3.546300000000000000e+04 6.820000000000000000e+02
4.091800000000000000e+04 -1.700000000000000000e+02
4.842000000000000000e+04 4.944000000000000000e+03
5.234200000000000000e+04 5.626000000000000000e+03
6.052500000000000000e+04 4.944000000000000000e+03
6.939200000000000000e+04 2.898000000000000000e+03
7.962100000000000000e+04 2.898000000000000000e+03
8.899900000000000000e+04 2.046000000000000000e+03
9.803500000000000000e+04 -6.308000000000000000e+03
1.106510000000000000e+05 -1.568500000000000000e+04
1.201990000000000000e+05 -2.710900000000000000e+04
1.321330000000000000e+05 -4.023700000000000000e+04
1.418510000000000000e+05 -5.609300000000000000e+04
1.474780000000000000e+05 -7.501800000000000000e+04
1.476490000000000000e+05 -9.394300000000000000e+04
1.474790000000000000e+05 -1.203690000000000000e+05
1.454320000000000000e+05 -1.435570000000000000e+05
1.387830000000000000e+05 -1.653810000000000000e+05
1.236090000000000000e+05 -1.918070000000000000e+05
1.079230000000000000e+05 -2.160170000000000000e+05
8.848700000000000000e+04 -2.390350000000000000e+05
6.120800000000000000e+04 -2.554020000000000000e+05
3.120100000000000000e+04 -2.751790000000000000e+05
5.115000000000000000e+03 -2.804640000000000000e+05
-2.557500000000000000e+04 -2.867730000000000000e+05
-5.694600000000000000e+04 -2.923990000000000000e+05
-8.541800000000000000e+04 -2.912050000000000000e+05
-1.135500000000000000e+05 -2.842150000000000000e+05
-1.437270000000000000e+05 -2.760310000000000000e+05
-1.715190000000000000e+05 -2.654610000000000000e+05
-1.996500000000000000e+05 -2.501170000000000000e+05
-2.209620000000000000e+05 -2.369880000000000000e+05
-2.427850000000000000e+05 -2.168700000000000000e+05
-2.629040000000000000e+05 -1.976040000000000000e+05
-2.794420000000000000e+05 -1.764630000000000000e+05
-2.970020000000000000e+05 -1.490130000000000000e+05
-3.113240000000000000e+05 -1.258250000000000000e+05
-3.155870000000000000e+05 -9.701200000000000000e+04
-3.268390000000000000e+05 -7.263100000000000000e+04
-3.340000000000000000e+05 -4.211200000000000000e+04
-3.360450000000000000e+05 -1.398100000000000000e+04
-3.321240000000000000e+05 1.500300000000000000e+04
-3.285440000000000000e+05 4.074800000000000000e+04
-3.234290000000000000e+05 7.229000000000000000e+04
-3.126880000000000000e+05 1.007620000000000000e+05
-3.046740000000000000e+05 1.212220000000000000e+05
-2.903530000000000000e+05 1.459430000000000000e+05
-2.709160000000000000e+05 1.713470000000000000e+05
-2.513090000000000000e+05 1.904430000000000000e+05
-2.279520000000000000e+05 2.078340000000000000e+05
-2.064700000000000000e+05 2.242010000000000000e+05
-1.788490000000000000e+05 2.371580000000000000e+05
-1.539570000000000000e+05 2.434670000000000000e+05
-1.288940000000000000e+05 2.497750000000000000e+05
-1.034900000000000000e+05 2.490930000000000000e+05
-7.672300000000000000e+04 2.485810000000000000e+05
-5.472900000000000000e+04 2.397160000000000000e+05
-3.682700000000000000e+04 2.328970000000000000e+05
-2.045900000000000000e+04 2.190860000000000000e+05
-8.865000000000000000e+03 2.062990000000000000e+05
0.000000000000000000e+00 1.892490000000000000e+05
6.479000000000000000e+03 1.749280000000000000e+05
2.728000000000000000e+03 1.653800000000000000e+05
1.535000000000000000e+03 1.556620000000000000e+05
-5.797000000000000000e+03 1.500360000000000000e+05
-1.142300000000000000e+04 1.522520000000000000e+05
-1.295800000000000000e+04 1.513990000000000000e+05
-1.585600000000000000e+04 1.534450000000000000e+05
-1.722000000000000000e+04 1.609470000000000000e+05
-1.602600000000000000e+04 1.640160000000000000e+05
-1.023000000000000000e+04 1.752690000000000000e+05
-6.308000000000000000e+03 1.848170000000000000e+05
1.534000000000000000e+03 1.894200000000000000e+05
1.006000000000000000e+04 1.936830000000000000e+05
2.250500000000000000e+04 1.976040000000000000e+05
3.222300000000000000e+04 2.040830000000000000e+05
4.126000000000000000e+04 2.028890000000000000e+05
5.831000000000000000e+04 2.100500000000000000e+05
6.785700000000000000e+04 2.095390000000000000e+05
8.183800000000000000e+04 2.086860000000000000e+05
9.172700000000000000e+04 2.107320000000000000e+05
1.046840000000000000e+05 2.076630000000000000e+05
1.190060000000000000e+05 2.073220000000000000e+05
1.340100000000000000e+05 2.005020000000000000e+05
1.461140000000000000e+05 1.962400000000000000e+05
1.592420000000000000e+05 1.890790000000000000e+05
1.720300000000000000e+05 1.836230000000000000e+05
1.861810000000000000e+05 1.774850000000000000e+05
1.977740000000000000e+05 1.725410000000000000e+05
2.105620000000000000e+05 1.623110000000000000e+05
2.233490000000000000e+05 1.534450000000000000e+05
2.364770000000000000e+05 1.418520000000000000e+05
2.519920000000000000e+05 1.295760000000000000e+05
2.649500000000000000e+05 1.159360000000000000e+05
2.755200000000000000e+05 1.040020000000000000e+05
2.884780000000000000e+05 8.337200000000000000e+04
2.971730000000000000e+05 6.734600000000000000e+04
3.186550000000000000e+05 4.245300000000000000e+04
3.181440000000000000e+05 2.352800000000000000e+04
3.263280000000000000e+05 -1.534000000000000000e+03
3.331480000000000000e+05 -2.745000000000000000e+04
3.380920000000000000e+05 -6.018500000000000000e+04
3.355350000000000000e+05 -8.797600000000000000e+04
3.299080000000000000e+05 -1.213930000000000000e+05
3.229180000000000000e+05 -1.561740000000000000e+05
3.060390000000000000e+05 -1.863510000000000000e+05
2.847270000000000000e+05 -2.175520000000000000e+05
2.613690000000000000e+05 -2.473890000000000000e+05
2.282930000000000000e+05 -2.707460000000000000e+05
1.958990000000000000e+05 -2.923990000000000000e+05
1.575380000000000000e+05 -3.058680000000000000e+05
1.215630000000000000e+05 -3.150740000000000000e+05
7.996200000000000000e+04 -3.142220000000000000e+05
4.535200000000000000e+04 -3.082560000000000000e+05
1.125200000000000000e+04 -2.975140000000000000e+05
-1.295700000000000000e+04 -2.808060000000000000e+05
-3.853200000000000000e+04 -2.610280000000000000e+05
-5.080800000000000000e+04 -2.390340000000000000e+05
-6.768700000000000000e+04 -2.206210000000000000e+05
-7.740500000000000000e+04 -1.999910000000000000e+05
-7.910900000000000000e+04 -1.826000000000000000e+05
-8.064400000000000000e+04 -1.640170000000000000e+05
-8.149700000000000000e+04 -1.464550000000000000e+05
-7.655200000000000000e+04 -1.326450000000000000e+05
-6.922100000000000000e+04 -1.208810000000000000e+05
-6.495800000000000000e+04 -1.092880000000000000e+05
-5.728600000000000000e+04 -1.024680000000000000e+05
-4.518100000000000000e+04 -9.633000000000000000e+04
-4.091900000000000000e+04 -9.189600000000000000e+04
-2.642700000000000000e+04 -9.087400000000000000e+04
-1.807300000000000000e+04 -9.462500000000000000e+04
-8.524000000000000000e+03 -9.701100000000000000e+04
-6.820000000000000000e+02 -1.016150000000000000e+05
4.944000000000000000e+03 -1.106510000000000000e+05
1.142400000000000000e+04 -1.246310000000000000e+05
1.329800000000000000e+04 -1.358840000000000000e+05
1.466200000000000000e+04 -1.503760000000000000e+05
1.670900000000000000e+04 -1.703250000000000000e+05
1.074200000000000000e+04 -1.890790000000000000e+05
5.968000000000000000e+03 -2.081750000000000000e+05
-7.843000000000000000e+03 -2.306790000000000000e+05
-2.403900000000000000e+04 -2.519920000000000000e+05
-4.501000000000000000e+04 -2.731340000000000000e+05
-7.365400000000000000e+04 -2.923990000000000000e+05
-1.062190000000000000e+05 -3.116650000000000000e+05
-1.401470000000000000e+05 -3.186550000000000000e+05
-1.815770000000000000e+05 -3.268390000000000000e+05
-2.259060000000000000e+05 -3.278620000000000000e+05
-2.692110000000000000e+05 -3.195070000000000000e+05
-3.109830000000000000e+05 -3.055270000000000000e+05
-3.496860000000000000e+05 -2.842150000000000000e+05
-3.853190000000000000e+05 -2.571070000000000000e+05
-4.192470000000000000e+05 -2.207920000000000000e+05
-4.436280000000000000e+05 -1.822590000000000000e+05
-4.637470000000000000e+05 -1.491830000000000000e+05
-4.756820000000000000e+05 -1.028080000000000000e+05
-4.860810000000000000e+05 -6.189000000000000000e+04
-4.877860000000000000e+05 -2.028900000000000000e+04
-4.898330000000000000e+05 2.097100000000000000e+04
-4.843760000000000000e+05 5.984400000000000000e+04
-4.721010000000000000e+05 9.803500000000000000e+04
-4.618710000000000000e+05 1.370780000000000000e+05
-4.444810000000000000e+05 1.689610000000000000e+05
-4.282830000000000000e+05 1.996500000000000000e+05
-4.127690000000000000e+05 2.318740000000000000e+05
-3.926500000000000000e+05 2.640970000000000000e+05
-3.677580000000000000e+05 2.901830000000000000e+05
-3.426950000000000000e+05 3.174620000000000000e+05
-3.188260000000000000e+05 3.406500000000000000e+05
-2.905240000000000000e+05 3.590630000000000000e+05
-2.659720000000000000e+05 3.813980000000000000e+05
-2.339190000000000000e+05 4.028800000000000000e+05
-2.057880000000000000e+05 4.158380000000000000e+05
-1.735640000000000000e+05 4.330580000000000000e+05
-1.408290000000000000e+05 4.420940000000000000e+05
-1.038320000000000000e+05 4.502780000000000000e+05
-7.007300000000000000e+04 4.581200000000000000e+05
-3.648600000000000000e+04 4.603370000000000000e+05
-6.820000000000000000e+02 4.543700000000000000e+05
3.273500000000000000e+04 4.548810000000000000e+05
6.922100000000000000e+04 4.492550000000000000e+05
9.905800000000000000e+04 4.347630000000000000e+05
1.295770000000000000e+05 4.192480000000000000e+05
1.575380000000000000e+05 4.044150000000000000e+05
1.793610000000000000e+05 3.824210000000000000e+05
2.049360000000000000e+05 3.597450000000000000e+05
2.199390000000000000e+05 3.365580000000000000e+05
2.322150000000000000e+05 3.082550000000000000e+05
2.422740000000000000e+05 2.854090000000000000e+05
2.455130000000000000e+05 2.589820000000000000e+05
2.461950000000000000e+05 2.390350000000000000e+05
2.400570000000000000e+05 2.172110000000000000e+05
2.317030000000000000e+05 2.032310000000000000e+05
2.247130000000000000e+05 1.909550000000000000e+05
2.144830000000000000e+05 1.851580000000000000e+05
2.049360000000000000e+05 1.861810000000000000e+05
2.011840000000000000e+05 1.923180000000000000e+05
2.015260000000000000e+05 1.999910000000000000e+05
2.051060000000000000e+05 2.129480000000000000e+05
2.158470000000000000e+05 2.264180000000000000e+05
2.359660000000000000e+05 2.361360000000000000e+05
2.608580000000000000e+05 2.424440000000000000e+05
2.893300000000000000e+05 2.436380000000000000e+05
3.200190000000000000e+05 2.453430000000000000e+05
3.570170000000000000e+05 2.325550000000000000e+05
3.858310000000000000e+05 2.161880000000000000e+05
4.151550000000000000e+05 1.897610000000000000e+05
4.441400000000000000e+05 1.607770000000000000e+05
4.639180000000000000e+05 1.258250000000000000e+05
4.770450000000000000e+05 9.172700000000000000e+04
4.855700000000000000e+05 4.995600000000000000e+04
4.947770000000000000e+05 1.261700000000000000e+04
4.949470000000000000e+05 -2.489200000000000000e+04
4.920490000000000000e+05 -6.410700000000000000e+04
4.838650000000000000e+05 -1.016150000000000000e+05
4.652820000000000000e+05 -1.365660000000000000e+05
4.589730000000000000e+05 -1.713470000000000000e+05
4.477210000000000000e+05 -2.039120000000000000e+05
4.284550000000000000e+05 -2.332370000000000000e+05
4.125990000000000000e+05 -2.651200000000000000e+05
3.911160000000000000e+05 -2.877960000000000000e+05
3.680990000000000000e+05 -3.149050000000000000e+05
3.467870000000000000e+05 -3.397970000000000000e+05
3.217250000000000000e+05 -3.648600000000000000e+05
2.935920000000000000e+05 -3.873640000000000000e+05
2.702350000000000000e+05 -4.040730000000000000e+05
2.415920000000000000e+05 -4.223170000000000000e+05
2.146530000000000000e+05 -4.405600000000000000e+05
1.827710000000000000e+05 -4.576090000000000000e+05
1.515700000000000000e+05 -4.719300000000000000e+05
1.186650000000000000e+05 -4.830130000000000000e+05
8.916900000000000000e+04 -4.939240000000000000e+05
4.825000000000000000e+04 -5.046660000000000000e+05
1.364000000000000000e+04 -5.096100000000000000e+05
-2.642700000000000000e+04 -5.162590000000000000e+05
-6.257100000000000000e+04 -5.183050000000000000e+05
-1.043430000000000000e+05 -5.169410000000000000e+05
-1.450910000000000000e+05 -5.106330000000000000e+05
-1.870330000000000000e+05 -5.021090000000000000e+05
-2.270990000000000000e+05 -4.913670000000000000e+05
-2.697230000000000000e+05 -4.719300000000000000e+05
-3.082550000000000000e+05 -4.511300000000000000e+05
-3.452520000000000000e+05 -4.243630000000000000e+05
-3.812270000000000000e+05 -3.877060000000000000e+05
-4.100410000000000000e+05 -3.464460000000000000e+05
-4.376610000000000000e+05 -3.072320000000000000e+05
-4.518120000000000000e+05 -2.618800000000000000e+05
-4.659630000000000000e+05 -2.098790000000000000e+05
-4.645990000000000000e+05 -1.611180000000000000e+05
-4.627240000000000000e+05 -1.152550000000000000e+05
-4.484020000000000000e+05 -6.905100000000000000e+04
-4.287950000000000000e+05 -2.847300000000000000e+04
-4.085060000000000000e+05 2.898000000000000000e+03
-3.800340000000000000e+05 3.034900000000000000e+04
-3.490040000000000000e+05 5.097800000000000000e+04
-3.162680000000000000e+05 6.615200000000000000e+04
-2.910350000000000000e+05 7.263100000000000000e+04
-2.654600000000000000e+05 7.604000000000000000e+04
-2.455130000000000000e+05 7.041500000000000000e+04
-2.282930000000000000e+05 6.376500000000000000e+04
-2.172100000000000000e+05 5.353500000000000000e+04
-2.086860000000000000e+05 4.466900000000000000e+04
-2.054470000000000000e+05 3.239400000000000000e+04
-2.044230000000000000e+05 1.705000000000000000e+04
-2.097090000000000000e+05 8.354000000000000000e+03
-2.213030000000000000e+05 1.193000000000000000e+03
-2.315320000000000000e+05 -5.797000000000000000e+03
-2.470470000000000000e+05 -1.040000000000000000e+04
-2.632440000000000000e+05 -8.184000000000000000e+03
-2.796120000000000000e+05 -2.557000000000000000e+03
-3.034810000000000000e+05 6.820000000000000000e+03
-3.189960000000000000e+05 1.909600000000000000e+04
-3.375800000000000000e+05 3.802000000000000000e+04
-3.527550000000000000e+05 5.916100000000000000e+04
-3.641770000000000000e+05 8.593000000000000000e+04
-3.716790000000000000e+05 1.155960000000000000e+05
-3.759410000000000000e+05 1.481600000000000000e+05
-3.744070000000000000e+05 1.817480000000000000e+05
-3.706560000000000000e+05 2.166990000000000000e+05
-3.549700000000000000e+05 2.564240000000000000e+05
-3.399670000000000000e+05 2.883070000000000000e+05
-3.193370000000000000e+05 3.196780000000000000e+05
-2.961500000000000000e+05 3.471280000000000000e+05
-2.675060000000000000e+05 3.778170000000000000e+05
-2.369880000000000000e+05 3.979360000000000000e+05
-2.013540000000000000e+05 4.197590000000000000e+05
-1.652100000000000000e+05 4.380020000000000000e+05
-1.311100000000000000e+05 4.473800000000000000e+05
-9.650000000000000000e+04 4.579500000000000000e+05
-5.848000000000000000e+04 4.645990000000000000e+05
-2.233500000000000000e+04 4.714190000000000000e+05
1.244600000000000000e+04 4.700550000000000000e+05
5.063700000000000000e+04 4.685210000000000000e+05
8.132600000000000000e+04 4.599960000000000000e+05
1.147430000000000000e+05 4.547100000000000000e+05
1.473080000000000000e+05 4.497660000000000000e+05
1.798730000000000000e+05 4.344220000000000000e+05
2.071520000000000000e+05 4.218050000000000000e+05
2.407400000000000000e+05 4.076530000000000000e+05
2.666550000000000000e+05 3.854890000000000000e+05
2.934220000000000000e+05 3.687810000000000000e+05
3.172920000000000000e+05 3.452530000000000000e+05
3.389450000000000000e+05 3.270100000000000000e+05
3.634960000000000000e+05 3.000710000000000000e+05
3.831030000000000000e+05 2.755200000000000000e+05
4.018570000000000000e+05 2.482410000000000000e+05
4.170320000000000000e+05 2.194270000000000000e+05
4.286250000000000000e+05 1.866920000000000000e+05
4.420940000000000000e+05 1.561730000000000000e+05
4.499360000000000000e+05 1.219040000000000000e+05
4.557330000000000000e+05 8.627000000000000000e+04
4.581210000000000000e+05 4.859100000000000000e+04
4.555630000000000000e+05 1.568600000000000000e+04
4.490840000000000000e+05 -1.892500000000000000e+04
4.403890000000000000e+05 -5.609300000000000000e+04
4.229990000000000000e+05 -8.831600000000000000e+04
4.059490000000000000e+05 -1.208820000000000000e+05
3.842960000000000000e+05 -1.508880000000000000e+05
3.604270000000000000e+05 -1.762920000000000000e+05
3.343410000000000000e+05 -1.953870000000000000e+05
3.062100000000000000e+05 -2.107320000000000000e+05
2.806350000000000000e+05 -2.165280000000000000e+05
2.523330000000000000e+05 -2.233490000000000000e+05
2.265880000000000000e+05 -2.228370000000000000e+05
2.083450000000000000e+05 -2.173810000000000000e+05
1.919780000000000000e+05 -2.109020000000000000e+05
1.779970000000000000e+05 -2.008430000000000000e+05
1.739050000000000000e+05 -1.931710000000000000e+05
1.720290000000000000e+05 -1.839640000000000000e+05
1.759510000000000000e+05 -1.769740000000000000e+05
1.812370000000000000e+05 -1.790190000000000000e+05
1.904430000000000000e+05 -1.757810000000000000e+05
2.045950000000000000e+05 -1.822590000000000000e+05
2.117550000000000000e+05 -1.887390000000000000e+05
2.235190000000000000e+05 -2.083450000000000000e+05
2.327260000000000000e+05 -2.277810000000000000e+05
2.361360000000000000e+05 -2.523330000000000000e+05
2.410800000000000000e+05 -2.809760000000000000e+05
2.369890000000000000e+05 -3.137110000000000000e+05
2.286340000000000000e+05 -3.493450000000000000e+05
2.143130000000000000e+05 -3.888990000000000000e+05
1.923190000000000000e+05 -4.257260000000000000e+05
1.640160000000000000e+05 -4.591430000000000000e+05
1.268490000000000000e+05 -4.918790000000000000e+05
8.234900000000000000e+04 -5.210340000000000000e+05
3.733800000000000000e+04 -5.457550000000000000e+05
-1.398100000000000000e+04 -5.616110000000000000e+05
-6.564100000000000000e+04 -5.728630000000000000e+05
-1.244610000000000000e+05 -5.730340000000000000e+05
-1.752690000000000000e+05 -5.677490000000000000e+05
-2.305100000000000000e+05 -5.570080000000000000e+05
-2.779070000000000000e+05 -5.399580000000000000e+05
-3.261570000000000000e+05 -5.145550000000000000e+05
-3.689510000000000000e+05 -4.876170000000000000e+05
-4.088470000000000000e+05 -4.562440000000000000e+05
-4.398770000000000000e+05 -4.192480000000000000e+05
-4.710780000000000000e+05 -3.825910000000000000e+05
-4.940950000000000000e+05 -3.411610000000000000e+05
-5.140430000000000000e+05 -3.021180000000000000e+05
-5.309220000000000000e+05 -2.627320000000000000e+05
-5.454140000000000000e+05 -2.209620000000000000e+05
-5.520630000000000000e+05 -1.808950000000000000e+05
-5.554730000000000000e+05 -1.377610000000000000e+05
-5.571780000000000000e+05 -9.581900000000000000e+04
-5.626340000000000000e+05 -5.643400000000000000e+04
-5.602470000000000000e+05 -2.131100000000000000e+04
-5.501870000000000000e+05 2.131100000000000000e+04
-5.455850000000000000e+05 5.677500000000000000e+04
-5.333090000000000000e+05 9.121400000000000000e+04
-5.234200000000000000e+05 1.263370000000000000e+05
-5.090980000000000000e+05 1.597540000000000000e+05
-4.954590000000000000e+05 1.952160000000000000e+05
-4.790910000000000000e+05 2.257350000000000000e+05
-4.567570000000000000e+05 2.581290000000000000e+05
-4.368080000000000000e+05 2.872840000000000000e+05
-4.146440000000000000e+05 3.137110000000000000e+05
-3.916270000000000000e+05 3.416720000000000000e+05
-3.594030000000000000e+05 3.679280000000000000e+05
-3.304200000000000000e+05 3.883870000000000000e+05
-2.987070000000000000e+05 4.093580000000000000e+05
-2.658020000000000000e+05 4.279430000000000000e+05
-2.291450000000000000e+05 4.415830000000000000e+05
-1.936820000000000000e+05 4.581200000000000000e+05
-1.565140000000000000e+05 4.606780000000000000e+05
-1.149130000000000000e+05 4.661340000000000000e+05
-7.962100000000000000e+04 4.661340000000000000e+05
-4.432800000000000000e+04 4.574380000000000000e+05
-6.308000000000000000e+03 4.470380000000000000e+05
2.642700000000000000e+04 4.311820000000000000e+05
5.114900000000000000e+04 4.129400000000000000e+05
6.973200000000000000e+04 3.909460000000000000e+05
8.064400000000000000e+04 3.682700000000000000e+05
9.274900000000000000e+04 3.500270000000000000e+05
9.564800000000000000e+04 3.324650000000000000e+05
9.701200000000000000e+04 3.181440000000000000e+05
9.650100000000000000e+04 3.096200000000000000e+05
9.462500000000000000e+04 3.034810000000000000e+05
9.564800000000000000e+04 3.029690000000000000e+05
9.854600000000000000e+04 3.092780000000000000e+05
1.051960000000000000e+05 3.140520000000000000e+05
1.167900000000000000e+05 3.198490000000000000e+05
1.317930000000000000e+05 3.241110000000000000e+05
1.476490000000000000e+05 3.350220000000000000e+05
1.662330000000000000e+05 3.384330000000000000e+05
1.877150000000000000e+05 3.397970000000000000e+05
2.151650000000000000e+05 3.415020000000000000e+05
2.407390000000000000e+05 3.340000000000000000e+05
2.685300000000000000e+05 3.261570000000000000e+05
2.970030000000000000e+05 3.152450000000000000e+05
3.215540000000000000e+05 3.024580000000000000e+05
3.464460000000000000e+05 2.862610000000000000e+05
3.652010000000000000e+05 2.642670000000000000e+05
3.892400000000000000e+05 2.409090000000000000e+05
4.076540000000000000e+05 2.161870000000000000e+05
4.236800000000000000e+05 1.873740000000000000e+05
4.369790000000000000e+05 1.604350000000000000e+05
4.461860000000000000e+05 1.323040000000000000e+05
4.541990000000000000e+05 9.973900000000000000e+04
4.593140000000000000e+05 7.211900000000000000e+04
4.640880000000000000e+05 4.057700000000000000e+04
4.623830000000000000e+05 1.125200000000000000e+04
4.588030000000000000e+05 -1.926600000000000000e+04
4.531760000000000000e+05 -4.961400000000000000e+04
4.482320000000000000e+05 -7.570000000000000000e+04
4.419230000000000000e+05 -1.031490000000000000e+05
4.289660000000000000e+05 -1.294060000000000000e+05
4.172020000000000000e+05 -1.549800000000000000e+05
4.081650000000000000e+05 -1.798720000000000000e+05
3.919690000000000000e+05 -2.044230000000000000e+05
3.796920000000000000e+05 -2.248840000000000000e+05
3.636660000000000000e+05 -2.494340000000000000e+05
3.479810000000000000e+05 -2.683590000000000000e+05
3.247930000000000000e+05 -2.874550000000000000e+05
3.070620000000000000e+05 -3.070620000000000000e+05
2.903530000000000000e+05 -3.261570000000000000e+05
2.707470000000000000e+05 -3.379220000000000000e+05
2.450020000000000000e+05 -3.600860000000000000e+05
2.197680000000000000e+05 -3.718500000000000000e+05
1.964110000000000000e+05 -3.865120000000000000e+05
1.732230000000000000e+05 -3.960600000000000000e+05
1.452620000000000000e+05 -4.057780000000000000e+05
1.159370000000000000e+05 -4.137910000000000000e+05
8.729400000000000000e+04 -4.197590000000000000e+05
5.660400000000000000e+04 -4.253850000000000000e+05
2.676800000000000000e+04 -4.282840000000000000e+05
-8.184000000000000000e+03 -4.248740000000000000e+05
-3.546300000000000000e+04 -4.175420000000000000e+05
-6.734600000000000000e+04 -4.103820000000000000e+05
-9.854600000000000000e+04 -3.964020000000000000e+05
-1.266780000000000000e+05 -3.783290000000000000e+05
-1.505470000000000000e+05 -3.570170000000000000e+05
-1.687900000000000000e+05 -3.350220000000000000e+05
-1.844750000000000000e+05 -3.099610000000000000e+05
-1.938530000000000000e+05 -2.823400000000000000e+05
-1.994790000000000000e+05 -2.526740000000000000e+05
-1.984560000000000000e+05 -2.294860000000000000e+05
-1.977740000000000000e+05 -2.085160000000000000e+05
-1.909540000000000000e+05 -1.865220000000000000e+05
-1.795310000000000000e+05 -1.727120000000000000e+05
-1.684490000000000000e+05 -1.619700000000000000e+05
-1.571960000000000000e+05 -1.541280000000000000e+05
-1.467960000000000000e+05 -1.536160000000000000e+05
-1.392950000000000000e+05 -1.510590000000000000e+05
-1.305990000000000000e+05 -1.539570000000000000e+05
-1.261670000000000000e+05 -1.573670000000000000e+05
-1.244610000000000000e+05 -1.628230000000000000e+05
-1.253140000000000000e+05 -1.699840000000000000e+05
-1.309400000000000000e+05 -1.766330000000000000e+05
-1.365660000000000000e+05 -1.892500000000000000e+05
-1.421930000000000000e+05 -1.972630000000000000e+05
-1.539570000000000000e+05 -2.040830000000000000e+05
-1.677670000000000000e+05 -2.098800000000000000e+05
-1.844750000000000000e+05 -2.173810000000000000e+05
-1.998200000000000000e+05 -2.216440000000000000e+05
-2.185750000000000000e+05 -2.216440000000000000e+05
-2.424440000000000000e+05 -2.207920000000000000e+05
-2.644380000000000000e+05 -2.226670000000000000e+05
-2.874540000000000000e+05 -2.143120000000000000e+05
-3.104720000000000000e+05 -2.066400000000000000e+05
-3.350230000000000000e+05 -1.967520000000000000e+05
-3.597450000000000000e+05 -1.798730000000000000e+05
-3.880470000000000000e+05 -1.643580000000000000e+05
-4.102110000000000000e+05 -1.375900000000000000e+05
-4.327160000000000000e+05 -1.149140000000000000e+05
-4.540290000000000000e+05 -8.473600000000000000e+04
-4.663040000000000000e+05 -5.046700000000000000e+04
-4.823300000000000000e+05 -8.525000000000000000e+03
-4.905140000000000000e+05 2.710900000000000000e+04
-4.913670000000000000e+05 7.058500000000000000e+04
-4.908550000000000000e+05 1.111630000000000000e+05
-4.816480000000000000e+05 1.541270000000000000e+05
-4.736350000000000000e+05 1.979440000000000000e+05
-4.533460000000000000e+05 2.354540000000000000e+05
-4.308410000000000000e+05 2.779070000000000000e+05
-4.073130000000000000e+05 3.132000000000000000e+05
-3.773060000000000000e+05 3.445710000000000000e+05
-3.467870000000000000e+05 3.704860000000000000e+05
-3.111530000000000000e+05 3.974240000000000000e+05
-2.743260000000000000e+05 4.168610000000000000e+05
-2.390340000000000000e+05 4.318640000000000000e+05
-2.039120000000000000e+05 4.490840000000000000e+05
-1.657210000000000000e+05 4.581200000000000000e+05
-1.367370000000000000e+05 4.623820000000000000e+05
-9.854600000000000000e+04 4.627230000000000000e+05
-6.581100000000000000e+04 4.671570000000000000e+05
-3.120000000000000000e+04 4.593140000000000000e+05
-3.240000000000000000e+03 4.530060000000000000e+05
2.710900000000000000e+04 4.482320000000000000e+05
5.200100000000000000e+04 4.381720000000000000e+05
8.149700000000000000e+04 4.291360000000000000e+05
1.031490000000000000e+05 4.156670000000000000e+05
1.265080000000000000e+05 4.013450000000000000e+05
1.420220000000000000e+05 3.890700000000000000e+05
1.662330000000000000e+05 3.713380000000000000e+05
1.817480000000000000e+05 3.575280000000000000e+05
1.965810000000000000e+05 3.404790000000000000e+05
2.098800000000000000e+05 3.251340000000000000e+05
2.102210000000000000e+05 3.048450000000000000e+05
2.317030000000000000e+05 2.877950000000000000e+05
2.359650000000000000e+05 2.719390000000000000e+05
2.444900000000000000e+05 2.528440000000000000e+05
2.458540000000000000e+05 2.381810000000000000e+05
2.497760000000000000e+05 2.209610000000000000e+05
2.511400000000000000e+05 2.095390000000000000e+05
2.497750000000000000e+05 1.984560000000000000e+05
2.480700000000000000e+05 1.883970000000000000e+05
2.492640000000000000e+05 1.822590000000000000e+05
2.518210000000000000e+05 1.778260000000000000e+05
2.523330000000000000e+05 1.747580000000000000e+05
2.540380000000000000e+05 1.754400000000000000e+05
2.639260000000000000e+05 1.737340000000000000e+05
2.743270000000000000e+05 1.723710000000000000e+05
2.888190000000000000e+05 1.701540000000000000e+05
3.050160000000000000e+05 1.689600000000000000e+05
3.224060000000000000e+05 1.577080000000000000e+05
3.415020000000000000e+05 1.490120000000000000e+05
3.638360000000000000e+05 1.338390000000000000e+05
3.791810000000000000e+05 1.133790000000000000e+05
3.958900000000000000e+05 9.121500000000000000e+04
4.097000000000000000e+05 6.734600000000000000e+04
4.229980000000000000e+05 4.245300000000000000e+04
4.296480000000000000e+05 1.381000000000000000e+04
4.386840000000000000e+05 -1.926600000000000000e+04
4.400480000000000000e+05 -4.722800000000000000e+04
4.400480000000000000e+05 -8.269100000000000000e+04
4.368090000000000000e+05 -1.144020000000000000e+05
4.281130000000000000e+05 -1.481600000000000000e+05
4.201000000000000000e+05 -1.769740000000000000e+05
4.050970000000000000e+05 -2.091980000000000000e+05
3.921390000000000000e+05 -2.371590000000000000e+05
3.735550000000000000e+05 -2.669960000000000000e+05
3.524130000000000000e+05 -2.922280000000000000e+05
3.304200000000000000e+05 -3.179740000000000000e+05
3.085970000000000000e+05 -3.406490000000000000e+05
2.809760000000000000e+05 -3.648600000000000000e+05
2.562540000000000000e+05 -3.844670000000000000e+05
2.265880000000000000e+05 -4.015160000000000000e+05
2.001620000000000000e+05 -4.170310000000000000e+05
1.716890000000000000e+05 -4.281140000000000000e+05
1.384420000000000000e+05 -4.417530000000000000e+05
1.106510000000000000e+05 -4.482320000000000000e+05
7.467700000000000000e+04 -4.565860000000000000e+05
4.722700000000000000e+04 -4.611900000000000000e+05
1.568500000000000000e+04 -4.584620000000000000e+05
-1.602600000000000000e+04 -4.577790000000000000e+05
-4.432900000000000000e+04 -4.605070000000000000e+05
-7.263100000000000000e+04 -4.541990000000000000e+05
-1.024670000000000000e+05 -4.499370000000000000e+05
-1.319630000000000000e+05 -4.422650000000000000e+05
-1.582190000000000000e+05 -4.303300000000000000e+05
-1.861810000000000000e+05 -4.187360000000000000e+05
-2.120960000000000000e+05 -4.057780000000000000e+05
-2.359650000000000000e+05 -3.878760000000000000e+05
