2.220000000000000000e+02 -1.471400000000000000e+04
-7.280000000000000000e+03 -1.411800000000000000e+04
-1.606100000000000000e+04 -9.292000000000000000e+03
-2.081600000000000000e+04 -5.970000000000000000e+02
-1.826000000000000000e+04 9.939000000000000000e+03
-1.116800000000000000e+04 1.768100000000000000e+04
-1.057000000000000000e+03 1.924900000000000000e+04
7.963000000000000000e+03 1.849800000000000000e+04
1.677600000000000000e+04 1.234500000000000000e+04
2.190800000000000000e+04 6.172000000000000000e+03
2.126100000000000000e+04 -4.654000000000000000e+03
1.459400000000000000e+04 -1.210500000000000000e+04
5.012000000000000000e+03 -1.710100000000000000e+04
-4.859000000000000000e+03 -1.572000000000000000e+04
-1.200300000000000000e+04 -9.922000000000000000e+03
-1.662300000000000000e+04 -3.035000000000000000e+03
-1.742500000000000000e+04 3.256000000000000000e+03
-1.391300000000000000e+04 1.154300000000000000e+04
-5.098000000000000000e+03 1.670800000000000000e+04
5.098000000000000000e+03 1.831100000000000000e+04
1.398100000000000000e+04 1.292400000000000000e+04
2.068100000000000000e+04 4.825000000000000000e+03
2.010100000000000000e+04 -3.801000000000000000e+03
1.423600000000000000e+04 -1.307700000000000000e+04
4.689000000000000000e+03 -1.698200000000000000e+04
-7.929000000000000000e+03 -1.785100000000000000e+04
-1.629900000000000000e+04 -1.111700000000000000e+04
-1.861800000000000000e+04 -2.062000000000000000e+03
-1.778300000000000000e+04 5.695000000000000000e+03
-1.178100000000000000e+04 1.183200000000000000e+04
-2.524000000000000000e+03 1.601000000000000000e+04
6.853000000000000000e+03 1.505500000000000000e+04
1.300800000000000000e+04 9.889000000000000000e+03
1.660600000000000000e+04 3.393000000000000000e+03
1.667400000000000000e+04 -6.598000000000000000e+03
9.786000000000000000e+03 -1.265100000000000000e+04
3.102000000000000000e+03 -1.640200000000000000e+04
-4.348000000000000000e+03 -1.543000000000000000e+04
-1.244600000000000000e+04 -1.299200000000000000e+04
-1.662300000000000000e+04 -4.314000000000000000e+03
-1.468000000000000000e+04 4.859000000000000000e+03
-7.963000000000000000e+03 1.159300000000000000e+04
2.949000000000000000e+03 1.393000000000000000e+04
1.092800000000000000e+04 1.089500000000000000e+04
1.785100000000000000e+04 6.479000000000000000e+03
1.820900000000000000e+04 3.734000000000000000e+03
1.647000000000000000e+04 -1.700000000000000000e+01
7.826000000000000000e+03 -2.591000000000000000e+03
-8.500000000000000000e+01 -5.627000000000000000e+03
-8.474000000000000000e+03 -7.672000000000000000e+03
-1.529300000000000000e+04 -4.552000000000000000e+03
-1.548100000000000000e+04 4.430000000000000000e+02
-1.174700000000000000e+04 5.012000000000000000e+03
-5.404000000000000000e+03 1.128700000000000000e+04
2.267000000000000000e+03 1.450900000000000000e+04
9.769000000000000000e+03 1.225900000000000000e+04
1.427000000000000000e+04 6.394000000000000000e+03
1.350300000000000000e+04 -1.671000000000000000e+03
9.786000000000000000e+03 -6.052000000000000000e+03
4.603000000000000000e+03 -8.558000000000000000e+03
-1.585000000000000000e+03 -9.547000000000000000e+03
-6.155000000000000000e+03 -9.565000000000000000e+03
-8.508000000000000000e+03 -7.144000000000000000e+03
-1.092900000000000000e+04 -3.547000000000000000e+03
-7.979000000000000000e+03 7.500000000000000000e+02
-5.746000000000000000e+03 5.114000000000000000e+03
-1.312000000000000000e+03 8.882000000000000000e+03
3.426000000000000000e+03 8.269000000000000000e+03
4.740000000000000000e+03 7.894000000000000000e+03
3.359000000000000000e+03 2.660000000000000000e+03
6.138000000000000000e+03 -1.739000000000000000e+03
3.103000000000000000e+03 -7.382000000000000000e+03
-2.268000000000000000e+03 -1.041800000000000000e+04
-6.342000000000000000e+03 -1.000800000000000000e+04
-8.593000000000000000e+03 -9.275000000000000000e+03
-9.956000000000000000e+03 -5.848000000000000000e+03
-8.268000000000000000e+03 -3.171000000000000000e+03
-5.080000000000000000e+03 3.410000000000000000e+02
-1.313000000000000000e+03 1.944000000000000000e+03
2.847000000000000000e+03 1.415000000000000000e+03
6.990000000000000000e+03 4.484000000000000000e+03
8.610000000000000000e+03 4.176000000000000000e+03
7.757000000000000000e+03 3.904000000000000000e+03
3.870000000000000000e+03 4.774000000000000000e+03
-3.103000000000000000e+03 -1.700000000000000000e+01
-1.345200000000000000e+04 -5.285000000000000000e+03
-1.657300000000000000e+04 -1.190100000000000000e+04
-1.454300000000000000e+04 -1.534500000000000000e+04
-5.916000000000000000e+03 -1.718600000000000000e+04
4.689000000000000000e+03 -1.294100000000000000e+04
1.611200000000000000e+04 -1.859000000000000000e+03
2.131200000000000000e+04 8.542000000000000000e+03
2.114100000000000000e+04 2.180700000000000000e+04
1.046900000000000000e+04 3.237800000000000000e+04
-1.183200000000000000e+04 3.341700000000000000e+04
-3.919700000000000000e+04 1.981200000000000000e+04
-4.947800000000000000e+04 -9.531000000000000000e+03
-3.515600000000000000e+04 -3.998100000000000000e+04
-5.712000000000000000e+03 -5.817300000000000000e+04
3.029700000000000000e+04 -4.961400000000000000e+04
