3.817400000000000000e+04 -8.246800000000000000e+04
2.942700000000000000e+04 -8.575900000000000000e+04
1.706700000000000000e+04 -8.712300000000000000e+04
7.264000000000000000e+03 -9.039600000000000000e+04
-4.381000000000000000e+03 -8.765200000000000000e+04
-1.602700000000000000e+04 -8.816300000000000000e+04
-2.693800000000000000e+04 -8.623600000000000000e+04
-3.704900000000000000e+04 -8.298000000000000000e+04
-4.758500000000000000e+04 -7.914400000000000000e+04
-5.790000000000000000e+04 -7.483000000000000000e+04
-6.589700000000000000e+04 -6.908400000000000000e+04
-7.389300000000000000e+04 -6.294700000000000000e+04
-7.922800000000000000e+04 -5.426900000000000000e+04
-8.507700000000000000e+04 -4.743100000000000000e+04
-9.048200000000000000e+04 -3.776500000000000000e+04
-9.406200000000000000e+04 -2.809800000000000000e+04
-9.789800000000000000e+04 -1.757800000000000000e+04
-1.014270000000000000e+05 -6.564000000000000000e+03
-1.020590000000000000e+05 3.683000000000000000e+03
-1.035080000000000000e+05 1.324700000000000000e+04
-1.030470000000000000e+05 2.218100000000000000e+04
-1.015810000000000000e+05 3.024600000000000000e+04
-9.909100000000000000e+04 3.853200000000000000e+04
-9.530700000000000000e+04 4.494300000000000000e+04
-8.867500000000000000e+04 5.225700000000000000e+04
-8.338900000000000000e+04 5.830900000000000000e+04
-7.684200000000000000e+04 6.456700000000000000e+04
-6.695300000000000000e+04 6.893100000000000000e+04
-5.888900000000000000e+04 7.599000000000000000e+04
-4.852300000000000000e+04 8.263900000000000000e+04
-3.848100000000000000e+04 8.552000000000000000e+04
-2.951300000000000000e+04 9.056700000000000000e+04
-1.820900000000000000e+04 9.580100000000000000e+04
-8.371000000000000000e+03 1.010020000000000000e+05
1.944000000000000000e+03 1.042410000000000000e+05
9.854000000000000000e+03 1.065600000000000000e+05
2.032300000000000000e+04 1.070370000000000000e+05
3.026300000000000000e+04 1.061160000000000000e+05
3.928200000000000000e+04 1.042920000000000000e+05
4.917100000000000000e+04 1.015810000000000000e+05
6.189000000000000000e+04 9.644900000000000000e+04
7.176100000000000000e+04 8.891300000000000000e+04
8.582700000000000000e+04 8.118900000000000000e+04
9.948400000000000000e+04 7.229000000000000000e+04
1.130210000000000000e+05 6.308300000000000000e+04
1.253480000000000000e+05 5.396200000000000000e+04
1.634710000000000000e+05 5.711500000000000000e+04
1.621750000000000000e+05 9.889000000000000000e+03
1.590720000000000000e+05 1.108200000000000000e+04
1.650050000000000000e+05 -1.671000000000000000e+03
1.675280000000000000e+05 -1.624800000000000000e+04
1.667950000000000000e+05 -3.120100000000000000e+04
1.646300000000000000e+05 -4.789300000000000000e+04
1.746560000000000000e+05 -6.436200000000000000e+04
1.450750000000000000e+05 -8.281000000000000000e+04
1.341960000000000000e+05 -9.926200000000000000e+04
1.198580000000000000e+05 -1.150170000000000000e+05
1.154420000000000000e+05 -1.248370000000000000e+05
7.423400000000000000e+04 -1.457740000000000000e+05
5.541100000000000000e+04 -1.527130000000000000e+05
2.838700000000000000e+04 -1.547760000000000000e+05
9.496000000000000000e+03 -1.638630000000000000e+05
-1.184900000000000000e+04 -1.659260000000000000e+05
-3.297400000000000000e+04 -1.689440000000000000e+05
-5.672400000000000000e+04 -1.658580000000000000e+05
-7.515400000000000000e+04 -1.636080000000000000e+05
-9.303900000000000000e+04 -1.544690000000000000e+05
-1.075320000000000000e+05 -1.435910000000000000e+05
-1.228250000000000000e+05 -1.284340000000000000e+05
-1.379980000000000000e+05 -1.110780000000000000e+05
-1.536500000000000000e+05 -8.951000000000000000e+04
-1.727290000000000000e+05 -7.048300000000000000e+04
-1.905790000000000000e+05 -4.816500000000000000e+04
-2.074070000000000000e+05 -2.352800000000000000e+04
-2.381810000000000000e+05 -6.649000000000000000e+03
-2.405010000000000000e+05 1.109900000000000000e+04
-2.370230000000000000e+05 3.094500000000000000e+04
-2.368860000000000000e+05 4.859100000000000000e+04
-2.292640000000000000e+05 6.231500000000000000e+04
-2.162900000000000000e+05 7.646600000000000000e+04
-1.984230000000000000e+05 9.138500000000000000e+04
-1.797020000000000000e+05 1.049900000000000000e+05
-1.575380000000000000e+05 1.200960000000000000e+05
-1.355430000000000000e+05 1.320650000000000000e+05
-1.094070000000000000e+05 1.439320000000000000e+05
-8.378100000000000000e+04 1.576570000000000000e+05
-5.767900000000000000e+04 1.661300000000000000e+05
-3.208700000000000000e+04 1.770080000000000000e+05
-9.190000000000000000e+03 1.864020000000000000e+05
1.394600000000000000e+04 1.926940000000000000e+05
3.522500000000000000e+04 2.030940000000000000e+05
5.092600000000000000e+04 2.087200000000000000e+05
6.634000000000000000e+04 2.087550000000000000e+05
1.155450000000000000e+05 2.027010000000000000e+05
1.159370000000000000e+05 1.886360000000000000e+05
1.224320000000000000e+05 1.704090000000000000e+05
1.385110000000000000e+05 1.448860000000000000e+05
1.635390000000000000e+05 1.025700000000000000e+05
1.956430000000000000e+05 6.930700000000000000e+04
2.301520000000000000e+05 5.058600000000000000e+04
2.608910000000000000e+05 4.187400000000000000e+04
2.832780000000000000e+05 3.953800000000000000e+04
2.955710000000000000e+05 3.687800000000000000e+04
2.989460000000000000e+05 3.091100000000000000e+04
2.978550000000000000e+05 2.068100000000000000e+04
2.902850000000000000e+05 5.387000000000000000e+03
2.812660000000000000e+05 -1.793600000000000000e+04
2.743610000000000000e+05 -4.236700000000000000e+04
2.638070000000000000e+05 -6.831700000000000000e+04
2.518900000000000000e+05 -9.745400000000000000e+04
2.402280000000000000e+05 -1.292180000000000000e+05
2.262470000000000000e+05 -1.625160000000000000e+05
2.101180000000000000e+05 -1.981490000000000000e+05
1.950120000000000000e+05 -2.325380000000000000e+05
1.779960000000000000e+05 -2.697060000000000000e+05
1.597540000000000000e+05 -3.032760000000000000e+05
1.423290000000000000e+05 -3.377840000000000000e+05
1.232340000000000000e+05 -3.647580000000000000e+05
1.010700000000000000e+05 -3.843130000000000000e+05
7.578500000000000000e+04 -3.969640000000000000e+05
4.461900000000000000e+04 -4.005100000000000000e+05
2.950000000000000000e+03 -3.936900000000000000e+05
-4.574400000000000000e+04 -3.807330000000000000e+05
-1.073270000000000000e+05 -3.628310000000000000e+05
-1.689430000000000000e+05 -3.417060000000000000e+05
-2.337150000000000000e+05 -3.173590000000000000e+05
-2.979910000000000000e+05 -2.920250000000000000e+05
-3.547150000000000000e+05 -2.611480000000000000e+05
-4.003400000000000000e+05 -2.244050000000000000e+05
-4.402860000000000000e+05 -1.818160000000000000e+05
-4.696460000000000000e+05 -1.294750000000000000e+05
-4.893720000000000000e+05 -7.358500000000000000e+04
-4.981190000000000000e+05 -1.142400000000000000e+04
-4.978960000000000000e+05 5.385900000000000000e+04
-4.882470000000000000e+05 1.161750000000000000e+05
-4.657920000000000000e+05 1.792750000000000000e+05
-4.339440000000000000e+05 2.369200000000000000e+05
-3.925480000000000000e+05 2.937110000000000000e+05
-3.445370000000000000e+05 3.443660000000000000e+05
-2.882730000000000000e+05 3.922750000000000000e+05
-2.266220000000000000e+05 4.329210000000000000e+05
-1.641520000000000000e+05 4.689630000000000000e+05
-1.009850000000000000e+05 4.988340000000000000e+05
-3.981100000000000000e+04 5.147750000000000000e+05
2.211400000000000000e+04 5.221580000000000000e+05
7.723500000000000000e+04 5.124230000000000000e+05
1.327310000000000000e+05 4.892530000000000000e+05
1.857030000000000000e+05 4.530560000000000000e+05
2.357440000000000000e+05 3.994870000000000000e+05
2.870290000000000000e+05 3.416550000000000000e+05
3.358760000000000000e+05 2.778390000000000000e+05
3.804770000000000000e+05 2.093680000000000000e+05
4.182420000000000000e+05 1.472910000000000000e+05
4.450270000000000000e+05 8.148000000000000000e+04
4.598590000000000000e+05 2.398900000000000000e+04
4.651110000000000000e+05 -3.386000000000000000e+04
4.586320000000000000e+05 -8.507700000000000000e+04
4.444810000000000000e+05 -1.340430000000000000e+05
4.210040000000000000e+05 -1.752350000000000000e+05
3.929400000000000000e+05 -2.128970000000000000e+05
3.568470000000000000e+05 -2.444220000000000000e+05
3.163880000000000000e+05 -2.701500000000000000e+05
2.755550000000000000e+05 -2.923300000000000000e+05
2.299810000000000000e+05 -3.080680000000000000e+05
1.812530000000000000e+05 -3.235150000000000000e+05
1.369940000000000000e+05 -3.348530000000000000e+05
9.048200000000000000e+04 -3.446900000000000000e+05
4.947800000000000000e+04 -3.523450000000000000e+05
1.034900000000000000e+04 -3.573750000000000000e+05
-2.608500000000000000e+04 -3.570000000000000000e+05
-5.825800000000000000e+04 -3.520730000000000000e+05
-8.492400000000000000e+04 -3.431390000000000000e+05
-1.107710000000000000e+05 -3.270610000000000000e+05
-1.344350000000000000e+05 -3.075910000000000000e+05
-1.582370000000000000e+05 -2.795270000000000000e+05
-1.819520000000000000e+05 -2.494000000000000000e+05
-2.102550000000000000e+05 -2.146870000000000000e+05
-2.384200000000000000e+05 -1.822770000000000000e+05
-2.662110000000000000e+05 -1.490810000000000000e+05
-2.911040000000000000e+05 -1.144710000000000000e+05
-3.153820000000000000e+05 -8.221300000000000000e+04
-3.336080000000000000e+05 -4.721000000000000000e+04
-3.505890000000000000e+05 -1.493600000000000000e+04
-3.627630000000000000e+05 1.945300000000000000e+04
-3.732820000000000000e+05 5.328000000000000000e+04
-3.777660000000000000e+05 8.739600000000000000e+04
-3.766240000000000000e+05 1.218700000000000000e+05
-3.707250000000000000e+05 1.568720000000000000e+05
-3.572040000000000000e+05 1.932560000000000000e+05
-3.387400000000000000e+05 2.288900000000000000e+05
-3.152620000000000000e+05 2.640970000000000000e+05
-2.829710000000000000e+05 2.991340000000000000e+05
-2.476610000000000000e+05 3.342220000000000000e+05
-2.069130000000000000e+05 3.661040000000000000e+05
-1.607600000000000000e+05 3.947980000000000000e+05
-1.088100000000000000e+05 4.195200000000000000e+05
-5.616100000000000000e+04 4.356320000000000000e+05
-6.990000000000000000e+02 4.482490000000000000e+05
5.691100000000000000e+04 4.498860000000000000e+05
1.116910000000000000e+05 4.414800000000000000e+05
1.695060000000000000e+05 4.220260000000000000e+05
2.270310000000000000e+05 3.904340000000000000e+05
2.842660000000000000e+05 3.520040000000000000e+05
3.372740000000000000e+05 3.039930000000000000e+05
3.858140000000000000e+05 2.476790000000000000e+05
4.320520000000000000e+05 1.847830000000000000e+05
4.728680000000000000e+05 1.206930000000000000e+05
5.001810000000000000e+05 5.416600000000000000e+04
5.205220000000000000e+05 -1.481600000000000000e+04
5.321670000000000000e+05 -8.608300000000000000e+04
5.322510000000000000e+05 -1.518770000000000000e+05
5.203170000000000000e+05 -2.160680000000000000e+05
5.003520000000000000e+05 -2.751280000000000000e+05
4.663720000000000000e+05 -3.302150000000000000e+05
4.239020000000000000e+05 -3.793860000000000000e+05
3.698550000000000000e+05 -4.213620000000000000e+05
3.075560000000000000e+05 -4.591950000000000000e+05
2.384030000000000000e+05 -4.864050000000000000e+05
1.630620000000000000e+05 -5.030290000000000000e+05
8.516200000000000000e+04 -5.095590000000000000e+05
4.536000000000000000e+03 -5.072570000000000000e+05
-7.703000000000000000e+04 -4.942480000000000000e+05
-1.539400000000000000e+05 -4.731240000000000000e+05
-2.247980000000000000e+05 -4.413600000000000000e+05
-2.872500000000000000e+05 -4.021980000000000000e+05
-3.413820000000000000e+05 -3.543740000000000000e+05
-3.833760000000000000e+05 -2.996790000000000000e+05
-4.154120000000000000e+05 -2.410800000000000000e+05
-4.371490000000000000e+05 -1.801110000000000000e+05
-4.498000000000000000e+05 -1.181870000000000000e+05
-4.544380000000000000e+05 -5.650200000000000000e+04
-4.497500000000000000e+05 3.785000000000000000e+03
-4.397060000000000000e+05 5.860000000000000000e+04
-4.215320000000000000e+05 1.096790000000000000e+05
-4.027100000000000000e+05 1.550660000000000000e+05
-3.775960000000000000e+05 1.931890000000000000e+05
-3.493610000000000000e+05 2.283100000000000000e+05
-3.200190000000000000e+05 2.550260000000000000e+05
-2.866870000000000000e+05 2.759300000000000000e+05
-2.538320000000000000e+05 2.934900000000000000e+05
-2.175010000000000000e+05 3.080340000000000000e+05
-1.817810000000000000e+05 3.145300000000000000e+05
-1.468980000000000000e+05 3.200870000000000000e+05
-1.128670000000000000e+05 3.218430000000000000e+05
-7.605800000000000000e+04 3.192700000000000000e+05
-4.202600000000000000e+04 3.153480000000000000e+05
-9.223000000000000000e+03 3.076410000000000000e+05
2.102200000000000000e+04 2.987920000000000000e+05
5.242800000000000000e+04 2.890230000000000000e+05
8.013200000000000000e+04 2.807210000000000000e+05
1.038310000000000000e+05 2.698770000000000000e+05
1.281960000000000000e+05 2.595790000000000000e+05
1.468480000000000000e+05 2.513780000000000000e+05
1.689610000000000000e+05 2.427170000000000000e+05
1.872200000000000000e+05 2.346530000000000000e+05
2.052600000000000000e+05 2.252580000000000000e+05
2.238770000000000000e+05 2.147900000000000000e+05
2.448820000000000000e+05 2.010480000000000000e+05
2.648810000000000000e+05 1.834870000000000000e+05
2.856140000000000000e+05 1.645450000000000000e+05
3.040960000000000000e+05 1.423290000000000000e+05
3.240950000000000000e+05 1.142150000000000000e+05
3.438550000000000000e+05 8.482100000000000000e+04
3.599160000000000000e+05 5.264900000000000000e+04
3.759420000000000000e+05 1.631600000000000000e+04
3.859840000000000000e+05 -2.248800000000000000e+04
3.945260000000000000e+05 -6.258900000000000000e+04
3.987550000000000000e+05 -1.037300000000000000e+05
3.961280000000000000e+05 -1.465910000000000000e+05
3.889840000000000000e+05 -1.921650000000000000e+05
3.768630000000000000e+05 -2.358460000000000000e+05
3.563860000000000000e+05 -2.780090000000000000e+05
3.315620000000000000e+05 -3.179230000000000000e+05
2.981780000000000000e+05 -3.557890000000000000e+05
2.589140000000000000e+05 -3.921730000000000000e+05
2.111920000000000000e+05 -4.192130000000000000e+05
1.611860000000000000e+05 -4.445660000000000000e+05
1.035760000000000000e+05 -4.648210000000000000e+05
4.224900000000000000e+04 -4.754600000000000000e+05
-2.247100000000000000e+04 -4.812390000000000000e+05
-8.725900000000000000e+04 -4.765170000000000000e+05
-1.559860000000000000e+05 -4.680260000000000000e+05
-2.213700000000000000e+05 -4.510110000000000000e+05
-2.832610000000000000e+05 -4.236130000000000000e+05
-3.455420000000000000e+05 -3.918320000000000000e+05
-4.024020000000000000e+05 -3.479980000000000000e+05
-4.503790000000000000e+05 -2.978380000000000000e+05
-4.942830000000000000e+05 -2.440300000000000000e+05
-5.306830000000000000e+05 -1.791740000000000000e+05
-5.578600000000000000e+05 -1.116060000000000000e+05
-5.763080000000000000e+05 -3.894200000000000000e+04
-5.825820000000000000e+05 3.520700000000000000e+04
-5.778590000000000000e+05 1.109410000000000000e+05
-5.631460000000000000e+05 1.873570000000000000e+05
-5.353890000000000000e+05 2.594420000000000000e+05
-4.963280000000000000e+05 3.283730000000000000e+05
-4.488790000000000000e+05 3.897340000000000000e+05
-3.918310000000000000e+05 4.411400000000000000e+05
-3.278450000000000000e+05 4.834050000000000000e+05
-2.571410000000000000e+05 5.148780000000000000e+05
-1.834700000000000000e+05 5.335980000000000000e+05
-1.088950000000000000e+05 5.409300000000000000e+05
-3.508800000000000000e+04 5.356790000000000000e+05
3.546300000000000000e+04 5.180160000000000000e+05
1.055020000000000000e+05 4.945730000000000000e+05
1.685510000000000000e+05 4.599100000000000000e+05
2.262650000000000000e+05 4.215320000000000000e+05
2.772760000000000000e+05 3.782100000000000000e+05
3.230880000000000000e+05 3.315970000000000000e+05
3.617900000000000000e+05 2.859890000000000000e+05
3.914910000000000000e+05 2.397680000000000000e+05
4.142690000000000000e+05 1.921820000000000000e+05
4.310460000000000000e+05 1.479390000000000000e+05
4.388890000000000000e+05 1.048370000000000000e+05
4.434750000000000000e+05 6.229900000000000000e+04
4.400990000000000000e+05 2.305100000000000000e+04
4.320170000000000000e+05 -1.399700000000000000e+04
4.187360000000000000e+05 -4.913700000000000000e+04
4.014650000000000000e+05 -8.478700000000000000e+04
3.816530000000000000e+05 -1.209660000000000000e+05
3.631370000000000000e+05 -1.610670000000000000e+05
3.402740000000000000e+05 -2.002810000000000000e+05
3.191320000000000000e+05 -2.385230000000000000e+05
2.977530000000000000e+05 -2.713600000000000000e+05
2.764580000000000000e+05 -2.995260000000000000e+05
2.498440000000000000e+05 -3.205480000000000000e+05
2.191380000000000000e+05 -3.368470000000000000e+05
1.849190000000000000e+05 -3.548170000000000000e+05
1.474960000000000000e+05 -3.676560000000000000e+05
1.096110000000000000e+05 -3.776130000000000000e+05
6.548700000000000000e+04 -3.867170000000000000e+05
2.148300000000000000e+04 -3.920360000000000000e+05
-2.576200000000000000e+04 -3.932300000000000000e+05
-7.010800000000000000e+04 -3.926670000000000000e+05
-1.146400000000000000e+05 -3.878770000000000000e+05
-1.594470000000000000e+05 -3.750380000000000000e+05
-2.065550000000000000e+05 -3.613650000000000000e+05
-2.491620000000000000e+05 -3.404270000000000000e+05
-2.914100000000000000e+05 -3.165410000000000000e+05
-3.347330000000000000e+05 -2.850850000000000000e+05
-3.703670000000000000e+05 -2.496390000000000000e+05
-4.052840000000000000e+05 -2.107320000000000000e+05
-4.337050000000000000e+05 -1.663180000000000000e+05
-4.582400000000000000e+05 -1.190740000000000000e+05
-4.765510000000000000e+05 -6.598200000000000000e+04
-4.903610000000000000e+05 -1.222500000000000000e+04
-4.945210000000000000e+05 4.391900000000000000e+04
-4.971120000000000000e+05 1.009670000000000000e+05
-4.877530000000000000e+05 1.567540000000000000e+05
-4.718280000000000000e+05 2.115330000000000000e+05
-4.486070000000000000e+05 2.632790000000000000e+05
-4.190600000000000000e+05 3.113580000000000000e+05
-3.817550000000000000e+05 3.548510000000000000e+05
-3.380070000000000000e+05 3.946450000000000000e+05
-2.880680000000000000e+05 4.275670000000000000e+05
-2.327250000000000000e+05 4.576940000000000000e+05
-1.752180000000000000e+05 4.786310000000000000e+05
-1.111630000000000000e+05 4.948450000000000000e+05
-4.569300000000000000e+04 5.022450000000000000e+05
2.281200000000000000e+04 5.048020000000000000e+05
9.252800000000000000e+04 4.983570000000000000e+05
1.642890000000000000e+05 4.864560000000000000e+05
2.305260000000000000e+05 4.647530000000000000e+05
2.970190000000000000e+05 4.392300000000000000e+05
3.620800000000000000e+05 4.034590000000000000e+05
4.193670000000000000e+05 3.637510000000000000e+05
4.718110000000000000e+05 3.151950000000000000e+05
5.169590000000000000e+05 2.617270000000000000e+05
5.525240000000000000e+05 2.019170000000000000e+05
5.763590000000000000e+05 1.387830000000000000e+05
5.929140000000000000e+05 7.402900000000000000e+04
5.936640000000000000e+05 6.172000000000000000e+03
5.845590000000000000e+05 -5.716600000000000000e+04
5.639810000000000000e+05 -1.213930000000000000e+05
5.317580000000000000e+05 -1.821400000000000000e+05
4.890650000000000000e+05 -2.325900000000000000e+05
4.397070000000000000e+05 -2.820500000000000000e+05
3.827960000000000000e+05 -3.227980000000000000e+05
3.217750000000000000e+05 -3.546980000000000000e+05
2.591860000000000000e+05 -3.826600000000000000e+05
1.956430000000000000e+05 -3.967940000000000000e+05
1.344870000000000000e+05 -4.090350000000000000e+05
7.466000000000000000e+04 -4.149850000000000000e+05
1.725400000000000000e+04 -4.121560000000000000e+05
-3.677600000000000000e+04 -4.046190000000000000e+05
-8.623700000000000000e+04 -3.932820000000000000e+05
-1.312470000000000000e+05 -3.761810000000000000e+05
-1.735990000000000000e+05 -3.546810000000000000e+05
-2.102550000000000000e+05 -3.323300000000000000e+05
-2.459560000000000000e+05 -3.072490000000000000e+05
-2.754520000000000000e+05 -2.786240000000000000e+05
-3.000370000000000000e+05 -2.492290000000000000e+05
-3.208720000000000000e+05 -2.181830000000000000e+05
-3.393700000000000000e+05 -1.883630000000000000e+05
-3.545960000000000000e+05 -1.544520000000000000e+05
-3.669230000000000000e+05 -1.227910000000000000e+05
-3.739640000000000000e+05 -8.891300000000000000e+04
-3.805800000000000000e+05 -5.638300000000000000e+04
-3.819950000000000000e+05 -2.455100000000000000e+04
-3.803920000000000000e+05 9.718000000000000000e+03
-3.743560000000000000e+05 4.143100000000000000e+04
-3.647740000000000000e+05 7.217000000000000000e+04
-3.550730000000000000e+05 1.029790000000000000e+05
-3.386030000000000000e+05 1.330550000000000000e+05
-3.189280000000000000e+05 1.632670000000000000e+05
-2.955540000000000000e+05 1.896420000000000000e+05
-2.719050000000000000e+05 2.143640000000000000e+05
-2.420860000000000000e+05 2.374830000000000000e+05
-2.105440000000000000e+05 2.598520000000000000e+05
-1.756620000000000000e+05 2.774980000000000000e+05
-1.405900000000000000e+05 2.935590000000000000e+05
-1.010190000000000000e+05 3.068060000000000000e+05
-6.272500000000000000e+04 3.148190000000000000e+05
-2.233500000000000000e+04 3.196960000000000000e+05
1.892400000000000000e+04 3.238040000000000000e+05
5.832600000000000000e+04 3.183830000000000000e+05
9.907500000000000000e+04 3.117510000000000000e+05
1.366690000000000000e+05 3.017930000000000000e+05
1.760190000000000000e+05 2.861930000000000000e+05
2.093680000000000000e+05 2.693310000000000000e+05
2.438250000000000000e+05 2.481050000000000000e+05
2.721100000000000000e+05 2.239280000000000000e+05
2.942740000000000000e+05 1.970240000000000000e+05
3.131830000000000000e+05 1.654990000000000000e+05
3.282200000000000000e+05 1.328840000000000000e+05
3.385860000000000000e+05 9.924600000000000000e+04
3.481510000000000000e+05 6.526500000000000000e+04
3.540850000000000000e+05 3.132000000000000000e+04
3.540330000000000000e+05 -2.149000000000000000e+03
3.511000000000000000e+05 -3.507100000000000000e+04
3.464630000000000000e+05 -6.743000000000000000e+04
3.380580000000000000e+05 -1.015640000000000000e+05
3.236850000000000000e+05 -1.327990000000000000e+05
3.055950000000000000e+05 -1.613910000000000000e+05
2.836530000000000000e+05 -1.899480000000000000e+05
2.556060000000000000e+05 -2.128460000000000000e+05
2.264340000000000000e+05 -2.317880000000000000e+05
1.932220000000000000e+05 -2.492470000000000000e+05
1.592940000000000000e+05 -2.627840000000000000e+05
1.230970000000000000e+05 -2.751620000000000000e+05
8.720900000000000000e+04 -2.832440000000000000e+05
4.997200000000000000e+04 -2.885280000000000000e+05
1.089500000000000000e+04 -2.908470000000000000e+05
-2.651100000000000000e+04 -2.860570000000000000e+05
-6.482200000000000000e+04 -2.805840000000000000e+05
-1.028090000000000000e+05 -2.660240000000000000e+05
-1.402660000000000000e+05 -2.521460000000000000e+05
-1.758990000000000000e+05 -2.305270000000000000e+05
-2.076630000000000000e+05 -2.069470000000000000e+05
-2.375160000000000000e+05 -1.828570000000000000e+05
-2.623410000000000000e+05 -1.559520000000000000e+05
-2.828340000000000000e+05 -1.260130000000000000e+05
-3.059020000000000000e+05 -9.547700000000000000e+04
-3.312550000000000000e+05 -6.258900000000000000e+04
-3.524130000000000000e+05 -2.039100000000000000e+04
-3.479120000000000000e+05 1.672500000000000000e+04
-3.392850000000000000e+05 5.392800000000000000e+04
-3.238720000000000000e+05 8.679900000000000000e+04
-3.070790000000000000e+05 1.174720000000000000e+05
-2.849310000000000000e+05 1.458420000000000000e+05
-2.609940000000000000e+05 1.700860000000000000e+05
-2.343110000000000000e+05 1.919950000000000000e+05
-2.055490000000000000e+05 2.095890000000000000e+05
-1.755930000000000000e+05 2.262300000000000000e+05
-1.429600000000000000e+05 2.389320000000000000e+05
-1.122370000000000000e+05 2.458370000000000000e+05
-8.054300000000000000e+04 2.541060000000000000e+05
-4.845400000000000000e+04 2.575840000000000000e+05
-1.570300000000000000e+04 2.580610000000000000e+05
1.640100000000000000e+04 2.568510000000000000e+05
4.848800000000000000e+04 2.509010000000000000e+05
7.704700000000000000e+04 2.403300000000000000e+05
1.042070000000000000e+05 2.311910000000000000e+05
1.307690000000000000e+05 2.179100000000000000e+05
1.582360000000000000e+05 2.026510000000000000e+05
1.790200000000000000e+05 1.859760000000000000e+05
2.010990000000000000e+05 1.644770000000000000e+05
2.175010000000000000e+05 1.406080000000000000e+05
2.339360000000000000e+05 1.193630000000000000e+05
2.443370000000000000e+05 9.348200000000000000e+04
2.515830000000000000e+05 6.804400000000000000e+04
2.580100000000000000e+05 4.172000000000000000e+04
2.593060000000000000e+05 1.568500000000000000e+04
2.584030000000000000e+05 -1.038400000000000000e+04
2.520600000000000000e+05 -3.716800000000000000e+04
2.448480000000000000e+05 -6.088400000000000000e+04
2.349590000000000000e+05 -8.338900000000000000e+04
2.204160000000000000e+05 -1.042400000000000000e+05
2.049690000000000000e+05 -1.235580000000000000e+05
1.852090000000000000e+05 -1.416640000000000000e+05
1.671540000000000000e+05 -1.571960000000000000e+05
1.449040000000000000e+05 -1.725240000000000000e+05
1.225350000000000000e+05 -1.819350000000000000e+05
1.000980000000000000e+05 -1.896420000000000000e+05
7.749000000000000000e+04 -1.958990000000000000e+05
5.264900000000000000e+04 -2.012700000000000000e+05
2.816600000000000000e+04 -2.035040000000000000e+05
3.989000000000000000e+03 -2.030430000000000000e+05
-1.863500000000000000e+04 -2.009290000000000000e+05
-4.183900000000000000e+04 -1.985760000000000000e+05
