1.839600000000000000e+04 8.640700000000000000e+04
7.056800000000000000e+04 6.032100000000000000e+04
9.133400000000000000e+04 1.883900000000000000e+04
8.001300000000000000e+04 -2.741600000000000000e+04
6.095200000000000000e+04 -5.534300000000000000e+04
2.593200000000000000e+04 -6.691900000000000000e+04
-1.594100000000000000e+04 -7.646700000000000000e+04
-5.529200000000000000e+04 -7.522300000000000000e+04
-9.610800000000000000e+04 -4.286300000000000000e+04
-1.390380000000000000e+05 1.290600000000000000e+04
-1.209320000000000000e+05 8.108700000000000000e+04
-4.032300000000000000e+04 1.352020000000000000e+05
6.770400000000000000e+04 1.398400000000000000e+05
1.495070000000000000e+05 1.005410000000000000e+05
1.910730000000000000e+05 -1.360600000000000000e+04
2.015770000000000000e+05 -1.076000000000000000e+05
8.613400000000000000e+04 -1.490300000000000000e+05
-3.877100000000000000e+04 -1.624650000000000000e+05
-1.135160000000000000e+05 -1.601630000000000000e+05
-1.756780000000000000e+05 -6.824900000000000000e+04
-2.855280000000000000e+05 5.762700000000000000e+04
-2.320610000000000000e+05 1.141640000000000000e+05
-1.213240000000000000e+05 2.594260000000000000e+05
6.036000000000000000e+03 3.849610000000000000e+05
1.864360000000000000e+05 3.161150000000000000e+05
4.299550000000000000e+05 9.956900000000000000e+04
4.704300000000000000e+05 -1.473080000000000000e+05
2.755550000000000000e+05 -3.998620000000000000e+05
-5.116500000000000000e+04 -5.201470000000000000e+05
-3.294990000000000000e+05 -3.728730000000000000e+05
-4.721350000000000000e+05 1.466000000000000000e+03
-4.138770000000000000e+05 2.637220000000000000e+05
-1.757460000000000000e+05 3.588750000000000000e+05
6.431100000000000000e+04 3.709810000000000000e+05
2.291290000000000000e+05 2.878460000000000000e+05
3.339830000000000000e+05 8.560500000000000000e+04
4.055570000000000000e+05 -1.404200000000000000e+05
3.146660000000000000e+05 -3.264140000000000000e+05
6.279300000000000000e+04 -4.432700000000000000e+05
-2.461270000000000000e+05 -3.969980000000000000e+05
-4.596050000000000000e+05 -1.618510000000000000e+05
-5.229770000000000000e+05 1.813390000000000000e+05
-3.853360000000000000e+05 4.479250000000000000e+05
-3.936800000000000000e+04 5.484830000000000000e+05
3.492590000000000000e+05 4.108080000000000000e+05
5.382710000000000000e+05 1.047860000000000000e+05
4.670370000000000000e+05 -2.061290000000000000e+05
2.748720000000000000e+05 -3.788910000000000000e+05
4.102100000000000000e+04 -4.003220000000000000e+05
-1.723360000000000000e+05 -3.126880000000000000e+05
-3.075740000000000000e+05 -1.864360000000000000e+05
-3.863420000000000000e+05 -6.194100000000000000e+04
-4.018400000000000000e+05 1.357490000000000000e+05
-2.936270000000000000e+05 3.352100000000000000e+05
-7.317600000000000000e+04 4.372860000000000000e+05
1.920120000000000000e+05 4.029990000000000000e+05
4.308580000000000000e+05 2.437060000000000000e+05
5.523530000000000000e+05 -2.368200000000000000e+04
4.785970000000000000e+05 -3.477070000000000000e+05
1.811680000000000000e+05 -5.733240000000000000e+05
-2.043380000000000000e+05 -5.428740000000000000e+05
-4.860300000000000000e+05 -2.861750000000000000e+05
-5.694370000000000000e+05 3.058700000000000000e+04
-4.481120000000000000e+05 2.931320000000000000e+05
-1.899490000000000000e+05 4.635250000000000000e+05
9.612500000000000000e+04 4.767040000000000000e+05
3.591480000000000000e+05 3.105400000000000000e+05
4.803020000000000000e+05 6.801100000000000000e+04
4.398940000000000000e+05 -1.739390000000000000e+05
2.880510000000000000e+05 -3.549880000000000000e+05
6.809600000000000000e+04 -4.458280000000000000e+05
-1.846970000000000000e+05 -4.259820000000000000e+05
-4.320010000000000000e+05 -2.932520000000000000e+05
-5.800920000000000000e+05 -4.199300000000000000e+04
-5.166000000000000000e+05 2.570900000000000000e+05
-2.197010000000000000e+05 4.638150000000000000e+05
1.420900000000000000e+05 4.762440000000000000e+05
4.060000000000000000e+05 3.146660000000000000e+05
4.922370000000000000e+05 6.021900000000000000e+04
3.997260000000000000e+05 -1.762070000000000000e+05
1.916200000000000000e+05 -3.098920000000000000e+05
-3.145600000000000000e+04 -3.132500000000000000e+05
-1.954380000000000000e+05 -2.351640000000000000e+05
-2.831410000000000000e+05 -1.200460000000000000e+05
-3.087500000000000000e+05 8.065000000000000000e+03
-2.726050000000000000e+05 1.337360000000000000e+05
-1.881070000000000000e+05 2.320950000000000000e+05
-4.385200000000000000e+04 2.943430000000000000e+05
1.236940000000000000e+05 2.667910000000000000e+05
2.669450000000000000e+05 1.553720000000000000e+05
3.322270000000000000e+05 -1.051900000000000000e+04
2.923820000000000000e+05 -2.155220000000000000e+05
8.835100000000000000e+04 -3.087670000000000000e+05
-1.241550000000000000e+05 -2.748200000000000000e+05
-2.574990000000000000e+05 -1.421080000000000000e+05
-2.689900000000000000e+05 1.034900000000000000e+04
-2.009970000000000000e+05 1.202670000000000000e+05
-9.834100000000000000e+04 1.753370000000000000e+05
3.188000000000000000e+03 1.827020000000000000e+05
9.464200000000000000e+04 1.579810000000000000e+05
