-1.292400000000000000e+04 -1.157600000000000000e+04
-1.331600000000000000e+04 -1.011000000000000000e+04
-1.539600000000000000e+04 -8.184000000000000000e+03
-1.536200000000000000e+04 -7.280000000000000000e+03
-1.577100000000000000e+04 -5.780000000000000000e+03
-1.993100000000000000e+04 -4.467000000000000000e+03
-1.820900000000000000e+04 -3.648000000000000000e+03
-2.020400000000000000e+04 -1.518000000000000000e+03
-2.074900000000000000e+04 3.400000000000000000e+01
-2.105600000000000000e+04 8.180000000000000000e+02
-2.160200000000000000e+04 3.137000000000000000e+03
-2.063000000000000000e+04 6.273000000000000000e+03
-1.979500000000000000e+04 6.854000000000000000e+03
-1.839700000000000000e+04 9.854000000000000000e+03
-1.873700000000000000e+04 1.004100000000000000e+04
-1.686200000000000000e+04 1.253100000000000000e+04
-1.539600000000000000e+04 1.410000000000000000e+04
-1.539600000000000000e+04 1.416800000000000000e+04
-1.258300000000000000e+04 1.647000000000000000e+04
-1.026500000000000000e+04 1.853200000000000000e+04
-9.906000000000000000e+03 1.766300000000000000e+04
-8.252000000000000000e+03 1.979500000000000000e+04
-4.859000000000000000e+03 2.121000000000000000e+04
-3.666000000000000000e+03 1.994800000000000000e+04
4.090000000000000000e+02 1.969300000000000000e+04
2.506000000000000000e+03 2.139700000000000000e+04
3.512000000000000000e+03 1.936800000000000000e+04
6.018000000000000000e+03 2.056200000000000000e+04
8.883000000000000000e+03 1.909600000000000000e+04
1.045200000000000000e+04 1.814100000000000000e+04
1.212200000000000000e+04 1.703300000000000000e+04
1.399700000000000000e+04 1.563500000000000000e+04
1.531000000000000000e+04 1.452600000000000000e+04
1.669100000000000000e+04 1.236100000000000000e+04
1.962400000000000000e+04 1.029800000000000000e+04
1.870400000000000000e+04 9.463000000000000000e+03
2.180600000000000000e+04 8.201000000000000000e+03
2.083500000000000000e+04 4.160000000000000000e+03
2.075000000000000000e+04 2.131000000000000000e+03
2.279600000000000000e+04 2.523000000000000000e+03
2.100500000000000000e+04 4.430000000000000000e+02
2.110700000000000000e+04 -2.814000000000000000e+03
1.994800000000000000e+04 -3.972000000000000000e+03
2.076600000000000000e+04 -6.581000000000000000e+03
2.008400000000000000e+04 -8.013000000000000000e+03
1.595900000000000000e+04 -8.490000000000000000e+03
1.502100000000000000e+04 -1.145700000000000000e+04
1.268400000000000000e+04 -1.181500000000000000e+04
1.140600000000000000e+04 -1.225800000000000000e+04
1.089500000000000000e+04 -1.430500000000000000e+04
8.883000000000000000e+03 -1.512300000000000000e+04
6.462000000000000000e+03 -1.580500000000000000e+04
4.502000000000000000e+03 -1.628300000000000000e+04
2.472000000000000000e+03 -1.589100000000000000e+04
1.710000000000000000e+02 -1.631600000000000000e+04
-6.140000000000000000e+02 -1.706700000000000000e+04
-3.274000000000000000e+03 -1.551500000000000000e+04
-5.627000000000000000e+03 -1.554900000000000000e+04
-6.189000000000000000e+03 -1.377600000000000000e+04
-7.758000000000000000e+03 -1.367300000000000000e+04
-1.086000000000000000e+04 -1.353700000000000000e+04
-1.246300000000000000e+04 -1.176400000000000000e+04
-1.237800000000000000e+04 -1.016100000000000000e+04
-1.486700000000000000e+04 -9.735000000000000000e+03
-1.599300000000000000e+04 -8.201000000000000000e+03
-1.667400000000000000e+04 -7.365000000000000000e+03
-1.728800000000000000e+04 -5.405000000000000000e+03
-1.754400000000000000e+04 -3.564000000000000000e+03
-1.648700000000000000e+04 -2.319000000000000000e+03
-1.780000000000000000e+04 -3.410000000000000000e+02
-1.783400000000000000e+04 1.279000000000000000e+03
-1.814100000000000000e+04 3.717000000000000000e+03
-1.694700000000000000e+04 4.757000000000000000e+03
-1.780000000000000000e+04 4.671000000000000000e+03
-1.589000000000000000e+04 7.707000000000000000e+03
-1.624900000000000000e+04 9.292000000000000000e+03
-1.473100000000000000e+04 1.035000000000000000e+04
-1.386100000000000000e+04 1.195200000000000000e+04
-1.011000000000000000e+04 1.314600000000000000e+04
-1.048600000000000000e+04 1.609500000000000000e+04
-8.201000000000000000e+03 1.548100000000000000e+04
-4.706000000000000000e+03 1.754300000000000000e+04
-3.853000000000000000e+03 1.568500000000000000e+04
-2.711000000000000000e+03 1.636700000000000000e+04
2.387000000000000000e+03 1.795300000000000000e+04
1.040000000000000000e+03 1.834500000000000000e+04
4.074000000000000000e+03 1.674200000000000000e+04
7.519000000000000000e+03 1.817400000000000000e+04
9.445000000000000000e+03 1.570200000000000000e+04
9.701000000000000000e+03 1.583900000000000000e+04
1.374100000000000000e+04 1.560000000000000000e+04
1.377600000000000000e+04 1.404900000000000000e+04
1.541300000000000000e+04 1.353800000000000000e+04
1.628200000000000000e+04 1.306000000000000000e+04
1.798800000000000000e+04 9.753000000000000000e+03
1.793600000000000000e+04 9.821000000000000000e+03
2.010100000000000000e+04 5.899000000000000000e+03
1.976000000000000000e+04 4.945000000000000000e+03
1.972600000000000000e+04 3.717000000000000000e+03
1.984600000000000000e+04 1.841000000000000000e+03
2.015300000000000000e+04 -3.920000000000000000e+02
1.943600000000000000e+04 -2.166000000000000000e+03
1.718500000000000000e+04 -4.790000000000000000e+03
1.853300000000000000e+04 -3.938000000000000000e+03
1.587300000000000000e+04 -7.399000000000000000e+03
1.519100000000000000e+04 -8.337000000000000000e+03
1.403100000000000000e+04 -1.097900000000000000e+04
1.319600000000000000e+04 -1.162800000000000000e+04
1.109900000000000000e+04 -1.398000000000000000e+04
9.564000000000000000e+03 -1.594100000000000000e+04
8.388000000000000000e+03 -1.643500000000000000e+04
5.455000000000000000e+03 -1.728900000000000000e+04
2.932000000000000000e+03 -1.834600000000000000e+04
1.773000000000000000e+03 -1.880600000000000000e+04
-1.057000000000000000e+03 -1.913000000000000000e+04
-3.069000000000000000e+03 -1.948700000000000000e+04
-5.916000000000000000e+03 -1.882300000000000000e+04
-7.280000000000000000e+03 -1.856700000000000000e+04
-9.583000000000000000e+03 -1.919800000000000000e+04
-1.147400000000000000e+04 -1.855000000000000000e+04
-1.333300000000000000e+04 -1.761200000000000000e+04
-1.433900000000000000e+04 -1.335000000000000000e+04
-1.616300000000000000e+04 -1.154300000000000000e+04
-1.754400000000000000e+04 -1.087700000000000000e+04
-1.827700000000000000e+04 -8.678000000000000000e+03
-1.800400000000000000e+04 -5.831000000000000000e+03
-1.909500000000000000e+04 -5.047000000000000000e+03
-1.861900000000000000e+04 -2.762000000000000000e+03
-1.959000000000000000e+04 -1.125000000000000000e+03
-1.998200000000000000e+04 6.900000000000000000e+01
-1.686200000000000000e+04 4.126000000000000000e+03
-1.686200000000000000e+04 6.206000000000000000e+03
-1.560000000000000000e+04 6.138000000000000000e+03
-1.623100000000000000e+04 9.735000000000000000e+03
-1.442400000000000000e+04 1.005900000000000000e+04
-1.174800000000000000e+04 1.084400000000000000e+04
-1.084300000000000000e+04 1.295800000000000000e+04
-9.837000000000000000e+03 1.485100000000000000e+04
-8.405000000000000000e+03 1.363900000000000000e+04
-7.724000000000000000e+03 1.638500000000000000e+04
-6.888000000000000000e+03 1.556700000000000000e+04
-3.427000000000000000e+03 1.720400000000000000e+04
-4.160000000000000000e+03 1.626600000000000000e+04
-2.050000000000000000e+02 1.822600000000000000e+04
1.602000000000000000e+03 1.733900000000000000e+04
2.336000000000000000e+03 1.621400000000000000e+04
4.569000000000000000e+03 1.781700000000000000e+04
6.427000000000000000e+03 1.788500000000000000e+04
9.052000000000000000e+03 1.662400000000000000e+04
9.752000000000000000e+03 1.563400000000000000e+04
1.058700000000000000e+04 1.370800000000000000e+04
1.253100000000000000e+04 1.193500000000000000e+04
1.365700000000000000e+04 1.186700000000000000e+04
1.525900000000000000e+04 9.923000000000000000e+03
1.389500000000000000e+04 8.355000000000000000e+03
1.568500000000000000e+04 5.780000000000000000e+03
1.602700000000000000e+04 3.768000000000000000e+03
1.534400000000000000e+04 2.234000000000000000e+03
1.534400000000000000e+04 7.670000000000000000e+02
1.612900000000000000e+04 1.360000000000000000e+02
1.677700000000000000e+04 -2.029000000000000000e+03
1.549800000000000000e+04 -5.575000000000000000e+03
1.469700000000000000e+04 -6.036000000000000000e+03
1.357100000000000000e+04 -9.479000000000000000e+03
1.273600000000000000e+04 -1.052000000000000000e+04
1.382700000000000000e+04 -1.075800000000000000e+04
1.082600000000000000e+04 -1.237800000000000000e+04
8.934000000000000000e+03 -1.428700000000000000e+04
7.348000000000000000e+03 -1.536200000000000000e+04
7.741000000000000000e+03 -1.566800000000000000e+04
5.523000000000000000e+03 -1.667500000000000000e+04
3.171000000000000000e+03 -1.730500000000000000e+04
3.290000000000000000e+03 -1.860100000000000000e+04
6.650000000000000000e+02 -1.621400000000000000e+04
-8.600000000000000000e+01 -1.735700000000000000e+04
-2.796000000000000000e+03 -1.635100000000000000e+04
-4.314000000000000000e+03 -1.623200000000000000e+04
-4.262000000000000000e+03 -1.578800000000000000e+04
-5.610000000000000000e+03 -1.495200000000000000e+04
-8.371000000000000000e+03 -1.450900000000000000e+04
-8.832000000000000000e+03 -1.597500000000000000e+04
-1.043400000000000000e+04 -1.440700000000000000e+04
-1.198600000000000000e+04 -1.234400000000000000e+04
-1.139000000000000000e+04 -1.023000000000000000e+04
-1.374300000000000000e+04 -8.405000000000000000e+03
-1.387800000000000000e+04 -6.717000000000000000e+03
-1.491900000000000000e+04 -4.893000000000000000e+03
-1.468000000000000000e+04 -3.410000000000000000e+03
-1.534400000000000000e+04 -1.739000000000000000e+03
-1.592500000000000000e+04 3.760000000000000000e+02
-1.543000000000000000e+04 3.410000000000000000e+03
-1.529400000000000000e+04 2.404000000000000000e+03
-1.461200000000000000e+04 5.132000000000000000e+03
-1.413400000000000000e+04 6.837000000000000000e+03
-1.324800000000000000e+04 8.627000000000000000e+03
-1.043400000000000000e+04 1.026400000000000000e+04
-1.086100000000000000e+04 1.214000000000000000e+04
-8.968000000000000000e+03 1.195200000000000000e+04
-6.156000000000000000e+03 1.425400000000000000e+04
-5.217000000000000000e+03 1.525900000000000000e+04
-3.410000000000000000e+03 1.435600000000000000e+04
-2.063000000000000000e+03 1.365700000000000000e+04
-3.240000000000000000e+02 1.503800000000000000e+04
2.216000000000000000e+03 1.496900000000000000e+04
3.478000000000000000e+03 1.321300000000000000e+04
8.013000000000000000e+03 1.399800000000000000e+04
8.116000000000000000e+03 1.418600000000000000e+04
8.252000000000000000e+03 1.128700000000000000e+04
1.038300000000000000e+04 1.164500000000000000e+04
1.304300000000000000e+04 1.012800000000000000e+04
1.493600000000000000e+04 9.684000000000000000e+03
1.549800000000000000e+04 8.184000000000000000e+03
1.635100000000000000e+04 6.667000000000000000e+03
1.655500000000000000e+04 5.678000000000000000e+03
1.924900000000000000e+04 3.939000000000000000e+03
1.991400000000000000e+04 2.745000000000000000e+03
1.984500000000000000e+04 1.125000000000000000e+03
1.979500000000000000e+04 1.125000000000000000e+03
2.107300000000000000e+04 -1.177000000000000000e+03
2.117600000000000000e+04 -2.540000000000000000e+03
2.052800000000000000e+04 -2.541000000000000000e+03
1.986300000000000000e+04 -3.564000000000000000e+03
1.878900000000000000e+04 -4.177000000000000000e+03
1.720300000000000000e+04 -6.752000000000000000e+03
1.628200000000000000e+04 -5.643000000000000000e+03
1.384400000000000000e+04 -6.427000000000000000e+03
1.285500000000000000e+04 -5.866000000000000000e+03
1.019600000000000000e+04 -5.695000000000000000e+03
7.843000000000000000e+03 -7.076000000000000000e+03
5.116000000000000000e+03 -7.758000000000000000e+03
3.342000000000000000e+03 -7.093000000000000000e+03
-1.040000000000000000e+03 -7.860000000000000000e+03
-1.551000000000000000e+03 -7.502000000000000000e+03
-5.064000000000000000e+03 -8.115000000000000000e+03
-7.247000000000000000e+03 -6.820000000000000000e+03
-8.184000000000000000e+03 -5.967000000000000000e+03
-1.132100000000000000e+04 -8.183000000000000000e+03
-1.290700000000000000e+04 -7.468000000000000000e+03
-1.350300000000000000e+04 -6.990000000000000000e+03
-1.294100000000000000e+04 -5.813000000000000000e+03
-1.554900000000000000e+04 -6.802000000000000000e+03
-1.485000000000000000e+04 -5.285000000000000000e+03
-1.616300000000000000e+04 -5.165000000000000000e+03
-1.515700000000000000e+04 -5.046000000000000000e+03
-1.616300000000000000e+04 -3.444000000000000000e+03
-1.551500000000000000e+04 -2.489000000000000000e+03
-1.500400000000000000e+04 -2.029000000000000000e+03
-1.522500000000000000e+04 -8.600000000000000000e+01
-1.587400000000000000e+04 1.808000000000000000e+03
-1.377600000000000000e+04 2.780000000000000000e+03
-1.285500000000000000e+04 3.871000000000000000e+03
-1.340100000000000000e+04 5.285000000000000000e+03
-1.186700000000000000e+04 6.342000000000000000e+03
-1.150900000000000000e+04 8.133000000000000000e+03
-9.122000000000000000e+03 8.338000000000000000e+03
-8.542000000000000000e+03 1.173000000000000000e+04
-7.042000000000000000e+03 1.147500000000000000e+04
-6.172000000000000000e+03 1.232700000000000000e+04
-6.155000000000000000e+03 1.309400000000000000e+04
-3.017000000000000000e+03 1.532800000000000000e+04
-1.756000000000000000e+03 1.681000000000000000e+04
-9.880000000000000000e+02 1.532800000000000000e+04
7.670000000000000000e+02 1.584000000000000000e+04
1.790000000000000000e+03 1.606100000000000000e+04
4.689000000000000000e+03 1.710100000000000000e+04
4.910000000000000000e+03 1.730500000000000000e+04
7.417000000000000000e+03 1.623100000000000000e+04
8.166000000000000000e+03 1.619700000000000000e+04
1.041700000000000000e+04 1.428800000000000000e+04
1.036600000000000000e+04 1.358800000000000000e+04
1.109900000000000000e+04 1.285500000000000000e+04
1.108200000000000000e+04 1.103000000000000000e+04
1.353700000000000000e+04 7.383000000000000000e+03
1.326500000000000000e+04 7.808000000000000000e+03
1.474800000000000000e+04 5.865000000000000000e+03
1.394600000000000000e+04 4.484000000000000000e+03
1.447600000000000000e+04 3.206000000000000000e+03
1.386100000000000000e+04 3.580000000000000000e+02
1.305900000000000000e+04 4.260000000000000000e+02
1.314500000000000000e+04 -2.063000000000000000e+03
1.178100000000000000e+04 -3.802000000000000000e+03
1.213900000000000000e+04 -5.200000000000000000e+03
1.017900000000000000e+04 -4.978000000000000000e+03
1.079300000000000000e+04 -7.382000000000000000e+03
7.280000000000000000e+03 -7.553000000000000000e+03
6.649000000000000000e+03 -9.258000000000000000e+03
6.837000000000000000e+03 -9.377000000000000000e+03
3.547000000000000000e+03 -1.089400000000000000e+04
3.188000000000000000e+03 -1.318000000000000000e+04
8.530000000000000000e+02 -1.372500000000000000e+04
6.140000000000000000e+02 -1.357100000000000000e+04
-4.950000000000000000e+02 -1.195100000000000000e+04
-2.182000000000000000e+03 -1.364000000000000000e+04
-3.632000000000000000e+03 -1.219000000000000000e+04
-3.443000000000000000e+03 -1.181500000000000000e+04
-5.063000000000000000e+03 -1.328100000000000000e+04
-4.484000000000000000e+03 -1.350300000000000000e+04
-5.609000000000000000e+03 -1.060400000000000000e+04
-5.627000000000000000e+03 -1.150800000000000000e+04
-6.139000000000000000e+03 -1.051900000000000000e+04
-6.786000000000000000e+03 -9.940000000000000000e+03
-7.945000000000000000e+03 -8.115000000000000000e+03
-8.815000000000000000e+03 -7.348000000000000000e+03
-7.673000000000000000e+03 -8.098000000000000000e+03
-7.656000000000000000e+03 -5.762000000000000000e+03
-8.627000000000000000e+03 -6.190000000000000000e+03
-6.991000000000000000e+03 -5.149000000000000000e+03
-7.758000000000000000e+03 -2.984000000000000000e+03
-6.700000000000000000e+03 -1.296000000000000000e+03
-8.236000000000000000e+03 -9.540000000000000000e+02
-7.911000000000000000e+03 7.500000000000000000e+02
-5.200000000000000000e+03 -1.880000000000000000e+02
-5.899000000000000000e+03 2.404000000000000000e+03
-6.513000000000000000e+03 3.206000000000000000e+03
-6.257000000000000000e+03 1.671000000000000000e+03
-4.024000000000000000e+03 3.683000000000000000e+03
-4.041000000000000000e+03 6.018000000000000000e+03
-2.626000000000000000e+03 4.791000000000000000e+03
-1.568000000000000000e+03 6.291000000000000000e+03
-2.507000000000000000e+03 5.353000000000000000e+03
-1.688000000000000000e+03 7.467000000000000000e+03
-1.091000000000000000e+03 7.757000000000000000e+03
-1.449000000000000000e+03 8.184000000000000000e+03
-1.870000000000000000e+02 7.791000000000000000e+03
-2.380000000000000000e+02 9.701000000000000000e+03
6.810000000000000000e+02 1.000800000000000000e+04
1.603000000000000000e+03 9.071000000000000000e+03
6.820000000000000000e+02 9.241000000000000000e+03
3.325000000000000000e+03 9.769000000000000000e+03
1.773000000000000000e+03 9.428000000000000000e+03
2.386000000000000000e+03 1.011000000000000000e+04
4.365000000000000000e+03 9.190000000000000000e+03
2.608000000000000000e+03 8.201000000000000000e+03
2.404000000000000000e+03 7.774000000000000000e+03
2.489000000000000000e+03 6.598000000000000000e+03
2.369000000000000000e+03 6.751000000000000000e+03
4.773000000000000000e+03 4.705000000000000000e+03
5.268000000000000000e+03 2.540000000000000000e+03
5.524000000000000000e+03 3.257000000000000000e+03
4.126000000000000000e+03 6.990000000000000000e+02
5.166000000000000000e+03 2.900000000000000000e+02
6.172000000000000000e+03 -2.040000000000000000e+02
4.689000000000000000e+03 -1.875000000000000000e+03
4.553000000000000000e+03 -2.864000000000000000e+03
4.075000000000000000e+03 -3.853000000000000000e+03
1.194000000000000000e+03 -4.280000000000000000e+03
4.177000000000000000e+03 -6.036000000000000000e+03
1.876000000000000000e+03 -6.717000000000000000e+03
1.143000000000000000e+03 -8.235000000000000000e+03
6.990000000000000000e+02 -8.985000000000000000e+03
2.550000000000000000e+02 -1.012700000000000000e+04
-2.166000000000000000e+03 -1.077500000000000000e+04
-2.730000000000000000e+02 -1.202000000000000000e+04
-1.927000000000000000e+03 -1.167900000000000000e+04
-2.319000000000000000e+03 -1.132100000000000000e+04
-3.649000000000000000e+03 -1.133800000000000000e+04
-3.342000000000000000e+03 -1.137200000000000000e+04
-3.973000000000000000e+03 -1.164500000000000000e+04
-4.382000000000000000e+03 -1.004200000000000000e+04
-4.450000000000000000e+03 -1.251400000000000000e+04
-6.035000000000000000e+03 -1.002500000000000000e+04
-6.632000000000000000e+03 -9.821000000000000000e+03
-7.160000000000000000e+03 -8.167000000000000000e+03
-9.241000000000000000e+03 -9.446000000000000000e+03
-7.842000000000000000e+03 -8.269000000000000000e+03
-6.751000000000000000e+03 -7.485000000000000000e+03
-8.030000000000000000e+03 -6.530000000000000000e+03
-7.723000000000000000e+03 -7.229000000000000000e+03
-8.115000000000000000e+03 -4.945000000000000000e+03
-7.365000000000000000e+03 -3.410000000000000000e+03
-6.308000000000000000e+03 -2.626000000000000000e+03
-7.059000000000000000e+03 -2.234000000000000000e+03
-6.649000000000000000e+03 -2.796000000000000000e+03
-6.257000000000000000e+03 -2.210000000000000000e+02
-5.575000000000000000e+03 2.131000000000000000e+03
-3.375000000000000000e+03 1.875000000000000000e+03
-3.529000000000000000e+03 9.880000000000000000e+02
-1.824000000000000000e+03 1.876000000000000000e+03
-2.761000000000000000e+03 2.506000000000000000e+03
-3.580000000000000000e+03 3.870000000000000000e+03
-9.890000000000000000e+02 3.751000000000000000e+03
-2.540000000000000000e+03 4.740000000000000000e+03
1.125000000000000000e+03 4.296000000000000000e+03
7.840000000000000000e+02 6.444000000000000000e+03
2.387000000000000000e+03 5.234000000000000000e+03
1.842000000000000000e+03 4.313000000000000000e+03
3.290000000000000000e+03 3.972000000000000000e+03
1.398000000000000000e+03 5.405000000000000000e+03
4.756000000000000000e+03 5.592000000000000000e+03
3.052000000000000000e+03 4.927000000000000000e+03
4.740000000000000000e+03 5.507000000000000000e+03
4.484000000000000000e+03 5.455000000000000000e+03
3.052000000000000000e+03 4.790000000000000000e+03
5.780000000000000000e+03 5.507000000000000000e+03
4.007000000000000000e+03 4.774000000000000000e+03
5.762000000000000000e+03 5.932000000000000000e+03
4.092000000000000000e+03 4.143000000000000000e+03
4.723000000000000000e+03 4.910000000000000000e+03
3.939000000000000000e+03 2.915000000000000000e+03
6.018000000000000000e+03 3.103000000000000000e+03
4.450000000000000000e+03 1.602000000000000000e+03
4.757000000000000000e+03 3.291000000000000000e+03
5.286000000000000000e+03 1.022000000000000000e+03
4.995000000000000000e+03 1.091000000000000000e+03
3.291000000000000000e+03 -1.125000000000000000e+03
3.222000000000000000e+03 5.200000000000000000e+01
2.268000000000000000e+03 -1.177000000000000000e+03
2.250000000000000000e+03 -2.165000000000000000e+03
5.800000000000000000e+02 -3.120000000000000000e+03
-3.500000000000000000e+01 -3.870000000000000000e+03
6.650000000000000000e+02 -3.444000000000000000e+03
-1.006000000000000000e+03 -4.877000000000000000e+03
-2.813000000000000000e+03 -5.490000000000000000e+03
-3.495000000000000000e+03 -5.559000000000000000e+03
-4.808000000000000000e+03 -6.258000000000000000e+03
-6.121000000000000000e+03 -8.423000000000000000e+03
-7.177000000000000000e+03 -7.689000000000000000e+03
-7.229000000000000000e+03 -9.104000000000000000e+03
-8.763000000000000000e+03 -9.889000000000000000e+03
-9.769000000000000000e+03 -9.888000000000000000e+03
-9.428000000000000000e+03 -1.101400000000000000e+04
-9.530000000000000000e+03 -1.258200000000000000e+04
-1.057000000000000000e+04 -1.176400000000000000e+04
-9.326000000000000000e+03 -1.237800000000000000e+04
-1.089500000000000000e+04 -1.173100000000000000e+04
-9.821000000000000000e+03 -1.416800000000000000e+04
-8.934000000000000000e+03 -1.377600000000000000e+04
-7.944000000000000000e+03 -1.476500000000000000e+04
-7.075000000000000000e+03 -1.270200000000000000e+04
-5.591000000000000000e+03 -1.251500000000000000e+04
-4.314000000000000000e+03 -1.193500000000000000e+04
-3.614000000000000000e+03 -1.167900000000000000e+04
-2.711000000000000000e+03 -1.159400000000000000e+04
-3.291000000000000000e+03 -9.940000000000000000e+03
-5.280000000000000000e+02 -9.037000000000000000e+03
9.890000000000000000e+02 -8.951000000000000000e+03
1.041000000000000000e+03 -7.247000000000000000e+03
3.478000000000000000e+03 -5.660000000000000000e+03
5.780000000000000000e+03 -6.002000000000000000e+03
6.445000000000000000e+03 -3.223000000000000000e+03
5.899000000000000000e+03 -6.310000000000000000e+02
9.395000000000000000e+03 1.530000000000000000e+02
9.906000000000000000e+03 1.671000000000000000e+03
9.377000000000000000e+03 2.848000000000000000e+03
1.137300000000000000e+04 5.235000000000000000e+03
1.338400000000000000e+04 6.036000000000000000e+03
1.370800000000000000e+04 6.615000000000000000e+03
1.387800000000000000e+04 1.082700000000000000e+04
1.396400000000000000e+04 1.145700000000000000e+04
1.694700000000000000e+04 1.109900000000000000e+04
1.512300000000000000e+04 1.372500000000000000e+04
1.556600000000000000e+04 1.454300000000000000e+04
1.491900000000000000e+04 1.785100000000000000e+04
1.491800000000000000e+04 1.851500000000000000e+04
1.352000000000000000e+04 2.022100000000000000e+04
1.249700000000000000e+04 2.197600000000000000e+04
1.120200000000000000e+04 2.284700000000000000e+04
7.621000000000000000e+03 2.436400000000000000e+04
6.155000000000000000e+03 2.734700000000000000e+04
3.854000000000000000e+03 2.635800000000000000e+04
0.000000000000000000e+00 2.719400000000000000e+04
-3.137000000000000000e+03 2.562500000000000000e+04
-6.479000000000000000e+03 2.900100000000000000e+04
-1.045100000000000000e+04 2.908700000000000000e+04
-1.571900000000000000e+04 2.709200000000000000e+04
-1.926600000000000000e+04 2.530200000000000000e+04
-2.511400000000000000e+04 2.282900000000000000e+04
-2.830200000000000000e+04 1.970900000000000000e+04
-3.433800000000000000e+04 1.715200000000000000e+04
-3.691300000000000000e+04 1.152500000000000000e+04
-4.108900000000000000e+04 6.837000000000000000e+03
-4.299900000000000000e+04 2.796000000000000000e+03
-4.495900000000000000e+04 -3.632000000000000000e+03
-4.521500000000000000e+04 -1.038300000000000000e+04
-4.582900000000000000e+04 -1.619700000000000000e+04
-4.393600000000000000e+04 -2.366500000000000000e+04
-4.240200000000000000e+04 -2.842200000000000000e+04
-3.861700000000000000e+04 -3.426900000000000000e+04
-3.531000000000000000e+04 -3.955400000000000000e+04
-2.947900000000000000e+04 -4.417500000000000000e+04
-2.376700000000000000e+04 -4.954600000000000000e+04
-1.706600000000000000e+04 -5.131900000000000000e+04
-1.017900000000000000e+04 -5.420100000000000000e+04
-3.666000000000000000e+03 -5.568400000000000000e+04
3.428000000000000000e+03 -5.677500000000000000e+04
1.140700000000000000e+04 -5.343400000000000000e+04
1.800500000000000000e+04 -5.324600000000000000e+04
2.468800000000000000e+04 -4.867600000000000000e+04
3.140500000000000000e+04 -4.577800000000000000e+04
3.907800000000000000e+04 -4.008300000000000000e+04
4.359600000000000000e+04 -3.464500000000000000e+04
4.683500000000000000e+04 -2.920500000000000000e+04
5.200100000000000000e+04 -2.214800000000000000e+04
5.297300000000000000e+04 -1.713500000000000000e+04
5.512100000000000000e+04 -8.457000000000000000e+03
5.500200000000000000e+04 -1.994000000000000000e+03
5.488300000000000000e+04 6.036000000000000000e+03
5.403000000000000000e+04 1.401400000000000000e+04
5.070600000000000000e+04 1.957300000000000000e+04
4.697200000000000000e+04 2.548900000000000000e+04
