2.933000000000000000e+03 -5.630000000000000000e+02
6.800000000000000000e+01 -2.489000000000000000e+03
-2.370000000000000000e+03 -2.744000000000000000e+03
-4.212000000000000000e+03 -9.040000000000000000e+02
-6.087000000000000000e+03 6.820000000000000000e+03
2.438000000000000000e+03 1.508900000000000000e+04
1.827700000000000000e+04 1.145700000000000000e+04
2.412500000000000000e+04 -1.113300000000000000e+04
1.347000000000000000e+03 -2.337500000000000000e+04
-1.491800000000000000e+04 -1.173000000000000000e+04
-1.377600000000000000e+04 2.370000000000000000e+03
-1.092900000000000000e+04 9.479000000000000000e+03
-1.722000000000000000e+03 1.142300000000000000e+04
4.348000000000000000e+03 9.752000000000000000e+03
5.558000000000000000e+03 6.598000000000000000e+03
7.280000000000000000e+03 4.211000000000000000e+03
7.672000000000000000e+03 -1.360000000000000000e+02
6.393000000000000000e+03 -4.400000000000000000e+03
3.683000000000000000e+03 -5.337000000000000000e+03
8.020000000000000000e+02 -1.205300000000000000e+04
-8.219000000000000000e+03 -1.014400000000000000e+04
-1.860100000000000000e+04 -4.621000000000000000e+03
-1.918100000000000000e+04 1.184900000000000000e+04
-2.950000000000000000e+03 2.010100000000000000e+04
1.014400000000000000e+04 1.033200000000000000e+04
9.905000000000000000e+03 2.404000000000000000e+03
6.069000000000000000e+03 -4.893000000000000000e+03
2.489000000000000000e+03 -7.519000000000000000e+03
-4.600000000000000000e+02 -6.258000000000000000e+03
-2.728000000000000000e+03 -5.336000000000000000e+03
-5.814000000000000000e+03 -4.416000000000000000e+03
-6.581000000000000000e+03 -3.291000000000000000e+03
-7.451000000000000000e+03 -1.654000000000000000e+03
-9.207000000000000000e+03 -5.319000000000000000e+03
-2.950000000000000000e+03 -1.620000000000000000e+03
-8.500000000000000000e+01 4.467000000000000000e+03
8.287000000000000000e+03 1.099700000000000000e+04
1.834500000000000000e+04 8.968000000000000000e+03
1.583800000000000000e+04 -1.467000000000000000e+03
5.370000000000000000e+03 -9.173000000000000000e+03
-1.210000000000000000e+03 -7.247000000000000000e+03
-3.717000000000000000e+03 -3.836000000000000000e+03
-4.569000000000000000e+03 5.280000000000000000e+02
-3.786000000000000000e+03 3.308000000000000000e+03
-1.808000000000000000e+03 3.802000000000000000e+03
-3.580000000000000000e+02 6.155000000000000000e+03
1.261000000000000000e+03 6.479000000000000000e+03
7.500000000000000000e+02 9.241000000000000000e+03
1.364000000000000000e+03 8.270000000000000000e+03
2.574000000000000000e+03 7.263000000000000000e+03
4.893000000000000000e+03 2.285000000000000000e+03
5.524000000000000000e+03 -3.615000000000000000e+03
-2.966000000000000000e+03 -9.633000000000000000e+03
-1.157700000000000000e+04 -3.905000000000000000e+03
-1.077500000000000000e+04 5.183000000000000000e+03
-6.069000000000000000e+03 6.445000000000000000e+03
-1.398000000000000000e+03 4.297000000000000000e+03
-1.482000000000000000e+03 3.922000000000000000e+03
-3.400000000000000000e+01 1.023000000000000000e+03
1.262000000000000000e+03 1.449000000000000000e+03
-5.800000000000000000e+02 -1.700000000000000000e+01
6.990000000000000000e+02 -3.920000000000000000e+02
-3.342000000000000000e+03 -3.563000000000000000e+03
-1.637000000000000000e+03 -5.234000000000000000e+03
-4.143000000000000000e+03 -6.956000000000000000e+03
-6.308000000000000000e+03 -6.207000000000000000e+03
-1.139000000000000000e+04 -2.336000000000000000e+03
-9.941000000000000000e+03 3.717000000000000000e+03
-4.780000000000000000e+02 4.331000000000000000e+03
5.813000000000000000e+03 -1.023000000000000000e+03
6.428000000000000000e+03 -3.921000000000000000e+03
2.200000000000000000e+03 -6.104000000000000000e+03
1.530000000000000000e+02 -5.286000000000000000e+03
-1.091000000000000000e+03 -5.200000000000000000e+03
-1.296000000000000000e+03 -6.224000000000000000e+03
-1.700000000000000000e+02 -2.728000000000000000e+03
-4.638000000000000000e+03 -1.040000000000000000e+03
-1.449000000000000000e+03 -1.210000000000000000e+03
-1.518000000000000000e+03 -5.460000000000000000e+02
1.364000000000000000e+03 1.927000000000000000e+03
3.955000000000000000e+03 3.751000000000000000e+03
7.808000000000000000e+03 5.120000000000000000e+02
8.269000000000000000e+03 -1.978000000000000000e+03
3.546000000000000000e+03 -7.041000000000000000e+03
-1.909000000000000000e+03 -4.262000000000000000e+03
-2.761000000000000000e+03 -1.824000000000000000e+03
-3.052000000000000000e+03 5.450000000000000000e+02
-2.080000000000000000e+03 1.636000000000000000e+03
4.440000000000000000e+02 -3.920000000000000000e+02
2.523000000000000000e+03 -5.110000000000000000e+02
3.870000000000000000e+03 1.466000000000000000e+03
3.240000000000000000e+03 6.300000000000000000e+02
4.382000000000000000e+03 1.005000000000000000e+03
6.513000000000000000e+03 4.260000000000000000e+02
6.240000000000000000e+03 1.654000000000000000e+03
5.830000000000000000e+03 4.780000000000000000e+02
3.240000000000000000e+03 -1.825000000000000000e+03
-6.480000000000000000e+02 -9.210000000000000000e+02
-2.301000000000000000e+03 2.165000000000000000e+03
-3.989000000000000000e+03 5.592000000000000000e+03
