2.336000000000000000e+03 -1.619000000000000000e+03
1.978000000000000000e+03 -7.670000000000000000e+02
2.301000000000000000e+03 7.330000000000000000e+02
3.478000000000000000e+03 3.410000000000000000e+02
4.109000000000000000e+03 -3.512000000000000000e+03
1.228000000000000000e+03 -2.916000000000000000e+03
1.530000000000000000e+02 -9.890000000000000000e+02
1.586000000000000000e+03 -2.268000000000000000e+03
1.880000000000000000e+02 -2.489000000000000000e+03
1.466000000000000000e+03 -1.910000000000000000e+03
3.920000000000000000e+02 -2.694000000000000000e+03
5.800000000000000000e+02 -3.069000000000000000e+03
8.700000000000000000e+02 -3.359000000000000000e+03
6.480000000000000000e+02 -2.574000000000000000e+03
1.688000000000000000e+03 -2.950000000000000000e+03
-6.310000000000000000e+02 -3.052000000000000000e+03
-1.483000000000000000e+03 -2.677000000000000000e+03
-4.600000000000000000e+02 -4.194000000000000000e+03
8.700000000000000000e+02 -1.773000000000000000e+03
-1.739000000000000000e+03 -2.950000000000000000e+03
-1.074000000000000000e+03 -1.483000000000000000e+03
-1.602000000000000000e+03 -3.035000000000000000e+03
-2.557000000000000000e+03 -2.660000000000000000e+03
-1.330000000000000000e+03 -2.609000000000000000e+03
-3.154000000000000000e+03 -3.513000000000000000e+03
-3.359000000000000000e+03 -2.626000000000000000e+03
-4.092000000000000000e+03 -9.890000000000000000e+02
-3.495000000000000000e+03 -3.001000000000000000e+03
-4.689000000000000000e+03 -2.148000000000000000e+03
-5.286000000000000000e+03 -2.200000000000000000e+03
-4.211000000000000000e+03 -1.330000000000000000e+03
-4.655000000000000000e+03 -1.193000000000000000e+03
-5.797000000000000000e+03 -5.110000000000000000e+02
-6.036000000000000000e+03 6.800000000000000000e+01
-5.456000000000000000e+03 9.370000000000000000e+02
-4.808000000000000000e+03 1.859000000000000000e+03
-5.745000000000000000e+03 2.591000000000000000e+03
-5.712000000000000000e+03 2.950000000000000000e+03
-4.570000000000000000e+03 2.916000000000000000e+03
-6.120000000000000000e+03 3.989000000000000000e+03
-6.189000000000000000e+03 6.820000000000000000e+03
-6.871000000000000000e+03 7.468000000000000000e+03
-5.848000000000000000e+03 7.842000000000000000e+03
-5.525000000000000000e+03 5.643000000000000000e+03
-6.224000000000000000e+03 8.661000000000000000e+03
-4.348000000000000000e+03 1.116700000000000000e+04
-3.802000000000000000e+03 1.094600000000000000e+04
-1.330000000000000000e+03 1.162800000000000000e+04
-1.398000000000000000e+03 1.300900000000000000e+04
3.580000000000000000e+02 1.321300000000000000e+04
-4.770000000000000000e+02 1.478200000000000000e+04
3.683000000000000000e+03 1.566900000000000000e+04
5.132000000000000000e+03 1.592400000000000000e+04
6.752000000000000000e+03 1.744100000000000000e+04
7.927000000000000000e+03 1.667400000000000000e+04
9.343000000000000000e+03 1.604300000000000000e+04
1.184900000000000000e+04 1.662300000000000000e+04
1.335000000000000000e+04 1.660600000000000000e+04
1.481600000000000000e+04 1.561700000000000000e+04
1.771400000000000000e+04 1.483300000000000000e+04
1.797000000000000000e+04 1.290700000000000000e+04
2.066400000000000000e+04 1.210500000000000000e+04
2.112400000000000000e+04 1.099700000000000000e+04
2.271000000000000000e+04 9.377000000000000000e+03
2.414200000000000000e+04 6.172000000000000000e+03
2.554000000000000000e+04 3.786000000000000000e+03
2.620500000000000000e+04 -3.240000000000000000e+02
2.704100000000000000e+04 -1.466000000000000000e+03
2.509700000000000000e+04 -3.597000000000000000e+03
2.797800000000000000e+04 -7.076000000000000000e+03
2.485800000000000000e+04 -1.023000000000000000e+04
2.472200000000000000e+04 -1.331500000000000000e+04
2.289700000000000000e+04 -1.459500000000000000e+04
1.938500000000000000e+04 -1.810700000000000000e+04
1.843100000000000000e+04 -1.897600000000000000e+04
1.488400000000000000e+04 -2.132900000000000000e+04
1.285400000000000000e+04 -2.402300000000000000e+04
1.173000000000000000e+04 -2.509700000000000000e+04
5.643000000000000000e+03 -2.554000000000000000e+04
5.813000000000000000e+03 -2.649500000000000000e+04
3.290000000000000000e+03 -2.530200000000000000e+04
-6.310000000000000000e+02 -2.595000000000000000e+04
-2.933000000000000000e+03 -2.361400000000000000e+04
-6.257000000000000000e+03 -2.358000000000000000e+04
-6.564000000000000000e+03 -2.332400000000000000e+04
-9.804000000000000000e+03 -2.081800000000000000e+04
-1.203700000000000000e+04 -1.977700000000000000e+04
-1.341900000000000000e+04 -1.795300000000000000e+04
-1.370800000000000000e+04 -1.626500000000000000e+04
-1.445800000000000000e+04 -1.505400000000000000e+04
-1.572000000000000000e+04 -1.256500000000000000e+04
-1.541300000000000000e+04 -1.014500000000000000e+04
-1.618000000000000000e+04 -8.644000000000000000e+03
-1.762900000000000000e+04 -6.905000000000000000e+03
-1.534400000000000000e+04 -7.093000000000000000e+03
-1.694700000000000000e+04 -4.177000000000000000e+03
-1.757800000000000000e+04 -2.813000000000000000e+03
-1.548100000000000000e+04 -2.063000000000000000e+03
-1.589000000000000000e+04 -9.720000000000000000e+02
-1.590700000000000000e+04 1.279000000000000000e+03
-1.532700000000000000e+04 2.711000000000000000e+03
-1.491800000000000000e+04 3.291000000000000000e+03
-1.387800000000000000e+04 4.995000000000000000e+03
-1.444100000000000000e+04 3.052000000000000000e+03
-1.191700000000000000e+04 5.558000000000000000e+03
-1.118400000000000000e+04 6.803000000000000000e+03
-9.803000000000000000e+03 7.894000000000000000e+03
-1.057100000000000000e+04 8.866000000000000000e+03
-9.821000000000000000e+03 8.559000000000000000e+03
-9.668000000000000000e+03 9.820000000000000000e+03
-7.519000000000000000e+03 1.036600000000000000e+04
-8.491000000000000000e+03 9.411000000000000000e+03
-6.701000000000000000e+03 1.004200000000000000e+04
-6.547000000000000000e+03 1.094600000000000000e+04
-6.769000000000000000e+03 1.075800000000000000e+04
-4.126000000000000000e+03 1.108100000000000000e+04
-6.223000000000000000e+03 1.135400000000000000e+04
-3.819000000000000000e+03 1.050200000000000000e+04
-2.455000000000000000e+03 1.203700000000000000e+04
-2.404000000000000000e+03 1.120200000000000000e+04
-9.890000000000000000e+02 1.142400000000000000e+04
-6.800000000000000000e+01 1.230900000000000000e+04
8.500000000000000000e+01 1.116700000000000000e+04
2.900000000000000000e+02 1.174700000000000000e+04
9.720000000000000000e+02 1.036600000000000000e+04
-1.211000000000000000e+03 1.004200000000000000e+04
1.722000000000000000e+03 9.548000000000000000e+03
2.592000000000000000e+03 9.053000000000000000e+03
1.774000000000000000e+03 8.098000000000000000e+03
3.273000000000000000e+03 1.050300000000000000e+04
4.092000000000000000e+03 9.309000000000000000e+03
4.893000000000000000e+03 9.872000000000000000e+03
3.683000000000000000e+03 9.804000000000000000e+03
3.734000000000000000e+03 1.038300000000000000e+04
4.654000000000000000e+03 1.063800000000000000e+04
4.723000000000000000e+03 8.456000000000000000e+03
5.013000000000000000e+03 7.672000000000000000e+03
6.121000000000000000e+03 6.939000000000000000e+03
6.785000000000000000e+03 9.190000000000000000e+03
5.524000000000000000e+03 7.314000000000000000e+03
6.308000000000000000e+03 8.576000000000000000e+03
6.546000000000000000e+03 7.127000000000000000e+03
5.899000000000000000e+03 7.092000000000000000e+03
6.904000000000000000e+03 7.246000000000000000e+03
6.752000000000000000e+03 5.201000000000000000e+03
7.143000000000000000e+03 6.939000000000000000e+03
6.921000000000000000e+03 5.933000000000000000e+03
7.297000000000000000e+03 4.773000000000000000e+03
7.825000000000000000e+03 4.467000000000000000e+03
6.615000000000000000e+03 2.779000000000000000e+03
9.394000000000000000e+03 4.945000000000000000e+03
7.603000000000000000e+03 4.655000000000000000e+03
8.610000000000000000e+03 3.598000000000000000e+03
9.240000000000000000e+03 2.932000000000000000e+03
7.876000000000000000e+03 2.796000000000000000e+03
1.036600000000000000e+04 2.302000000000000000e+03
6.803000000000000000e+03 3.938000000000000000e+03
7.860000000000000000e+03 2.012000000000000000e+03
8.984000000000000000e+03 1.808000000000000000e+03
7.979000000000000000e+03 2.405000000000000000e+03
7.791000000000000000e+03 7.160000000000000000e+02
9.513000000000000000e+03 7.160000000000000000e+02
8.047000000000000000e+03 7.500000000000000000e+02
9.240000000000000000e+03 -3.240000000000000000e+02
7.808000000000000000e+03 -1.211000000000000000e+03
8.354000000000000000e+03 -2.012000000000000000e+03
8.866000000000000000e+03 -1.927000000000000000e+03
8.831000000000000000e+03 -2.183000000000000000e+03
7.911000000000000000e+03 -2.405000000000000000e+03
8.968000000000000000e+03 -3.819000000000000000e+03
7.041000000000000000e+03 -2.540000000000000000e+03
8.371000000000000000e+03 -3.649000000000000000e+03
9.189000000000000000e+03 -3.854000000000000000e+03
6.257000000000000000e+03 -3.325000000000000000e+03
6.700000000000000000e+03 -6.514000000000000000e+03
7.519000000000000000e+03 -5.387000000000000000e+03
5.950000000000000000e+03 -5.695000000000000000e+03
6.223000000000000000e+03 -6.002000000000000000e+03
5.677000000000000000e+03 -6.581000000000000000e+03
4.723000000000000000e+03 -6.871000000000000000e+03
5.984000000000000000e+03 -7.195000000000000000e+03
5.098000000000000000e+03 -7.110000000000000000e+03
5.252000000000000000e+03 -7.161000000000000000e+03
2.541000000000000000e+03 -1.074100000000000000e+04
3.734000000000000000e+03 -8.712000000000000000e+03
1.756000000000000000e+03 -9.088000000000000000e+03
2.336000000000000000e+03 -8.986000000000000000e+03
1.961000000000000000e+03 -1.026400000000000000e+04
1.700000000000000000e+01 -1.048600000000000000e+04
3.410000000000000000e+02 -1.034900000000000000e+04
-1.364000000000000000e+03 -1.033200000000000000e+04
-1.040000000000000000e+03 -1.127000000000000000e+04
-2.625000000000000000e+03 -1.265100000000000000e+04
-2.745000000000000000e+03 -1.200300000000000000e+04
-3.820000000000000000e+03 -1.219100000000000000e+04
-4.995000000000000000e+03 -1.092800000000000000e+04
-5.371000000000000000e+03 -1.225800000000000000e+04
-6.393000000000000000e+03 -1.159400000000000000e+04
-6.343000000000000000e+03 -1.157600000000000000e+04
-8.560000000000000000e+03 -1.184900000000000000e+04
-7.843000000000000000e+03 -1.297500000000000000e+04
-1.234400000000000000e+04 -1.164500000000000000e+04
-1.055400000000000000e+04 -1.113300000000000000e+04
-1.072500000000000000e+04 -1.063800000000000000e+04
-1.208800000000000000e+04 -1.004200000000000000e+04
-1.374200000000000000e+04 -1.132100000000000000e+04
-1.650400000000000000e+04 -1.011000000000000000e+04
-1.720300000000000000e+04 -7.348000000000000000e+03
-1.718500000000000000e+04 -7.110000000000000000e+03
-1.749300000000000000e+04 -4.484000000000000000e+03
-1.870300000000000000e+04 -5.183000000000000000e+03
-2.015300000000000000e+04 -2.643000000000000000e+03
-1.950500000000000000e+04 -3.001000000000000000e+03
-2.074900000000000000e+04 6.480000000000000000e+02
-1.960700000000000000e+04 3.920000000000000000e+02
-2.320500000000000000e+04 2.950000000000000000e+03
-2.136300000000000000e+04 5.201000000000000000e+03
-2.040900000000000000e+04 7.417000000000000000e+03
-2.010200000000000000e+04 7.161000000000000000e+03
-2.015300000000000000e+04 1.098000000000000000e+04
-1.952200000000000000e+04 1.127000000000000000e+04
-1.887400000000000000e+04 1.386100000000000000e+04
-1.631700000000000000e+04 1.655500000000000000e+04
-1.676000000000000000e+04 1.848200000000000000e+04
-1.266800000000000000e+04 2.056200000000000000e+04
-1.297500000000000000e+04 1.914700000000000000e+04
-1.116700000000000000e+04 2.187500000000000000e+04
-6.752000000000000000e+03 2.037400000000000000e+04
-6.496000000000000000e+03 2.139700000000000000e+04
-3.086000000000000000e+03 2.090200000000000000e+04
-3.837000000000000000e+03 1.999900000000000000e+04
-4.940000000000000000e+02 2.126100000000000000e+04
4.430000000000000000e+02 2.255700000000000000e+04
2.012000000000000000e+03 2.073200000000000000e+04
3.478000000000000000e+03 1.868600000000000000e+04
3.682000000000000000e+03 1.829400000000000000e+04
6.871000000000000000e+03 1.773100000000000000e+04
7.706000000000000000e+03 1.583900000000000000e+04
8.303000000000000000e+03 1.539600000000000000e+04
9.445000000000000000e+03 1.457700000000000000e+04
1.046800000000000000e+04 1.345200000000000000e+04
1.089500000000000000e+04 1.251400000000000000e+04
1.058800000000000000e+04 1.060500000000000000e+04
1.092800000000000000e+04 8.746000000000000000e+03
1.278600000000000000e+04 7.127000000000000000e+03
1.210500000000000000e+04 6.530000000000000000e+03
1.128700000000000000e+04 5.320000000000000000e+03
1.232600000000000000e+04 3.376000000000000000e+03
1.162700000000000000e+04 3.188000000000000000e+03
1.092900000000000000e+04 2.779000000000000000e+03
9.752000000000000000e+03 -6.900000000000000000e+01
1.125300000000000000e+04 -1.190000000000000000e+02
8.933000000000000000e+03 -1.210000000000000000e+03
8.729000000000000000e+03 -8.500000000000000000e+01
7.621000000000000000e+03 -2.148000000000000000e+03
7.109000000000000000e+03 -2.335000000000000000e+03
6.410000000000000000e+03 -2.591000000000000000e+03
8.337000000000000000e+03 -3.870000000000000000e+03
7.962000000000000000e+03 -4.654000000000000000e+03
6.325000000000000000e+03 -4.262000000000000000e+03
6.752000000000000000e+03 -4.961000000000000000e+03
5.183000000000000000e+03 -4.825000000000000000e+03
6.257000000000000000e+03 -4.672000000000000000e+03
5.983000000000000000e+03 -5.132000000000000000e+03
3.716000000000000000e+03 -4.501000000000000000e+03
4.143000000000000000e+03 -7.178000000000000000e+03
3.103000000000000000e+03 -6.291000000000000000e+03
1.926000000000000000e+03 -5.558000000000000000e+03
2.643000000000000000e+03 -8.167000000000000000e+03
2.233000000000000000e+03 -4.979000000000000000e+03
2.302000000000000000e+03 -6.922000000000000000e+03
1.824000000000000000e+03 -6.701000000000000000e+03
1.398000000000000000e+03 -7.502000000000000000e+03
1.552000000000000000e+03 -7.996000000000000000e+03
4.940000000000000000e+02 -7.059000000000000000e+03
7.500000000000000000e+02 -8.150000000000000000e+03
-6.480000000000000000e+02 -6.922000000000000000e+03
-8.360000000000000000e+02 -6.717000000000000000e+03
1.262000000000000000e+03 -7.229000000000000000e+03
-1.585000000000000000e+03 -6.905000000000000000e+03
-2.268000000000000000e+03 -6.581000000000000000e+03
8.500000000000000000e+01 -8.951000000000000000e+03
-2.353000000000000000e+03 -6.035000000000000000e+03
-1.842000000000000000e+03 -6.343000000000000000e+03
-2.114000000000000000e+03 -6.173000000000000000e+03
-1.688000000000000000e+03 -6.325000000000000000e+03
-2.285000000000000000e+03 -6.803000000000000000e+03
-1.433000000000000000e+03 -6.667000000000000000e+03
-2.898000000000000000e+03 -6.428000000000000000e+03
-3.564000000000000000e+03 -5.252000000000000000e+03
-1.160000000000000000e+03 -5.524000000000000000e+03
-2.353000000000000000e+03 -5.916000000000000000e+03
-1.688000000000000000e+03 -6.462000000000000000e+03
-3.342000000000000000e+03 -6.036000000000000000e+03
-4.519000000000000000e+03 -4.962000000000000000e+03
-2.950000000000000000e+03 -3.649000000000000000e+03
-4.177000000000000000e+03 -4.212000000000000000e+03
-3.904000000000000000e+03 -4.808000000000000000e+03
-4.723000000000000000e+03 -4.553000000000000000e+03
-6.410000000000000000e+03 -4.706000000000000000e+03
-4.058000000000000000e+03 -6.018000000000000000e+03
-3.104000000000000000e+03 -5.661000000000000000e+03
-5.149000000000000000e+03 -4.348000000000000000e+03
-5.712000000000000000e+03 -4.518000000000000000e+03
-5.370000000000000000e+03 -5.013000000000000000e+03
-6.394000000000000000e+03 -4.927000000000000000e+03
-5.302000000000000000e+03 -4.280000000000000000e+03
-7.349000000000000000e+03 -3.530000000000000000e+03
-6.974000000000000000e+03 -3.597000000000000000e+03
-6.905000000000000000e+03 -2.643000000000000000e+03
-5.796000000000000000e+03 -4.177000000000000000e+03
-7.331000000000000000e+03 -4.740000000000000000e+03
-7.366000000000000000e+03 -3.564000000000000000e+03
-7.912000000000000000e+03 -3.512000000000000000e+03
-1.138900000000000000e+04 6.599000000000000000e+03
-8.815000000000000000e+03 -2.456000000000000000e+03
-8.525000000000000000e+03 -3.734000000000000000e+03
-7.894000000000000000e+03 -3.904000000000000000e+03
-8.883000000000000000e+03 -2.932000000000000000e+03
-7.604000000000000000e+03 -3.274000000000000000e+03
-8.628000000000000000e+03 -2.063000000000000000e+03
-8.354000000000000000e+03 -2.251000000000000000e+03
-9.548000000000000000e+03 -2.881000000000000000e+03
-8.729000000000000000e+03 -1.892000000000000000e+03
-9.224000000000000000e+03 -1.006000000000000000e+03
-1.111700000000000000e+04 -4.007000000000000000e+03
-1.082600000000000000e+04 -2.677000000000000000e+03
-1.019600000000000000e+04 -1.602000000000000000e+03
-1.038300000000000000e+04 -1.705000000000000000e+03
-1.029800000000000000e+04 -2.268000000000000000e+03
-1.031500000000000000e+04 -2.217000000000000000e+03
-1.052000000000000000e+04 -3.274000000000000000e+03
-1.132100000000000000e+04 -1.858000000000000000e+03
-1.123500000000000000e+04 -3.188000000000000000e+03
-1.024700000000000000e+04 -1.466000000000000000e+03
-9.531000000000000000e+03 -1.824000000000000000e+03
-9.531000000000000000e+03 -2.438000000000000000e+03
-9.564000000000000000e+03 -3.069000000000000000e+03
-8.098000000000000000e+03 -2.694000000000000000e+03
-8.456000000000000000e+03 -1.858000000000000000e+03
-7.774000000000000000e+03 -3.052000000000000000e+03
-7.365000000000000000e+03 -2.250000000000000000e+03
-6.495000000000000000e+03 -2.762000000000000000e+03
-6.769000000000000000e+03 -2.046000000000000000e+03
-5.149000000000000000e+03 -1.058000000000000000e+03
-4.671000000000000000e+03 5.120000000000000000e+02
-3.478000000000000000e+03 4.090000000000000000e+02
-4.090000000000000000e+02 -6.820000000000000000e+02
-3.000000000000000000e+03 9.720000000000000000e+02
-4.330000000000000000e+03 -3.240000000000000000e+02
6.820000000000000000e+02 3.069000000000000000e+03
2.233000000000000000e+03 3.649000000000000000e+03
2.507000000000000000e+03 4.314000000000000000e+03
2.881000000000000000e+03 6.598000000000000000e+03
3.921000000000000000e+03 6.700000000000000000e+03
5.388000000000000000e+03 7.194000000000000000e+03
6.138000000000000000e+03 8.712000000000000000e+03
8.269000000000000000e+03 1.074100000000000000e+04
9.036000000000000000e+03 1.070700000000000000e+04
1.115000000000000000e+04 1.150900000000000000e+04
9.957000000000000000e+03 1.121800000000000000e+04
1.108300000000000000e+04 1.335000000000000000e+04
1.219000000000000000e+04 1.210500000000000000e+04
1.372500000000000000e+04 1.326400000000000000e+04
1.536200000000000000e+04 1.411600000000000000e+04
1.536200000000000000e+04 1.321400000000000000e+04
1.590700000000000000e+04 1.316200000000000000e+04
1.769800000000000000e+04 1.265100000000000000e+04
1.895900000000000000e+04 1.179800000000000000e+04
1.786800000000000000e+04 1.128600000000000000e+04
2.047600000000000000e+04 1.154300000000000000e+04
2.025500000000000000e+04 1.057000000000000000e+04
2.028900000000000000e+04 8.592000000000000000e+03
2.078300000000000000e+04 8.389000000000000000e+03
2.008400000000000000e+04 6.785000000000000000e+03
2.160100000000000000e+04 4.228000000000000000e+03
2.213000000000000000e+04 4.058000000000000000e+03
2.051000000000000000e+04 8.190000000000000000e+02
1.970900000000000000e+04 -2.560000000000000000e+02
1.999900000000000000e+04 -4.770000000000000000e+02
1.742500000000000000e+04 -2.319000000000000000e+03
1.744200000000000000e+04 -3.188000000000000000e+03
1.565100000000000000e+04 -3.580000000000000000e+03
1.541300000000000000e+04 -5.422000000000000000e+03
1.531000000000000000e+04 -5.951000000000000000e+03
1.239500000000000000e+04 -5.490000000000000000e+03
1.336600000000000000e+04 -7.110000000000000000e+03
1.138900000000000000e+04 -6.871000000000000000e+03
9.240000000000000000e+03 -8.559000000000000000e+03
9.991000000000000000e+03 -8.252000000000000000e+03
8.730000000000000000e+03 -8.422000000000000000e+03
7.672000000000000000e+03 -9.121000000000000000e+03
5.439000000000000000e+03 -7.553000000000000000e+03
4.621000000000000000e+03 -8.133000000000000000e+03
3.598000000000000000e+03 -9.531000000000000000e+03
2.915000000000000000e+03 -6.990000000000000000e+03
1.619000000000000000e+03 -7.076000000000000000e+03
1.041000000000000000e+03 -8.133000000000000000e+03
1.211000000000000000e+03 -7.468000000000000000e+03
-7.510000000000000000e+02 -5.831000000000000000e+03
9.210000000000000000e+02 -6.002000000000000000e+03
-2.745000000000000000e+03 -5.337000000000000000e+03
-1.722000000000000000e+03 -5.916000000000000000e+03
-3.018000000000000000e+03 -5.081000000000000000e+03
-2.933000000000000000e+03 -5.421000000000000000e+03
-3.341000000000000000e+03 -3.870000000000000000e+03
-3.308000000000000000e+03 -4.348000000000000000e+03
-4.314000000000000000e+03 -5.865000000000000000e+03
-4.297000000000000000e+03 -1.893000000000000000e+03
-3.222000000000000000e+03 -3.291000000000000000e+03
-3.871000000000000000e+03 -2.762000000000000000e+03
-4.416000000000000000e+03 -2.626000000000000000e+03
-3.717000000000000000e+03 -2.438000000000000000e+03
-4.722000000000000000e+03 -6.310000000000000000e+02
-6.155000000000000000e+03 -1.160000000000000000e+03
-4.842000000000000000e+03 -1.710000000000000000e+02
-5.268000000000000000e+03 -1.739000000000000000e+03
-5.797000000000000000e+03 -3.410000000000000000e+02
-4.655000000000000000e+03 -1.710000000000000000e+02
-3.290000000000000000e+03 4.440000000000000000e+02
-2.694000000000000000e+03 -5.620000000000000000e+02
-5.081000000000000000e+03 2.050000000000000000e+02
-4.723000000000000000e+03 8.500000000000000000e+01
-4.126000000000000000e+03 1.211000000000000000e+03
-4.399000000000000000e+03 1.722000000000000000e+03
-4.143000000000000000e+03 2.029000000000000000e+03
-3.649000000000000000e+03 5.280000000000000000e+02
-4.484000000000000000e+03 9.210000000000000000e+02
-4.791000000000000000e+03 3.052000000000000000e+03
-4.024000000000000000e+03 1.739000000000000000e+03
-4.569000000000000000e+03 2.438000000000000000e+03
-3.597000000000000000e+03 2.609000000000000000e+03
-4.211000000000000000e+03 2.251000000000000000e+03
-3.734000000000000000e+03 2.489000000000000000e+03
-2.438000000000000000e+03 2.404000000000000000e+03
-3.683000000000000000e+03 3.427000000000000000e+03
-3.513000000000000000e+03 3.052000000000000000e+03
-2.762000000000000000e+03 3.069000000000000000e+03
-2.319000000000000000e+03 3.632000000000000000e+03
-2.080000000000000000e+03 5.064000000000000000e+03
-1.347000000000000000e+03 4.501000000000000000e+03
-2.677000000000000000e+03 3.393000000000000000e+03
-2.694000000000000000e+03 3.939000000000000000e+03
-4.109000000000000000e+03 3.597000000000000000e+03
-2.234000000000000000e+03 5.251000000000000000e+03
-2.831000000000000000e+03 3.955000000000000000e+03
-1.177000000000000000e+03 4.279000000000000000e+03
-1.279000000000000000e+03 4.109000000000000000e+03
-1.585000000000000000e+03 5.064000000000000000e+03
-7.843000000000000000e+03 8.712000000000000000e+03
-7.160000000000000000e+02 5.592000000000000000e+03
-1.773000000000000000e+03 3.785000000000000000e+03
-1.722000000000000000e+03 6.121000000000000000e+03
1.370000000000000000e+02 5.899000000000000000e+03
-1.910000000000000000e+03 5.115000000000000000e+03
-9.040000000000000000e+02 4.961000000000000000e+03
-3.070000000000000000e+02 5.508000000000000000e+03
-4.780000000000000000e+02 6.428000000000000000e+03
-9.210000000000000000e+02 6.070000000000000000e+03
5.120000000000000000e+02 6.258000000000000000e+03
-5.800000000000000000e+02 5.439000000000000000e+03
1.432000000000000000e+03 5.507000000000000000e+03
-1.700000000000000000e+01 6.309000000000000000e+03
1.058000000000000000e+03 5.405000000000000000e+03
9.890000000000000000e+02 7.075000000000000000e+03
1.637000000000000000e+03 6.684000000000000000e+03
1.870000000000000000e+02 7.843000000000000000e+03
6.310000000000000000e+02 7.297000000000000000e+03
1.007000000000000000e+03 6.871000000000000000e+03
9.710000000000000000e+02 7.963000000000000000e+03
1.705000000000000000e+03 7.996000000000000000e+03
1.381000000000000000e+03 6.991000000000000000e+03
1.381000000000000000e+03 7.689000000000000000e+03
2.390000000000000000e+02 8.798000000000000000e+03
2.302000000000000000e+03 8.968000000000000000e+03
2.114000000000000000e+03 8.371000000000000000e+03
1.671000000000000000e+03 8.201000000000000000e+03
2.797000000000000000e+03 7.757000000000000000e+03
3.069000000000000000e+03 8.030000000000000000e+03
1.705000000000000000e+03 7.911000000000000000e+03
2.217000000000000000e+03 8.542000000000000000e+03
2.932000000000000000e+03 8.269000000000000000e+03
3.188000000000000000e+03 8.508000000000000000e+03
1.858000000000000000e+03 9.412000000000000000e+03
3.563000000000000000e+03 7.196000000000000000e+03
4.160000000000000000e+03 7.502000000000000000e+03
4.279000000000000000e+03 7.281000000000000000e+03
4.552000000000000000e+03 9.088000000000000000e+03
2.625000000000000000e+03 7.024000000000000000e+03
4.023000000000000000e+03 7.383000000000000000e+03
5.098000000000000000e+03 8.252000000000000000e+03
3.955000000000000000e+03 7.093000000000000000e+03
5.899000000000000000e+03 6.701000000000000000e+03
4.177000000000000000e+03 6.530000000000000000e+03
4.739000000000000000e+03 6.053000000000000000e+03
7.501000000000000000e+03 3.615000000000000000e+03
7.126000000000000000e+03 4.280000000000000000e+03
5.047000000000000000e+03 3.273000000000000000e+03
4.739000000000000000e+03 2.473000000000000000e+03
5.064000000000000000e+03 3.290000000000000000e+03
6.376000000000000000e+03 2.881000000000000000e+03
5.592000000000000000e+03 2.149000000000000000e+03
6.427000000000000000e+03 3.121000000000000000e+03
6.001000000000000000e+03 1.244000000000000000e+03
7.330000000000000000e+03 -5.620000000000000000e+02
6.751000000000000000e+03 -1.483000000000000000e+03
5.899000000000000000e+03 -1.262000000000000000e+03
5.643000000000000000e+03 -3.598000000000000000e+03
6.768000000000000000e+03 -2.319000000000000000e+03
6.001000000000000000e+03 -3.547000000000000000e+03
5.132000000000000000e+03 -4.450000000000000000e+03
4.075000000000000000e+03 -4.945000000000000000e+03
5.098000000000000000e+03 -5.456000000000000000e+03
3.325000000000000000e+03 -5.746000000000000000e+03
2.625000000000000000e+03 -8.406000000000000000e+03
3.222000000000000000e+03 -8.763000000000000000e+03
1.585000000000000000e+03 -9.565000000000000000e+03
2.097000000000000000e+03 -9.070000000000000000e+03
4.260000000000000000e+02 -1.004200000000000000e+04
-3.051000000000000000e+03 -1.023000000000000000e+04
-1.926000000000000000e+03 -9.565000000000000000e+03
-4.228000000000000000e+03 -1.036600000000000000e+04
-4.484000000000000000e+03 -1.162700000000000000e+04
-6.019000000000000000e+03 -8.354000000000000000e+03
-1.324700000000000000e+04 -3.324000000000000000e+03
-7.893000000000000000e+03 -8.850000000000000000e+03
-8.781000000000000000e+03 -8.354000000000000000e+03
-1.031500000000000000e+04 -7.229000000000000000e+03
-1.009300000000000000e+04 -7.092000000000000000e+03
-1.185000000000000000e+04 -5.797000000000000000e+03
-1.265000000000000000e+04 -4.263000000000000000e+03
-1.358800000000000000e+04 -3.512000000000000000e+03
-1.217300000000000000e+04 -3.530000000000000000e+03
-1.297400000000000000e+04 -1.688000000000000000e+03
-1.445800000000000000e+04 -6.800000000000000000e+01
-1.311100000000000000e+04 3.750000000000000000e+02
-1.288900000000000000e+04 1.125000000000000000e+03
-1.358900000000000000e+04 2.541000000000000000e+03
-1.382700000000000000e+04 4.211000000000000000e+03
-1.222400000000000000e+04 3.393000000000000000e+03
-1.242900000000000000e+04 4.570000000000000000e+03
-1.147500000000000000e+04 4.416000000000000000e+03
-9.054000000000000000e+03 4.979000000000000000e+03
-1.086100000000000000e+04 7.178000000000000000e+03
-9.070000000000000000e+03 5.985000000000000000e+03
-9.974000000000000000e+03 6.036000000000000000e+03
-7.706000000000000000e+03 6.769000000000000000e+03
-7.826000000000000000e+03 6.547000000000000000e+03
-7.434000000000000000e+03 7.689000000000000000e+03
-5.712000000000000000e+03 9.428000000000000000e+03
-5.660000000000000000e+03 7.979000000000000000e+03
-4.399000000000000000e+03 8.201000000000000000e+03
-3.870000000000000000e+03 7.280000000000000000e+03
-4.109000000000000000e+03 9.156000000000000000e+03
-3.477000000000000000e+03 7.775000000000000000e+03
-4.211000000000000000e+03 7.263000000000000000e+03
-3.649000000000000000e+03 6.275000000000000000e+03
-2.421000000000000000e+03 7.450000000000000000e+03
-2.438000000000000000e+03 7.996000000000000000e+03
-2.796000000000000000e+03 6.853000000000000000e+03
-1.858000000000000000e+03 6.769000000000000000e+03
-1.790000000000000000e+03 6.547000000000000000e+03
-1.807000000000000000e+03 6.513000000000000000e+03
5.100000000000000000e+01 5.353000000000000000e+03
-1.585000000000000000e+03 5.302000000000000000e+03
-1.738000000000000000e+03 3.955000000000000000e+03
-8.690000000000000000e+02 5.439000000000000000e+03
-6.310000000000000000e+02 3.461000000000000000e+03
1.200000000000000000e+02 4.041000000000000000e+03
2.380000000000000000e+02 3.138000000000000000e+03
-6.820000000000000000e+02 4.228000000000000000e+03
-5.100000000000000000e+01 3.496000000000000000e+03
-2.900000000000000000e+02 4.109000000000000000e+03
3.760000000000000000e+02 2.745000000000000000e+03
1.620000000000000000e+03 3.274000000000000000e+03
2.761000000000000000e+03 2.779000000000000000e+03
3.400000000000000000e+01 3.393000000000000000e+03
-3.580000000000000000e+02 8.700000000000000000e+02
4.270000000000000000e+02 2.080000000000000000e+03
-2.900000000000000000e+02 1.177000000000000000e+03
6.990000000000000000e+02 2.098000000000000000e+03
8.860000000000000000e+02 2.796000000000000000e+03
-4.940000000000000000e+02 1.058000000000000000e+03
1.756000000000000000e+03 1.074000000000000000e+03
1.210000000000000000e+03 1.364000000000000000e+03
1.381000000000000000e+03 8.700000000000000000e+02
1.858000000000000000e+03 2.040000000000000000e+02
1.261000000000000000e+03 1.535000000000000000e+03
1.807000000000000000e+03 1.364000000000000000e+03
4.260000000000000000e+02 -3.400000000000000000e+01
1.200000000000000000e+02 2.730000000000000000e+02
2.591000000000000000e+03 0.000000000000000000e+00
1.142000000000000000e+03 -5.790000000000000000e+02
1.125000000000000000e+03 8.500000000000000000e+01
2.369000000000000000e+03 7.500000000000000000e+02
4.770000000000000000e+02 -5.280000000000000000e+02
1.483000000000000000e+03 -3.920000000000000000e+02
2.900000000000000000e+02 8.180000000000000000e+02
-1.360000000000000000e+02 5.630000000000000000e+02
1.636000000000000000e+03 -3.500000000000000000e+01
1.756000000000000000e+03 1.360000000000000000e+02
3.240000000000000000e+02 -8.860000000000000000e+02
1.535000000000000000e+03 -5.630000000000000000e+02
-3.920000000000000000e+02 -8.690000000000000000e+02
2.165000000000000000e+03 -1.296000000000000000e+03
1.466000000000000000e+03 -6.820000000000000000e+02
6.990000000000000000e+02 -1.704000000000000000e+03
1.671000000000000000e+03 -1.603000000000000000e+03
1.876000000000000000e+03 -2.472000000000000000e+03
5.280000000000000000e+02 -1.722000000000000000e+03
4.260000000000000000e+02 1.700000000000000000e+01
-1.108000000000000000e+03 -1.893000000000000000e+03
3.060000000000000000e+02 -8.020000000000000000e+02
-2.900000000000000000e+02 -1.450000000000000000e+03
-5.280000000000000000e+02 -1.910000000000000000e+03
-4.090000000000000000e+02 -2.267000000000000000e+03
-3.580000000000000000e+02 -3.581000000000000000e+03
-8.870000000000000000e+02 -1.551000000000000000e+03
-1.739000000000000000e+03 -4.843000000000000000e+03
-4.090000000000000000e+02 -1.654000000000000000e+03
-2.285000000000000000e+03 -3.120000000000000000e+03
-7.500000000000000000e+02 -2.745000000000000000e+03
-1.159000000000000000e+03 -4.041000000000000000e+03
-2.949000000000000000e+03 -2.711000000000000000e+03
-1.261000000000000000e+03 -4.212000000000000000e+03
-1.688000000000000000e+03 -2.898000000000000000e+03
-1.756000000000000000e+03 -3.614000000000000000e+03
-1.517000000000000000e+03 -4.604000000000000000e+03
-1.654000000000000000e+03 -2.728000000000000000e+03
-1.074100000000000000e+04 1.296000000000000000e+03
-3.086000000000000000e+03 -3.564000000000000000e+03
-3.070000000000000000e+02 -5.422000000000000000e+03
-1.876000000000000000e+03 -5.882000000000000000e+03
-1.159000000000000000e+03 -4.382000000000000000e+03
-2.234000000000000000e+03 -5.303000000000000000e+03
-2.507000000000000000e+03 -6.138000000000000000e+03
-3.990000000000000000e+03 -3.341000000000000000e+03
-3.307000000000000000e+03 -5.729000000000000000e+03
-5.098000000000000000e+03 -5.217000000000000000e+03
-2.933000000000000000e+03 -4.842000000000000000e+03
-3.171000000000000000e+03 -5.217000000000000000e+03
-3.239000000000000000e+03 -7.008000000000000000e+03
-4.400000000000000000e+03 -7.263000000000000000e+03
-5.269000000000000000e+03 -7.281000000000000000e+03
-5.405000000000000000e+03 -6.326000000000000000e+03
-5.694000000000000000e+03 -5.388000000000000000e+03
-4.842000000000000000e+03 -6.360000000000000000e+03
-6.206000000000000000e+03 -5.541000000000000000e+03
-4.825000000000000000e+03 -6.683000000000000000e+03
-5.899000000000000000e+03 -7.213000000000000000e+03
-6.565000000000000000e+03 -7.655000000000000000e+03
-8.116000000000000000e+03 -5.047000000000000000e+03
-8.082000000000000000e+03 -5.456000000000000000e+03
-8.559000000000000000e+03 -5.882000000000000000e+03
-7.724000000000000000e+03 -6.070000000000000000e+03
-1.111700000000000000e+04 -3.733000000000000000e+03
-1.110000000000000000e+04 -5.370000000000000000e+03
-9.752000000000000000e+03 -5.353000000000000000e+03
-1.017900000000000000e+04 -2.387000000000000000e+03
-1.091200000000000000e+04 -1.364000000000000000e+03
-1.099700000000000000e+04 -2.575000000000000000e+03
-1.007700000000000000e+04 -1.108000000000000000e+03
-1.048600000000000000e+04 -3.069000000000000000e+03
-1.377600000000000000e+04 -2.182000000000000000e+03
-1.065600000000000000e+04 -1.370000000000000000e+02
-1.229300000000000000e+04 9.550000000000000000e+02
-1.244700000000000000e+04 2.251000000000000000e+03
-1.098000000000000000e+04 2.114000000000000000e+03
-1.173100000000000000e+04 2.984000000000000000e+03
-1.075900000000000000e+04 3.802000000000000000e+03
-1.048600000000000000e+04 4.160000000000000000e+03
-8.593000000000000000e+03 3.939000000000000000e+03
-8.355000000000000000e+03 5.132000000000000000e+03
-7.945000000000000000e+03 4.399000000000000000e+03
-4.978000000000000000e+03 7.946000000000000000e+03
-5.200000000000000000e+03 6.070000000000000000e+03
-4.433000000000000000e+03 6.411000000000000000e+03
-5.609000000000000000e+03 7.025000000000000000e+03
-3.734000000000000000e+03 6.735000000000000000e+03
-1.227000000000000000e+03 5.644000000000000000e+03
-3.580000000000000000e+02 6.206000000000000000e+03
-3.920000000000000000e+02 5.337000000000000000e+03
1.125000000000000000e+03 3.990000000000000000e+03
1.978000000000000000e+03 4.143000000000000000e+03
4.024000000000000000e+03 4.638000000000000000e+03
3.529000000000000000e+03 4.519000000000000000e+03
4.024000000000000000e+03 3.734000000000000000e+03
5.353000000000000000e+03 5.800000000000000000e+02
4.978000000000000000e+03 2.558000000000000000e+03
6.018000000000000000e+03 -5.110000000000000000e+02
6.478000000000000000e+03 3.920000000000000000e+02
6.274000000000000000e+03 2.560000000000000000e+02
6.342000000000000000e+03 -4.780000000000000000e+02
4.842000000000000000e+03 -5.290000000000000000e+02
4.893000000000000000e+03 -1.347000000000000000e+03
6.905000000000000000e+03 -3.632000000000000000e+03
6.887000000000000000e+03 -2.933000000000000000e+03
5.797000000000000000e+03 -3.342000000000000000e+03
6.188000000000000000e+03 -3.649000000000000000e+03
6.922000000000000000e+03 -5.013000000000000000e+03
6.291000000000000000e+03 -4.297000000000000000e+03
7.143000000000000000e+03 -4.092000000000000000e+03
7.161000000000000000e+03 -5.337000000000000000e+03
6.308000000000000000e+03 -5.899000000000000000e+03
6.239000000000000000e+03 -6.343000000000000000e+03
5.916000000000000000e+03 -5.933000000000000000e+03
5.302000000000000000e+03 -5.030000000000000000e+03
5.013000000000000000e+03 -6.359000000000000000e+03
3.324000000000000000e+03 -6.258000000000000000e+03
4.637000000000000000e+03 -6.104000000000000000e+03
4.075000000000000000e+03 -5.660000000000000000e+03
4.518000000000000000e+03 -5.473000000000000000e+03
4.381000000000000000e+03 -5.712000000000000000e+03
2.864000000000000000e+03 -6.684000000000000000e+03
3.802000000000000000e+03 -6.462000000000000000e+03
3.240000000000000000e+03 -4.552000000000000000e+03
3.069000000000000000e+03 -6.803000000000000000e+03
1.176000000000000000e+03 -5.814000000000000000e+03
2.728000000000000000e+03 -4.450000000000000000e+03
2.489000000000000000e+03 -7.025000000000000000e+03
2.966000000000000000e+03 -5.644000000000000000e+03
4.260000000000000000e+02 -5.848000000000000000e+03
1.279000000000000000e+03 -6.001000000000000000e+03
1.705000000000000000e+03 -5.030000000000000000e+03
1.398000000000000000e+03 -6.513000000000000000e+03
9.720000000000000000e+02 -7.042000000000000000e+03
1.552000000000000000e+03 -3.871000000000000000e+03
5.100000000000000000e+01 -5.217000000000000000e+03
-1.700000000000000000e+01 -5.882000000000000000e+03
-9.210000000000000000e+02 -3.989000000000000000e+03
-2.900000000000000000e+02 -5.558000000000000000e+03
-2.550000000000000000e+02 -5.200000000000000000e+03
-1.602000000000000000e+03 -5.200000000000000000e+03
3.930000000000000000e+02 -2.575000000000000000e+03
-2.900000000000000000e+02 -4.740000000000000000e+03
-8.350000000000000000e+02 -4.876000000000000000e+03
-4.260000000000000000e+02 -5.524000000000000000e+03
-2.558000000000000000e+03 -2.745000000000000000e+03
-2.234000000000000000e+03 -5.234000000000000000e+03
-2.353000000000000000e+03 -5.422000000000000000e+03
-1.893000000000000000e+03 -3.308000000000000000e+03
-2.029000000000000000e+03 -5.490000000000000000e+03
-2.814000000000000000e+03 -5.524000000000000000e+03
-2.234000000000000000e+03 -5.541000000000000000e+03
-2.916000000000000000e+03 -4.348000000000000000e+03
-4.770000000000000000e+02 -4.535000000000000000e+03
-1.450000000000000000e+03 -6.189000000000000000e+03
-4.090000000000000000e+02 -5.524000000000000000e+03
-2.404000000000000000e+03 -3.308000000000000000e+03
-6.480000000000000000e+02 -2.405000000000000000e+03
-3.920000000000000000e+02 -4.501000000000000000e+03
6.800000000000000000e+01 -4.348000000000000000e+03
-5.110000000000000000e+02 -2.217000000000000000e+03
-2.472000000000000000e+03 -2.677000000000000000e+03
-9.040000000000000000e+02 -1.739000000000000000e+03
-1.586000000000000000e+03 -5.970000000000000000e+02
-9.380000000000000000e+02 -1.790000000000000000e+03
-2.420000000000000000e+03 -1.790000000000000000e+03
-1.841000000000000000e+03 -4.780000000000000000e+02
-1.723000000000000000e+03 -8.520000000000000000e+02
-2.285000000000000000e+03 -9.040000000000000000e+02
-4.450000000000000000e+03 1.530000000000000000e+02
-1.876000000000000000e+03 -1.040000000000000000e+03
-4.672000000000000000e+03 -1.074000000000000000e+03
-5.405000000000000000e+03 -2.319000000000000000e+03
-3.052000000000000000e+03 -1.824000000000000000e+03
-3.444000000000000000e+03 -2.609000000000000000e+03
-4.245000000000000000e+03 -3.052000000000000000e+03
-2.387000000000000000e+03 -3.035000000000000000e+03
-3.290000000000000000e+03 -8.010000000000000000e+02
-3.665000000000000000e+03 -2.472000000000000000e+03
-3.393000000000000000e+03 -2.421000000000000000e+03
-4.263000000000000000e+03 -1.023000000000000000e+03
-2.693000000000000000e+03 -1.926000000000000000e+03
-2.949000000000000000e+03 -1.517000000000000000e+03
-2.625000000000000000e+03 -2.251000000000000000e+03
-2.609000000000000000e+03 -3.052000000000000000e+03
-1.193000000000000000e+03 -2.609000000000000000e+03
-2.967000000000000000e+03 -6.650000000000000000e+02
-2.660000000000000000e+03 -2.626000000000000000e+03
-1.142000000000000000e+03 -8.010000000000000000e+02
-2.233000000000000000e+03 -1.653000000000000000e+03
-1.279000000000000000e+03 -3.580000000000000000e+02
-1.347000000000000000e+03 -5.290000000000000000e+02
-1.020000000000000000e+02 -7.330000000000000000e+02
-4.600000000000000000e+02 -3.580000000000000000e+02
6.800000000000000000e+01 -1.467000000000000000e+03
2.210000000000000000e+02 -6.990000000000000000e+02
5.100000000000000000e+01 -9.210000000000000000e+02
-1.636000000000000000e+03 1.126000000000000000e+03
7.840000000000000000e+02 3.750000000000000000e+02
1.194000000000000000e+03 -5.970000000000000000e+02
2.335000000000000000e+03 1.245000000000000000e+03
7.840000000000000000e+02 2.813000000000000000e+03
2.711000000000000000e+03 1.858000000000000000e+03
1.926000000000000000e+03 2.217000000000000000e+03
2.131000000000000000e+03 3.376000000000000000e+03
1.978000000000000000e+03 2.796000000000000000e+03
3.393000000000000000e+03 2.131000000000000000e+03
2.369000000000000000e+03 3.768000000000000000e+03
1.789000000000000000e+03 4.211000000000000000e+03
2.966000000000000000e+03 3.155000000000000000e+03
4.245000000000000000e+03 3.700000000000000000e+03
4.637000000000000000e+03 2.523000000000000000e+03
5.813000000000000000e+03 2.233000000000000000e+03
3.887000000000000000e+03 3.103000000000000000e+03
6.001000000000000000e+03 2.626000000000000000e+03
5.284000000000000000e+03 2.608000000000000000e+03
5.932000000000000000e+03 2.831000000000000000e+03
6.819000000000000000e+03 2.336000000000000000e+03
5.932000000000000000e+03 1.961000000000000000e+03
7.434000000000000000e+03 2.950000000000000000e+03
5.387000000000000000e+03 1.142000000000000000e+03
7.485000000000000000e+03 6.480000000000000000e+02
7.076000000000000000e+03 1.159000000000000000e+03
8.013000000000000000e+03 5.800000000000000000e+02
8.763000000000000000e+03 2.220000000000000000e+02
9.412000000000000000e+03 -2.728000000000000000e+03
9.156000000000000000e+03 -2.915000000000000000e+03
8.542000000000000000e+03 -2.575000000000000000e+03
8.201000000000000000e+03 -2.404000000000000000e+03
9.241000000000000000e+03 -2.762000000000000000e+03
7.246000000000000000e+03 -3.785000000000000000e+03
8.457000000000000000e+03 -5.814000000000000000e+03
8.661000000000000000e+03 -6.530000000000000000e+03
8.235000000000000000e+03 -6.086000000000000000e+03
7.604000000000000000e+03 -6.752000000000000000e+03
6.036000000000000000e+03 -7.809000000000000000e+03
4.654000000000000000e+03 -5.234000000000000000e+03
4.655000000000000000e+03 -9.071000000000000000e+03
5.830000000000000000e+03 -8.934000000000000000e+03
5.796000000000000000e+03 -8.934000000000000000e+03
3.478000000000000000e+03 -6.905000000000000000e+03
4.313000000000000000e+03 -7.639000000000000000e+03
2.796000000000000000e+03 -6.155000000000000000e+03
1.517000000000000000e+03 -5.814000000000000000e+03
7.500000000000000000e+02 -7.706000000000000000e+03
9.540000000000000000e+02 -7.246000000000000000e+03
-1.245000000000000000e+03 -7.144000000000000000e+03
-9.720000000000000000e+02 -6.530000000000000000e+03
-9.200000000000000000e+02 -6.497000000000000000e+03
-1.381000000000000000e+03 -6.428000000000000000e+03
-2.080000000000000000e+03 -4.382000000000000000e+03
-2.438000000000000000e+03 -4.995000000000000000e+03
-3.648000000000000000e+03 -5.268000000000000000e+03
-1.535000000000000000e+03 -3.376000000000000000e+03
-2.438000000000000000e+03 -4.024000000000000000e+03
-2.779000000000000000e+03 -4.194000000000000000e+03
-1.518000000000000000e+03 -3.512000000000000000e+03
-1.125000000000000000e+03 -3.785000000000000000e+03
-3.222000000000000000e+03 -2.575000000000000000e+03
-2.148000000000000000e+03 -2.524000000000000000e+03
-2.046000000000000000e+03 -4.093000000000000000e+03
-2.796000000000000000e+03 -3.230000000000000000e+02
-1.671000000000000000e+03 -9.720000000000000000e+02
-3.154000000000000000e+03 -5.450000000000000000e+02
-2.012000000000000000e+03 -7.160000000000000000e+02
-2.131000000000000000e+03 1.313000000000000000e+03
-1.415000000000000000e+03 2.390000000000000000e+02
-1.364000000000000000e+03 6.310000000000000000e+02
-2.898000000000000000e+03 -4.770000000000000000e+02
-2.608000000000000000e+03 -2.050000000000000000e+02
-2.097000000000000000e+03 -8.500000000000000000e+01
-1.176000000000000000e+03 -3.240000000000000000e+02
-1.705000000000000000e+03 2.730000000000000000e+02
-8.010000000000000000e+02 1.142000000000000000e+03
-7.500000000000000000e+02 2.012000000000000000e+03
-3.240000000000000000e+02 1.227000000000000000e+03
-9.550000000000000000e+02 1.432000000000000000e+03
-2.302000000000000000e+03 3.085000000000000000e+03
-9.720000000000000000e+02 2.250000000000000000e+03
-9.030000000000000000e+02 1.091000000000000000e+03
-1.569000000000000000e+03 1.824000000000000000e+03
-1.841000000000000000e+03 2.490000000000000000e+03
5.800000000000000000e+02 2.063000000000000000e+03
-9.210000000000000000e+02 2.557000000000000000e+03
-9.370000000000000000e+02 8.350000000000000000e+02
-3.240000000000000000e+02 2.063000000000000000e+03
-5.620000000000000000e+02 2.115000000000000000e+03
-1.910000000000000000e+03 3.070000000000000000e+02
-4.770000000000000000e+02 8.870000000000000000e+02
-1.700000000000000000e+01 2.063000000000000000e+03
-3.410000000000000000e+02 -3.410000000000000000e+02
1.700000000000000000e+01 1.370000000000000000e+02
6.800000000000000000e+01 1.006000000000000000e+03
2.050000000000000000e+02 3.400000000000000000e+01
-9.370000000000000000e+02 1.620000000000000000e+03
3.400000000000000000e+01 -8.360000000000000000e+02
2.900000000000000000e+02 6.310000000000000000e+02
9.030000000000000000e+02 8.530000000000000000e+02
2.830000000000000000e+03 8.870000000000000000e+02
9.210000000000000000e+02 9.210000000000000000e+02
1.705000000000000000e+03 6.650000000000000000e+02
1.944000000000000000e+03 1.143000000000000000e+03
2.540000000000000000e+03 -5.790000000000000000e+02
2.916000000000000000e+03 7.850000000000000000e+02
2.454000000000000000e+03 5.630000000000000000e+02
3.068000000000000000e+03 -2.050000000000000000e+02
2.660000000000000000e+03 -4.260000000000000000e+02
2.233000000000000000e+03 5.630000000000000000e+02
2.302000000000000000e+03 1.040000000000000000e+03
2.488000000000000000e+03 1.620000000000000000e+03
2.950000000000000000e+03 2.063000000000000000e+03
4.057000000000000000e+03 1.143000000000000000e+03
2.404000000000000000e+03 1.569000000000000000e+03
3.103000000000000000e+03 2.659000000000000000e+03
3.171000000000000000e+03 9.210000000000000000e+02
3.341000000000000000e+03 1.370000000000000000e+02
4.160000000000000000e+03 2.380000000000000000e+02
3.700000000000000000e+03 1.500000000000000000e+03
3.614000000000000000e+03 5.280000000000000000e+02
4.057000000000000000e+03 2.098000000000000000e+03
2.387000000000000000e+03 1.278000000000000000e+03
3.989000000000000000e+03 5.450000000000000000e+02
2.591000000000000000e+03 1.893000000000000000e+03
4.910000000000000000e+03 6.990000000000000000e+02
4.314000000000000000e+03 7.500000000000000000e+02
4.330000000000000000e+03 2.900000000000000000e+02
4.706000000000000000e+03 6.810000000000000000e+02
4.143000000000000000e+03 1.530000000000000000e+02
4.757000000000000000e+03 8.180000000000000000e+02
4.637000000000000000e+03 8.500000000000000000e+01
7.195000000000000000e+03 -1.530000000000000000e+02
6.768000000000000000e+03 4.270000000000000000e+02
4.211000000000000000e+03 5.450000000000000000e+02
4.365000000000000000e+03 1.773000000000000000e+03
7.706000000000000000e+03 -2.900000000000000000e+02
5.626000000000000000e+03 -6.990000000000000000e+02
6.291000000000000000e+03 4.260000000000000000e+02
6.308000000000000000e+03 4.100000000000000000e+02
6.172000000000000000e+03 1.006000000000000000e+03
6.376000000000000000e+03 -6.900000000000000000e+01
5.933000000000000000e+03 6.300000000000000000e+02
6.684000000000000000e+03 -1.710000000000000000e+02
7.860000000000000000e+03 7.840000000000000000e+02
6.564000000000000000e+03 -4.440000000000000000e+02
6.189000000000000000e+03 8.520000000000000000e+02
7.536000000000000000e+03 -1.245000000000000000e+03
6.803000000000000000e+03 4.600000000000000000e+02
8.252000000000000000e+03 1.125000000000000000e+03
6.633000000000000000e+03 4.770000000000000000e+02
6.495000000000000000e+03 1.382000000000000000e+03
6.070000000000000000e+03 -8.500000000000000000e+01
6.052000000000000000e+03 8.020000000000000000e+02
8.849000000000000000e+03 -4.430000000000000000e+02
5.950000000000000000e+03 4.770000000000000000e+02
6.086000000000000000e+03 4.260000000000000000e+02
7.451000000000000000e+03 -6.480000000000000000e+02
6.257000000000000000e+03 -6.300000000000000000e+02
5.371000000000000000e+03 -2.609000000000000000e+03
6.377000000000000000e+03 -1.074000000000000000e+03
7.041000000000000000e+03 -1.807000000000000000e+03
6.223000000000000000e+03 -2.625000000000000000e+03
6.104000000000000000e+03 -2.250000000000000000e+03
4.773000000000000000e+03 -3.052000000000000000e+03
5.388000000000000000e+03 -2.455000000000000000e+03
5.370000000000000000e+03 -3.274000000000000000e+03
4.859000000000000000e+03 -2.626000000000000000e+03
4.313000000000000000e+03 -1.364000000000000000e+03
4.893000000000000000e+03 -2.489000000000000000e+03
3.120000000000000000e+03 -3.359000000000000000e+03
4.126000000000000000e+03 -2.984000000000000000e+03
3.972000000000000000e+03 -1.875000000000000000e+03
3.222000000000000000e+03 -2.865000000000000000e+03
2.404000000000000000e+03 -4.211000000000000000e+03
3.631000000000000000e+03 -4.058000000000000000e+03
2.779000000000000000e+03 -3.018000000000000000e+03
2.574000000000000000e+03 -2.779000000000000000e+03
1.841000000000000000e+03 -4.416000000000000000e+03
1.568000000000000000e+03 -3.717000000000000000e+03
4.260000000000000000e+02 -2.984000000000000000e+03
7.670000000000000000e+02 -3.359000000000000000e+03
-3.240000000000000000e+02 -2.558000000000000000e+03
2.390000000000000000e+02 -1.739000000000000000e+03
-1.370000000000000000e+02 -9.040000000000000000e+02
-3.580000000000000000e+02 -2.779000000000000000e+03
-2.079000000000000000e+03 -1.449000000000000000e+03
-1.670000000000000000e+03 4.950000000000000000e+02
-3.068000000000000000e+03 5.100000000000000000e+01
-2.251000000000000000e+03 -3.500000000000000000e+01
-3.069000000000000000e+03 2.353000000000000000e+03
-3.068000000000000000e+03 2.387000000000000000e+03
-2.455000000000000000e+03 3.138000000000000000e+03
-3.205000000000000000e+03 3.802000000000000000e+03
-2.932000000000000000e+03 3.189000000000000000e+03
-2.626000000000000000e+03 5.524000000000000000e+03
-4.484000000000000000e+03 3.922000000000000000e+03
-3.324000000000000000e+03 4.689000000000000000e+03
-3.410000000000000000e+03 5.423000000000000000e+03
-2.591000000000000000e+03 7.502000000000000000e+03
-1.466000000000000000e+03 6.053000000000000000e+03
-2.080000000000000000e+03 6.360000000000000000e+03
-2.046000000000000000e+03 7.093000000000000000e+03
-1.654000000000000000e+03 4.791000000000000000e+03
-1.880000000000000000e+02 6.598000000000000000e+03
-2.063000000000000000e+03 6.684000000000000000e+03
-1.030000000000000000e+02 6.326000000000000000e+03
-9.710000000000000000e+02 7.400000000000000000e+03
7.500000000000000000e+02 7.774000000000000000e+03
-4.260000000000000000e+02 6.206000000000000000e+03
