3.580000000000000000e+02 7.707000000000000000e+03
1.654000000000000000e+03 6.053000000000000000e+03
3.001000000000000000e+03 4.757000000000000000e+03
3.000000000000000000e+03 6.785000000000000000e+03
2.745000000000000000e+03 4.842000000000000000e+03
3.358000000000000000e+03 7.639000000000000000e+03
2.182000000000000000e+03 6.189000000000000000e+03
4.416000000000000000e+03 4.058000000000000000e+03
2.182000000000000000e+03 3.240000000000000000e+03
2.608000000000000000e+03 4.638000000000000000e+03
2.540000000000000000e+03 3.904000000000000000e+03
2.983000000000000000e+03 4.603000000000000000e+03
3.205000000000000000e+03 2.353000000000000000e+03
3.580000000000000000e+03 2.063000000000000000e+03
3.239000000000000000e+03 3.444000000000000000e+03
3.035000000000000000e+03 4.501000000000000000e+03
2.966000000000000000e+03 1.927000000000000000e+03
2.438000000000000000e+03 3.462000000000000000e+03
3.240000000000000000e+02 3.836000000000000000e+03
1.483000000000000000e+03 4.194000000000000000e+03
5.100000000000000000e+01 1.927000000000000000e+03
-4.430000000000000000e+02 2.182000000000000000e+03
6.820000000000000000e+02 -4.600000000000000000e+02
1.700000000000000000e+02 1.978000000000000000e+03
-8.350000000000000000e+02 8.350000000000000000e+02
-1.551000000000000000e+03 3.017000000000000000e+03
-2.950000000000000000e+03 2.762000000000000000e+03
-4.825000000000000000e+03 3.564000000000000000e+03
-4.621000000000000000e+03 4.706000000000000000e+03
-4.536000000000000000e+03 1.722000000000000000e+03
-5.490000000000000000e+03 3.700000000000000000e+03
-3.955000000000000000e+03 1.552000000000000000e+03
-3.205000000000000000e+03 3.359000000000000000e+03
-6.598000000000000000e+03 4.450000000000000000e+03
-5.882000000000000000e+03 5.166000000000000000e+03
-6.155000000000000000e+03 5.269000000000000000e+03
-3.956000000000000000e+03 5.677000000000000000e+03
-3.410000000000000000e+03 5.763000000000000000e+03
-1.530000000000000000e+02 5.064000000000000000e+03
5.450000000000000000e+02 4.893000000000000000e+03
7.330000000000000000e+02 5.695000000000000000e+03
2.489000000000000000e+03 6.155000000000000000e+03
3.069000000000000000e+03 3.802000000000000000e+03
3.853000000000000000e+03 5.098000000000000000e+03
5.046000000000000000e+03 3.819000000000000000e+03
3.035000000000000000e+03 3.206000000000000000e+03
3.905000000000000000e+03 2.114000000000000000e+03
5.422000000000000000e+03 2.677000000000000000e+03
4.449000000000000000e+03 4.842000000000000000e+03
3.001000000000000000e+03 3.188000000000000000e+03
3.580000000000000000e+03 2.967000000000000000e+03
4.024000000000000000e+03 1.552000000000000000e+03
3.956000000000000000e+03 2.302000000000000000e+03
4.143000000000000000e+03 2.353000000000000000e+03
1.807000000000000000e+03 1.466000000000000000e+03
2.864000000000000000e+03 1.109000000000000000e+03
1.484000000000000000e+03 1.210000000000000000e+03
7.680000000000000000e+02 4.610000000000000000e+02
2.080000000000000000e+03 1.176000000000000000e+03
-9.550000000000000000e+02 7.330000000000000000e+02
1.020000000000000000e+02 2.900000000000000000e+02
-6.650000000000000000e+02 9.380000000000000000e+02
-2.506000000000000000e+03 -3.410000000000000000e+02
-3.546000000000000000e+03 -3.580000000000000000e+02
-3.376000000000000000e+03 -1.739000000000000000e+03
-3.478000000000000000e+03 -1.125000000000000000e+03
-2.507000000000000000e+03 -7.510000000000000000e+02
-3.103000000000000000e+03 -8.870000000000000000e+02
-2.967000000000000000e+03 -2.220000000000000000e+02
-3.120000000000000000e+03 1.382000000000000000e+03
-1.108000000000000000e+03 1.142000000000000000e+03
4.610000000000000000e+02 1.228000000000000000e+03
9.040000000000000000e+02 1.637000000000000000e+03
1.279000000000000000e+03 1.057000000000000000e+03
2.899000000000000000e+03 -1.211000000000000000e+03
3.598000000000000000e+03 -8.360000000000000000e+02
4.348000000000000000e+03 -1.467000000000000000e+03
5.337000000000000000e+03 -3.103000000000000000e+03
4.638000000000000000e+03 -2.933000000000000000e+03
4.962000000000000000e+03 -3.427000000000000000e+03
4.773000000000000000e+03 -4.774000000000000000e+03
4.279000000000000000e+03 -5.081000000000000000e+03
1.841000000000000000e+03 -4.382000000000000000e+03
1.347000000000000000e+03 -4.212000000000000000e+03
-1.483000000000000000e+03 -3.120000000000000000e+03
-2.390000000000000000e+02 -2.967000000000000000e+03
1.880000000000000000e+02 -1.108000000000000000e+03
-2.659000000000000000e+03 -1.091000000000000000e+03
-5.234000000000000000e+03 -2.220000000000000000e+02
-6.325000000000000000e+03 -1.143000000000000000e+03
-6.001000000000000000e+03 1.977000000000000000e+03
-6.751000000000000000e+03 9.710000000000000000e+02
-6.104000000000000000e+03 2.251000000000000000e+03
-7.843000000000000000e+03 1.637000000000000000e+03
-8.457000000000000000e+03 2.626000000000000000e+03
-7.928000000000000000e+03 3.717000000000000000e+03
-5.490000000000000000e+03 4.859000000000000000e+03
-4.774000000000000000e+03 3.836000000000000000e+03
-3.632000000000000000e+03 5.149000000000000000e+03
-2.967000000000000000e+03 4.024000000000000000e+03
-3.069000000000000000e+03 2.864000000000000000e+03
4.600000000000000000e+02 2.591000000000000000e+03
2.182000000000000000e+03 3.325000000000000000e+03
5.371000000000000000e+03 2.830000000000000000e+03
5.575000000000000000e+03 3.400000000000000000e+01
4.962000000000000000e+03 3.400000000000000000e+01
6.735000000000000000e+03 -1.739000000000000000e+03
6.070000000000000000e+03 -3.854000000000000000e+03
6.820000000000000000e+03 -5.900000000000000000e+03
5.269000000000000000e+03 -5.797000000000000000e+03
4.962000000000000000e+03 -6.513000000000000000e+03
2.813000000000000000e+03 -5.439000000000000000e+03
5.630000000000000000e+02 -7.076000000000000000e+03
-1.329000000000000000e+03 -4.416000000000000000e+03
-3.905000000000000000e+03 -3.513000000000000000e+03
-4.757000000000000000e+03 3.410000000000000000e+02
-5.917000000000000000e+03 8.530000000000000000e+02
-4.910000000000000000e+03 2.335000000000000000e+03
-4.945000000000000000e+03 3.017000000000000000e+03
-2.967000000000000000e+03 3.513000000000000000e+03
-4.109000000000000000e+03 3.938000000000000000e+03
-2.676000000000000000e+03 4.927000000000000000e+03
-3.069000000000000000e+03 4.791000000000000000e+03
-1.211000000000000000e+03 4.160000000000000000e+03
-1.030000000000000000e+02 2.438000000000000000e+03
8.180000000000000000e+02 9.720000000000000000e+02
1.075000000000000000e+03 -3.972000000000000000e+03
-5.110000000000000000e+02 3.700000000000000000e+03
-5.120000000000000000e+02 2.881000000000000000e+03
-6.650000000000000000e+02 6.650000000000000000e+02
1.700000000000000000e+02 3.920000000000000000e+02
2.676000000000000000e+03 1.030000000000000000e+02
1.756000000000000000e+03 3.580000000000000000e+02
2.915000000000000000e+03 -1.330000000000000000e+03
3.256000000000000000e+03 -9.370000000000000000e+02
2.097000000000000000e+03 1.227000000000000000e+03
3.478000000000000000e+03 -2.900000000000000000e+02
3.956000000000000000e+03 -2.388000000000000000e+03
3.068000000000000000e+03 -3.070000000000000000e+02
3.904000000000000000e+03 -1.415000000000000000e+03
2.267000000000000000e+03 -2.131000000000000000e+03
3.018000000000000000e+03 -1.467000000000000000e+03
1.108000000000000000e+03 -1.432000000000000000e+03
1.347000000000000000e+03 -8.020000000000000000e+02
7.680000000000000000e+02 1.880000000000000000e+02
-1.030000000000000000e+02 2.050000000000000000e+02
-4.430000000000000000e+02 8.520000000000000000e+02
-1.910000000000000000e+03 9.380000000000000000e+02
-3.461000000000000000e+03 2.285000000000000000e+03
-3.035000000000000000e+03 4.757000000000000000e+03
-2.574000000000000000e+03 1.774000000000000000e+03
-4.006000000000000000e+03 2.575000000000000000e+03
-1.927000000000000000e+03 4.143000000000000000e+03
-2.488000000000000000e+03 3.870000000000000000e+03
-2.609000000000000000e+03 5.421000000000000000e+03
-1.585000000000000000e+03 4.314000000000000000e+03
-2.353000000000000000e+03 3.905000000000000000e+03
-1.858000000000000000e+03 4.416000000000000000e+03
-2.711000000000000000e+03 3.887000000000000000e+03
-1.995000000000000000e+03 4.365000000000000000e+03
-4.940000000000000000e+02 3.513000000000000000e+03
6.640000000000000000e+02 2.251000000000000000e+03
-1.030000000000000000e+02 2.540000000000000000e+03
-5.630000000000000000e+02 9.040000000000000000e+02
-2.220000000000000000e+02 -5.100000000000000000e+01
1.227000000000000000e+03 9.540000000000000000e+02
1.313000000000000000e+03 -2.390000000000000000e+02
5.290000000000000000e+02 1.023000000000000000e+03
3.086000000000000000e+03 -1.295000000000000000e+03
2.268000000000000000e+03 -1.261000000000000000e+03
2.455000000000000000e+03 -1.790000000000000000e+03
5.970000000000000000e+02 -1.262000000000000000e+03
1.808000000000000000e+03 -3.786000000000000000e+03
-7.680000000000000000e+02 -3.922000000000000000e+03
8.500000000000000000e+01 -1.978000000000000000e+03
-2.608000000000000000e+03 -3.546000000000000000e+03
-1.671000000000000000e+03 -3.239000000000000000e+03
-3.444000000000000000e+03 -1.824000000000000000e+03
-2.438000000000000000e+03 -2.523000000000000000e+03
-2.609000000000000000e+03 1.200000000000000000e+02
-4.893000000000000000e+03 1.880000000000000000e+02
-5.711000000000000000e+03 -3.920000000000000000e+02
-4.024000000000000000e+03 -6.800000000000000000e+01
-4.467000000000000000e+03 2.114000000000000000e+03
-6.069000000000000000e+03 3.871000000000000000e+03
-3.870000000000000000e+03 1.603000000000000000e+03
-3.529000000000000000e+03 4.382000000000000000e+03
-4.382000000000000000e+03 6.513000000000000000e+03
-3.752000000000000000e+03 5.916000000000000000e+03
-1.603000000000000000e+03 7.417000000000000000e+03
9.380000000000000000e+02 5.814000000000000000e+03
1.176000000000000000e+03 7.349000000000000000e+03
2.386000000000000000e+03 6.001000000000000000e+03
2.233000000000000000e+03 4.655000000000000000e+03
4.416000000000000000e+03 3.324000000000000000e+03
4.348000000000000000e+03 1.330000000000000000e+03
4.057000000000000000e+03 1.159000000000000000e+03
4.893000000000000000e+03 -7.500000000000000000e+02
2.744000000000000000e+03 -2.336000000000000000e+03
2.677000000000000000e+03 -3.069000000000000000e+03
2.761000000000000000e+03 -4.178000000000000000e+03
2.079000000000000000e+03 -4.995000000000000000e+03
1.381000000000000000e+03 -6.872000000000000000e+03
1.364000000000000000e+03 -7.860000000000000000e+03
-1.398000000000000000e+03 -6.650000000000000000e+03
-8.690000000000000000e+02 -8.354000000000000000e+03
-1.773000000000000000e+03 -7.980000000000000000e+03
-2.455000000000000000e+03 -7.144000000000000000e+03
-2.523000000000000000e+03 -6.718000000000000000e+03
-4.161000000000000000e+03 -6.411000000000000000e+03
-5.063000000000000000e+03 -4.894000000000000000e+03
-4.228000000000000000e+03 -4.109000000000000000e+03
-5.780000000000000000e+03 -2.933000000000000000e+03
-5.558000000000000000e+03 -1.688000000000000000e+03
-6.444000000000000000e+03 4.440000000000000000e+02
-5.541000000000000000e+03 1.637000000000000000e+03
-3.682000000000000000e+03 1.091000000000000000e+03
-2.779000000000000000e+03 3.461000000000000000e+03
-4.006000000000000000e+03 4.979000000000000000e+03
-1.262000000000000000e+03 6.001000000000000000e+03
5.800000000000000000e+02 8.286000000000000000e+03
1.774000000000000000e+03 8.917000000000000000e+03
4.739000000000000000e+03 7.041000000000000000e+03
7.586000000000000000e+03 7.502000000000000000e+03
8.610000000000000000e+03 5.234000000000000000e+03
9.342000000000000000e+03 4.723000000000000000e+03
1.200200000000000000e+04 2.063000000000000000e+03
9.633000000000000000e+03 5.100000000000000000e+01
1.190000000000000000e+04 -3.444000000000000000e+03
1.080900000000000000e+04 -4.927000000000000000e+03
7.092000000000000000e+03 -9.190000000000000000e+03
4.876000000000000000e+03 -9.497000000000000000e+03
3.563000000000000000e+03 -1.137200000000000000e+04
1.432000000000000000e+03 -1.174800000000000000e+04
-2.659000000000000000e+03 -1.155900000000000000e+04
-4.757000000000000000e+03 -1.024700000000000000e+04
-5.626000000000000000e+03 -1.121900000000000000e+04
-8.201000000000000000e+03 -9.548000000000000000e+03
-9.651000000000000000e+03 -7.689000000000000000e+03
-1.036600000000000000e+04 -6.207000000000000000e+03
-1.125300000000000000e+04 -2.677000000000000000e+03
-1.174800000000000000e+04 -2.165000000000000000e+03
-1.024700000000000000e+04 5.120000000000000000e+02
-9.736000000000000000e+03 3.120000000000000000e+03
-8.951000000000000000e+03 5.337000000000000000e+03
-7.553000000000000000e+03 6.172000000000000000e+03
-5.746000000000000000e+03 8.968000000000000000e+03
-4.603000000000000000e+03 9.122000000000000000e+03
-1.756000000000000000e+03 1.055300000000000000e+04
1.176000000000000000e+03 1.190100000000000000e+04
