4.910000000000000000e+03 -1.415000000000000000e+03
1.244000000000000000e+03 -1.960000000000000000e+03
-3.750000000000000000e+02 -2.710000000000000000e+03
-3.785000000000000000e+03 8.180000000000000000e+02
-2.438000000000000000e+03 6.377000000000000000e+03
2.421000000000000000e+03 1.173000000000000000e+04
1.607700000000000000e+04 7.400000000000000000e+03
1.595800000000000000e+04 -1.017800000000000000e+04
-5.790000000000000000e+02 -1.745900000000000000e+04
-1.092900000000000000e+04 -5.951000000000000000e+03
-8.797000000000000000e+03 3.956000000000000000e+03
-4.109000000000000000e+03 9.582000000000000000e+03
1.244000000000000000e+03 7.519000000000000000e+03
3.138000000000000000e+03 5.814000000000000000e+03
4.706000000000000000e+03 4.178000000000000000e+03
5.285000000000000000e+03 3.700000000000000000e+03
5.712000000000000000e+03 2.387000000000000000e+03
4.603000000000000000e+03 -2.677000000000000000e+03
3.291000000000000000e+03 -4.518000000000000000e+03
-7.500000000000000000e+02 -5.932000000000000000e+03
-8.167000000000000000e+03 -6.683000000000000000e+03
-1.433900000000000000e+04 -2.148000000000000000e+03
-1.220800000000000000e+04 1.145700000000000000e+04
8.020000000000000000e+02 1.575300000000000000e+04
8.337000000000000000e+03 7.417000000000000000e+03
6.138000000000000000e+03 -4.270000000000000000e+02
4.092000000000000000e+03 -5.030000000000000000e+03
7.840000000000000000e+02 -4.143000000000000000e+03
-1.910000000000000000e+03 -5.149000000000000000e+03
-4.706000000000000000e+03 -3.819000000000000000e+03
-5.166000000000000000e+03 -4.433000000000000000e+03
-5.200000000000000000e+03 -4.041000000000000000e+03
-5.029000000000000000e+03 -4.399000000000000000e+03
-3.631000000000000000e+03 -3.529000000000000000e+03
-8.190000000000000000e+02 6.650000000000000000e+02
1.057000000000000000e+03 7.758000000000000000e+03
5.882000000000000000e+03 1.087800000000000000e+04
1.213900000000000000e+04 5.114000000000000000e+03
1.063800000000000000e+04 -6.496000000000000000e+03
5.097000000000000000e+03 -8.985000000000000000e+03
-1.211000000000000000e+03 -4.586000000000000000e+03
6.140000000000000000e+02 -2.916000000000000000e+03
1.040000000000000000e+03 2.524000000000000000e+03
2.097000000000000000e+03 3.530000000000000000e+03
3.240000000000000000e+02 6.394000000000000000e+03
-2.900000000000000000e+02 6.837000000000000000e+03
-6.480000000000000000e+02 7.553000000000000000e+03
-1.193000000000000000e+03 5.933000000000000000e+03
2.220000000000000000e+02 7.298000000000000000e+03
4.876000000000000000e+03 3.598000000000000000e+03
4.211000000000000000e+03 6.990000000000000000e+02
2.727000000000000000e+03 -5.183000000000000000e+03
-5.592000000000000000e+03 -7.894000000000000000e+03
-1.060500000000000000e+04 -5.290000000000000000e+02
-7.127000000000000000e+03 4.945000000000000000e+03
-3.716000000000000000e+03 7.263000000000000000e+03
-1.296000000000000000e+03 4.075000000000000000e+03
-1.381000000000000000e+03 3.496000000000000000e+03
-2.472000000000000000e+03 1.671000000000000000e+03
-2.592000000000000000e+03 -1.637000000000000000e+03
-1.381000000000000000e+03 -2.233000000000000000e+03
-1.126000000000000000e+03 -3.631000000000000000e+03
-1.159000000000000000e+03 -1.807000000000000000e+03
-1.211000000000000000e+03 -5.184000000000000000e+03
-2.558000000000000000e+03 -3.888000000000000000e+03
-6.070000000000000000e+03 -4.672000000000000000e+03
-1.033300000000000000e+04 -1.347000000000000000e+03
-4.399000000000000000e+03 5.814000000000000000e+03
1.347000000000000000e+03 3.086000000000000000e+03
2.404000000000000000e+03 -1.091000000000000000e+03
1.535000000000000000e+03 -4.826000000000000000e+03
7.160000000000000000e+02 -3.939000000000000000e+03
-1.160000000000000000e+03 -4.961000000000000000e+03
-2.183000000000000000e+03 -4.279000000000000000e+03
8.600000000000000000e+01 -4.535000000000000000e+03
-2.064000000000000000e+03 -1.091000000000000000e+03
-9.550000000000000000e+02 -4.024000000000000000e+03
3.920000000000000000e+02 -2.011000000000000000e+03
2.380000000000000000e+02 -1.279000000000000000e+03
5.460000000000000000e+02 1.791000000000000000e+03
3.051000000000000000e+03 1.995000000000000000e+03
5.677000000000000000e+03 9.720000000000000000e+02
5.183000000000000000e+03 -3.904000000000000000e+03
-7.170000000000000000e+02 -7.809000000000000000e+03
-1.364000000000000000e+03 -4.826000000000000000e+03
-1.893000000000000000e+03 -1.671000000000000000e+03
-3.070000000000000000e+02 1.057000000000000000e+03
1.739000000000000000e+03 2.890000000000000000e+02
2.353000000000000000e+03 7.670000000000000000e+02
5.166000000000000000e+03 1.637000000000000000e+03
3.955000000000000000e+03 2.217000000000000000e+03
5.029000000000000000e+03 3.103000000000000000e+03
3.597000000000000000e+03 1.228000000000000000e+03
3.171000000000000000e+03 3.069000000000000000e+03
4.808000000000000000e+03 1.296000000000000000e+03
2.728000000000000000e+03 2.390000000000000000e+02
5.630000000000000000e+02 -1.108000000000000000e+03
-4.893000000000000000e+03 -8.530000000000000000e+02
-4.825000000000000000e+03 4.600000000000000000e+02
-1.636000000000000000e+03 3.359000000000000000e+03
