2.983000000000000000e+03 1.200300000000000000e+04
3.528000000000000000e+03 1.075800000000000000e+04
2.762000000000000000e+03 9.718000000000000000e+03
3.393000000000000000e+03 9.940000000000000000e+03
4.364000000000000000e+03 1.161000000000000000e+04
5.592000000000000000e+03 1.084300000000000000e+04
4.552000000000000000e+03 1.014500000000000000e+04
7.211000000000000000e+03 9.019000000000000000e+03
6.632000000000000000e+03 9.479000000000000000e+03
6.752000000000000000e+03 1.060400000000000000e+04
7.417000000000000000e+03 7.791000000000000000e+03
7.058000000000000000e+03 1.004200000000000000e+04
8.917000000000000000e+03 8.542000000000000000e+03
8.235000000000000000e+03 8.593000000000000000e+03
9.513000000000000000e+03 8.013000000000000000e+03
1.082600000000000000e+04 5.729000000000000000e+03
1.089400000000000000e+04 5.984000000000000000e+03
9.207000000000000000e+03 7.195000000000000000e+03
9.598000000000000000e+03 6.223000000000000000e+03
1.149100000000000000e+04 4.229000000000000000e+03
1.208800000000000000e+04 4.706000000000000000e+03
1.275300000000000000e+04 4.092000000000000000e+03
1.307600000000000000e+04 2.592000000000000000e+03
1.331600000000000000e+04 2.421000000000000000e+03
1.138900000000000000e+04 2.728000000000000000e+03
1.193500000000000000e+04 2.012000000000000000e+03
1.290600000000000000e+04 1.530000000000000000e+02
1.355400000000000000e+04 -1.296000000000000000e+03
1.507200000000000000e+04 6.900000000000000000e+01
1.295800000000000000e+04 -1.619000000000000000e+03
1.340100000000000000e+04 -1.740000000000000000e+03
1.334900000000000000e+04 -3.427000000000000000e+03
1.348600000000000000e+04 -5.166000000000000000e+03
1.404900000000000000e+04 -5.439000000000000000e+03
1.365600000000000000e+04 -5.899000000000000000e+03
1.336700000000000000e+04 -6.666000000000000000e+03
1.186600000000000000e+04 -7.093000000000000000e+03
1.241200000000000000e+04 -8.746000000000000000e+03
1.086000000000000000e+04 -1.087800000000000000e+04
1.188300000000000000e+04 -1.069000000000000000e+04
1.050200000000000000e+04 -1.144000000000000000e+04
1.017800000000000000e+04 -1.248000000000000000e+04
9.104000000000000000e+03 -1.249700000000000000e+04
9.735000000000000000e+03 -1.549800000000000000e+04
7.570000000000000000e+03 -1.348600000000000000e+04
7.110000000000000000e+03 -1.577100000000000000e+04
4.791000000000000000e+03 -1.578700000000000000e+04
4.331000000000000000e+03 -1.665800000000000000e+04
3.427000000000000000e+03 -1.623100000000000000e+04
3.512000000000000000e+03 -1.797000000000000000e+04
2.694000000000000000e+03 -1.793600000000000000e+04
6.300000000000000000e+02 -1.762900000000000000e+04
-2.199000000000000000e+03 -1.894200000000000000e+04
-1.825000000000000000e+03 -1.858400000000000000e+04
-3.751000000000000000e+03 -1.861800000000000000e+04
-3.700000000000000000e+03 -1.909500000000000000e+04
-5.780000000000000000e+03 -1.921500000000000000e+04
-6.479000000000000000e+03 -1.858400000000000000e+04
-7.622000000000000000e+03 -1.710000000000000000e+04
-8.065000000000000000e+03 -1.800400000000000000e+04
-1.087800000000000000e+04 -1.698200000000000000e+04
-1.125300000000000000e+04 -1.715200000000000000e+04
-1.089500000000000000e+04 -1.549700000000000000e+04
-1.338400000000000000e+04 -1.629900000000000000e+04
-1.341800000000000000e+04 -1.558400000000000000e+04
-1.495300000000000000e+04 -1.355500000000000000e+04
-1.532800000000000000e+04 -1.447500000000000000e+04
-1.616400000000000000e+04 -1.227600000000000000e+04
-1.647000000000000000e+04 -1.052000000000000000e+04
-1.744200000000000000e+04 -1.028100000000000000e+04
-1.757800000000000000e+04 -9.360000000000000000e+03
-1.802100000000000000e+04 -7.945000000000000000e+03
-1.884000000000000000e+04 -8.372000000000000000e+03
-2.032400000000000000e+04 -6.036000000000000000e+03
-2.074900000000000000e+04 -4.672000000000000000e+03
-1.993100000000000000e+04 -2.916000000000000000e+03
-1.926600000000000000e+04 -1.961000000000000000e+03
-2.059600000000000000e+04 -2.233000000000000000e+03
-1.986300000000000000e+04 -4.780000000000000000e+02
-2.046000000000000000e+04 2.063000000000000000e+03
-2.005000000000000000e+04 1.688000000000000000e+03
-1.831100000000000000e+04 3.631000000000000000e+03
-1.890800000000000000e+04 4.655000000000000000e+03
-1.970900000000000000e+04 5.166000000000000000e+03
-1.824300000000000000e+04 6.189000000000000000e+03
-1.720300000000000000e+04 7.058000000000000000e+03
-1.962400000000000000e+04 9.036000000000000000e+03
-1.691300000000000000e+04 9.360000000000000000e+03
-1.754400000000000000e+04 1.062200000000000000e+04
-1.519200000000000000e+04 1.174700000000000000e+04
-1.594100000000000000e+04 1.374200000000000000e+04
-1.273600000000000000e+04 1.282100000000000000e+04
-1.372500000000000000e+04 1.278700000000000000e+04
-1.302600000000000000e+04 1.357100000000000000e+04
-1.207100000000000000e+04 1.416800000000000000e+04
-1.181500000000000000e+04 1.636700000000000000e+04
-9.991000000000000000e+03 1.647000000000000000e+04
-1.007600000000000000e+04 1.754400000000000000e+04
-8.082000000000000000e+03 1.809000000000000000e+04
-7.502000000000000000e+03 1.606100000000000000e+04
-5.848000000000000000e+03 1.747500000000000000e+04
-3.819000000000000000e+03 1.952200000000000000e+04
-3.240000000000000000e+03 2.095400000000000000e+04
-1.279000000000000000e+03 1.969300000000000000e+04
-2.302000000000000000e+03 1.967500000000000000e+04
-9.890000000000000000e+02 1.907900000000000000e+04
-9.040000000000000000e+02 1.957300000000000000e+04
2.097000000000000000e+03 1.849800000000000000e+04
3.547000000000000000e+03 1.967500000000000000e+04
5.882000000000000000e+03 2.030700000000000000e+04
5.643000000000000000e+03 1.916400000000000000e+04
6.053000000000000000e+03 1.858400000000000000e+04
7.450000000000000000e+03 1.849900000000000000e+04
8.917000000000000000e+03 1.733900000000000000e+04
9.377000000000000000e+03 1.781700000000000000e+04
1.070700000000000000e+04 1.587300000000000000e+04
1.333200000000000000e+04 1.583900000000000000e+04
1.270200000000000000e+04 1.653800000000000000e+04
1.266700000000000000e+04 1.546400000000000000e+04
1.457700000000000000e+04 1.476500000000000000e+04
1.572000000000000000e+04 1.345200000000000000e+04
1.645300000000000000e+04 1.326500000000000000e+04
1.832800000000000000e+04 1.176400000000000000e+04
1.877200000000000000e+04 1.138900000000000000e+04
1.766300000000000000e+04 1.011000000000000000e+04
1.970900000000000000e+04 9.292000000000000000e+03
2.086800000000000000e+04 7.450000000000000000e+03
1.982900000000000000e+04 7.842000000000000000e+03
2.023700000000000000e+04 7.092000000000000000e+03
2.006700000000000000e+04 4.706000000000000000e+03
2.074900000000000000e+04 2.864000000000000000e+03
2.025400000000000000e+04 3.666000000000000000e+03
2.166900000000000000e+04 6.650000000000000000e+02
2.149900000000000000e+04 1.705000000000000000e+03
2.279500000000000000e+04 -1.142000000000000000e+03
2.037400000000000000e+04 -1.295000000000000000e+03
2.197700000000000000e+04 -2.830000000000000000e+03
2.051000000000000000e+04 -4.672000000000000000e+03
2.022100000000000000e+04 -5.507000000000000000e+03
1.967500000000000000e+04 -7.093000000000000000e+03
2.020300000000000000e+04 -7.997000000000000000e+03
1.856700000000000000e+04 -8.184000000000000000e+03
2.032300000000000000e+04 -1.021200000000000000e+04
1.885600000000000000e+04 -1.063900000000000000e+04
1.582200000000000000e+04 -1.231100000000000000e+04
1.693000000000000000e+04 -1.263400000000000000e+04
1.674200000000000000e+04 -1.309400000000000000e+04
1.589000000000000000e+04 -1.515700000000000000e+04
1.468000000000000000e+04 -1.459400000000000000e+04
1.438900000000000000e+04 -1.686200000000000000e+04
1.212200000000000000e+04 -1.916300000000000000e+04
1.007600000000000000e+04 -1.849800000000000000e+04
1.053600000000000000e+04 -1.836300000000000000e+04
8.849000000000000000e+03 -2.006700000000000000e+04
8.643000000000000000e+03 -2.054500000000000000e+04
6.018000000000000000e+03 -2.141400000000000000e+04
5.149000000000000000e+03 -2.046000000000000000e+04
5.182000000000000000e+03 -2.103900000000000000e+04
3.768000000000000000e+03 -2.272700000000000000e+04
3.052000000000000000e+03 -2.289800000000000000e+04
1.006000000000000000e+03 -2.289800000000000000e+04
-3.400000000000000000e+01 -2.289800000000000000e+04
-3.837000000000000000e+03 -2.381800000000000000e+04
-3.836000000000000000e+03 -2.395400000000000000e+04
-5.388000000000000000e+03 -2.298300000000000000e+04
-5.473000000000000000e+03 -2.271000000000000000e+04
-8.917000000000000000e+03 -2.397100000000000000e+04
-9.276000000000000000e+03 -2.339200000000000000e+04
-1.062200000000000000e+04 -2.318700000000000000e+04
-1.156000000000000000e+04 -2.306800000000000000e+04
-1.340100000000000000e+04 -2.047700000000000000e+04
-1.497000000000000000e+04 -2.005000000000000000e+04
-1.756100000000000000e+04 -1.899300000000000000e+04
-1.616300000000000000e+04 -1.947100000000000000e+04
-2.015200000000000000e+04 -1.947000000000000000e+04
-2.051100000000000000e+04 -1.722000000000000000e+04
-2.197600000000000000e+04 -1.486700000000000000e+04
-2.294900000000000000e+04 -1.459500000000000000e+04
-2.383500000000000000e+04 -1.456000000000000000e+04
-2.593300000000000000e+04 -1.401400000000000000e+04
-2.639300000000000000e+04 -9.787000000000000000e+03
-2.709200000000000000e+04 -1.007700000000000000e+04
-2.801300000000000000e+04 -8.628000000000000000e+03
-2.994000000000000000e+04 -5.354000000000000000e+03
-3.094500000000000000e+04 -4.911000000000000000e+03
-2.966700000000000000e+04 -1.194000000000000000e+03
-3.063900000000000000e+04 -1.109000000000000000e+03
-3.138800000000000000e+04 1.484000000000000000e+03
-3.220600000000000000e+04 2.319000000000000000e+03
-3.109900000000000000e+04 7.911000000000000000e+03
-3.104800000000000000e+04 8.150000000000000000e+03
-3.212200000000000000e+04 1.048600000000000000e+04
-3.005900000000000000e+04 1.290600000000000000e+04
-3.026300000000000000e+04 1.485000000000000000e+04
-2.939300000000000000e+04 1.698100000000000000e+04
-2.893300000000000000e+04 1.940300000000000000e+04
-2.654600000000000000e+04 2.059600000000000000e+04
-2.593200000000000000e+04 2.339200000000000000e+04
-2.380200000000000000e+04 2.562500000000000000e+04
-2.395500000000000000e+04 2.745000000000000000e+04
-2.044200000000000000e+04 2.854100000000000000e+04
-2.066400000000000000e+04 2.970000000000000000e+04
-1.710000000000000000e+04 3.089300000000000000e+04
-1.403200000000000000e+04 3.297400000000000000e+04
-1.319700000000000000e+04 3.484900000000000000e+04
-1.094700000000000000e+04 3.358700000000000000e+04
-8.355000000000000000e+03 3.478100000000000000e+04
-4.518000000000000000e+03 3.611100000000000000e+04
-2.830000000000000000e+03 3.861700000000000000e+04
-1.636000000000000000e+03 3.797000000000000000e+04
7.670000000000000000e+02 3.900900000000000000e+04
4.075000000000000000e+03 3.887300000000000000e+04
5.541000000000000000e+03 3.738900000000000000e+04
8.336000000000000000e+03 3.774700000000000000e+04
1.261600000000000000e+04 3.708200000000000000e+04
1.289000000000000000e+04 3.708300000000000000e+04
1.693000000000000000e+04 3.629800000000000000e+04
1.817500000000000000e+04 3.580400000000000000e+04
1.982900000000000000e+04 3.340000000000000000e+04
2.132800000000000000e+04 3.392800000000000000e+04
2.347600000000000000e+04 3.213800000000000000e+04
2.600000000000000000e+04 3.104700000000000000e+04
2.719400000000000000e+04 2.932500000000000000e+04
2.831900000000000000e+04 2.973400000000000000e+04
3.133700000000000000e+04 2.666600000000000000e+04
3.115000000000000000e+04 2.533600000000000000e+04
3.307600000000000000e+04 2.294900000000000000e+04
3.531000000000000000e+04 2.126100000000000000e+04
3.648600000000000000e+04 1.991400000000000000e+04
3.783200000000000000e+04 1.578800000000000000e+04
3.701400000000000000e+04 1.473100000000000000e+04
3.945200000000000000e+04 1.208800000000000000e+04
3.914500000000000000e+04 1.048500000000000000e+04
3.955400000000000000e+04 7.178000000000000000e+03
4.074800000000000000e+04 6.223000000000000000e+03
4.015100000000000000e+04 3.649000000000000000e+03
4.078200000000000000e+04 1.619000000000000000e+03
3.938400000000000000e+04 -7.850000000000000000e+02
3.924700000000000000e+04 -3.172000000000000000e+03
4.136200000000000000e+04 -5.524000000000000000e+03
3.979300000000000000e+04 -7.689000000000000000e+03
4.013400000000000000e+04 -9.394000000000000000e+03
3.950300000000000000e+04 -1.200300000000000000e+04
3.653700000000000000e+04 -1.338400000000000000e+04
3.708200000000000000e+04 -1.570300000000000000e+04
3.665600000000000000e+04 -1.877200000000000000e+04
3.653700000000000000e+04 -2.076600000000000000e+04
3.375800000000000000e+04 -2.161900000000000000e+04
3.348600000000000000e+04 -2.455100000000000000e+04
3.222300000000000000e+04 -2.538700000000000000e+04
3.126900000000000000e+04 -2.741600000000000000e+04
2.813200000000000000e+04 -2.920700000000000000e+04
2.891600000000000000e+04 -3.108200000000000000e+04
2.583000000000000000e+04 -3.225800000000000000e+04
2.262400000000000000e+04 -3.207100000000000000e+04
2.177200000000000000e+04 -3.530900000000000000e+04
1.846500000000000000e+04 -3.505300000000000000e+04
1.780000000000000000e+04 -3.652000000000000000e+04
1.549800000000000000e+04 -3.703200000000000000e+04
1.461100000000000000e+04 -3.892400000000000000e+04
1.256500000000000000e+04 -3.832700000000000000e+04
8.968000000000000000e+03 -4.146400000000000000e+04
6.615000000000000000e+03 -4.071500000000000000e+04
5.763000000000000000e+03 -4.146500000000000000e+04
3.290000000000000000e+03 -4.195900000000000000e+04
1.346000000000000000e+03 -4.161800000000000000e+04
-2.370000000000000000e+03 -3.991300000000000000e+04
-4.195000000000000000e+03 -4.091900000000000000e+04
-5.098000000000000000e+03 -4.124300000000000000e+04
-1.002600000000000000e+04 -4.052700000000000000e+04
-1.104900000000000000e+04 -3.906000000000000000e+04
-1.261700000000000000e+04 -4.011800000000000000e+04
-1.452600000000000000e+04 -3.844700000000000000e+04
-1.628200000000000000e+04 -3.631600000000000000e+04
-1.655500000000000000e+04 -3.686100000000000000e+04
-2.102200000000000000e+04 -3.473000000000000000e+04
-2.190900000000000000e+04 -3.444000000000000000e+04
-2.427800000000000000e+04 -3.397900000000000000e+04
-2.499500000000000000e+04 -3.096200000000000000e+04
-2.620600000000000000e+04 -2.953100000000000000e+04
-2.857500000000000000e+04 -2.850700000000000000e+04
-3.184900000000000000e+04 -2.876300000000000000e+04
-3.224100000000000000e+04 -2.610400000000000000e+04
-3.300800000000000000e+04 -2.332400000000000000e+04
-3.536100000000000000e+04 -2.204500000000000000e+04
-3.554900000000000000e+04 -1.942000000000000000e+04
-3.720200000000000000e+04 -1.865200000000000000e+04
-3.933300000000000000e+04 -1.674300000000000000e+04
-3.883900000000000000e+04 -1.462800000000000000e+04
-3.989600000000000000e+04 -1.183300000000000000e+04
-4.134600000000000000e+04 -1.098100000000000000e+04
-4.155000000000000000e+04 -6.990000000000000000e+03
-4.267500000000000000e+04 -5.967000000000000000e+03
-4.149800000000000000e+04 -2.387000000000000000e+03
-4.301600000000000000e+04 -2.677000000000000000e+03
-4.308500000000000000e+04 1.449000000000000000e+03
-4.264100000000000000e+04 3.699000000000000000e+03
-4.378400000000000000e+04 6.087000000000000000e+03
-4.449900000000000000e+04 8.116000000000000000e+03
-4.190800000000000000e+04 1.063800000000000000e+04
-4.097000000000000000e+04 1.259900000000000000e+04
-4.081700000000000000e+04 1.471400000000000000e+04
-4.228200000000000000e+04 1.889100000000000000e+04
-4.124300000000000000e+04 2.051100000000000000e+04
-3.856600000000000000e+04 2.216400000000000000e+04
-3.883900000000000000e+04 2.571100000000000000e+04
-3.779900000000000000e+04 2.727900000000000000e+04
-3.698100000000000000e+04 3.043300000000000000e+04
-3.582100000000000000e+04 3.362100000000000000e+04
-3.149000000000000000e+04 3.580400000000000000e+04
-3.229200000000000000e+04 3.769700000000000000e+04
-2.918900000000000000e+04 3.970800000000000000e+04
-2.828500000000000000e+04 4.018500000000000000e+04
-2.664900000000000000e+04 4.294800000000000000e+04
-2.426200000000000000e+04 4.594900000000000000e+04
-2.163600000000000000e+04 4.751700000000000000e+04
-1.947100000000000000e+04 4.732900000000000000e+04
-1.614700000000000000e+04 5.062000000000000000e+04
-1.449300000000000000e+04 4.946000000000000000e+04
-1.094600000000000000e+04 5.328000000000000000e+04
-9.156000000000000000e+03 5.435300000000000000e+04
-5.763000000000000000e+03 5.443900000000000000e+04
-1.534000000000000000e+03 5.328000000000000000e+04
1.039000000000000000e+03 5.597400000000000000e+04
3.598000000000000000e+03 5.621200000000000000e+04
8.439000000000000000e+03 5.733700000000000000e+04
1.159400000000000000e+04 5.628000000000000000e+04
1.096200000000000000e+04 5.633200000000000000e+04
1.677700000000000000e+04 5.680900000000000000e+04
2.064700000000000000e+04 5.643400000000000000e+04
2.460200000000000000e+04 5.527500000000000000e+04
2.891600000000000000e+04 5.454100000000000000e+04
3.239400000000000000e+04 5.288800000000000000e+04
3.611100000000000000e+04 5.021100000000000000e+04
3.848100000000000000e+04 4.986900000000000000e+04
4.243500000000000000e+04 4.797700000000000000e+04
4.581100000000000000e+04 4.472100000000000000e+04
4.697200000000000000e+04 4.221400000000000000e+04
5.177900000000000000e+04 3.992900000000000000e+04
5.472900000000000000e+04 3.532600000000000000e+04
5.703100000000000000e+04 3.208700000000000000e+04
6.035500000000000000e+04 2.886500000000000000e+04
6.117400000000000000e+04 2.557400000000000000e+04
6.364600000000000000e+04 1.930000000000000000e+04
6.424200000000000000e+04 1.643600000000000000e+04
6.698700000000000000e+04 1.241200000000000000e+04
6.824900000000000000e+04 9.121000000000000000e+03
6.848800000000000000e+04 3.546000000000000000e+03
6.925500000000000000e+04 -5.120000000000000000e+02
6.784000000000000000e+04 -6.513000000000000000e+03
6.811300000000000000e+04 -1.045100000000000000e+04
6.785700000000000000e+04 -1.375900000000000000e+04
6.569200000000000000e+04 -1.895900000000000000e+04
6.494200000000000000e+04 -2.419200000000000000e+04
6.388500000000000000e+04 -2.905200000000000000e+04
6.112300000000000000e+04 -3.387700000000000000e+04
5.955400000000000000e+04 -3.614400000000000000e+04
5.612700000000000000e+04 -3.974200000000000000e+04
5.476400000000000000e+04 -4.528300000000000000e+04
5.270000000000000000e+04 -4.743200000000000000e+04
4.886400000000000000e+04 -5.288700000000000000e+04
4.615300000000000000e+04 -5.454100000000000000e+04
4.212900000000000000e+04 -5.846300000000000000e+04
3.537800000000000000e+04 -6.025200000000000000e+04
3.377500000000000000e+04 -6.311700000000000000e+04
2.970100000000000000e+04 -6.702200000000000000e+04
2.438100000000000000e+04 -6.773700000000000000e+04
2.160200000000000000e+04 -6.893100000000000000e+04
1.708300000000000000e+04 -6.945900000000000000e+04
1.118400000000000000e+04 -7.235800000000000000e+04
6.701000000000000000e+03 -7.157400000000000000e+04
3.870000000000000000e+03 -7.368700000000000000e+04
-1.210000000000000000e+03 -7.394300000000000000e+04
-5.268000000000000000e+03 -7.251200000000000000e+04
-8.950000000000000000e+03 -7.212000000000000000e+04
-1.445800000000000000e+04 -7.188100000000000000e+04
-1.858400000000000000e+04 -7.147200000000000000e+04
-2.291400000000000000e+04 -7.055100000000000000e+04
-2.784200000000000000e+04 -6.719200000000000000e+04
-3.200200000000000000e+04 -6.806200000000000000e+04
-3.537800000000000000e+04 -6.424300000000000000e+04
-3.946900000000000000e+04 -6.400400000000000000e+04
-4.218100000000000000e+04 -6.078200000000000000e+04
-4.524900000000000000e+04 -5.882100000000000000e+04
-4.813100000000000000e+04 -5.614400000000000000e+04
-5.191600000000000000e+04 -5.268300000000000000e+04
-5.472900000000000000e+04 -4.743200000000000000e+04
-5.749000000000000000e+04 -4.606800000000000000e+04
-5.853000000000000000e+04 -4.189000000000000000e+04
-6.161700000000000000e+04 -3.906000000000000000e+04
-6.408800000000000000e+04 -3.507000000000000000e+04
-6.661200000000000000e+04 -3.028000000000000000e+04
-6.736200000000000000e+04 -2.542100000000000000e+04
-6.700400000000000000e+04 -2.282900000000000000e+04
-6.804500000000000000e+04 -1.764700000000000000e+04
-6.944200000000000000e+04 -1.488400000000000000e+04
-6.998800000000000000e+04 -9.701000000000000000e+03
-7.078900000000000000e+04 -6.104000000000000000e+03
-6.944300000000000000e+04 -1.773000000000000000e+03
-7.002200000000000000e+04 2.080000000000000000e+03
-6.833400000000000000e+04 7.519000000000000000e+03
-6.734500000000000000e+04 1.098000000000000000e+04
-6.765200000000000000e+04 1.546400000000000000e+04
-6.395200000000000000e+04 1.933400000000000000e+04
-6.299800000000000000e+04 2.288100000000000000e+04
-6.258800000000000000e+04 2.825100000000000000e+04
-5.994600000000000000e+04 3.048500000000000000e+04
-5.842800000000000000e+04 3.316100000000000000e+04
-5.527400000000000000e+04 3.577000000000000000e+04
-5.281900000000000000e+04 4.172000000000000000e+04
-4.840300000000000000e+04 4.509700000000000000e+04
-4.828400000000000000e+04 4.750000000000000000e+04
-4.405600000000000000e+04 4.998900000000000000e+04
-4.010000000000000000e+04 5.167700000000000000e+04
-3.733800000000000000e+04 5.520600000000000000e+04
-3.375800000000000000e+04 5.623000000000000000e+04
-3.009200000000000000e+04 5.822400000000000000e+04
-2.569300000000000000e+04 6.069600000000000000e+04
-2.148200000000000000e+04 6.240200000000000000e+04
-2.015200000000000000e+04 6.475400000000000000e+04
-1.601000000000000000e+04 6.484000000000000000e+04
-1.133800000000000000e+04 6.622100000000000000e+04
-7.740000000000000000e+03 6.736300000000000000e+04
-4.381000000000000000e+03 6.674900000000000000e+04
-3.400000000000000000e+01 6.727700000000000000e+04
3.683000000000000000e+03 6.770400000000000000e+04
6.087000000000000000e+03 6.826600000000000000e+04
1.205400000000000000e+04 6.683400000000000000e+04
1.563400000000000000e+04 6.705600000000000000e+04
1.838000000000000000e+04 6.513000000000000000e+04
2.363100000000000000e+04 6.473700000000000000e+04
2.656400000000000000e+04 6.257200000000000000e+04
3.068900000000000000e+04 6.177100000000000000e+04
3.432100000000000000e+04 5.955400000000000000e+04
3.730400000000000000e+04 5.798500000000000000e+04
4.076600000000000000e+04 5.623000000000000000e+04
4.345900000000000000e+04 5.409800000000000000e+04
4.547100000000000000e+04 5.232600000000000000e+04
5.068800000000000000e+04 4.898300000000000000e+04
5.213700000000000000e+04 4.652900000000000000e+04
5.542800000000000000e+04 4.306800000000000000e+04
5.687800000000000000e+04 4.086800000000000000e+04
5.919600000000000000e+04 3.848100000000000000e+04
6.253800000000000000e+04 3.387700000000000000e+04
6.192400000000000000e+04 3.167800000000000000e+04
6.610100000000000000e+04 2.738200000000000000e+04
6.801100000000000000e+04 2.465400000000000000e+04
6.835100000000000000e+04 2.032300000000000000e+04
7.019300000000000000e+04 1.548100000000000000e+04
7.147100000000000000e+04 1.111700000000000000e+04
7.344900000000000000e+04 6.564000000000000000e+03
7.333000000000000000e+04 1.108000000000000000e+03
7.346700000000000000e+04 -3.205000000000000000e+03
7.338100000000000000e+04 -6.683000000000000000e+03
7.275000000000000000e+04 -1.058800000000000000e+04
7.353400000000000000e+04 -1.655500000000000000e+04
7.200000000000000000e+04 -2.126000000000000000e+04
7.157400000000000000e+04 -2.700600000000000000e+04
7.111300000000000000e+04 -3.159300000000000000e+04
6.831700000000000000e+04 -3.478100000000000000e+04
6.748300000000000000e+04 -4.102100000000000000e+04
6.432900000000000000e+04 -4.710800000000000000e+04
6.129300000000000000e+04 -5.068800000000000000e+04
5.946900000000000000e+04 -5.646800000000000000e+04
5.423500000000000000e+04 -6.131000000000000000e+04
5.247900000000000000e+04 -6.608400000000000000e+04
4.652900000000000000e+04 -6.901600000000000000e+04
4.380100000000000000e+04 -7.442100000000000000e+04
3.872000000000000000e+04 -7.788200000000000000e+04
3.428600000000000000e+04 -8.260500000000000000e+04
2.932600000000000000e+04 -8.650900000000000000e+04
2.230100000000000000e+04 -8.743000000000000000e+04
1.618000000000000000e+04 -8.998700000000000000e+04
1.115100000000000000e+04 -9.575000000000000000e+04
3.682000000000000000e+03 -9.653500000000000000e+04
-3.240000000000000000e+03 -9.633000000000000000e+04
-8.899000000000000000e+03 -9.951800000000000000e+04
-1.647000000000000000e+04 -9.909200000000000000e+04
-2.235200000000000000e+04 -9.902400000000000000e+04
-3.123500000000000000e+04 -9.986000000000000000e+04
-3.756000000000000000e+04 -1.000980000000000000e+05
-4.453300000000000000e+04 -9.718200000000000000e+04
-5.251200000000000000e+04 -9.481200000000000000e+04
-5.895700000000000000e+04 -9.193100000000000000e+04
-6.724300000000000000e+04 -8.765200000000000000e+04
-7.259700000000000000e+04 -8.506000000000000000e+04
-7.922900000000000000e+04 -7.916200000000000000e+04
-8.333700000000000000e+04 -7.477900000000000000e+04
-9.032800000000000000e+04 -7.003900000000000000e+04
-9.402800000000000000e+04 -6.158300000000000000e+04
-9.922800000000000000e+04 -5.634800000000000000e+04
-1.041720000000000000e+05 -5.085900000000000000e+04
-1.074460000000000000e+05 -4.288000000000000000e+04
-1.104800000000000000e+05 -3.553100000000000000e+04
-1.137370000000000000e+05 -2.675000000000000000e+04
-1.138560000000000000e+05 -1.919800000000000000e+04
-1.152890000000000000e+05 -1.079200000000000000e+04
-1.141980000000000000e+05 -2.318000000000000000e+03
-1.146750000000000000e+05 4.637000000000000000e+03
-1.145380000000000000e+05 1.323100000000000000e+04
-1.130550000000000000e+05 2.567600000000000000e+04
-1.111960000000000000e+05 3.196800000000000000e+04
-1.089460000000000000e+05 3.904200000000000000e+04
-1.051440000000000000e+05 4.753300000000000000e+04
-1.005240000000000000e+05 5.418400000000000000e+04
-9.711300000000000000e+04 6.265700000000000000e+04
-9.165800000000000000e+04 6.928900000000000000e+04
-8.640700000000000000e+04 7.600600000000000000e+04
-8.057600000000000000e+04 8.274200000000000000e+04
-7.489800000000000000e+04 8.862300000000000000e+04
-6.922100000000000000e+04 9.576600000000000000e+04
-6.127600000000000000e+04 9.750600000000000000e+04
-5.432000000000000000e+04 1.017350000000000000e+05
-4.748300000000000000e+04 1.063550000000000000e+05
-3.981000000000000000e+04 1.096950000000000000e+05
-3.072300000000000000e+04 1.118950000000000000e+05
-2.281200000000000000e+04 1.124920000000000000e+05
-1.549800000000000000e+04 1.161070000000000000e+05
-8.252000000000000000e+03 1.160890000000000000e+05
3.410000000000000000e+02 1.176070000000000000e+05
7.024000000000000000e+03 1.154760000000000000e+05
1.393000000000000000e+04 1.137880000000000000e+05
2.233500000000000000e+04 1.125950000000000000e+05
3.028000000000000000e+04 1.121170000000000000e+05
3.648600000000000000e+04 1.110090000000000000e+05
4.438000000000000000e+04 1.068660000000000000e+05
5.075600000000000000e+04 1.033710000000000000e+05
5.665600000000000000e+04 1.011710000000000000e+05
6.277700000000000000e+04 9.694300000000000000e+04
6.755100000000000000e+04 9.281800000000000000e+04
7.363700000000000000e+04 8.732700000000000000e+04
7.818900000000000000e+04 8.098500000000000000e+04
8.124100000000000000e+04 7.517000000000000000e+04
8.739600000000000000e+04 6.978300000000000000e+04
9.147100000000000000e+04 6.395300000000000000e+04
9.321000000000000000e+04 5.953700000000000000e+04
9.745500000000000000e+04 5.316000000000000000e+04
9.941600000000000000e+04 4.801100000000000000e+04
1.014960000000000000e+05 4.114000000000000000e+04
1.023490000000000000e+05 3.394500000000000000e+04
1.030140000000000000e+05 2.646000000000000000e+04
1.035760000000000000e+05 2.146500000000000000e+04
1.038490000000000000e+05 1.375900000000000000e+04
1.045130000000000000e+05 7.331000000000000000e+03
1.014790000000000000e+05 2.933000000000000000e+03
1.017860000000000000e+05 -4.927000000000000000e+03
1.010690000000000000e+05 -1.087800000000000000e+04
9.907400000000000000e+04 -1.716900000000000000e+04
9.699400000000000000e+04 -2.305100000000000000e+04
9.534000000000000000e+04 -2.797900000000000000e+04
9.148800000000000000e+04 -3.319500000000000000e+04
8.951000000000000000e+04 -3.785000000000000000e+04
8.657700000000000000e+04 -4.293100000000000000e+04
8.265600000000000000e+04 -4.883000000000000000e+04
7.943400000000000000e+04 -5.213800000000000000e+04
7.571700000000000000e+04 -5.754200000000000000e+04
7.350000000000000000e+04 -6.221400000000000000e+04
6.818100000000000000e+04 -6.441300000000000000e+04
6.620300000000000000e+04 -6.749900000000000000e+04
6.122400000000000000e+04 -7.177800000000000000e+04
5.573400000000000000e+04 -7.428500000000000000e+04
5.195000000000000000e+04 -7.650100000000000000e+04
4.693700000000000000e+04 -8.018400000000000000e+04
4.235100000000000000e+04 -8.178700000000000000e+04
3.827600000000000000e+04 -8.374700000000000000e+04
3.247900000000000000e+04 -8.562200000000000000e+04
2.913800000000000000e+04 -8.639000000000000000e+04
2.444900000000000000e+04 -8.783900000000000000e+04
2.020300000000000000e+04 -8.889600000000000000e+04
1.599200000000000000e+04 -9.055100000000000000e+04
1.098000000000000000e+04 -8.981800000000000000e+04
5.473000000000000000e+03 -9.113000000000000000e+04
-6.480000000000000000e+02 -9.135200000000000000e+04
-3.819000000000000000e+03 -8.947600000000000000e+04
-9.752000000000000000e+03 -8.993700000000000000e+04
-1.418500000000000000e+04 -8.969800000000000000e+04
-1.704900000000000000e+04 -8.824800000000000000e+04
-2.109000000000000000e+04 -8.893100000000000000e+04
-2.601700000000000000e+04 -8.737900000000000000e+04
-3.118400000000000000e+04 -8.591300000000000000e+04
-3.421900000000000000e+04 -8.514500000000000000e+04
-3.890600000000000000e+04 -8.221300000000000000e+04
-4.242000000000000000e+04 -8.021800000000000000e+04
-4.690300000000000000e+04 -7.771200000000000000e+04
-4.908600000000000000e+04 -7.650100000000000000e+04
-5.479700000000000000e+04 -7.523900000000000000e+04
-5.786600000000000000e+04 -7.101100000000000000e+04
-6.204300000000000000e+04 -6.831700000000000000e+04
-6.547000000000000000e+04 -6.495800000000000000e+04
-7.038100000000000000e+04 -6.267500000000000000e+04
-7.317600000000000000e+04 -5.859900000000000000e+04
-7.372300000000000000e+04 -5.670700000000000000e+04
-7.771100000000000000e+04 -5.252900000000000000e+04
-8.115600000000000000e+04 -4.898300000000000000e+04
-8.415700000000000000e+04 -4.478900000000000000e+04
-8.664600000000000000e+04 -4.131100000000000000e+04
-8.940700000000000000e+04 -3.474600000000000000e+04
-9.271500000000000000e+04 -3.220600000000000000e+04
-9.419800000000000000e+04 -2.618900000000000000e+04
-9.517100000000000000e+04 -2.260800000000000000e+04
-9.622700000000000000e+04 -1.670800000000000000e+04
-9.738800000000000000e+04 -1.207100000000000000e+04
-9.975700000000000000e+04 -6.819000000000000000e+03
-9.996200000000000000e+04 -3.410000000000000000e+02
-9.933000000000000000e+04 4.348000000000000000e+03
-1.007120000000000000e+05 1.067300000000000000e+04
-1.021950000000000000e+05 1.510600000000000000e+04
-9.962100000000000000e+04 2.211400000000000000e+04
-9.892200000000000000e+04 2.571100000000000000e+04
-9.793200000000000000e+04 3.121800000000000000e+04
-9.491500000000000000e+04 3.807200000000000000e+04
-9.641500000000000000e+04 4.363000000000000000e+04
-9.361900000000000000e+04 5.046600000000000000e+04
-9.210200000000000000e+04 5.536000000000000000e+04
-8.775400000000000000e+04 6.093500000000000000e+04
-8.512900000000000000e+04 6.727800000000000000e+04
-8.114000000000000000e+04 7.269900000000000000e+04
-7.595500000000000000e+04 7.738800000000000000e+04
-7.283600000000000000e+04 8.119000000000000000e+04
-6.877800000000000000e+04 8.751400000000000000e+04
-6.195900000000000000e+04 9.000400000000000000e+04
-5.662200000000000000e+04 9.517000000000000000e+04
-5.244500000000000000e+04 9.718200000000000000e+04
-4.663100000000000000e+04 1.016490000000000000e+05
-4.259000000000000000e+04 9.861400000000000000e+04
-3.251300000000000000e+04 1.066610000000000000e+05
-2.813200000000000000e+04 1.105480000000000000e+05
-2.090300000000000000e+04 1.124750000000000000e+05
-1.318000000000000000e+04 1.140440000000000000e+05
-7.946000000000000000e+03 1.160900000000000000e+05
8.010000000000000000e+02 1.156470000000000000e+05
5.677000000000000000e+03 1.151860000000000000e+05
1.403100000000000000e+04 1.149140000000000000e+05
2.010100000000000000e+04 1.144700000000000000e+05
2.746700000000000000e+04 1.121680000000000000e+05
3.510600000000000000e+04 1.116740000000000000e+05
4.134400000000000000e+04 1.088090000000000000e+05
4.857300000000000000e+04 1.080250000000000000e+05
5.411500000000000000e+04 1.037290000000000000e+05
6.112300000000000000e+04 9.994400000000000000e+04
6.577700000000000000e+04 9.663600000000000000e+04
7.303900000000000000e+04 9.257900000000000000e+04
7.610900000000000000e+04 8.635600000000000000e+04
8.161600000000000000e+04 8.248500000000000000e+04
8.633800000000000000e+04 7.644900000000000000e+04
9.083900000000000000e+04 7.367100000000000000e+04
9.452300000000000000e+04 6.601500000000000000e+04
9.943200000000000000e+04 6.163400000000000000e+04
1.023480000000000000e+05 5.517200000000000000e+04
1.050250000000000000e+05 4.843800000000000000e+04
1.071220000000000000e+05 4.221400000000000000e+04
1.086230000000000000e+05 3.539500000000000000e+04
1.099860000000000000e+05 2.862600000000000000e+04
1.129010000000000000e+05 2.057800000000000000e+04
1.122710000000000000e+05 1.430400000000000000e+04
1.115540000000000000e+05 7.638000000000000000e+03
1.122200000000000000e+05 2.199000000000000000e+03
1.103440000000000000e+05 -7.042000000000000000e+03
1.110100000000000000e+05 -1.234400000000000000e+04
1.088780000000000000e+05 -1.952200000000000000e+04
1.065250000000000000e+05 -2.494300000000000000e+04
1.042240000000000000e+05 -3.225800000000000000e+04
1.011380000000000000e+05 -3.723600000000000000e+04
9.771100000000000000e+04 -4.247000000000000000e+04
9.419900000000000000e+04 -4.963100000000000000e+04
9.063500000000000000e+04 -5.501900000000000000e+04
8.543500000000000000e+04 -5.812200000000000000e+04
8.202500000000000000e+04 -6.446400000000000000e+04
7.728500000000000000e+04 -6.755100000000000000e+04
7.312600000000000000e+04 -7.189700000000000000e+04
6.898200000000000000e+04 -7.520500000000000000e+04
6.100300000000000000e+04 -7.885300000000000000e+04
5.563300000000000000e+04 -8.030300000000000000e+04
5.166000000000000000e+04 -8.238300000000000000e+04
4.526600000000000000e+04 -8.444600000000000000e+04
4.079900000000000000e+04 -8.659400000000000000e+04
3.573600000000000000e+04 -8.642400000000000000e+04
2.949500000000000000e+04 -8.806000000000000000e+04
2.473900000000000000e+04 -8.821400000000000000e+04
1.921500000000000000e+04 -8.874200000000000000e+04
1.358800000000000000e+04 -8.833400000000000000e+04
8.423000000000000000e+03 -8.724200000000000000e+04
3.410000000000000000e+03 -8.678100000000000000e+04
-7.340000000000000000e+02 -8.396900000000000000e+04
-7.059000000000000000e+03 -8.219600000000000000e+04
-1.011100000000000000e+04 -8.166700000000000000e+04
-1.364000000000000000e+04 -7.984300000000000000e+04
-1.785100000000000000e+04 -7.878500000000000000e+04
-2.139700000000000000e+04 -7.631300000000000000e+04
-2.584700000000000000e+04 -7.252800000000000000e+04
-2.804700000000000000e+04 -6.942500000000000000e+04
-3.236000000000000000e+04 -6.801100000000000000e+04
-3.432100000000000000e+04 -6.376500000000000000e+04
-3.732100000000000000e+04 -6.127600000000000000e+04
-3.993000000000000000e+04 -5.878600000000000000e+04
-4.228300000000000000e+04 -5.622900000000000000e+04
-4.494300000000000000e+04 -5.196700000000000000e+04
-4.647700000000000000e+04 -4.850600000000000000e+04
-4.826700000000000000e+04 -4.593200000000000000e+04
-4.935900000000000000e+04 4.282800000000000000e+04
1.292400000000000000e+04 -2.370000000000000000e+03
1.130400000000000000e+04 -2.165000000000000000e+03
8.968000000000000000e+03 7.680000000000000000e+02
7.791000000000000000e+03 1.381000000000000000e+03
4.552000000000000000e+03 -3.920000000000000000e+02
3.512000000000000000e+03 -6.650000000000000000e+02
2.558000000000000000e+03 -1.790000000000000000e+03
1.978000000000000000e+03 -2.200000000000000000e+03
1.449000000000000000e+03 -5.968000000000000000e+03
5.120000000000000000e+02 -7.314000000000000000e+03
8.190000000000000000e+02 -9.036000000000000000e+03
2.745000000000000000e+03 -9.173000000000000000e+03
4.440000000000000000e+02 -1.082600000000000000e+04
2.864000000000000000e+03 -1.232700000000000000e+04
2.557000000000000000e+03 -1.248000000000000000e+04
4.688000000000000000e+03 -1.176400000000000000e+04
3.563000000000000000e+03 -1.398100000000000000e+04
3.735000000000000000e+03 -1.335000000000000000e+04
3.461000000000000000e+03 -1.295700000000000000e+04
3.631000000000000000e+03 -1.306000000000000000e+04
4.229000000000000000e+03 -1.217400000000000000e+04
3.683000000000000000e+03 -1.183200000000000000e+04
3.393000000000000000e+03 -1.195200000000000000e+04
1.024000000000000000e+03 -1.239500000000000000e+04
7.330000000000000000e+02 -1.019600000000000000e+04
-2.199000000000000000e+03 -1.034900000000000000e+04
-4.757000000000000000e+03 -8.814000000000000000e+03
-4.944000000000000000e+03 -9.053000000000000000e+03
-7.672000000000000000e+03 -9.582000000000000000e+03
-1.082700000000000000e+04 -1.046800000000000000e+04
-1.224200000000000000e+04 -9.360000000000000000e+03
-1.242900000000000000e+04 -9.548000000000000000e+03
-1.386200000000000000e+04 -8.405000000000000000e+03
-1.514000000000000000e+04 -9.037000000000000000e+03
-1.897600000000000000e+04 -8.457000000000000000e+03
-1.853300000000000000e+04 -1.063900000000000000e+04
-1.926600000000000000e+04 -8.115000000000000000e+03
-1.848100000000000000e+04 -1.005900000000000000e+04
-1.793600000000000000e+04 -8.882000000000000000e+03
-1.674300000000000000e+04 -7.194000000000000000e+03
-1.609500000000000000e+04 -6.717000000000000000e+03
-1.884000000000000000e+04 -5.046000000000000000e+03
-1.706600000000000000e+04 -2.933000000000000000e+03
-1.752700000000000000e+04 -2.762000000000000000e+03
-1.657200000000000000e+04 -2.900000000000000000e+02
-1.849900000000000000e+04 2.949000000000000000e+03
-1.885700000000000000e+04 1.961000000000000000e+03
-1.762900000000000000e+04 4.876000000000000000e+03
-1.798800000000000000e+04 6.224000000000000000e+03
-1.907800000000000000e+04 7.485000000000000000e+03
-1.705000000000000000e+04 8.678000000000000000e+03
-1.826000000000000000e+04 8.491000000000000000e+03
-1.981200000000000000e+04 9.463000000000000000e+03
-1.866900000000000000e+04 1.040000000000000000e+04
-1.674300000000000000e+04 1.060500000000000000e+04
-1.677600000000000000e+04 1.266800000000000000e+04
-1.728800000000000000e+04 1.159300000000000000e+04
-1.686200000000000000e+04 1.200300000000000000e+04
-1.606100000000000000e+04 1.306000000000000000e+04
-1.491800000000000000e+04 1.190000000000000000e+04
-1.471300000000000000e+04 1.353800000000000000e+04
-1.379300000000000000e+04 1.363900000000000000e+04
-1.186700000000000000e+04 1.478200000000000000e+04
-1.072400000000000000e+04 1.512300000000000000e+04
-9.241000000000000000e+03 1.565100000000000000e+04
-7.621000000000000000e+03 1.577100000000000000e+04
-6.292000000000000000e+03 1.909500000000000000e+04
-4.927000000000000000e+03 1.802200000000000000e+04
-2.762000000000000000e+03 1.979500000000000000e+04
-1.995000000000000000e+03 2.187500000000000000e+04
-1.585000000000000000e+03 2.211300000000000000e+04
1.710000000000000000e+02 2.178900000000000000e+04
-3.070000000000000000e+02 2.247100000000000000e+04
2.523000000000000000e+03 2.409100000000000000e+04
2.659000000000000000e+03 2.441500000000000000e+04
2.677000000000000000e+03 2.509700000000000000e+04
5.388000000000000000e+03 2.436400000000000000e+04
5.217000000000000000e+03 2.487600000000000000e+04
7.058000000000000000e+03 2.305100000000000000e+04
7.877000000000000000e+03 2.458600000000000000e+04
1.109900000000000000e+04 2.293200000000000000e+04
1.287200000000000000e+04 2.175500000000000000e+04
1.411700000000000000e+04 2.398900000000000000e+04
1.517400000000000000e+04 2.242100000000000000e+04
1.694700000000000000e+04 2.074900000000000000e+04
1.904400000000000000e+04 2.006700000000000000e+04
2.243700000000000000e+04 1.919800000000000000e+04
2.589800000000000000e+04 1.861800000000000000e+04
2.779100000000000000e+04 1.795400000000000000e+04
2.840500000000000000e+04 1.572000000000000000e+04
3.207000000000000000e+04 1.331500000000000000e+04
3.316200000000000000e+04 1.456000000000000000e+04
3.501900000000000000e+04 1.239500000000000000e+04
3.657100000000000000e+04 1.099700000000000000e+04
3.902600000000000000e+04 7.962000000000000000e+03
3.958900000000000000e+04 6.854000000000000000e+03
4.091900000000000000e+04 4.587000000000000000e+03
3.979400000000000000e+04 1.484000000000000000e+03
4.235200000000000000e+04 -6.480000000000000000e+02
4.039000000000000000e+04 -3.870000000000000000e+03
4.146400000000000000e+04 -6.394000000000000000e+03
3.981100000000000000e+04 -1.121900000000000000e+04
3.904300000000000000e+04 -1.198500000000000000e+04
3.894200000000000000e+04 -1.461100000000000000e+04
3.703100000000000000e+04 -1.773200000000000000e+04
3.727000000000000000e+04 -2.045900000000000000e+04
3.396300000000000000e+04 -2.364800000000000000e+04
3.375900000000000000e+04 -2.681900000000000000e+04
3.365600000000000000e+04 -2.789300000000000000e+04
2.918900000000000000e+04 -3.116600000000000000e+04
2.789300000000000000e+04 -3.324600000000000000e+04
2.554000000000000000e+04 -3.594100000000000000e+04
2.240300000000000000e+04 -3.624700000000000000e+04
2.095400000000000000e+04 -3.986100000000000000e+04
1.837900000000000000e+04 -4.042500000000000000e+04
1.469700000000000000e+04 -4.392000000000000000e+04
1.333300000000000000e+04 -4.939300000000000000e+04
5.036400000000000000e+04 -8.200800000000000000e+04
-9.720000000000000000e+02 -3.120000000000000000e+04
-4.610000000000000000e+02 -3.856600000000000000e+04
-3.512000000000000000e+03 -4.083400000000000000e+04
-5.814000000000000000e+03 -4.320400000000000000e+04
-8.184000000000000000e+03 -4.276000000000000000e+04
-1.254900000000000000e+04 -4.303300000000000000e+04
-1.450900000000000000e+04 -4.134600000000000000e+04
-1.839600000000000000e+04 -4.173800000000000000e+04
-2.076600000000000000e+04 -4.083300000000000000e+04
-2.380100000000000000e+04 -4.010100000000000000e+04
-2.439800000000000000e+04 -3.756000000000000000e+04
-2.859200000000000000e+04 -3.609400000000000000e+04
-3.256500000000000000e+04 -3.536100000000000000e+04
-3.225800000000000000e+04 -3.473000000000000000e+04
-3.498600000000000000e+04 -3.205300000000000000e+04
-3.542900000000000000e+04 -3.000700000000000000e+04
-3.815700000000000000e+04 -2.661400000000000000e+04
-4.126000000000000000e+04 -2.693800000000000000e+04
-4.323800000000000000e+04 -2.421100000000000000e+04
-4.473900000000000000e+04 -2.182400000000000000e+04
-4.509700000000000000e+04 -2.022100000000000000e+04
-4.702300000000000000e+04 -1.626500000000000000e+04
-4.847200000000000000e+04 -1.285500000000000000e+04
-4.886400000000000000e+04 -1.184900000000000000e+04
-5.131900000000000000e+04 -9.428000000000000000e+03
-5.259800000000000000e+04 -5.814000000000000000e+03
-5.423400000000000000e+04 -1.876000000000000000e+03
-5.462700000000000000e+04 -1.756000000000000000e+03
-5.428600000000000000e+04 1.875000000000000000e+03
-5.532600000000000000e+04 5.167000000000000000e+03
-5.561500000000000000e+04 7.996000000000000000e+03
-5.314400000000000000e+04 9.974000000000000000e+03
-5.367200000000000000e+04 1.404900000000000000e+04
-5.350100000000000000e+04 1.676000000000000000e+04
-5.329700000000000000e+04 1.855000000000000000e+04
-5.089300000000000000e+04 2.262500000000000000e+04
-4.997200000000000000e+04 2.460200000000000000e+04
-4.825000000000000000e+04 2.738200000000000000e+04
-4.663100000000000000e+04 3.080800000000000000e+04
-4.391900000000000000e+04 3.236000000000000000e+04
-4.204400000000000000e+04 3.709900000000000000e+04
-3.904400000000000000e+04 3.883900000000000000e+04
-3.621300000000000000e+04 4.064600000000000000e+04
-3.287200000000000000e+04 4.357900000000000000e+04
-3.111500000000000000e+04 4.565800000000000000e+04
-2.709200000000000000e+04 4.685200000000000000e+04
-2.490900000000000000e+04 4.634000000000000000e+04
-2.168700000000000000e+04 5.000600000000000000e+04
-1.716900000000000000e+04 5.138700000000000000e+04
-1.440700000000000000e+04 5.181300000000000000e+04
-1.055300000000000000e+04 5.459300000000000000e+04
-6.956000000000000000e+03 5.217200000000000000e+04
-2.898000000000000000e+03 5.474600000000000000e+04
4.090000000000000000e+02 5.413200000000000000e+04
2.455000000000000000e+03 5.510400000000000000e+04
7.485000000000000000e+03 5.331400000000000000e+04
1.123500000000000000e+04 5.421700000000000000e+04
1.537900000000000000e+04 5.166000000000000000e+04
1.851600000000000000e+04 5.309200000000000000e+04
2.051100000000000000e+04 4.998900000000000000e+04
2.448300000000000000e+04 4.903500000000000000e+04
2.722800000000000000e+04 4.683500000000000000e+04
3.116700000000000000e+04 4.698800000000000000e+04
3.367300000000000000e+04 4.586400000000000000e+04
3.628200000000000000e+04 4.279400000000000000e+04
3.952000000000000000e+04 3.924900000000000000e+04
4.142900000000000000e+04 3.878700000000000000e+04
4.371500000000000000e+04 3.745800000000000000e+04
4.664700000000000000e+04 3.457700000000000000e+04
4.763600000000000000e+04 3.135400000000000000e+04
5.010800000000000000e+04 3.014300000000000000e+04
5.249500000000000000e+04 2.709200000000000000e+04
5.217200000000000000e+04 2.358000000000000000e+04
5.333000000000000000e+04 2.102200000000000000e+04
5.522300000000000000e+04 1.887400000000000000e+04
5.554700000000000000e+04 1.566800000000000000e+04
5.767800000000000000e+04 1.507200000000000000e+04
5.774600000000000000e+04 1.067300000000000000e+04
5.871800000000000000e+04 7.877000000000000000e+03
6.015100000000000000e+04 6.939000000000000000e+03
6.117400000000000000e+04 2.370000000000000000e+03
5.945100000000000000e+04 6.650000000000000000e+02
6.079900000000000000e+04 -3.035000000000000000e+03
5.899100000000000000e+04 -4.706000000000000000e+03
5.858200000000000000e+04 -7.485000000000000000e+03
6.032100000000000000e+04 -1.176400000000000000e+04
6.004800000000000000e+04 -1.294000000000000000e+04
5.870100000000000000e+04 -1.812400000000000000e+04
5.800300000000000000e+04 -1.851600000000000000e+04
5.842800000000000000e+04 -2.223300000000000000e+04
5.757600000000000000e+04 -2.368200000000000000e+04
5.519000000000000000e+04 -2.857500000000000000e+04
5.370600000000000000e+04 -3.150800000000000000e+04
5.278500000000000000e+04 -3.539500000000000000e+04
5.167700000000000000e+04 -3.597500000000000000e+04
4.963100000000000000e+04 -3.964000000000000000e+04
4.825000000000000000e+04 -4.059500000000000000e+04
4.478900000000000000e+04 -4.586300000000000000e+04
4.420900000000000000e+04 -4.629000000000000000e+04
4.061200000000000000e+04 -4.760200000000000000e+04
3.786700000000000000e+04 -5.235900000000000000e+04
3.687800000000000000e+04 -5.355200000000000000e+04
3.208700000000000000e+04 -5.488300000000000000e+04
2.811400000000000000e+04 -5.704700000000000000e+04
2.612000000000000000e+04 -6.040600000000000000e+04
2.163500000000000000e+04 -6.136100000000000000e+04
6.581100000000000000e+04 -2.760300000000000000e+04
6.588000000000000000e+04 -3.179700000000000000e+04
6.311700000000000000e+04 -3.539500000000000000e+04
6.105400000000000000e+04 -3.918000000000000000e+04
6.076500000000000000e+04 -4.264100000000000000e+04
5.876900000000000000e+04 -4.514700000000000000e+04
5.583700000000000000e+04 -5.004100000000000000e+04
5.331400000000000000e+04 -5.189800000000000000e+04
5.193200000000000000e+04 -5.486500000000000000e+04
4.807900000000000000e+04 -5.894000000000000000e+04
4.436300000000000000e+04 -6.228200000000000000e+04
4.376600000000000000e+04 -6.425900000000000000e+04
3.704800000000000000e+04 -6.852200000000000000e+04
3.254800000000000000e+04 -7.024400000000000000e+04
2.878000000000000000e+04 -7.338100000000000000e+04
2.364800000000000000e+04 -7.552900000000000000e+04
1.962400000000000000e+04 -7.679000000000000000e+04
1.241200000000000000e+04 -8.006400000000000000e+04
7.433000000000000000e+03 -8.284300000000000000e+04
1.381000000000000000e+03 -8.337200000000000000e+04
-4.604000000000000000e+03 -8.361000000000000000e+04
-9.293000000000000000e+03 -8.400300000000000000e+04
-1.665700000000000000e+04 -8.436100000000000000e+04
-2.257300000000000000e+04 -8.427500000000000000e+04
-2.813200000000000000e+04 -8.291100000000000000e+04
-3.587200000000000000e+04 -8.161600000000000000e+04
-4.168600000000000000e+04 -7.986000000000000000e+04
-4.731300000000000000e+04 -7.776200000000000000e+04
-5.478100000000000000e+04 -7.529100000000000000e+04
-5.948600000000000000e+04 -7.145500000000000000e+04
-6.778800000000000000e+04 -6.770300000000000000e+04
-7.106300000000000000e+04 -6.502700000000000000e+04
-7.542700000000000000e+04 -5.870200000000000000e+04
-8.146200000000000000e+04 -5.498500000000000000e+04
-8.507700000000000000e+04 -5.056800000000000000e+04
-9.032800000000000000e+04 -4.504500000000000000e+04
-9.159000000000000000e+04 -4.008400000000000000e+04
-9.709700000000000000e+04 -3.617900000000000000e+04
-9.953500000000000000e+04 -2.905200000000000000e+04
-1.020070000000000000e+05 -2.451700000000000000e+04
-1.024680000000000000e+05 -1.853300000000000000e+04
-1.039000000000000000e+05 -1.285600000000000000e+04
-1.055530000000000000e+05 -5.882000000000000000e+03
-1.054850000000000000e+05 1.020000000000000000e+02
-1.059460000000000000e+05 5.371000000000000000e+03
-1.049230000000000000e+05 1.132100000000000000e+04
-1.034560000000000000e+05 1.665800000000000000e+04
-1.033710000000000000e+05 2.448300000000000000e+04
-9.926200000000000000e+04 2.981900000000000000e+04
-9.754100000000000000e+04 3.542900000000000000e+04
-9.481300000000000000e+04 3.958900000000000000e+04
-9.278300000000000000e+04 4.620500000000000000e+04
-8.864100000000000000e+04 4.940900000000000000e+04
-8.480400000000000000e+04 5.559900000000000000e+04
-8.129200000000000000e+04 6.052500000000000000e+04
-7.793400000000000000e+04 6.333900000000000000e+04
-7.399500000000000000e+04 6.790800000000000000e+04
-7.056800000000000000e+04 7.080700000000000000e+04
-6.356000000000000000e+04 7.575100000000000000e+04
-5.815600000000000000e+04 7.827500000000000000e+04
-5.549600000000000000e+04 8.110400000000000000e+04
-4.733000000000000000e+04 8.292900000000000000e+04
-4.127700000000000000e+04 8.514500000000000000e+04
-3.599100000000000000e+04 8.535000000000000000e+04
-3.155900000000000000e+04 8.853800000000000000e+04
-2.458600000000000000e+04 9.177800000000000000e+04
-1.843100000000000000e+04 9.019200000000000000e+04
-1.145700000000000000e+04 9.215300000000000000e+04
-5.183000000000000000e+03 8.951000000000000000e+04
1.517000000000000000e+03 8.956200000000000000e+04
7.604000000000000000e+03 9.107900000000000000e+04
1.469700000000000000e+04 8.925400000000000000e+04
2.083500000000000000e+04 8.814600000000000000e+04
2.647700000000000000e+04 8.703800000000000000e+04
3.178000000000000000e+04 8.463400000000000000e+04
3.774800000000000000e+04 8.127500000000000000e+04
