3.819000000000000000e+03 -1.552000000000000000e+03
2.694000000000000000e+03 -8.180000000000000000e+02
8.700000000000000000e+02 3.750000000000000000e+02
4.484000000000000000e+03 -3.500000000000000000e+01
1.518000000000000000e+03 -2.643000000000000000e+03
2.949000000000000000e+03 -2.677000000000000000e+03
1.500000000000000000e+03 -2.574000000000000000e+03
1.176000000000000000e+03 -1.654000000000000000e+03
2.233000000000000000e+03 -2.149000000000000000e+03
2.387000000000000000e+03 -2.217000000000000000e+03
1.006000000000000000e+03 -2.745000000000000000e+03
1.534000000000000000e+03 -2.336000000000000000e+03
-5.460000000000000000e+02 -3.546000000000000000e+03
1.540000000000000000e+02 -1.551000000000000000e+03
5.800000000000000000e+02 -1.841000000000000000e+03
-5.630000000000000000e+02 -3.358000000000000000e+03
1.227000000000000000e+03 -3.018000000000000000e+03
-5.100000000000000000e+01 -3.973000000000000000e+03
-4.950000000000000000e+02 -2.660000000000000000e+03
-9.210000000000000000e+02 -9.890000000000000000e+02
3.400000000000000000e+01 -4.177000000000000000e+03
3.930000000000000000e+02 -3.973000000000000000e+03
-1.125000000000000000e+03 -2.063000000000000000e+03
-1.841000000000000000e+03 -7.840000000000000000e+02
-3.172000000000000000e+03 -9.040000000000000000e+02
-2.472000000000000000e+03 -1.620000000000000000e+03
-2.984000000000000000e+03 -1.978000000000000000e+03
-2.950000000000000000e+03 -2.063000000000000000e+03
-2.796000000000000000e+03 -2.200000000000000000e+03
-3.172000000000000000e+03 -3.240000000000000000e+02
-2.848000000000000000e+03 -1.360000000000000000e+02
-4.330000000000000000e+03 5.800000000000000000e+02
-4.450000000000000000e+03 1.466000000000000000e+03
-3.870000000000000000e+03 7.160000000000000000e+02
-2.882000000000000000e+03 1.415000000000000000e+03
-5.985000000000000000e+03 3.734000000000000000e+03
-5.729000000000000000e+03 2.438000000000000000e+03
-4.722000000000000000e+03 3.888000000000000000e+03
-5.047000000000000000e+03 3.308000000000000000e+03
-4.996000000000000000e+03 4.244000000000000000e+03
-5.081000000000000000e+03 5.746000000000000000e+03
-4.842000000000000000e+03 7.553000000000000000e+03
-5.285000000000000000e+03 6.359000000000000000e+03
-3.581000000000000000e+03 8.320000000000000000e+03
-1.944000000000000000e+03 8.968000000000000000e+03
-1.995000000000000000e+03 8.678000000000000000e+03
-1.875000000000000000e+03 9.411000000000000000e+03
-1.176000000000000000e+03 1.029700000000000000e+04
3.070000000000000000e+02 1.242900000000000000e+04
-3.580000000000000000e+02 1.227500000000000000e+04
2.455000000000000000e+03 1.389500000000000000e+04
2.984000000000000000e+03 1.486700000000000000e+04
6.053000000000000000e+03 1.353700000000000000e+04
5.813000000000000000e+03 1.292400000000000000e+04
7.809000000000000000e+03 1.369000000000000000e+04
9.394000000000000000e+03 1.485000000000000000e+04
1.092800000000000000e+04 1.367400000000000000e+04
1.181500000000000000e+04 1.401500000000000000e+04
1.479900000000000000e+04 1.234400000000000000e+04
1.677700000000000000e+04 1.104800000000000000e+04
1.744100000000000000e+04 1.028100000000000000e+04
1.785100000000000000e+04 8.951000000000000000e+03
1.827700000000000000e+04 7.194000000000000000e+03
2.098800000000000000e+04 6.120000000000000000e+03
2.027200000000000000e+04 3.000000000000000000e+03
2.190800000000000000e+04 2.900000000000000000e+02
2.236800000000000000e+04 -1.756000000000000000e+03
2.190900000000000000e+04 -3.479000000000000000e+03
2.163500000000000000e+04 -4.893000000000000000e+03
2.088500000000000000e+04 -9.360000000000000000e+03
2.054500000000000000e+04 -1.086100000000000000e+04
2.049400000000000000e+04 -1.202000000000000000e+04
1.657100000000000000e+04 -1.418600000000000000e+04
1.508900000000000000e+04 -1.664000000000000000e+04
1.369000000000000000e+04 -1.829400000000000000e+04
1.150900000000000000e+04 -1.844800000000000000e+04
9.308000000000000000e+03 -2.088600000000000000e+04
4.790000000000000000e+03 -2.013600000000000000e+04
5.183000000000000000e+03 -2.143100000000000000e+04
1.910000000000000000e+03 -2.064700000000000000e+04
4.950000000000000000e+02 -2.185800000000000000e+04
-9.710000000000000000e+02 -1.930100000000000000e+04
-4.723000000000000000e+03 -1.933500000000000000e+04
-6.019000000000000000e+03 -1.856700000000000000e+04
-9.718000000000000000e+03 -1.803800000000000000e+04
-1.021300000000000000e+04 -1.725400000000000000e+04
-8.831000000000000000e+03 -1.483300000000000000e+04
-1.191700000000000000e+04 -1.387800000000000000e+04
-1.215600000000000000e+04 -1.343500000000000000e+04
-1.290600000000000000e+04 -1.024700000000000000e+04
-1.283800000000000000e+04 -9.548000000000000000e+03
-1.375900000000000000e+04 -7.365000000000000000e+03
-1.459400000000000000e+04 -5.558000000000000000e+03
-1.363900000000000000e+04 -6.036000000000000000e+03
-1.645300000000000000e+04 -3.461000000000000000e+03
-1.299200000000000000e+04 -1.313000000000000000e+03
-1.302600000000000000e+04 -1.142000000000000000e+03
-1.428800000000000000e+04 8.530000000000000000e+02
-1.317900000000000000e+04 8.870000000000000000e+02
-1.335000000000000000e+04 2.693000000000000000e+03
-1.251400000000000000e+04 2.591000000000000000e+03
-1.217400000000000000e+04 3.393000000000000000e+03
-1.053600000000000000e+04 4.040000000000000000e+03
-1.014400000000000000e+04 5.951000000000000000e+03
-9.258000000000000000e+03 4.297000000000000000e+03
-8.457000000000000000e+03 7.758000000000000000e+03
-8.883000000000000000e+03 7.570000000000000000e+03
-7.655000000000000000e+03 6.615000000000000000e+03
-6.854000000000000000e+03 7.501000000000000000e+03
-7.127000000000000000e+03 7.740000000000000000e+03
-5.762000000000000000e+03 7.348000000000000000e+03
-4.433000000000000000e+03 1.028000000000000000e+04
-4.314000000000000000e+03 9.395000000000000000e+03
-2.779000000000000000e+03 7.893000000000000000e+03
-3.496000000000000000e+03 9.752000000000000000e+03
-3.546000000000000000e+03 9.616000000000000000e+03
-2.591000000000000000e+03 9.735000000000000000e+03
-1.501000000000000000e+03 1.067300000000000000e+04
-1.739000000000000000e+03 9.701000000000000000e+03
-1.671000000000000000e+03 9.121000000000000000e+03
-1.944000000000000000e+03 9.326000000000000000e+03
6.640000000000000000e+02 7.945000000000000000e+03
5.290000000000000000e+02 9.274000000000000000e+03
8.530000000000000000e+02 8.269000000000000000e+03
6.990000000000000000e+02 9.394000000000000000e+03
3.632000000000000000e+03 1.251400000000000000e+04
1.330000000000000000e+03 8.883000000000000000e+03
2.012000000000000000e+03 7.314000000000000000e+03
2.064000000000000000e+03 8.337000000000000000e+03
3.308000000000000000e+03 8.439000000000000000e+03
3.325000000000000000e+03 9.513000000000000000e+03
4.331000000000000000e+03 8.456000000000000000e+03
2.744000000000000000e+03 8.831000000000000000e+03
3.819000000000000000e+03 7.110000000000000000e+03
4.433000000000000000e+03 6.410000000000000000e+03
4.058000000000000000e+03 7.024000000000000000e+03
4.876000000000000000e+03 7.724000000000000000e+03
4.706000000000000000e+03 5.712000000000000000e+03
3.240000000000000000e+03 7.195000000000000000e+03
4.518000000000000000e+03 8.780000000000000000e+03
4.944000000000000000e+03 7.178000000000000000e+03
6.547000000000000000e+03 6.326000000000000000e+03
7.808000000000000000e+03 6.683000000000000000e+03
5.865000000000000000e+03 5.064000000000000000e+03
6.052000000000000000e+03 4.348000000000000000e+03
7.382000000000000000e+03 5.916000000000000000e+03
6.240000000000000000e+03 5.201000000000000000e+03
5.762000000000000000e+03 4.450000000000000000e+03
5.881000000000000000e+03 4.739000000000000000e+03
4.450000000000000000e+03 4.450000000000000000e+03
5.455000000000000000e+03 2.677000000000000000e+03
6.086000000000000000e+03 3.017000000000000000e+03
6.239000000000000000e+03 3.564000000000000000e+03
7.723000000000000000e+03 3.853000000000000000e+03
7.842000000000000000e+03 2.319000000000000000e+03
7.075000000000000000e+03 2.012000000000000000e+03
6.137000000000000000e+03 2.592000000000000000e+03
7.400000000000000000e+03 1.074000000000000000e+03
7.347000000000000000e+03 1.824000000000000000e+03
5.661000000000000000e+03 9.720000000000000000e+02
8.064000000000000000e+03 0.000000000000000000e+00
6.154000000000000000e+03 3.230000000000000000e+02
6.887000000000000000e+03 -3.410000000000000000e+02
6.854000000000000000e+03 -8.530000000000000000e+02
6.904000000000000000e+03 -1.190000000000000000e+02
6.018000000000000000e+03 -1.927000000000000000e+03
5.797000000000000000e+03 -1.432000000000000000e+03
6.582000000000000000e+03 -1.245000000000000000e+03
6.769000000000000000e+03 -2.642000000000000000e+03
4.211000000000000000e+03 -1.534000000000000000e+03
6.376000000000000000e+03 -2.813000000000000000e+03
7.109000000000000000e+03 -3.444000000000000000e+03
4.995000000000000000e+03 -4.177000000000000000e+03
5.882000000000000000e+03 -2.523000000000000000e+03
5.319000000000000000e+03 -4.552000000000000000e+03
4.569000000000000000e+03 -4.467000000000000000e+03
4.365000000000000000e+03 -4.961000000000000000e+03
4.108000000000000000e+03 -4.109000000000000000e+03
3.359000000000000000e+03 -4.842000000000000000e+03
6.376000000000000000e+03 -6.326000000000000000e+03
2.234000000000000000e+03 -5.917000000000000000e+03
3.972000000000000000e+03 -7.588000000000000000e+03
1.995000000000000000e+03 -5.507000000000000000e+03
2.131000000000000000e+03 -8.286000000000000000e+03
2.507000000000000000e+03 -9.053000000000000000e+03
6.310000000000000000e+02 -7.587000000000000000e+03
1.880000000000000000e+02 -9.377000000000000000e+03
2.380000000000000000e+02 -7.707000000000000000e+03
4.260000000000000000e+02 -7.007000000000000000e+03
-4.430000000000000000e+02 -8.814000000000000000e+03
-9.210000000000000000e+02 -9.344000000000000000e+03
-1.585000000000000000e+03 -8.577000000000000000e+03
-2.728000000000000000e+03 -8.184000000000000000e+03
-4.825000000000000000e+03 -8.917000000000000000e+03
-2.267000000000000000e+03 -1.029800000000000000e+04
-4.314000000000000000e+03 -9.173000000000000000e+03
-3.580000000000000000e+03 -9.531000000000000000e+03
-5.644000000000000000e+03 -9.479000000000000000e+03
-7.263000000000000000e+03 -8.525000000000000000e+03
-6.513000000000000000e+03 -1.035000000000000000e+04
-8.064000000000000000e+03 -8.627000000000000000e+03
-8.235000000000000000e+03 -8.065000000000000000e+03
-9.446000000000000000e+03 -9.633000000000000000e+03
-1.079200000000000000e+04 -8.542000000000000000e+03
-1.188400000000000000e+04 -8.184000000000000000e+03
-1.108200000000000000e+04 -7.076000000000000000e+03
-1.282100000000000000e+04 -7.382000000000000000e+03
-1.488400000000000000e+04 -7.075000000000000000e+03
-1.433800000000000000e+04 -6.206000000000000000e+03
-1.367400000000000000e+04 -1.995000000000000000e+03
-1.522500000000000000e+04 -3.256000000000000000e+03
-1.779900000000000000e+04 -2.268000000000000000e+03
-1.863500000000000000e+04 -1.671000000000000000e+03
-1.725400000000000000e+04 -1.211000000000000000e+03
-1.829500000000000000e+04 2.864000000000000000e+03
-1.880600000000000000e+04 4.211000000000000000e+03
-1.747500000000000000e+04 3.973000000000000000e+03
-1.718600000000000000e+04 6.802000000000000000e+03
-1.698200000000000000e+04 8.132000000000000000e+03
-1.766300000000000000e+04 1.043400000000000000e+04
-1.427000000000000000e+04 1.138900000000000000e+04
-1.479900000000000000e+04 1.196900000000000000e+04
-1.191800000000000000e+04 1.280500000000000000e+04
-1.219000000000000000e+04 1.377600000000000000e+04
-1.150900000000000000e+04 1.353800000000000000e+04
-1.075900000000000000e+04 1.514000000000000000e+04
-8.167000000000000000e+03 1.674200000000000000e+04
-6.496000000000000000e+03 1.699800000000000000e+04
-4.501000000000000000e+03 1.745800000000000000e+04
-3.802000000000000000e+03 1.786800000000000000e+04
-1.552000000000000000e+03 1.667500000000000000e+04
-1.190000000000000000e+02 1.650400000000000000e+04
6.820000000000000000e+02 1.745900000000000000e+04
3.000000000000000000e+03 1.544700000000000000e+04
4.057000000000000000e+03 1.474800000000000000e+04
4.705000000000000000e+03 1.338300000000000000e+04
5.541000000000000000e+03 1.350300000000000000e+04
7.093000000000000000e+03 1.246400000000000000e+04
5.695000000000000000e+03 1.127000000000000000e+04
7.809000000000000000e+03 9.803000000000000000e+03
6.632000000000000000e+03 9.445000000000000000e+03
6.597000000000000000e+03 8.439000000000000000e+03
7.536000000000000000e+03 7.008000000000000000e+03
8.508000000000000000e+03 6.087000000000000000e+03
8.763000000000000000e+03 5.780000000000000000e+03
8.268000000000000000e+03 3.905000000000000000e+03
9.957000000000000000e+03 2.592000000000000000e+03
8.115000000000000000e+03 2.284000000000000000e+03
7.774000000000000000e+03 1.825000000000000000e+03
6.921000000000000000e+03 1.210000000000000000e+03
7.825000000000000000e+03 -1.700000000000000000e+01
8.389000000000000000e+03 -8.700000000000000000e+02
7.263000000000000000e+03 -1.109000000000000000e+03
5.472000000000000000e+03 -3.920000000000000000e+02
4.791000000000000000e+03 -1.740000000000000000e+03
6.121000000000000000e+03 -5.970000000000000000e+02
5.353000000000000000e+03 -3.956000000000000000e+03
5.950000000000000000e+03 -2.455000000000000000e+03
4.943000000000000000e+03 -3.155000000000000000e+03
5.456000000000000000e+03 -3.649000000000000000e+03
3.375000000000000000e+03 -3.529000000000000000e+03
4.262000000000000000e+03 -5.064000000000000000e+03
4.194000000000000000e+03 -4.143000000000000000e+03
4.944000000000000000e+03 -4.876000000000000000e+03
4.074000000000000000e+03 -4.127000000000000000e+03
2.693000000000000000e+03 -5.320000000000000000e+03
2.898000000000000000e+03 -5.848000000000000000e+03
1.329000000000000000e+03 -4.826000000000000000e+03
2.114000000000000000e+03 -5.780000000000000000e+03
3.887000000000000000e+03 -5.780000000000000000e+03
8.520000000000000000e+02 -6.410000000000000000e+03
1.023000000000000000e+03 -4.126000000000000000e+03
8.860000000000000000e+02 -4.126000000000000000e+03
-1.360000000000000000e+02 -5.593000000000000000e+03
5.630000000000000000e+02 -7.382000000000000000e+03
-5.450000000000000000e+02 -6.019000000000000000e+03
-1.397000000000000000e+03 -6.871000000000000000e+03
-1.074000000000000000e+03 -5.968000000000000000e+03
1.020000000000000000e+02 -6.410000000000000000e+03
-2.318000000000000000e+03 -4.825000000000000000e+03
-4.600000000000000000e+02 -4.518000000000000000e+03
-2.830000000000000000e+03 -4.859000000000000000e+03
-2.012000000000000000e+03 -5.132000000000000000e+03
-2.796000000000000000e+03 -4.535000000000000000e+03
-3.171000000000000000e+03 -5.814000000000000000e+03
-3.768000000000000000e+03 -4.416000000000000000e+03
-3.751000000000000000e+03 -5.132000000000000000e+03
-3.751000000000000000e+03 -5.950000000000000000e+03
-2.029000000000000000e+03 -2.915000000000000000e+03
-4.740000000000000000e+03 -3.239000000000000000e+03
-3.700000000000000000e+03 -4.757000000000000000e+03
-5.916000000000000000e+03 -4.194000000000000000e+03
-5.336000000000000000e+03 -3.683000000000000000e+03
-3.512000000000000000e+03 -2.933000000000000000e+03
-4.160000000000000000e+03 -4.672000000000000000e+03
-5.337000000000000000e+03 -4.774000000000000000e+03
-5.576000000000000000e+03 -3.785000000000000000e+03
-5.473000000000000000e+03 -3.495000000000000000e+03
-6.155000000000000000e+03 -4.194000000000000000e+03
-6.070000000000000000e+03 -4.671000000000000000e+03
-5.967000000000000000e+03 -3.342000000000000000e+03
-6.172000000000000000e+03 -5.047000000000000000e+03
-5.967000000000000000e+03 -6.104000000000000000e+03
-5.575000000000000000e+03 -5.831000000000000000e+03
-6.410000000000000000e+03 -4.399000000000000000e+03
-5.405000000000000000e+03 -4.314000000000000000e+03
-6.309000000000000000e+03 -5.064000000000000000e+03
-6.360000000000000000e+03 -4.842000000000000000e+03
-6.394000000000000000e+03 -3.240000000000000000e+03
-6.547000000000000000e+03 -4.535000000000000000e+03
-8.439000000000000000e+03 -3.580000000000000000e+03
-7.144000000000000000e+03 -4.450000000000000000e+03
-8.814000000000000000e+03 -3.632000000000000000e+03
-7.092000000000000000e+03 -5.200000000000000000e+03
-5.234000000000000000e+03 -1.239400000000000000e+04
-7.177000000000000000e+03 -4.058000000000000000e+03
-6.632000000000000000e+03 -4.143000000000000000e+03
-7.178000000000000000e+03 -4.723000000000000000e+03
-7.979000000000000000e+03 -4.945000000000000000e+03
-9.087000000000000000e+03 -3.887000000000000000e+03
-7.042000000000000000e+03 -4.007000000000000000e+03
-7.927000000000000000e+03 -2.677000000000000000e+03
-7.211000000000000000e+03 -3.717000000000000000e+03
-6.938000000000000000e+03 -4.143000000000000000e+03
-7.110000000000000000e+03 -4.961000000000000000e+03
-7.382000000000000000e+03 -4.245000000000000000e+03
-7.604000000000000000e+03 -4.348000000000000000e+03
-6.666000000000000000e+03 -3.273000000000000000e+03
-7.485000000000000000e+03 -3.580000000000000000e+03
-7.365000000000000000e+03 -3.290000000000000000e+03
-5.524000000000000000e+03 -5.268000000000000000e+03
-6.172000000000000000e+03 -2.882000000000000000e+03
-4.859000000000000000e+03 -3.444000000000000000e+03
-6.342000000000000000e+03 -1.808000000000000000e+03
-4.978000000000000000e+03 -2.199000000000000000e+03
-5.337000000000000000e+03 -3.564000000000000000e+03
-3.904000000000000000e+03 -1.501000000000000000e+03
-4.177000000000000000e+03 -2.592000000000000000e+03
-5.183000000000000000e+03 -2.353000000000000000e+03
-3.887000000000000000e+03 -4.270000000000000000e+02
-3.871000000000000000e+03 -1.603000000000000000e+03
-2.609000000000000000e+03 -2.560000000000000000e+02
-2.183000000000000000e+03 7.850000000000000000e+02
-2.335000000000000000e+03 6.300000000000000000e+02
-1.347000000000000000e+03 1.995000000000000000e+03
-1.074000000000000000e+03 2.762000000000000000e+03
5.970000000000000000e+02 1.961000000000000000e+03
1.540000000000000000e+02 3.751000000000000000e+03
6.310000000000000000e+02 5.046000000000000000e+03
2.028000000000000000e+03 8.149000000000000000e+03
1.977000000000000000e+03 6.206000000000000000e+03
1.893000000000000000e+03 6.138000000000000000e+03
1.398000000000000000e+03 7.007000000000000000e+03
3.734000000000000000e+03 8.183000000000000000e+03
3.223000000000000000e+03 8.303000000000000000e+03
5.814000000000000000e+03 8.883000000000000000e+03
5.848000000000000000e+03 9.718000000000000000e+03
6.411000000000000000e+03 1.038300000000000000e+04
6.205000000000000000e+03 1.045100000000000000e+04
6.190000000000000000e+03 1.121900000000000000e+04
7.911000000000000000e+03 1.137200000000000000e+04
7.638000000000000000e+03 1.144100000000000000e+04
9.378000000000000000e+03 1.150800000000000000e+04
9.701000000000000000e+03 1.219100000000000000e+04
9.412000000000000000e+03 1.275300000000000000e+04
1.133800000000000000e+04 1.147500000000000000e+04
1.162800000000000000e+04 1.038300000000000000e+04
1.367400000000000000e+04 9.411000000000000000e+03
1.473100000000000000e+04 1.004200000000000000e+04
1.602700000000000000e+04 8.695000000000000000e+03
1.650400000000000000e+04 6.139000000000000000e+03
1.514100000000000000e+04 5.780000000000000000e+03
1.541300000000000000e+04 4.961000000000000000e+03
1.616300000000000000e+04 3.819000000000000000e+03
1.776600000000000000e+04 3.682000000000000000e+03
1.560100000000000000e+04 2.216000000000000000e+03
1.500400000000000000e+04 1.330000000000000000e+03
1.698200000000000000e+04 -3.410000000000000000e+02
1.478300000000000000e+04 -1.620000000000000000e+03
1.363900000000000000e+04 -2.097000000000000000e+03
1.326500000000000000e+04 -4.672000000000000000e+03
1.324700000000000000e+04 -6.036000000000000000e+03
1.225900000000000000e+04 -6.206000000000000000e+03
1.091100000000000000e+04 -5.201000000000000000e+03
1.002400000000000000e+04 -6.258000000000000000e+03
1.000700000000000000e+04 -6.700000000000000000e+03
9.632000000000000000e+03 -7.110000000000000000e+03
7.399000000000000000e+03 -8.525000000000000000e+03
5.609000000000000000e+03 -8.968000000000000000e+03
5.575000000000000000e+03 -7.911000000000000000e+03
4.518000000000000000e+03 -9.701000000000000000e+03
4.484000000000000000e+03 -9.718000000000000000e+03
3.478000000000000000e+03 -9.872000000000000000e+03
8.690000000000000000e+02 -7.042000000000000000e+03
2.131000000000000000e+03 -6.940000000000000000e+03
1.313000000000000000e+03 -7.928000000000000000e+03
1.313000000000000000e+03 -7.008000000000000000e+03
1.432000000000000000e+03 -6.957000000000000000e+03
-5.290000000000000000e+02 -8.235000000000000000e+03
-1.467000000000000000e+03 -6.991000000000000000e+03
-9.880000000000000000e+02 -6.326000000000000000e+03
-7.330000000000000000e+02 -5.558000000000000000e+03
-4.194000000000000000e+03 -5.166000000000000000e+03
-3.716000000000000000e+03 -4.995000000000000000e+03
-1.739000000000000000e+03 -5.320000000000000000e+03
-2.881000000000000000e+03 -3.256000000000000000e+03
-2.217000000000000000e+03 -3.853000000000000000e+03
-3.341000000000000000e+03 -4.245000000000000000e+03
-4.416000000000000000e+03 -4.570000000000000000e+03
-1.398000000000000000e+03 -3.563000000000000000e+03
-2.695000000000000000e+03 -1.228000000000000000e+03
-3.206000000000000000e+03 -3.376000000000000000e+03
-1.637000000000000000e+03 -1.210000000000000000e+03
-1.739000000000000000e+03 -1.364000000000000000e+03
-2.796000000000000000e+03 -1.483000000000000000e+03
-3.086000000000000000e+03 -1.483000000000000000e+03
-2.643000000000000000e+03 -3.750000000000000000e+02
-2.745000000000000000e+03 -4.100000000000000000e+02
-2.148000000000000000e+03 -4.600000000000000000e+02
-2.353000000000000000e+03 2.900000000000000000e+02
-2.012000000000000000e+03 -6.480000000000000000e+02
-1.841000000000000000e+03 -6.650000000000000000e+02
-1.586000000000000000e+03 5.630000000000000000e+02
-1.040000000000000000e+03 9.550000000000000000e+02
-1.449000000000000000e+03 9.890000000000000000e+02
-2.268000000000000000e+03 7.340000000000000000e+02
-1.245000000000000000e+03 1.449000000000000000e+03
-8.530000000000000000e+02 1.159000000000000000e+03
-2.284000000000000000e+03 1.756000000000000000e+03
-2.063000000000000000e+03 2.796000000000000000e+03
-5.100000000000000000e+01 2.217000000000000000e+03
-1.569000000000000000e+03 1.637000000000000000e+03
-2.216000000000000000e+03 2.506000000000000000e+03
-4.950000000000000000e+02 1.944000000000000000e+03
-1.671000000000000000e+03 4.314000000000000000e+03
1.534000000000000000e+03 3.904000000000000000e+03
2.730000000000000000e+02 4.279000000000000000e+03
-1.416000000000000000e+03 4.467000000000000000e+03
-1.329000000000000000e+03 3.700000000000000000e+03
-5.800000000000000000e+02 4.535000000000000000e+03
-8.600000000000000000e+01 4.774000000000000000e+03
-6.310000000000000000e+02 4.382000000000000000e+03
1.961000000000000000e+03 4.842000000000000000e+03
-1.880000000000000000e+02 4.723000000000000000e+03
3.400000000000000000e+01 5.405000000000000000e+03
-4.100000000000000000e+02 4.552000000000000000e+03
-2.210000000000000000e+02 7.468000000000000000e+03
0.000000000000000000e+00 6.428000000000000000e+03
-2.390000000000000000e+02 6.411000000000000000e+03
-5.746000000000000000e+03 1.017900000000000000e+04
-4.600000000000000000e+02 5.745000000000000000e+03
-1.530000000000000000e+02 6.274000000000000000e+03
2.560000000000000000e+02 6.922000000000000000e+03
-9.210000000000000000e+02 8.133000000000000000e+03
-6.650000000000000000e+02 5.985000000000000000e+03
-6.310000000000000000e+02 7.979000000000000000e+03
-7.330000000000000000e+02 7.825000000000000000e+03
8.600000000000000000e+01 7.246000000000000000e+03
-5.460000000000000000e+02 8.628000000000000000e+03
1.020000000000000000e+02 8.201000000000000000e+03
2.900000000000000000e+02 7.707000000000000000e+03
-4.770000000000000000e+02 6.206000000000000000e+03
-1.808000000000000000e+03 7.928000000000000000e+03
-6.820000000000000000e+02 7.758000000000000000e+03
-7.840000000000000000e+02 7.025000000000000000e+03
-3.410000000000000000e+02 9.804000000000000000e+03
5.790000000000000000e+02 8.115000000000000000e+03
-5.450000000000000000e+02 7.706000000000000000e+03
5.280000000000000000e+02 6.206000000000000000e+03
-3.580000000000000000e+02 7.962000000000000000e+03
-6.800000000000000000e+01 6.445000000000000000e+03
-4.600000000000000000e+02 7.366000000000000000e+03
-9.550000000000000000e+02 8.645000000000000000e+03
-1.370000000000000000e+02 6.974000000000000000e+03
4.770000000000000000e+02 6.530000000000000000e+03
1.603000000000000000e+03 7.264000000000000000e+03
1.200000000000000000e+02 6.411000000000000000e+03
-1.700000000000000000e+01 8.661000000000000000e+03
7.330000000000000000e+02 6.957000000000000000e+03
8.520000000000000000e+02 7.877000000000000000e+03
1.245000000000000000e+03 6.974000000000000000e+03
1.569000000000000000e+03 6.565000000000000000e+03
1.142000000000000000e+03 6.957000000000000000e+03
5.100000000000000000e+01 6.070000000000000000e+03
7.680000000000000000e+02 8.610000000000000000e+03
1.961000000000000000e+03 8.184000000000000000e+03
3.222000000000000000e+03 5.968000000000000000e+03
2.660000000000000000e+03 5.883000000000000000e+03
2.694000000000000000e+03 5.251000000000000000e+03
3.802000000000000000e+03 5.660000000000000000e+03
1.875000000000000000e+03 5.661000000000000000e+03
3.648000000000000000e+03 4.058000000000000000e+03
5.063000000000000000e+03 3.512000000000000000e+03
3.767000000000000000e+03 4.671000000000000000e+03
3.529000000000000000e+03 4.314000000000000000e+03
4.603000000000000000e+03 4.365000000000000000e+03
5.728000000000000000e+03 3.938000000000000000e+03
3.376000000000000000e+03 2.166000000000000000e+03
4.279000000000000000e+03 1.841000000000000000e+03
5.166000000000000000e+03 1.774000000000000000e+03
4.535000000000000000e+03 2.950000000000000000e+03
4.603000000000000000e+03 5.970000000000000000e+02
5.285000000000000000e+03 4.610000000000000000e+02
6.138000000000000000e+03 1.433000000000000000e+03
6.393000000000000000e+03 -1.023000000000000000e+03
5.286000000000000000e+03 -2.199000000000000000e+03
3.103000000000000000e+03 -1.432000000000000000e+03
3.444000000000000000e+03 -1.927000000000000000e+03
3.649000000000000000e+03 -3.154000000000000000e+03
5.030000000000000000e+03 -4.263000000000000000e+03
3.734000000000000000e+03 -4.893000000000000000e+03
2.762000000000000000e+03 -5.387000000000000000e+03
2.626000000000000000e+03 -5.456000000000000000e+03
1.909000000000000000e+03 -5.933000000000000000e+03
5.110000000000000000e+02 -7.843000000000000000e+03
-2.560000000000000000e+02 -7.894000000000000000e+03
1.870000000000000000e+02 -6.888000000000000000e+03
-2.711000000000000000e+03 -8.235000000000000000e+03
-1.688000000000000000e+03 -7.979000000000000000e+03
-2.643000000000000000e+03 -7.928000000000000000e+03
-4.330000000000000000e+03 -9.616000000000000000e+03
-5.114000000000000000e+03 -8.252000000000000000e+03
-6.564000000000000000e+03 -8.713000000000000000e+03
-7.415000000000000000e+03 -6.752000000000000000e+03
-8.354000000000000000e+03 -8.020000000000000000e+02
-7.638000000000000000e+03 -7.076000000000000000e+03
-9.871000000000000000e+03 -5.968000000000000000e+03
-1.103100000000000000e+04 -5.439000000000000000e+03
-1.099600000000000000e+04 -3.598000000000000000e+03
-1.041700000000000000e+04 -4.092000000000000000e+03
-1.300800000000000000e+04 -3.171000000000000000e+03
-1.227500000000000000e+04 -5.120000000000000000e+02
-1.072300000000000000e+04 -1.876000000000000000e+03
-1.208800000000000000e+04 8.500000000000000000e+01
-1.191800000000000000e+04 -8.600000000000000000e+01
-1.120200000000000000e+04 1.364000000000000000e+03
-1.113300000000000000e+04 1.108000000000000000e+03
-1.012800000000000000e+04 3.257000000000000000e+03
-1.097900000000000000e+04 3.222000000000000000e+03
-9.395000000000000000e+03 3.870000000000000000e+03
-1.062200000000000000e+04 3.138000000000000000e+03
-1.009400000000000000e+04 6.325000000000000000e+03
-8.763000000000000000e+03 4.825000000000000000e+03
-8.388000000000000000e+03 6.001000000000000000e+03
-7.553000000000000000e+03 6.291000000000000000e+03
-6.769000000000000000e+03 6.325000000000000000e+03
-6.495000000000000000e+03 5.285000000000000000e+03
-5.388000000000000000e+03 6.888000000000000000e+03
-5.983000000000000000e+03 5.899000000000000000e+03
-5.200000000000000000e+03 5.695000000000000000e+03
-3.853000000000000000e+03 6.547000000000000000e+03
-3.649000000000000000e+03 6.734000000000000000e+03
-3.307000000000000000e+03 6.598000000000000000e+03
-4.159000000000000000e+03 6.547000000000000000e+03
-2.966000000000000000e+03 5.131000000000000000e+03
-2.182000000000000000e+03 5.030000000000000000e+03
-2.199000000000000000e+03 7.263000000000000000e+03
-3.222000000000000000e+03 5.678000000000000000e+03
-1.501000000000000000e+03 5.797000000000000000e+03
-2.506000000000000000e+03 5.029000000000000000e+03
-2.114000000000000000e+03 5.779000000000000000e+03
-1.006000000000000000e+03 3.274000000000000000e+03
-1.870000000000000000e+02 4.706000000000000000e+03
-1.892000000000000000e+03 3.546000000000000000e+03
-4.090000000000000000e+02 2.131000000000000000e+03
-1.880000000000000000e+02 3.546000000000000000e+03
-2.114000000000000000e+03 4.092000000000000000e+03
-7.840000000000000000e+02 2.318000000000000000e+03
9.720000000000000000e+02 1.824000000000000000e+03
5.800000000000000000e+02 3.291000000000000000e+03
1.700000000000000000e+02 3.717000000000000000e+03
1.143000000000000000e+03 2.882000000000000000e+03
1.193000000000000000e+03 3.291000000000000000e+03
6.990000000000000000e+02 3.240000000000000000e+03
-2.720000000000000000e+02 4.057000000000000000e+03
1.705000000000000000e+03 1.995000000000000000e+03
1.193000000000000000e+03 1.978000000000000000e+03
5.460000000000000000e+02 2.881000000000000000e+03
1.142000000000000000e+03 1.534000000000000000e+03
8.870000000000000000e+02 2.165000000000000000e+03
-4.430000000000000000e+02 2.813000000000000000e+03
-1.346000000000000000e+03 1.960000000000000000e+03
4.440000000000000000e+02 1.671000000000000000e+03
-9.710000000000000000e+02 1.398000000000000000e+03
5.100000000000000000e+01 1.433000000000000000e+03
-8.870000000000000000e+02 1.330000000000000000e+03
3.400000000000000000e+01 4.770000000000000000e+02
-1.295000000000000000e+03 2.404000000000000000e+03
-1.244000000000000000e+03 1.091000000000000000e+03
7.500000000000000000e+02 1.842000000000000000e+03
-3.920000000000000000e+02 2.148000000000000000e+03
-1.279000000000000000e+03 6.990000000000000000e+02
-4.770000000000000000e+02 1.262000000000000000e+03
-4.600000000000000000e+02 8.180000000000000000e+02
-3.590000000000000000e+02 -1.210000000000000000e+03
-1.551000000000000000e+03 1.880000000000000000e+02
-1.347000000000000000e+03 6.140000000000000000e+02
-3.580000000000000000e+02 3.240000000000000000e+02
-1.381000000000000000e+03 -1.700000000000000000e+01
-1.177000000000000000e+03 -1.176000000000000000e+03
-1.159000000000000000e+03 7.670000000000000000e+02
-2.200000000000000000e+03 -1.432000000000000000e+03
-2.011000000000000000e+03 -2.779000000000000000e+03
-3.920000000000000000e+02 -9.550000000000000000e+02
2.220000000000000000e+02 -1.177000000000000000e+03
-1.074000000000000000e+03 -1.756000000000000000e+03
-5.280000000000000000e+02 -1.603000000000000000e+03
-8.530000000000000000e+02 -2.217000000000000000e+03
-5.450000000000000000e+02 -3.103000000000000000e+03
-1.620000000000000000e+03 -2.285000000000000000e+03
-5.800000000000000000e+02 -2.080000000000000000e+03
-6.820000000000000000e+02 -2.694000000000000000e+03
-1.961000000000000000e+03 -1.501000000000000000e+03
-5.800000000000000000e+02 -4.228000000000000000e+03
-2.864000000000000000e+03 -3.240000000000000000e+03
-6.990000000000000000e+02 -2.438000000000000000e+03
-2.625000000000000000e+03 -2.677000000000000000e+03
-1.261000000000000000e+03 -3.717000000000000000e+03
-2.199000000000000000e+03 -2.967000000000000000e+03
-1.074000000000000000e+03 -1.961000000000000000e+03
-1.484000000000000000e+03 -3.359000000000000000e+03
-8.860000000000000000e+02 -3.989000000000000000e+03
-1.910000000000000000e+03 -3.820000000000000000e+03
-4.780000000000000000e+02 -5.013000000000000000e+03
-7.850000000000000000e+02 -3.751000000000000000e+03
-7.160000000000000000e+02 -4.280000000000000000e+03
-2.730000000000000000e+02 -3.803000000000000000e+03
-5.280000000000000000e+02 -3.375000000000000000e+03
-1.620000000000000000e+03 -4.501000000000000000e+03
1.104800000000000000e+04 -1.730600000000000000e+04
-2.813000000000000000e+03 -2.506000000000000000e+03
-2.029000000000000000e+03 -3.990000000000000000e+03
-2.353000000000000000e+03 -4.620000000000000000e+03
-2.182000000000000000e+03 -3.614000000000000000e+03
-2.745000000000000000e+03 -4.536000000000000000e+03
-3.461000000000000000e+03 -4.757000000000000000e+03
-2.881000000000000000e+03 -5.200000000000000000e+03
-3.052000000000000000e+03 -6.445000000000000000e+03
-4.194000000000000000e+03 -5.081000000000000000e+03
-3.103000000000000000e+03 -6.223000000000000000e+03
-4.211000000000000000e+03 -4.296000000000000000e+03
-3.820000000000000000e+03 -5.729000000000000000e+03
-3.888000000000000000e+03 -5.916000000000000000e+03
-5.388000000000000000e+03 -5.081000000000000000e+03
-4.825000000000000000e+03 -5.797000000000000000e+03
-4.399000000000000000e+03 -7.076000000000000000e+03
-5.661000000000000000e+03 -6.274000000000000000e+03
-5.984000000000000000e+03 -4.195000000000000000e+03
-5.967000000000000000e+03 -6.871000000000000000e+03
-6.957000000000000000e+03 -5.728000000000000000e+03
-6.752000000000000000e+03 -4.586000000000000000e+03
-7.502000000000000000e+03 -4.569000000000000000e+03
-6.002000000000000000e+03 -5.337000000000000000e+03
-8.388000000000000000e+03 -3.955000000000000000e+03
-7.860000000000000000e+03 -3.615000000000000000e+03
-8.917000000000000000e+03 -3.785000000000000000e+03
-1.005900000000000000e+04 -2.933000000000000000e+03
-1.149100000000000000e+04 -3.359000000000000000e+03
-9.190000000000000000e+03 -3.325000000000000000e+03
-9.787000000000000000e+03 -6.480000000000000000e+02
-1.133800000000000000e+04 -2.183000000000000000e+03
-1.091200000000000000e+04 1.700000000000000000e+01
-1.149200000000000000e+04 1.370000000000000000e+02
-1.188400000000000000e+04 -4.600000000000000000e+02
-1.040100000000000000e+04 1.602000000000000000e+03
-9.361000000000000000e+03 7.670000000000000000e+02
-9.906000000000000000e+03 1.074000000000000000e+03
-9.685000000000000000e+03 1.500000000000000000e+03
-9.446000000000000000e+03 2.865000000000000000e+03
-8.201000000000000000e+03 1.858000000000000000e+03
-6.939000000000000000e+03 3.461000000000000000e+03
-7.024000000000000000e+03 3.069000000000000000e+03
-5.865000000000000000e+03 5.917000000000000000e+03
-7.588000000000000000e+03 5.950000000000000000e+03
-4.552000000000000000e+03 2.234000000000000000e+03
-2.694000000000000000e+03 3.632000000000000000e+03
-3.614000000000000000e+03 4.928000000000000000e+03
3.920000000000000000e+02 4.126000000000000000e+03
-5.800000000000000000e+02 5.490000000000000000e+03
1.278000000000000000e+03 4.621000000000000000e+03
1.500000000000000000e+03 4.041000000000000000e+03
2.676000000000000000e+03 3.666000000000000000e+03
2.319000000000000000e+03 4.723000000000000000e+03
3.699000000000000000e+03 4.075000000000000000e+03
3.597000000000000000e+03 1.859000000000000000e+03
4.774000000000000000e+03 3.256000000000000000e+03
5.643000000000000000e+03 6.310000000000000000e+02
5.080000000000000000e+03 1.876000000000000000e+03
5.898000000000000000e+03 1.091000000000000000e+03
5.319000000000000000e+03 -1.227000000000000000e+03
6.496000000000000000e+03 -5.450000000000000000e+02
5.421000000000000000e+03 -3.240000000000000000e+02
5.899000000000000000e+03 -9.030000000000000000e+02
4.689000000000000000e+03 -1.466000000000000000e+03
6.597000000000000000e+03 -2.390000000000000000e+02
5.438000000000000000e+03 -1.927000000000000000e+03
4.449000000000000000e+03 -3.171000000000000000e+03
4.449000000000000000e+03 -2.387000000000000000e+03
4.075000000000000000e+03 -3.989000000000000000e+03
3.256000000000000000e+03 -3.307000000000000000e+03
5.387000000000000000e+03 -3.444000000000000000e+03
3.307000000000000000e+03 -4.416000000000000000e+03
4.382000000000000000e+03 -2.779000000000000000e+03
3.222000000000000000e+03 -4.398000000000000000e+03
2.540000000000000000e+03 -4.723000000000000000e+03
2.575000000000000000e+03 -4.603000000000000000e+03
3.205000000000000000e+03 -5.950000000000000000e+03
3.802000000000000000e+03 -6.735000000000000000e+03
2.540000000000000000e+03 -3.785000000000000000e+03
2.558000000000000000e+03 -6.172000000000000000e+03
1.859000000000000000e+03 -6.087000000000000000e+03
1.279000000000000000e+03 -4.791000000000000000e+03
1.160000000000000000e+03 -4.552000000000000000e+03
1.807000000000000000e+03 -4.996000000000000000e+03
9.040000000000000000e+02 -6.087000000000000000e+03
-4.780000000000000000e+02 -6.223000000000000000e+03
1.108000000000000000e+03 -5.422000000000000000e+03
2.268000000000000000e+03 -4.586000000000000000e+03
5.620000000000000000e+02 -4.450000000000000000e+03
3.400000000000000000e+01 -4.961000000000000000e+03
5.800000000000000000e+02 -4.706000000000000000e+03
2.730000000000000000e+02 -4.586000000000000000e+03
4.600000000000000000e+02 -3.904000000000000000e+03
-5.970000000000000000e+02 -6.564000000000000000e+03
-1.074000000000000000e+03 -4.262000000000000000e+03
-2.390000000000000000e+02 -4.706000000000000000e+03
-2.730000000000000000e+02 -4.296000000000000000e+03
-8.520000000000000000e+02 -4.501000000000000000e+03
-2.302000000000000000e+03 -3.273000000000000000e+03
-1.211000000000000000e+03 -4.995000000000000000e+03
-2.148000000000000000e+03 -3.035000000000000000e+03
-9.030000000000000000e+02 -4.876000000000000000e+03
-2.029000000000000000e+03 -4.859000000000000000e+03
-2.796000000000000000e+03 -4.314000000000000000e+03
-2.882000000000000000e+03 -5.831000000000000000e+03
-2.182000000000000000e+03 -3.870000000000000000e+03
-1.568000000000000000e+03 -4.723000000000000000e+03
-2.540000000000000000e+03 -4.774000000000000000e+03
-2.182000000000000000e+03 -3.836000000000000000e+03
-1.926000000000000000e+03 -5.916000000000000000e+03
-1.466000000000000000e+03 -6.002000000000000000e+03
-1.978000000000000000e+03 -5.763000000000000000e+03
-1.360000000000000000e+02 -6.274000000000000000e+03
-1.370000000000000000e+02 -4.313000000000000000e+03
-7.500000000000000000e+02 -4.347000000000000000e+03
6.140000000000000000e+02 -3.888000000000000000e+03
1.108000000000000000e+03 -3.427000000000000000e+03
-5.120000000000000000e+02 -1.705000000000000000e+03
-2.040000000000000000e+02 -1.500000000000000000e+03
1.057000000000000000e+03 -1.449000000000000000e+03
-1.551000000000000000e+03 -2.029000000000000000e+03
-2.210000000000000000e+02 -8.010000000000000000e+02
-2.114000000000000000e+03 -1.773000000000000000e+03
-2.438000000000000000e+03 -1.551000000000000000e+03
-2.694000000000000000e+03 -1.211000000000000000e+03
-1.193000000000000000e+03 -2.387000000000000000e+03
-2.881000000000000000e+03 -2.523000000000000000e+03
-4.279000000000000000e+03 -1.705000000000000000e+03
-4.450000000000000000e+03 -3.239000000000000000e+03
-3.393000000000000000e+03 -3.206000000000000000e+03
-3.053000000000000000e+03 -3.444000000000000000e+03
-3.905000000000000000e+03 -4.160000000000000000e+03
-2.063000000000000000e+03 -2.796000000000000000e+03
-3.240000000000000000e+03 -2.779000000000000000e+03
-3.103000000000000000e+03 -3.682000000000000000e+03
-2.233000000000000000e+03 -2.336000000000000000e+03
-2.592000000000000000e+03 -3.239000000000000000e+03
-2.387000000000000000e+03 -3.768000000000000000e+03
-1.824000000000000000e+03 -3.291000000000000000e+03
-8.180000000000000000e+02 -4.041000000000000000e+03
8.350000000000000000e+02 -2.899000000000000000e+03
-9.030000000000000000e+02 -2.421000000000000000e+03
5.630000000000000000e+02 -1.995000000000000000e+03
-1.530000000000000000e+02 -3.342000000000000000e+03
-6.990000000000000000e+02 -1.859000000000000000e+03
-1.159000000000000000e+03 -1.091000000000000000e+03
-9.550000000000000000e+02 -3.410000000000000000e+02
-5.630000000000000000e+02 -1.449000000000000000e+03
-4.080000000000000000e+02 -8.530000000000000000e+02
9.380000000000000000e+02 -7.160000000000000000e+02
1.125000000000000000e+03 -6.990000000000000000e+02
9.880000000000000000e+02 8.700000000000000000e+02
1.540000000000000000e+02 -3.410000000000000000e+02
-6.480000000000000000e+02 -2.390000000000000000e+02
3.410000000000000000e+02 -2.900000000000000000e+02
1.431000000000000000e+03 1.518000000000000000e+03
7.840000000000000000e+02 1.360000000000000000e+02
3.910000000000000000e+02 3.512000000000000000e+03
-6.800000000000000000e+01 2.098000000000000000e+03
3.400000000000000000e+01 1.688000000000000000e+03
2.063000000000000000e+03 1.706000000000000000e+03
1.364000000000000000e+03 1.841000000000000000e+03
1.142000000000000000e+03 1.159000000000000000e+03
1.125000000000000000e+03 1.211000000000000000e+03
1.602000000000000000e+03 1.296000000000000000e+03
4.600000000000000000e+02 2.898000000000000000e+03
2.233000000000000000e+03 2.608000000000000000e+03
2.694000000000000000e+03 2.864000000000000000e+03
2.796000000000000000e+03 1.842000000000000000e+03
2.898000000000000000e+03 2.438000000000000000e+03
3.273000000000000000e+03 2.250000000000000000e+03
3.495000000000000000e+03 1.961000000000000000e+03
2.387000000000000000e+03 8.190000000000000000e+02
4.364000000000000000e+03 1.944000000000000000e+03
5.422000000000000000e+03 3.239000000000000000e+03
3.614000000000000000e+03 1.876000000000000000e+03
6.274000000000000000e+03 1.909000000000000000e+03
7.024000000000000000e+03 1.262000000000000000e+03
6.751000000000000000e+03 2.404000000000000000e+03
5.762000000000000000e+03 2.489000000000000000e+03
8.269000000000000000e+03 -8.180000000000000000e+02
7.518000000000000000e+03 1.688000000000000000e+03
6.495000000000000000e+03 2.730000000000000000e+02
6.904000000000000000e+03 -6.810000000000000000e+02
6.683000000000000000e+03 7.500000000000000000e+02
7.655000000000000000e+03 -1.756000000000000000e+03
7.280000000000000000e+03 -8.530000000000000000e+02
7.809000000000000000e+03 -2.131000000000000000e+03
4.808000000000000000e+03 -2.762000000000000000e+03
6.854000000000000000e+03 -1.654000000000000000e+03
7.348000000000000000e+03 -3.018000000000000000e+03
5.848000000000000000e+03 -3.580000000000000000e+03
5.455000000000000000e+03 -3.223000000000000000e+03
5.200000000000000000e+03 -3.188000000000000000e+03
6.564000000000000000e+03 -4.774000000000000000e+03
5.626000000000000000e+03 -4.365000000000000000e+03
4.142000000000000000e+03 -5.490000000000000000e+03
4.518000000000000000e+03 -5.166000000000000000e+03
4.791000000000000000e+03 -5.882000000000000000e+03
1.636000000000000000e+03 -5.814000000000000000e+03
2.915000000000000000e+03 -6.462000000000000000e+03
3.930000000000000000e+02 -5.081000000000000000e+03
1.654000000000000000e+03 -6.564000000000000000e+03
2.560000000000000000e+02 -6.888000000000000000e+03
2.390000000000000000e+02 -7.570000000000000000e+03
-5.450000000000000000e+02 -4.995000000000000000e+03
-9.880000000000000000e+02 -6.342000000000000000e+03
-7.500000000000000000e+02 -5.490000000000000000e+03
-2.864000000000000000e+03 -6.155000000000000000e+03
-1.688000000000000000e+03 -6.394000000000000000e+03
-3.034000000000000000e+03 -4.757000000000000000e+03
-4.092000000000000000e+03 -4.757000000000000000e+03
-2.745000000000000000e+03 -5.012000000000000000e+03
-3.393000000000000000e+03 -5.132000000000000000e+03
-3.035000000000000000e+03 -2.746000000000000000e+03
-3.359000000000000000e+03 -4.058000000000000000e+03
-2.847000000000000000e+03 -3.563000000000000000e+03
-3.444000000000000000e+03 -2.966000000000000000e+03
-4.075000000000000000e+03 -2.336000000000000000e+03
-2.029000000000000000e+03 -2.098000000000000000e+03
-2.898000000000000000e+03 -1.842000000000000000e+03
-2.455000000000000000e+03 -1.348000000000000000e+03
-1.432000000000000000e+03 -2.694000000000000000e+03
-2.302000000000000000e+03 -1.552000000000000000e+03
-2.932000000000000000e+03 -2.730000000000000000e+02
-1.893000000000000000e+03 -2.040000000000000000e+02
-2.438000000000000000e+03 1.091000000000000000e+03
-1.637000000000000000e+03 -4.600000000000000000e+02
-2.813000000000000000e+03 -1.075000000000000000e+03
-2.592000000000000000e+03 1.790000000000000000e+03
-1.330000000000000000e+03 6.990000000000000000e+02
-1.432000000000000000e+03 -1.200000000000000000e+02
-1.535000000000000000e+03 -3.920000000000000000e+02
-1.654000000000000000e+03 -1.040000000000000000e+03
-3.836000000000000000e+03 1.466000000000000000e+03
-1.568000000000000000e+03 6.480000000000000000e+02
-1.040000000000000000e+03 1.415000000000000000e+03
-8.350000000000000000e+02 3.400000000000000000e+01
-5.120000000000000000e+02 -4.770000000000000000e+02
1.370000000000000000e+02 5.790000000000000000e+02
-1.020000000000000000e+02 -5.630000000000000000e+02
-4.090000000000000000e+02 5.630000000000000000e+02
5.620000000000000000e+02 -1.586000000000000000e+03
1.671000000000000000e+03 6.820000000000000000e+02
-4.090000000000000000e+02 1.020000000000000000e+02
5.620000000000000000e+02 -1.126000000000000000e+03
8.530000000000000000e+02 -1.927000000000000000e+03
7.840000000000000000e+02 -2.131000000000000000e+03
-1.056000000000000000e+03 -3.580000000000000000e+02
7.330000000000000000e+02 -4.430000000000000000e+02
2.659000000000000000e+03 -1.108000000000000000e+03
1.023000000000000000e+03 -5.800000000000000000e+02
1.568000000000000000e+03 -2.040000000000000000e+02
2.456000000000000000e+03 7.330000000000000000e+02
3.137000000000000000e+03 -1.279000000000000000e+03
3.052000000000000000e+03 -4.430000000000000000e+02
3.750000000000000000e+03 8.010000000000000000e+02
3.563000000000000000e+03 9.040000000000000000e+02
3.545000000000000000e+03 3.410000000000000000e+02
3.614000000000000000e+03 -1.200000000000000000e+02
4.313000000000000000e+03 -6.820000000000000000e+02
2.984000000000000000e+03 5.280000000000000000e+02
3.000000000000000000e+03 1.637000000000000000e+03
3.614000000000000000e+03 2.040000000000000000e+02
4.228000000000000000e+03 7.500000000000000000e+02
3.358000000000000000e+03 1.467000000000000000e+03
4.705000000000000000e+03 2.029000000000000000e+03
4.671000000000000000e+03 1.030000000000000000e+02
4.637000000000000000e+03 4.100000000000000000e+02
7.501000000000000000e+03 2.012000000000000000e+03
3.699000000000000000e+03 1.398000000000000000e+03
5.387000000000000000e+03 1.347000000000000000e+03
4.960000000000000000e+03 6.650000000000000000e+02
3.546000000000000000e+03 1.142000000000000000e+03
5.285000000000000000e+03 1.449000000000000000e+03
3.649000000000000000e+03 8.520000000000000000e+02
5.779000000000000000e+03 6.130000000000000000e+02
4.228000000000000000e+03 1.619000000000000000e+03
4.654000000000000000e+03 2.233000000000000000e+03
5.541000000000000000e+03 1.296000000000000000e+03
4.415000000000000000e+03 2.523000000000000000e+03
5.694000000000000000e+03 1.398000000000000000e+03
4.142000000000000000e+03 2.677000000000000000e+03
4.706000000000000000e+03 6.650000000000000000e+02
4.382000000000000000e+03 1.040000000000000000e+03
5.728000000000000000e+03 -5.110000000000000000e+02
5.268000000000000000e+03 2.609000000000000000e+03
4.740000000000000000e+03 1.637000000000000000e+03
3.887000000000000000e+03 2.541000000000000000e+03
3.682000000000000000e+03 8.690000000000000000e+02
4.773000000000000000e+03 2.166000000000000000e+03
6.342000000000000000e+03 2.847000000000000000e+03
4.944000000000000000e+03 1.808000000000000000e+03
6.222000000000000000e+03 1.210000000000000000e+03
6.717000000000000000e+03 1.501000000000000000e+03
4.943000000000000000e+03 1.416000000000000000e+03
5.217000000000000000e+03 2.199000000000000000e+03
6.018000000000000000e+03 1.859000000000000000e+03
5.439000000000000000e+03 2.489000000000000000e+03
6.700000000000000000e+03 2.029000000000000000e+03
6.359000000000000000e+03 2.268000000000000000e+03
7.178000000000000000e+03 2.011000000000000000e+03
4.518000000000000000e+03 2.335000000000000000e+03
5.182000000000000000e+03 1.927000000000000000e+03
5.183000000000000000e+03 1.501000000000000000e+03
6.359000000000000000e+03 2.131000000000000000e+03
5.285000000000000000e+03 3.359000000000000000e+03
6.666000000000000000e+03 1.194000000000000000e+03
5.115000000000000000e+03 3.256000000000000000e+03
6.223000000000000000e+03 1.602000000000000000e+03
5.029000000000000000e+03 1.722000000000000000e+03
5.081000000000000000e+03 2.421000000000000000e+03
5.012000000000000000e+03 1.006000000000000000e+03
3.972000000000000000e+03 2.523000000000000000e+03
5.620000000000000000e+02 6.292000000000000000e+03
5.182000000000000000e+03 9.030000000000000000e+02
4.842000000000000000e+03 4.950000000000000000e+02
3.529000000000000000e+03 1.670000000000000000e+03
4.944000000000000000e+03 1.415000000000000000e+03
4.108000000000000000e+03 9.550000000000000000e+02
3.478000000000000000e+03 6.820000000000000000e+02
5.898000000000000000e+03 -1.880000000000000000e+02
3.035000000000000000e+03 -9.710000000000000000e+02
3.256000000000000000e+03 -9.210000000000000000e+02
3.392000000000000000e+03 5.120000000000000000e+02
2.966000000000000000e+03 1.700000000000000000e+01
3.341000000000000000e+03 -1.415000000000000000e+03
2.285000000000000000e+03 -1.540000000000000000e+02
1.944000000000000000e+03 -1.228000000000000000e+03
2.813000000000000000e+03 -1.585000000000000000e+03
1.142000000000000000e+03 -2.131000000000000000e+03
2.592000000000000000e+03 -1.040000000000000000e+03
7.670000000000000000e+02 -1.977000000000000000e+03
2.761000000000000000e+03 -2.182000000000000000e+03
1.159000000000000000e+03 -2.353000000000000000e+03
4.260000000000000000e+02 -7.160000000000000000e+02
3.920000000000000000e+02 -1.619000000000000000e+03
-9.550000000000000000e+02 -1.688000000000000000e+03
-1.109000000000000000e+03 -1.023000000000000000e+03
-6.820000000000000000e+02 -7.330000000000000000e+02
-2.728000000000000000e+03 -2.390000000000000000e+02
-3.069000000000000000e+03 1.870000000000000000e+02
-2.268000000000000000e+03 3.240000000000000000e+02
-3.717000000000000000e+03 7.840000000000000000e+02
-3.734000000000000000e+03 9.550000000000000000e+02
-3.546000000000000000e+03 1.688000000000000000e+03
-4.006000000000000000e+03 2.319000000000000000e+03
-5.763000000000000000e+03 3.070000000000000000e+02
-3.990000000000000000e+03 1.518000000000000000e+03
-5.166000000000000000e+03 2.302000000000000000e+03
-5.166000000000000000e+03 3.120000000000000000e+03
-6.121000000000000000e+03 3.683000000000000000e+03
-3.768000000000000000e+03 4.553000000000000000e+03
-4.928000000000000000e+03 4.314000000000000000e+03
-5.183000000000000000e+03 3.649000000000000000e+03
-4.979000000000000000e+03 4.535000000000000000e+03
-3.052000000000000000e+03 3.734000000000000000e+03
-3.035000000000000000e+03 5.337000000000000000e+03
-2.967000000000000000e+03 3.905000000000000000e+03
-2.950000000000000000e+03 2.438000000000000000e+03
-1.210000000000000000e+03 4.143000000000000000e+03
-3.410000000000000000e+03 5.098000000000000000e+03
-3.495000000000000000e+03 4.399000000000000000e+03
-2.489000000000000000e+03 2.916000000000000000e+03
-7.670000000000000000e+02 6.019000000000000000e+03
-1.484000000000000000e+03 4.501000000000000000e+03
-1.347000000000000000e+03 4.809000000000000000e+03
-6.820000000000000000e+02 5.541000000000000000e+03
-5.960000000000000000e+02 5.524000000000000000e+03
-5.970000000000000000e+02 4.723000000000000000e+03
