-1.701600000000000000e+04 7.996000000000000000e+03
-1.664100000000000000e+04 6.991000000000000000e+03
-1.650400000000000000e+04 8.030000000000000000e+03
-1.629900000000000000e+04 8.832000000000000000e+03
-1.526000000000000000e+04 9.923000000000000000e+03
-1.452700000000000000e+04 9.378000000000000000e+03
-1.411800000000000000e+04 9.957000000000000000e+03
-1.297500000000000000e+04 1.050300000000000000e+04
-1.355500000000000000e+04 1.046900000000000000e+04
-1.256500000000000000e+04 1.104800000000000000e+04
-1.166200000000000000e+04 1.147500000000000000e+04
-1.217300000000000000e+04 1.427000000000000000e+04
-1.057100000000000000e+04 1.115000000000000000e+04
-9.634000000000000000e+03 1.331600000000000000e+04
-9.445000000000000000e+03 1.360600000000000000e+04
-8.235000000000000000e+03 1.348700000000000000e+04
-7.536000000000000000e+03 1.471400000000000000e+04
-6.786000000000000000e+03 1.471400000000000000e+04
-5.780000000000000000e+03 1.510700000000000000e+04
-5.967000000000000000e+03 1.381000000000000000e+04
-3.939000000000000000e+03 1.474800000000000000e+04
-2.336000000000000000e+03 1.491800000000000000e+04
-3.546000000000000000e+03 1.635000000000000000e+04
-2.642000000000000000e+03 1.498700000000000000e+04
-8.520000000000000000e+02 1.619700000000000000e+04
6.820000000000000000e+02 1.645300000000000000e+04
4.950000000000000000e+02 1.705000000000000000e+04
9.040000000000000000e+02 1.820900000000000000e+04
1.193000000000000000e+03 1.754400000000000000e+04
3.904000000000000000e+03 1.739000000000000000e+04
4.382000000000000000e+03 1.652100000000000000e+04
4.535000000000000000e+03 1.681100000000000000e+04
5.848000000000000000e+03 1.629900000000000000e+04
7.706000000000000000e+03 1.723700000000000000e+04
4.995000000000000000e+03 1.602700000000000000e+04
7.654000000000000000e+03 1.616300000000000000e+04
8.507000000000000000e+03 1.597600000000000000e+04
9.036000000000000000e+03 1.691300000000000000e+04
8.849000000000000000e+03 1.505500000000000000e+04
1.079200000000000000e+04 1.500400000000000000e+04
1.237800000000000000e+04 1.524200000000000000e+04
1.173000000000000000e+04 1.592400000000000000e+04
1.253100000000000000e+04 1.382700000000000000e+04
1.312800000000000000e+04 1.490100000000000000e+04
1.449200000000000000e+04 1.164500000000000000e+04
1.360500000000000000e+04 1.423600000000000000e+04
1.604300000000000000e+04 1.254800000000000000e+04
1.626500000000000000e+04 1.217300000000000000e+04
1.745900000000000000e+04 1.186600000000000000e+04
1.880500000000000000e+04 1.057000000000000000e+04
1.923200000000000000e+04 1.043400000000000000e+04
1.962400000000000000e+04 8.797000000000000000e+03
1.851500000000000000e+04 6.325000000000000000e+03
1.940200000000000000e+04 6.342000000000000000e+03
1.882300000000000000e+04 4.927000000000000000e+03
1.916300000000000000e+04 4.705000000000000000e+03
2.052800000000000000e+04 2.949000000000000000e+03
1.912900000000000000e+04 2.148000000000000000e+03
1.993100000000000000e+04 7.160000000000000000e+02
1.936900000000000000e+04 -3.750000000000000000e+02
2.008400000000000000e+04 -1.023000000000000000e+03
1.703200000000000000e+04 -2.796000000000000000e+03
1.909500000000000000e+04 -3.767000000000000000e+03
1.786800000000000000e+04 -4.791000000000000000e+03
1.710100000000000000e+04 -5.404000000000000000e+03
1.635100000000000000e+04 -8.320000000000000000e+03
1.583900000000000000e+04 -6.035000000000000000e+03
1.440700000000000000e+04 -6.649000000000000000e+03
1.374200000000000000e+04 -9.121000000000000000e+03
1.312800000000000000e+04 -9.838000000000000000e+03
1.399800000000000000e+04 -1.004200000000000000e+04
1.237700000000000000e+04 -1.135500000000000000e+04
1.123500000000000000e+04 -1.225800000000000000e+04
1.075900000000000000e+04 -1.118400000000000000e+04
9.871000000000000000e+03 -1.410000000000000000e+04
8.985000000000000000e+03 -1.396400000000000000e+04
7.042000000000000000e+03 -1.403200000000000000e+04
8.030000000000000000e+03 -1.452600000000000000e+04
5.746000000000000000e+03 -1.606000000000000000e+04
4.535000000000000000e+03 -1.485000000000000000e+04
4.671000000000000000e+03 -1.611100000000000000e+04
2.472000000000000000e+03 -1.686200000000000000e+04
2.012000000000000000e+03 -1.483300000000000000e+04
1.058000000000000000e+03 -1.643600000000000000e+04
-7.670000000000000000e+02 -1.512300000000000000e+04
-1.006000000000000000e+03 -1.675900000000000000e+04
-2.438000000000000000e+03 -1.704900000000000000e+04
-3.307000000000000000e+03 -1.566800000000000000e+04
-2.319000000000000000e+03 -1.522500000000000000e+04
-4.877000000000000000e+03 -1.592400000000000000e+04
-5.865000000000000000e+03 -1.503700000000000000e+04
-6.854000000000000000e+03 -1.515700000000000000e+04
-6.377000000000000000e+03 -1.466200000000000000e+04
-8.900000000000000000e+03 -1.442400000000000000e+04
-9.974000000000000000e+03 -1.510500000000000000e+04
-1.118400000000000000e+04 -1.346900000000000000e+04
-1.196900000000000000e+04 -1.263300000000000000e+04
-1.149100000000000000e+04 -1.326500000000000000e+04
-1.435600000000000000e+04 -1.203700000000000000e+04
-1.360600000000000000e+04 -1.222400000000000000e+04
-1.375900000000000000e+04 -1.058700000000000000e+04
-1.449300000000000000e+04 -9.701000000000000000e+03
-1.249700000000000000e+04 -9.445000000000000000e+03
-1.502100000000000000e+04 -1.068900000000000000e+04
-1.466300000000000000e+04 -8.763000000000000000e+03
-1.658900000000000000e+04 -7.638000000000000000e+03
-1.653800000000000000e+04 -7.450000000000000000e+03
-1.708300000000000000e+04 -5.984000000000000000e+03
-1.739100000000000000e+04 -4.552000000000000000e+03
-1.665700000000000000e+04 -3.529000000000000000e+03
-1.694700000000000000e+04 -3.478000000000000000e+03
-1.807200000000000000e+04 -2.608000000000000000e+03
-1.911300000000000000e+04 -2.166000000000000000e+03
-1.849900000000000000e+04 -1.700000000000000000e+01
-1.774900000000000000e+04 4.780000000000000000e+02
-1.786800000000000000e+04 1.347000000000000000e+03
-1.761200000000000000e+04 3.785000000000000000e+03
-1.766300000000000000e+04 2.899000000000000000e+03
-1.611200000000000000e+04 4.927000000000000000e+03
-1.720300000000000000e+04 5.508000000000000000e+03
-1.756100000000000000e+04 4.382000000000000000e+03
-1.684500000000000000e+04 6.189000000000000000e+03
-1.527700000000000000e+04 7.417000000000000000e+03
-1.526000000000000000e+04 7.690000000000000000e+03
-1.374200000000000000e+04 9.036000000000000000e+03
-1.505500000000000000e+04 1.086000000000000000e+04
-1.311200000000000000e+04 9.666000000000000000e+03
-1.277000000000000000e+04 1.004200000000000000e+04
-1.191800000000000000e+04 1.219000000000000000e+04
-1.087800000000000000e+04 1.302600000000000000e+04
-9.633000000000000000e+03 1.428700000000000000e+04
-7.860000000000000000e+03 1.345200000000000000e+04
-7.758000000000000000e+03 1.428700000000000000e+04
-7.878000000000000000e+03 1.420200000000000000e+04
-6.070000000000000000e+03 1.483300000000000000e+04
-4.842000000000000000e+03 1.570300000000000000e+04
-4.553000000000000000e+03 1.517400000000000000e+04
-3.939000000000000000e+03 1.691300000000000000e+04
-2.558000000000000000e+03 1.635100000000000000e+04
-2.114000000000000000e+03 1.503700000000000000e+04
-6.650000000000000000e+02 1.710100000000000000e+04
1.365000000000000000e+03 1.761200000000000000e+04
2.132000000000000000e+03 1.768100000000000000e+04
2.285000000000000000e+03 1.704900000000000000e+04
4.552000000000000000e+03 1.771400000000000000e+04
5.337000000000000000e+03 1.803900000000000000e+04
5.865000000000000000e+03 1.705000000000000000e+04
7.536000000000000000e+03 1.773200000000000000e+04
8.695000000000000000e+03 1.701500000000000000e+04
9.939000000000000000e+03 1.754400000000000000e+04
9.956000000000000000e+03 1.665700000000000000e+04
9.684000000000000000e+03 1.541300000000000000e+04
1.021300000000000000e+04 1.566900000000000000e+04
1.111600000000000000e+04 1.594100000000000000e+04
1.121800000000000000e+04 1.534400000000000000e+04
1.043400000000000000e+04 1.375900000000000000e+04
1.261700000000000000e+04 1.370800000000000000e+04
1.362200000000000000e+04 1.536200000000000000e+04
1.365600000000000000e+04 1.234400000000000000e+04
1.421900000000000000e+04 1.202000000000000000e+04
1.449200000000000000e+04 1.297500000000000000e+04
1.440600000000000000e+04 1.121800000000000000e+04
1.531000000000000000e+04 9.582000000000000000e+03
1.592400000000000000e+04 1.058800000000000000e+04
1.592400000000000000e+04 1.118500000000000000e+04
1.619600000000000000e+04 9.752000000000000000e+03
1.672600000000000000e+04 9.276000000000000000e+03
1.693000000000000000e+04 7.571000000000000000e+03
1.878800000000000000e+04 5.797000000000000000e+03
1.728900000000000000e+04 5.643000000000000000e+03
1.797000000000000000e+04 5.967000000000000000e+03
1.614600000000000000e+04 4.620000000000000000e+03
1.626500000000000000e+04 4.092000000000000000e+03
1.677700000000000000e+04 2.575000000000000000e+03
1.582200000000000000e+04 1.773000000000000000e+03
1.722000000000000000e+04 5.970000000000000000e+02
1.554900000000000000e+04 1.313000000000000000e+03
1.597500000000000000e+04 -1.228000000000000000e+03
1.609400000000000000e+04 -3.257000000000000000e+03
1.669100000000000000e+04 -2.233000000000000000e+03
1.554900000000000000e+04 -2.626000000000000000e+03
1.462800000000000000e+04 -2.216000000000000000e+03
1.502000000000000000e+04 -5.576000000000000000e+03
1.258300000000000000e+04 -6.121000000000000000e+03
1.403200000000000000e+04 -7.757000000000000000e+03
1.283800000000000000e+04 -8.252000000000000000e+03
1.237700000000000000e+04 -8.064000000000000000e+03
1.145700000000000000e+04 -9.071000000000000000e+03
1.132000000000000000e+04 -1.051900000000000000e+04
1.051900000000000000e+04 -1.074200000000000000e+04
9.854000000000000000e+03 -1.167800000000000000e+04
1.057000000000000000e+04 -1.288900000000000000e+04
1.000800000000000000e+04 -1.326400000000000000e+04
8.729000000000000000e+03 -1.425300000000000000e+04
7.467000000000000000e+03 -1.570200000000000000e+04
7.365000000000000000e+03 -1.611200000000000000e+04
5.610000000000000000e+03 -1.674300000000000000e+04
4.860000000000000000e+03 -1.677600000000000000e+04
4.348000000000000000e+03 -1.788400000000000000e+04
2.882000000000000000e+03 -1.699800000000000000e+04
1.381000000000000000e+03 -1.880500000000000000e+04
7.500000000000000000e+02 -1.848100000000000000e+04
-5.110000000000000000e+02 -1.901000000000000000e+04
6.310000000000000000e+02 -1.851600000000000000e+04
-1.636000000000000000e+03 -2.064700000000000000e+04
-6.650000000000000000e+02 -1.955600000000000000e+04
-2.318000000000000000e+03 -1.911200000000000000e+04
-4.382000000000000000e+03 -1.972600000000000000e+04
-5.899000000000000000e+03 -2.052800000000000000e+04
-7.127000000000000000e+03 -1.849900000000000000e+04
-6.172000000000000000e+03 -1.873800000000000000e+04
-8.439000000000000000e+03 -1.873700000000000000e+04
-9.275000000000000000e+03 -1.873700000000000000e+04
-9.343000000000000000e+03 -1.725400000000000000e+04
-9.343000000000000000e+03 -1.887400000000000000e+04
-1.014400000000000000e+04 -1.733900000000000000e+04
-1.275300000000000000e+04 -1.614600000000000000e+04
-1.260000000000000000e+04 -1.670800000000000000e+04
-1.295800000000000000e+04 -1.498600000000000000e+04
-1.377600000000000000e+04 -1.392900000000000000e+04
-1.447500000000000000e+04 -1.466300000000000000e+04
-1.532800000000000000e+04 -1.421900000000000000e+04
-1.563400000000000000e+04 -1.336700000000000000e+04
-1.493500000000000000e+04 -1.048500000000000000e+04
-1.742500000000000000e+04 -1.086100000000000000e+04
-1.619700000000000000e+04 -9.292000000000000000e+03
-1.628200000000000000e+04 -9.479000000000000000e+03
-1.727100000000000000e+04 -6.512000000000000000e+03
-1.795300000000000000e+04 -6.052000000000000000e+03
-1.660700000000000000e+04 -4.842000000000000000e+03
-1.687900000000000000e+04 -2.796000000000000000e+03
-1.771500000000000000e+04 -3.034000000000000000e+03
-1.710100000000000000e+04 -2.080000000000000000e+03
-1.713500000000000000e+04 -7.850000000000000000e+02
-1.732300000000000000e+04 5.120000000000000000e+02
-1.677700000000000000e+04 2.080000000000000000e+03
-1.621400000000000000e+04 3.802000000000000000e+03
-1.730500000000000000e+04 2.046000000000000000e+03
-1.566900000000000000e+04 6.104000000000000000e+03
-1.508800000000000000e+04 6.087000000000000000e+03
-1.536200000000000000e+04 8.542000000000000000e+03
-1.415200000000000000e+04 9.088000000000000000e+03
-1.611200000000000000e+04 1.094600000000000000e+04
-1.488400000000000000e+04 1.062200000000000000e+04
-1.445800000000000000e+04 1.171400000000000000e+04
-1.277000000000000000e+04 1.183300000000000000e+04
-1.184900000000000000e+04 1.377600000000000000e+04
-1.232700000000000000e+04 1.456000000000000000e+04
-1.103100000000000000e+04 1.478200000000000000e+04
-1.191800000000000000e+04 1.628200000000000000e+04
-1.062200000000000000e+04 1.589000000000000000e+04
-7.536000000000000000e+03 1.699900000000000000e+04
-8.456000000000000000e+03 1.665700000000000000e+04
-8.389000000000000000e+03 1.935100000000000000e+04
-5.303000000000000000e+03 2.066400000000000000e+04
-4.860000000000000000e+03 1.959000000000000000e+04
-4.433000000000000000e+03 2.066400000000000000e+04
-3.240000000000000000e+03 2.093700000000000000e+04
-1.568000000000000000e+03 2.017000000000000000e+04
-2.285000000000000000e+03 2.086900000000000000e+04
-9.890000000000000000e+02 1.971000000000000000e+04
-5.120000000000000000e+02 2.126100000000000000e+04
4.780000000000000000e+02 2.095500000000000000e+04
8.350000000000000000e+02 2.088600000000000000e+04
1.705000000000000000e+03 2.155100000000000000e+04
3.614000000000000000e+03 2.161900000000000000e+04
3.393000000000000000e+03 2.015200000000000000e+04
6.496000000000000000e+03 2.069800000000000000e+04
4.944000000000000000e+03 2.047600000000000000e+04
6.291000000000000000e+03 1.962400000000000000e+04
5.915000000000000000e+03 1.820900000000000000e+04
9.548000000000000000e+03 1.826000000000000000e+04
8.082000000000000000e+03 1.701500000000000000e+04
1.072400000000000000e+04 1.807200000000000000e+04
8.576000000000000000e+03 1.711800000000000000e+04
9.888000000000000000e+03 1.558300000000000000e+04
1.164400000000000000e+04 1.473100000000000000e+04
1.231000000000000000e+04 1.268500000000000000e+04
1.225900000000000000e+04 1.106600000000000000e+04
1.225900000000000000e+04 1.193500000000000000e+04
1.292300000000000000e+04 1.019600000000000000e+04
1.355400000000000000e+04 9.411000000000000000e+03
1.321300000000000000e+04 7.639000000000000000e+03
1.401500000000000000e+04 7.059000000000000000e+03
1.520800000000000000e+04 7.553000000000000000e+03
1.440700000000000000e+04 5.729000000000000000e+03
1.408300000000000000e+04 5.507000000000000000e+03
1.331500000000000000e+04 7.500000000000000000e+02
1.491800000000000000e+04 1.023000000000000000e+03
1.508900000000000000e+04 2.234000000000000000e+03
1.437300000000000000e+04 3.070000000000000000e+02
1.428800000000000000e+04 -1.500000000000000000e+03
1.387800000000000000e+04 -2.183000000000000000e+03
1.571900000000000000e+04 -1.415000000000000000e+03
1.295700000000000000e+04 -4.638000000000000000e+03
1.432100000000000000e+04 -4.910000000000000000e+03
1.324700000000000000e+04 -5.575000000000000000e+03
1.369100000000000000e+04 -7.809000000000000000e+03
1.329900000000000000e+04 -8.013000000000000000e+03
1.251400000000000000e+04 -8.712000000000000000e+03
1.161000000000000000e+04 -9.666000000000000000e+03
1.155900000000000000e+04 -9.360000000000000000e+03
1.094600000000000000e+04 -1.109900000000000000e+04
1.149100000000000000e+04 -1.174700000000000000e+04
1.215600000000000000e+04 -1.263400000000000000e+04
1.046800000000000000e+04 -1.213900000000000000e+04
8.899000000000000000e+03 -1.266700000000000000e+04
1.019500000000000000e+04 -1.348600000000000000e+04
9.479000000000000000e+03 -1.297500000000000000e+04
8.320000000000000000e+03 -1.456000000000000000e+04
6.803000000000000000e+03 -1.522500000000000000e+04
7.757000000000000000e+03 -1.575300000000000000e+04
6.768000000000000000e+03 -1.655500000000000000e+04
6.342000000000000000e+03 -1.583800000000000000e+04
6.666000000000000000e+03 -1.694700000000000000e+04
4.944000000000000000e+03 -1.652100000000000000e+04
4.927000000000000000e+03 -1.583900000000000000e+04
4.569000000000000000e+03 -1.537900000000000000e+04
3.495000000000000000e+03 -1.595900000000000000e+04
1.569000000000000000e+03 -1.824300000000000000e+04
2.780000000000000000e+03 -1.623100000000000000e+04
2.012000000000000000e+03 -1.524200000000000000e+04
6.480000000000000000e+02 -1.614600000000000000e+04
-1.569000000000000000e+03 -1.732200000000000000e+04
-1.415000000000000000e+03 -1.771500000000000000e+04
-5.960000000000000000e+02 -1.826000000000000000e+04
-1.892000000000000000e+03 -1.706700000000000000e+04
-3.239000000000000000e+03 -1.730600000000000000e+04
-3.751000000000000000e+03 -1.665800000000000000e+04
-2.472000000000000000e+03 -1.609500000000000000e+04
-4.331000000000000000e+03 -1.563400000000000000e+04
-3.768000000000000000e+03 -1.485000000000000000e+04
-6.683000000000000000e+03 -1.442400000000000000e+04
-6.991000000000000000e+03 -1.520800000000000000e+04
-7.399000000000000000e+03 -1.442400000000000000e+04
-8.952000000000000000e+03 -1.364000000000000000e+04
-8.218000000000000000e+03 -1.248000000000000000e+04
-9.104000000000000000e+03 -1.166200000000000000e+04
-9.344000000000000000e+03 -1.106500000000000000e+04
-8.917000000000000000e+03 -1.220700000000000000e+04
-1.142300000000000000e+04 -1.007600000000000000e+04
-1.012800000000000000e+04 -7.791000000000000000e+03
-1.196900000000000000e+04 -8.558000000000000000e+03
-1.246300000000000000e+04 -8.951000000000000000e+03
-1.367400000000000000e+04 -8.252000000000000000e+03
-1.234400000000000000e+04 -7.501000000000000000e+03
-1.502100000000000000e+04 -6.888000000000000000e+03
-1.362300000000000000e+04 -4.075000000000000000e+03
-1.253100000000000000e+04 -3.479000000000000000e+03
-1.406600000000000000e+04 -1.023000000000000000e+03
-1.481600000000000000e+04 -3.410000000000000000e+02
-1.612900000000000000e+04 -1.530000000000000000e+02
-1.594100000000000000e+04 1.244000000000000000e+03
-1.525900000000000000e+04 9.550000000000000000e+02
-1.525900000000000000e+04 2.507000000000000000e+03
-1.655400000000000000e+04 1.466000000000000000e+03
-1.447500000000000000e+04 3.342000000000000000e+03
-1.539600000000000000e+04 6.479000000000000000e+03
-1.541200000000000000e+04 6.701000000000000000e+03
-1.583800000000000000e+04 7.127000000000000000e+03
-1.473100000000000000e+04 7.792000000000000000e+03
-1.449200000000000000e+04 6.104000000000000000e+03
-1.357100000000000000e+04 1.009400000000000000e+04
-1.288900000000000000e+04 1.035000000000000000e+04
-1.270200000000000000e+04 8.986000000000000000e+03
-1.387900000000000000e+04 1.178200000000000000e+04
-1.316200000000000000e+04 1.212200000000000000e+04
-1.266800000000000000e+04 1.249700000000000000e+04
-1.185000000000000000e+04 1.311100000000000000e+04
-9.821000000000000000e+03 1.333200000000000000e+04
-1.053700000000000000e+04 1.389500000000000000e+04
-8.440000000000000000e+03 1.485000000000000000e+04
-8.627000000000000000e+03 1.532700000000000000e+04
-7.297000000000000000e+03 1.551500000000000000e+04
-6.274000000000000000e+03 1.570300000000000000e+04
-6.053000000000000000e+03 1.628200000000000000e+04
-6.052000000000000000e+03 1.768100000000000000e+04
-3.138000000000000000e+03 1.595800000000000000e+04
-1.995000000000000000e+03 1.565200000000000000e+04
-2.387000000000000000e+03 1.585600000000000000e+04
-1.125000000000000000e+03 1.604400000000000000e+04
-1.756000000000000000e+03 1.568500000000000000e+04
3.240000000000000000e+02 1.515700000000000000e+04
9.040000000000000000e+02 1.618000000000000000e+04
6.310000000000000000e+02 1.675900000000000000e+04
2.250000000000000000e+03 1.544700000000000000e+04
4.211000000000000000e+03 1.502100000000000000e+04
3.665000000000000000e+03 1.404900000000000000e+04
6.171000000000000000e+03 1.527600000000000000e+04
5.762000000000000000e+03 1.488400000000000000e+04
6.172000000000000000e+03 1.374200000000000000e+04
8.183000000000000000e+03 1.464600000000000000e+04
9.122000000000000000e+03 1.127000000000000000e+04
1.038300000000000000e+04 1.231000000000000000e+04
1.123500000000000000e+04 1.159300000000000000e+04
1.159300000000000000e+04 1.034900000000000000e+04
1.312800000000000000e+04 8.814000000000000000e+03
1.154200000000000000e+04 8.031000000000000000e+03
1.283800000000000000e+04 8.048000000000000000e+03
1.532800000000000000e+04 7.621000000000000000e+03
1.539600000000000000e+04 7.127000000000000000e+03
1.577000000000000000e+04 5.286000000000000000e+03
1.698100000000000000e+04 5.541000000000000000e+03
1.698100000000000000e+04 5.098000000000000000e+03
1.822600000000000000e+04 3.597000000000000000e+03
1.822600000000000000e+04 3.751000000000000000e+03
1.740700000000000000e+04 2.557000000000000000e+03
1.924900000000000000e+04 2.677000000000000000e+03
1.885700000000000000e+04 -8.350000000000000000e+02
1.851500000000000000e+04 7.500000000000000000e+02
1.846400000000000000e+04 -2.114000000000000000e+03
1.955500000000000000e+04 -1.808000000000000000e+03
1.974300000000000000e+04 -3.052000000000000000e+03
1.817500000000000000e+04 -5.508000000000000000e+03
2.011800000000000000e+04 -4.859000000000000000e+03
1.875400000000000000e+04 -6.616000000000000000e+03
1.948700000000000000e+04 -6.258000000000000000e+03
1.894200000000000000e+04 -8.423000000000000000e+03
1.836200000000000000e+04 -8.456000000000000000e+03
1.996400000000000000e+04 -9.241000000000000000e+03
1.860100000000000000e+04 -1.034900000000000000e+04
1.807200000000000000e+04 -1.063800000000000000e+04
1.798700000000000000e+04 -1.132100000000000000e+04
1.674200000000000000e+04 -1.140500000000000000e+04
1.537800000000000000e+04 -1.171300000000000000e+04
1.619700000000000000e+04 -1.077500000000000000e+04
1.686200000000000000e+04 -1.215600000000000000e+04
1.379400000000000000e+04 -1.222400000000000000e+04
1.519100000000000000e+04 -1.295800000000000000e+04
1.372400000000000000e+04 -1.135500000000000000e+04
1.403200000000000000e+04 -1.266700000000000000e+04
1.246300000000000000e+04 -1.202000000000000000e+04
1.126900000000000000e+04 -1.418600000000000000e+04
1.038300000000000000e+04 -1.375900000000000000e+04
9.991000000000000000e+03 -1.294000000000000000e+04
9.752000000000000000e+03 -1.321300000000000000e+04
8.251000000000000000e+03 -1.288900000000000000e+04
6.786000000000000000e+03 -1.152600000000000000e+04
5.541000000000000000e+03 -1.323000000000000000e+04
5.745000000000000000e+03 -1.244700000000000000e+04
3.512000000000000000e+03 -1.183200000000000000e+04
3.819000000000000000e+03 -1.103100000000000000e+04
2.233000000000000000e+03 -9.770000000000000000e+03
1.381000000000000000e+03 -1.164500000000000000e+04
1.415000000000000000e+03 -1.028100000000000000e+04
1.700000000000000000e+01 -1.046800000000000000e+04
-3.291000000000000000e+03 -8.815000000000000000e+03
-5.592000000000000000e+03 -1.007600000000000000e+04
-4.245000000000000000e+03 -1.021300000000000000e+04
-4.110000000000000000e+03 -8.849000000000000000e+03
-6.445000000000000000e+03 -8.338000000000000000e+03
-7.894000000000000000e+03 -7.110000000000000000e+03
-7.876000000000000000e+03 -7.161000000000000000e+03
-8.235000000000000000e+03 -8.082000000000000000e+03
-1.004200000000000000e+04 -5.814000000000000000e+03
-1.188300000000000000e+04 -4.535000000000000000e+03
-1.070700000000000000e+04 -4.552000000000000000e+03
-1.002500000000000000e+04 -4.859000000000000000e+03
-1.205400000000000000e+04 -5.422000000000000000e+03
-1.311100000000000000e+04 -5.167000000000000000e+03
-1.519100000000000000e+04 -5.132000000000000000e+03
-1.507100000000000000e+04 -3.291000000000000000e+03
-1.406600000000000000e+04 -3.887000000000000000e+03
-1.481600000000000000e+04 -2.404000000000000000e+03
-1.589000000000000000e+04 -2.268000000000000000e+03
-1.618000000000000000e+04 -2.745000000000000000e+03
-1.589000000000000000e+04 -5.280000000000000000e+02
-1.839600000000000000e+04 -1.227000000000000000e+03
-1.551400000000000000e+04 6.480000000000000000e+02
-1.633300000000000000e+04 2.575000000000000000e+03
-1.754400000000000000e+04 1.943000000000000000e+03
-1.660600000000000000e+04 8.520000000000000000e+02
-1.807300000000000000e+04 7.330000000000000000e+02
-1.604300000000000000e+04 2.575000000000000000e+03
-1.716900000000000000e+04 3.853000000000000000e+03
-1.553200000000000000e+04 3.342000000000000000e+03
-1.520800000000000000e+04 4.553000000000000000e+03
-1.561800000000000000e+04 6.087000000000000000e+03
-1.491800000000000000e+04 6.019000000000000000e+03
-1.440600000000000000e+04 8.031000000000000000e+03
-1.433800000000000000e+04 8.457000000000000000e+03
-1.275300000000000000e+04 8.610000000000000000e+03
-1.353700000000000000e+04 8.628000000000000000e+03
-1.271900000000000000e+04 1.052000000000000000e+04
-1.249700000000000000e+04 1.004200000000000000e+04
-1.000800000000000000e+04 1.198600000000000000e+04
-1.065600000000000000e+04 1.227600000000000000e+04
-1.031500000000000000e+04 1.340000000000000000e+04
-1.009400000000000000e+04 1.541300000000000000e+04
-1.002500000000000000e+04 1.517400000000000000e+04
-8.490000000000000000e+03 1.430400000000000000e+04
-8.338000000000000000e+03 1.512300000000000000e+04
-6.905000000000000000e+03 1.558300000000000000e+04
-5.388000000000000000e+03 1.693000000000000000e+04
-5.217000000000000000e+03 1.829400000000000000e+04
-4.638000000000000000e+03 1.851600000000000000e+04
-3.342000000000000000e+03 1.790200000000000000e+04
-2.609000000000000000e+03 1.984600000000000000e+04
-1.927000000000000000e+03 1.817500000000000000e+04
-3.080000000000000000e+02 1.791900000000000000e+04
4.770000000000000000e+02 1.967600000000000000e+04
-1.501000000000000000e+03 1.814000000000000000e+04
-3.400000000000000000e+01 1.861800000000000000e+04
1.569000000000000000e+03 1.965900000000000000e+04
1.568000000000000000e+03 1.921400000000000000e+04
2.967000000000000000e+03 1.885700000000000000e+04
4.774000000000000000e+03 1.904400000000000000e+04
4.381000000000000000e+03 1.930000000000000000e+04
5.388000000000000000e+03 1.759500000000000000e+04
4.944000000000000000e+03 1.677700000000000000e+04
6.530000000000000000e+03 1.894200000000000000e+04
6.138000000000000000e+03 1.737300000000000000e+04
6.206000000000000000e+03 1.589000000000000000e+04
6.906000000000000000e+03 1.652000000000000000e+04
7.211000000000000000e+03 1.633300000000000000e+04
8.627000000000000000e+03 1.474800000000000000e+04
7.723000000000000000e+03 1.393000000000000000e+04
8.780000000000000000e+03 1.258300000000000000e+04
1.101400000000000000e+04 1.387800000000000000e+04
9.429000000000000000e+03 1.404900000000000000e+04
1.137200000000000000e+04 1.205400000000000000e+04
9.633000000000000000e+03 1.074200000000000000e+04
1.265100000000000000e+04 9.821000000000000000e+03
1.067300000000000000e+04 8.849000000000000000e+03
1.144000000000000000e+04 8.149000000000000000e+03
1.077500000000000000e+04 7.502000000000000000e+03
1.069100000000000000e+04 4.944000000000000000e+03
1.121800000000000000e+04 8.013000000000000000e+03
1.336700000000000000e+04 4.757000000000000000e+03
1.126900000000000000e+04 4.739000000000000000e+03
1.323000000000000000e+04 4.740000000000000000e+03
1.195100000000000000e+04 2.864000000000000000e+03
1.140600000000000000e+04 3.400000000000000000e+01
1.120100000000000000e+04 1.534000000000000000e+03
1.166200000000000000e+04 3.070000000000000000e+02
1.174700000000000000e+04 -7.500000000000000000e+02
1.156000000000000000e+04 -3.069000000000000000e+03
9.838000000000000000e+03 -4.160000000000000000e+03
1.273600000000000000e+04 -3.001000000000000000e+03
1.005900000000000000e+04 -3.632000000000000000e+03
1.087800000000000000e+04 -4.740000000000000000e+03
1.198500000000000000e+04 -5.490000000000000000e+03
9.957000000000000000e+03 -6.632000000000000000e+03
8.627000000000000000e+03 -8.218000000000000000e+03
9.667000000000000000e+03 -8.355000000000000000e+03
7.263000000000000000e+03 -9.053000000000000000e+03
8.388000000000000000e+03 -9.651000000000000000e+03
7.161000000000000000e+03 -8.935000000000000000e+03
6.820000000000000000e+03 -1.144100000000000000e+04
7.792000000000000000e+03 -1.219000000000000000e+04
6.188000000000000000e+03 -1.246400000000000000e+04
5.456000000000000000e+03 -1.173000000000000000e+04
6.138000000000000000e+03 -1.244600000000000000e+04
5.371000000000000000e+03 -1.266800000000000000e+04
4.280000000000000000e+03 -1.270100000000000000e+04
3.325000000000000000e+03 -1.263400000000000000e+04
3.785000000000000000e+03 -1.452600000000000000e+04
3.086000000000000000e+03 -1.413400000000000000e+04
2.045000000000000000e+03 -1.314500000000000000e+04
1.535000000000000000e+03 -1.502100000000000000e+04
1.791000000000000000e+03 -1.411700000000000000e+04
-3.240000000000000000e+02 -1.616300000000000000e+04
3.060000000000000000e+02 -1.556600000000000000e+04
-1.210000000000000000e+03 -1.355500000000000000e+04
-2.659000000000000000e+03 -1.360500000000000000e+04
-1.859000000000000000e+03 -1.500400000000000000e+04
-2.864000000000000000e+03 -1.556600000000000000e+04
-2.165000000000000000e+03 -1.415100000000000000e+04
-3.922000000000000000e+03 -1.445700000000000000e+04
-4.604000000000000000e+03 -1.401500000000000000e+04
-4.433000000000000000e+03 -1.248000000000000000e+04
-3.631000000000000000e+03 -1.135500000000000000e+04
-4.160000000000000000e+03 -1.147400000000000000e+04
-5.286000000000000000e+03 -1.244600000000000000e+04
-6.650000000000000000e+03 -1.202000000000000000e+04
-7.127000000000000000e+03 -1.178100000000000000e+04
-7.724000000000000000e+03 -1.080900000000000000e+04
-7.911000000000000000e+03 -9.019000000000000000e+03
-9.139000000000000000e+03 -1.067200000000000000e+04
-7.280000000000000000e+03 -8.576000000000000000e+03
-6.803000000000000000e+03 -6.547000000000000000e+03
-8.950000000000000000e+03 -8.405000000000000000e+03
-7.229000000000000000e+03 -7.076000000000000000e+03
-7.979000000000000000e+03 -6.530000000000000000e+03
-8.303000000000000000e+03 -6.614000000000000000e+03
-8.388000000000000000e+03 -4.501000000000000000e+03
-8.354000000000000000e+03 -4.024000000000000000e+03
-8.013000000000000000e+03 -4.654000000000000000e+03
-7.792000000000000000e+03 -2.864000000000000000e+03
-9.377000000000000000e+03 -1.091000000000000000e+03
-8.234000000000000000e+03 -4.092000000000000000e+03
-7.502000000000000000e+03 -1.210000000000000000e+03
-8.729000000000000000e+03 -1.296000000000000000e+03
-7.553000000000000000e+03 -2.210000000000000000e+02
-7.297000000000000000e+03 -4.260000000000000000e+02
-6.326000000000000000e+03 3.580000000000000000e+02
-7.979000000000000000e+03 1.190000000000000000e+02
-6.752000000000000000e+03 1.364000000000000000e+03
-4.757000000000000000e+03 2.251000000000000000e+03
-5.695000000000000000e+03 2.336000000000000000e+03
-5.968000000000000000e+03 2.915000000000000000e+03
-5.200000000000000000e+03 3.836000000000000000e+03
-4.450000000000000000e+03 3.461000000000000000e+03
-4.246000000000000000e+03 4.569000000000000000e+03
-4.433000000000000000e+03 4.194000000000000000e+03
-3.734000000000000000e+03 5.047000000000000000e+03
-3.904000000000000000e+03 5.371000000000000000e+03
-2.830000000000000000e+03 5.985000000000000000e+03
-1.961000000000000000e+03 7.229000000000000000e+03
-2.660000000000000000e+03 5.507000000000000000e+03
-3.444000000000000000e+03 7.877000000000000000e+03
-8.700000000000000000e+02 7.570000000000000000e+03
-3.734000000000000000e+03 7.434000000000000000e+03
-2.865000000000000000e+03 7.484000000000000000e+03
-8.350000000000000000e+02 8.542000000000000000e+03
-1.807000000000000000e+03 9.479000000000000000e+03
-9.210000000000000000e+02 8.047000000000000000e+03
-5.800000000000000000e+02 9.445000000000000000e+03
1.091000000000000000e+03 8.235000000000000000e+03
-1.415000000000000000e+03 9.803000000000000000e+03
-1.057000000000000000e+03 9.820000000000000000e+03
6.990000000000000000e+02 1.004200000000000000e+04
5.800000000000000000e+02 1.130300000000000000e+04
5.620000000000000000e+02 1.081000000000000000e+04
-5.290000000000000000e+02 8.848000000000000000e+03
1.432000000000000000e+03 9.718000000000000000e+03
2.353000000000000000e+03 1.043400000000000000e+04
4.296000000000000000e+03 1.087700000000000000e+04
2.268000000000000000e+03 1.036500000000000000e+04
1.228000000000000000e+03 9.905000000000000000e+03
3.547000000000000000e+03 1.009300000000000000e+04
2.848000000000000000e+03 9.531000000000000000e+03
2.744000000000000000e+03 8.917000000000000000e+03
2.899000000000000000e+03 9.241000000000000000e+03
3.632000000000000000e+03 1.062200000000000000e+04
2.574000000000000000e+03 9.922000000000000000e+03
3.820000000000000000e+03 9.241000000000000000e+03
4.637000000000000000e+03 8.508000000000000000e+03
3.240000000000000000e+03 8.832000000000000000e+03
3.803000000000000000e+03 9.735000000000000000e+03
2.881000000000000000e+03 7.689000000000000000e+03
4.604000000000000000e+03 7.143000000000000000e+03
5.593000000000000000e+03 7.161000000000000000e+03
5.558000000000000000e+03 6.820000000000000000e+03
4.211000000000000000e+03 5.695000000000000000e+03
5.694000000000000000e+03 5.899000000000000000e+03
6.120000000000000000e+03 6.342000000000000000e+03
4.108000000000000000e+03 4.177000000000000000e+03
4.552000000000000000e+03 3.734000000000000000e+03
4.535000000000000000e+03 2.950000000000000000e+03
5.183000000000000000e+03 5.183000000000000000e+03
5.200000000000000000e+03 2.540000000000000000e+03
4.586000000000000000e+03 7.670000000000000000e+02
3.257000000000000000e+03 2.574000000000000000e+03
4.007000000000000000e+03 -2.720000000000000000e+02
4.177000000000000000e+03 6.130000000000000000e+02
3.052000000000000000e+03 1.190000000000000000e+02
5.165000000000000000e+03 -1.569000000000000000e+03
4.518000000000000000e+03 -1.756000000000000000e+03
3.972000000000000000e+03 -1.211000000000000000e+03
4.108000000000000000e+03 -2.659000000000000000e+03
2.557000000000000000e+03 -3.598000000000000000e+03
1.585000000000000000e+03 -3.256000000000000000e+03
3.018000000000000000e+03 -3.512000000000000000e+03
3.392000000000000000e+03 -6.632000000000000000e+03
1.364000000000000000e+03 -4.382000000000000000e+03
2.045000000000000000e+03 -5.984000000000000000e+03
2.813000000000000000e+03 -7.024000000000000000e+03
3.120000000000000000e+03 -6.888000000000000000e+03
2.608000000000000000e+03 -9.070000000000000000e+03
1.875000000000000000e+03 -6.445000000000000000e+03
1.790000000000000000e+03 -8.729000000000000000e+03
1.636000000000000000e+03 -9.206000000000000000e+03
1.700000000000000000e+02 -1.062100000000000000e+04
2.046000000000000000e+03 -8.183000000000000000e+03
1.347000000000000000e+03 -1.052000000000000000e+04
1.773000000000000000e+03 -9.974000000000000000e+03
1.176000000000000000e+03 -1.036600000000000000e+04
3.750000000000000000e+02 -1.016200000000000000e+04
1.870000000000000000e+02 -1.002500000000000000e+04
-1.211000000000000000e+03 -9.991000000000000000e+03
-2.404000000000000000e+03 -1.171300000000000000e+04
-6.990000000000000000e+02 -9.719000000000000000e+03
-1.705000000000000000e+03 -1.149100000000000000e+04
-2.199000000000000000e+03 -9.531000000000000000e+03
-2.438000000000000000e+03 -1.253200000000000000e+04
-3.119000000000000000e+03 -1.178100000000000000e+04
-3.256000000000000000e+03 -1.309400000000000000e+04
-2.932000000000000000e+03 -1.121900000000000000e+04
-3.222000000000000000e+03 -1.200300000000000000e+04
-3.137000000000000000e+03 -1.101400000000000000e+04
-3.546000000000000000e+03 -1.186700000000000000e+04
-4.178000000000000000e+03 -1.026400000000000000e+04
-2.165000000000000000e+03 -9.361000000000000000e+03
-3.614000000000000000e+03 -8.934000000000000000e+03
-4.875000000000000000e+03 -9.122000000000000000e+03
-7.228000000000000000e+03 -1.041800000000000000e+04
-6.171000000000000000e+03 -1.108300000000000000e+04
-5.507000000000000000e+03 -9.070000000000000000e+03
-5.336000000000000000e+03 -9.224000000000000000e+03
-7.331000000000000000e+03 -8.576000000000000000e+03
-5.370000000000000000e+03 -9.310000000000000000e+03
-5.524000000000000000e+03 -7.433000000000000000e+03
-7.093000000000000000e+03 -8.661000000000000000e+03
-6.735000000000000000e+03 -8.627000000000000000e+03
-7.962000000000000000e+03 -8.508000000000000000e+03
-7.314000000000000000e+03 -4.911000000000000000e+03
-7.553000000000000000e+03 -5.456000000000000000e+03
-7.144000000000000000e+03 -7.604000000000000000e+03
-6.922000000000000000e+03 -4.450000000000000000e+03
-8.405000000000000000e+03 -5.285000000000000000e+03
-6.649000000000000000e+03 -5.336000000000000000e+03
-7.945000000000000000e+03 -3.563000000000000000e+03
-8.883000000000000000e+03 -2.864000000000000000e+03
-7.365000000000000000e+03 -3.052000000000000000e+03
-9.224000000000000000e+03 -2.813000000000000000e+03
-8.508000000000000000e+03 -3.700000000000000000e+03
-7.280000000000000000e+03 -2.063000000000000000e+03
-6.120000000000000000e+03 -1.227000000000000000e+03
-7.536000000000000000e+03 4.260000000000000000e+02
-7.587000000000000000e+03 -9.540000000000000000e+02
-7.603000000000000000e+03 3.240000000000000000e+02
-7.501000000000000000e+03 -1.228000000000000000e+03
-5.609000000000000000e+03 2.369000000000000000e+03
-6.888000000000000000e+03 1.943000000000000000e+03
-5.831000000000000000e+03 2.199000000000000000e+03
-6.495000000000000000e+03 1.057000000000000000e+03
-6.666000000000000000e+03 3.069000000000000000e+03
-5.182000000000000000e+03 1.688000000000000000e+03
-5.387000000000000000e+03 4.177000000000000000e+03
-4.552000000000000000e+03 5.507000000000000000e+03
-2.301000000000000000e+03 4.194000000000000000e+03
-3.205000000000000000e+03 5.166000000000000000e+03
-3.052000000000000000e+03 5.660000000000000000e+03
-2.217000000000000000e+03 4.671000000000000000e+03
-3.018000000000000000e+03 4.280000000000000000e+03
-3.716000000000000000e+03 4.995000000000000000e+03
-3.400000000000000000e+02 6.342000000000000000e+03
-1.448000000000000000e+03 5.626000000000000000e+03
-1.960000000000000000e+03 5.302000000000000000e+03
-9.210000000000000000e+02 5.269000000000000000e+03
-1.091000000000000000e+03 5.627000000000000000e+03
-9.210000000000000000e+02 4.416000000000000000e+03
4.260000000000000000e+02 6.325000000000000000e+03
6.140000000000000000e+02 6.444000000000000000e+03
1.774000000000000000e+03 6.495000000000000000e+03
1.382000000000000000e+03 7.587000000000000000e+03
3.171000000000000000e+03 7.262000000000000000e+03
4.228000000000000000e+03 8.234000000000000000e+03
1.330000000000000000e+03 7.296000000000000000e+03
3.359000000000000000e+03 6.155000000000000000e+03
3.717000000000000000e+03 6.155000000000000000e+03
3.614000000000000000e+03 6.700000000000000000e+03
3.853000000000000000e+03 6.223000000000000000e+03
3.444000000000000000e+03 5.234000000000000000e+03
3.955000000000000000e+03 5.864000000000000000e+03
4.450000000000000000e+03 5.830000000000000000e+03
4.092000000000000000e+03 5.780000000000000000e+03
3.819000000000000000e+03 5.643000000000000000e+03
4.126000000000000000e+03 4.416000000000000000e+03
5.167000000000000000e+03 6.427000000000000000e+03
6.121000000000000000e+03 6.240000000000000000e+03
6.240000000000000000e+03 6.240000000000000000e+03
3.530000000000000000e+03 4.603000000000000000e+03
3.393000000000000000e+03 5.234000000000000000e+03
4.655000000000000000e+03 6.462000000000000000e+03
5.627000000000000000e+03 4.893000000000000000e+03
5.320000000000000000e+03 3.972000000000000000e+03
5.660000000000000000e+03 4.655000000000000000e+03
4.416000000000000000e+03 3.035000000000000000e+03
3.802000000000000000e+03 4.075000000000000000e+03
5.166000000000000000e+03 3.819000000000000000e+03
4.092000000000000000e+03 4.245000000000000000e+03
5.234000000000000000e+03 3.614000000000000000e+03
3.614000000000000000e+03 3.052000000000000000e+03
3.137000000000000000e+03 2.046000000000000000e+03
3.819000000000000000e+03 1.364000000000000000e+03
3.171000000000000000e+03 2.574000000000000000e+03
3.376000000000000000e+03 1.091000000000000000e+03
3.359000000000000000e+03 1.347000000000000000e+03
3.137000000000000000e+03 5.800000000000000000e+02
2.796000000000000000e+03 -1.245000000000000000e+03
1.739000000000000000e+03 -5.110000000000000000e+02
1.534000000000000000e+03 -2.380000000000000000e+02
1.670000000000000000e+03 -1.057000000000000000e+03
4.260000000000000000e+02 1.020000000000000000e+02
1.381000000000000000e+03 -1.347000000000000000e+03
-5.790000000000000000e+02 -2.711000000000000000e+03
8.690000000000000000e+02 -3.359000000000000000e+03
6.650000000000000000e+02 -3.240000000000000000e+03
0.000000000000000000e+00 -4.194000000000000000e+03
6.800000000000000000e+01 -3.410000000000000000e+03
-1.261000000000000000e+03 -5.200000000000000000e+03
-8.530000000000000000e+02 -5.695000000000000000e+03
-3.443000000000000000e+03 -4.399000000000000000e+03
-2.096000000000000000e+03 -4.604000000000000000e+03
-2.676000000000000000e+03 -7.348000000000000000e+03
-1.347000000000000000e+03 -5.678000000000000000e+03
-3.154000000000000000e+03 -7.570000000000000000e+03
-3.665000000000000000e+03 -6.939000000000000000e+03
-4.927000000000000000e+03 -6.513000000000000000e+03
-3.546000000000000000e+03 -7.553000000000000000e+03
-4.126000000000000000e+03 -8.696000000000000000e+03
-3.785000000000000000e+03 -9.615000000000000000e+03
-5.848000000000000000e+03 -8.763000000000000000e+03
-4.433000000000000000e+03 -9.907000000000000000e+03
-5.506000000000000000e+03 -9.599000000000000000e+03
-7.075000000000000000e+03 -9.190000000000000000e+03
-5.132000000000000000e+03 -1.068900000000000000e+04
-5.148000000000000000e+03 -1.198600000000000000e+04
-4.091000000000000000e+03 -1.239500000000000000e+04
-5.950000000000000000e+03 -1.156000000000000000e+04
-5.745000000000000000e+03 -1.242900000000000000e+04
-6.035000000000000000e+03 -1.258300000000000000e+04
-5.387000000000000000e+03 -1.193500000000000000e+04
-4.347000000000000000e+03 -1.183300000000000000e+04
-6.308000000000000000e+03 -1.282100000000000000e+04
-5.984000000000000000e+03 -1.231000000000000000e+04
-6.257000000000000000e+03 -1.352000000000000000e+04
-5.029000000000000000e+03 -1.352100000000000000e+04
-4.569000000000000000e+03 -1.360500000000000000e+04
-7.024000000000000000e+03 -1.381000000000000000e+04
-5.728000000000000000e+03 -1.411700000000000000e+04
-5.540000000000000000e+03 -1.282200000000000000e+04
-4.126000000000000000e+03 -1.335000000000000000e+04
-4.637000000000000000e+03 -1.410000000000000000e+04
-3.922000000000000000e+03 -1.205500000000000000e+04
-3.921000000000000000e+03 -1.227600000000000000e+04
-3.597000000000000000e+03 -1.253100000000000000e+04
-3.495000000000000000e+03 -1.365700000000000000e+04
-3.699000000000000000e+03 -1.053700000000000000e+04
-5.574000000000000000e+03 -1.261700000000000000e+04
-5.029000000000000000e+03 -1.133800000000000000e+04
-3.528000000000000000e+03 -1.159300000000000000e+04
-2.131000000000000000e+03 -1.075800000000000000e+04
-2.335000000000000000e+03 -9.888000000000000000e+03
-2.029000000000000000e+03 -8.457000000000000000e+03
-1.893000000000000000e+03 -9.530000000000000000e+03
-6.650000000000000000e+02 -8.355000000000000000e+03
-1.142000000000000000e+03 -8.149000000000000000e+03
-1.194000000000000000e+03 -7.331000000000000000e+03
1.870000000000000000e+02 -8.082000000000000000e+03
-1.518000000000000000e+03 -7.621000000000000000e+03
-1.415000000000000000e+03 -6.359000000000000000e+03
1.530000000000000000e+02 -6.342000000000000000e+03
1.108000000000000000e+03 -5.541000000000000000e+03
-1.710000000000000000e+02 -7.178000000000000000e+03
9.030000000000000000e+02 -4.228000000000000000e+03
1.142000000000000000e+03 -5.285000000000000000e+03
1.211000000000000000e+03 -3.529000000000000000e+03
1.927000000000000000e+03 -3.699000000000000000e+03
1.381000000000000000e+03 -3.239000000000000000e+03
1.961000000000000000e+03 -2.915000000000000000e+03
2.745000000000000000e+03 -1.517000000000000000e+03
3.495000000000000000e+03 -9.210000000000000000e+02
2.813000000000000000e+03 -2.353000000000000000e+03
3.495000000000000000e+03 3.410000000000000000e+02
3.443000000000000000e+03 1.637000000000000000e+03
4.961000000000000000e+03 1.159000000000000000e+03
4.927000000000000000e+03 1.227000000000000000e+03
4.927000000000000000e+03 2.217000000000000000e+03
6.496000000000000000e+03 2.131000000000000000e+03
6.189000000000000000e+03 1.483000000000000000e+03
5.439000000000000000e+03 2.336000000000000000e+03
7.638000000000000000e+03 3.955000000000000000e+03
7.724000000000000000e+03 5.984000000000000000e+03
8.321000000000000000e+03 6.973000000000000000e+03
1.017900000000000000e+04 6.615000000000000000e+03
9.855000000000000000e+03 8.780000000000000000e+03
9.804000000000000000e+03 7.501000000000000000e+03
1.087800000000000000e+04 7.724000000000000000e+03
1.057100000000000000e+04 8.201000000000000000e+03
8.934000000000000000e+03 9.172000000000000000e+03
1.074100000000000000e+04 9.632000000000000000e+03
1.021300000000000000e+04 1.210500000000000000e+04
9.974000000000000000e+03 9.991000000000000000e+03
1.144000000000000000e+04 1.246300000000000000e+04
1.239600000000000000e+04 1.304300000000000000e+04
1.231100000000000000e+04 1.314500000000000000e+04
1.128700000000000000e+04 1.444100000000000000e+04
1.256500000000000000e+04 1.398100000000000000e+04
1.113400000000000000e+04 1.420200000000000000e+04
1.159400000000000000e+04 1.372500000000000000e+04
1.270200000000000000e+04 1.730500000000000000e+04
1.028100000000000000e+04 1.599200000000000000e+04
1.116800000000000000e+04 1.618100000000000000e+04
1.162800000000000000e+04 1.693000000000000000e+04
9.684000000000000000e+03 1.706700000000000000e+04
1.005900000000000000e+04 1.803900000000000000e+04
9.139000000000000000e+03 1.841400000000000000e+04
9.275000000000000000e+03 1.884000000000000000e+04
7.672000000000000000e+03 1.960700000000000000e+04
6.803000000000000000e+03 2.025500000000000000e+04
6.393000000000000000e+03 1.924900000000000000e+04
5.269000000000000000e+03 2.023800000000000000e+04
4.331000000000000000e+03 1.955600000000000000e+04
4.126000000000000000e+03 2.347700000000000000e+04
2.745000000000000000e+03 2.226700000000000000e+04
4.440000000000000000e+02 1.894200000000000000e+04
4.940000000000000000e+02 2.144800000000000000e+04
-1.227000000000000000e+03 2.037400000000000000e+04
-4.228000000000000000e+03 2.112500000000000000e+04
-4.500000000000000000e+03 1.880600000000000000e+04
-4.381000000000000000e+03 2.107400000000000000e+04
-7.876000000000000000e+03 2.098800000000000000e+04
-1.000700000000000000e+04 1.793600000000000000e+04
-1.051900000000000000e+04 2.006700000000000000e+04
-1.360600000000000000e+04 1.962400000000000000e+04
-1.503800000000000000e+04 1.735600000000000000e+04
-1.558300000000000000e+04 1.647000000000000000e+04
-1.817500000000000000e+04 1.621300000000000000e+04
-1.913000000000000000e+04 1.490100000000000000e+04
-2.189100000000000000e+04 1.212200000000000000e+04
-2.238600000000000000e+04 1.282100000000000000e+04
-2.378400000000000000e+04 1.070700000000000000e+04
-2.617100000000000000e+04 9.531000000000000000e+03
-2.797800000000000000e+04 7.689000000000000000e+03
-2.881400000000000000e+04 8.082000000000000000e+03
-3.058700000000000000e+04 4.995000000000000000e+03
-3.108100000000000000e+04 2.847000000000000000e+03
-3.353600000000000000e+04 7.840000000000000000e+02
-3.392800000000000000e+04 -3.240000000000000000e+02
-3.447500000000000000e+04 -2.643000000000000000e+03
-3.425300000000000000e+04 -4.450000000000000000e+03
-3.653700000000000000e+04 -6.206000000000000000e+03
-3.768000000000000000e+04 -8.917000000000000000e+03
-3.657100000000000000e+04 -1.116700000000000000e+04
-3.510500000000000000e+04 -1.377600000000000000e+04
-3.682700000000000000e+04 -1.631600000000000000e+04
-3.704900000000000000e+04 -1.885700000000000000e+04
-3.519100000000000000e+04 -2.080100000000000000e+04
-3.588900000000000000e+04 -2.359700000000000000e+04
-3.524100000000000000e+04 -2.371600000000000000e+04
-3.406500000000000000e+04 -2.755300000000000000e+04
-3.486600000000000000e+04 -2.949600000000000000e+04
-3.288800000000000000e+04 -3.068900000000000000e+04
-3.181500000000000000e+04 -3.316100000000000000e+04
-2.951200000000000000e+04 -3.469500000000000000e+04
-2.739800000000000000e+04 -3.744100000000000000e+04
-2.721100000000000000e+04 -3.877100000000000000e+04
-2.456800000000000000e+04 -4.088400000000000000e+04
-2.201000000000000000e+04 -4.185700000000000000e+04
-1.976000000000000000e+04 -4.397100000000000000e+04
-1.611200000000000000e+04 -4.501100000000000000e+04
-1.381000000000000000e+04 -4.553900000000000000e+04
-1.121900000000000000e+04 -4.693700000000000000e+04
-8.678000000000000000e+03 -4.705700000000000000e+04
-6.052000000000000000e+03 -4.818200000000000000e+04
-3.682000000000000000e+03 -4.845500000000000000e+04
8.690000000000000000e+02 -4.959700000000000000e+04
4.621000000000000000e+03 -4.840300000000000000e+04
8.303000000000000000e+03 -4.741500000000000000e+04
1.063900000000000000e+04 -4.825000000000000000e+04
1.420200000000000000e+04 -4.702200000000000000e+04
1.851500000000000000e+04 -4.557400000000000000e+04
2.136300000000000000e+04 -4.455100000000000000e+04
2.564300000000000000e+04 -4.274300000000000000e+04
2.821700000000000000e+04 -4.148100000000000000e+04
3.220700000000000000e+04 -3.791800000000000000e+04
3.537700000000000000e+04 -3.629800000000000000e+04
3.849700000000000000e+04 -3.459400000000000000e+04
4.068000000000000000e+04 -3.215500000000000000e+04
4.178900000000000000e+04 -3.034800000000000000e+04
4.523200000000000000e+04 -2.600000000000000000e+04
4.808000000000000000e+04 -2.373300000000000000e+04
4.751700000000000000e+04 -2.047600000000000000e+04
4.959700000000000000e+04 -1.802100000000000000e+04
5.089300000000000000e+04 -1.362300000000000000e+04
5.271700000000000000e+04 -8.627000000000000000e+03
5.425200000000000000e+04 -4.706000000000000000e+03
5.512100000000000000e+04 -9.550000000000000000e+02
5.471300000000000000e+04 1.091000000000000000e+03
5.290500000000000000e+04 3.922000000000000000e+03
5.449000000000000000e+04 9.905000000000000000e+03
5.384300000000000000e+04 1.294000000000000000e+04
5.297300000000000000e+04 1.508900000000000000e+04
5.251300000000000000e+04 1.887400000000000000e+04
5.123400000000000000e+04 2.216400000000000000e+04
5.029600000000000000e+04 2.523400000000000000e+04
4.712500000000000000e+04 2.842100000000000000e+04
4.557300000000000000e+04 3.045100000000000000e+04
4.448300000000000000e+04 3.519000000000000000e+04
4.211300000000000000e+04 3.750900000000000000e+04
3.952100000000000000e+04 3.808800000000000000e+04
3.813900000000000000e+04 4.192400000000000000e+04
3.425200000000000000e+04 4.501100000000000000e+04
3.099600000000000000e+04 4.547100000000000000e+04
3.022900000000000000e+04 4.618700000000000000e+04
2.654600000000000000e+04 5.034700000000000000e+04
2.456900000000000000e+04 5.130200000000000000e+04
2.107300000000000000e+04 5.380800000000000000e+04
1.650400000000000000e+04 5.300600000000000000e+04
1.469700000000000000e+04 5.408100000000000000e+04
1.234300000000000000e+04 5.505300000000000000e+04
8.389000000000000000e+03 5.587100000000000000e+04
5.064000000000000000e+03 5.553000000000000000e+04
1.483000000000000000e+03 5.633100000000000000e+04
-1.773000000000000000e+03 5.773000000000000000e+04
-2.557000000000000000e+03 5.709900000000000000e+04
-5.302000000000000000e+03 5.663800000000000000e+04
