1.331600000000000000e+04 1.756100000000000000e+04
1.263400000000000000e+04 1.773100000000000000e+04
1.391200000000000000e+04 1.524200000000000000e+04
1.410100000000000000e+04 1.505500000000000000e+04
1.582200000000000000e+04 1.524200000000000000e+04
1.645300000000000000e+04 1.452600000000000000e+04
1.839600000000000000e+04 1.353700000000000000e+04
1.964100000000000000e+04 1.345200000000000000e+04
2.063000000000000000e+04 1.121900000000000000e+04
1.858400000000000000e+04 1.091200000000000000e+04
1.974400000000000000e+04 1.063800000000000000e+04
2.069800000000000000e+04 8.524000000000000000e+03
2.429500000000000000e+04 7.758000000000000000e+03
2.265800000000000000e+04 9.718000000000000000e+03
2.213000000000000000e+04 5.729000000000000000e+03
2.207900000000000000e+04 6.087000000000000000e+03
2.417600000000000000e+04 4.246000000000000000e+03
2.453400000000000000e+04 2.660000000000000000e+03
2.477300000000000000e+04 8.010000000000000000e+02
2.433000000000000000e+04 -4.090000000000000000e+02
2.400500000000000000e+04 -2.250000000000000000e+03
2.574500000000000000e+04 -1.841000000000000000e+03
2.554000000000000000e+04 -4.313000000000000000e+03
2.538700000000000000e+04 -6.786000000000000000e+03
2.569400000000000000e+04 -6.871000000000000000e+03
2.583000000000000000e+04 -8.661000000000000000e+03
2.354500000000000000e+04 -1.108200000000000000e+04
2.320400000000000000e+04 -1.123500000000000000e+04
2.340900000000000000e+04 -1.503800000000000000e+04
2.427900000000000000e+04 -1.556600000000000000e+04
2.255700000000000000e+04 -1.832900000000000000e+04
1.998100000000000000e+04 -2.083500000000000000e+04
2.049300000000000000e+04 -2.107300000000000000e+04
2.018700000000000000e+04 -2.264200000000000000e+04
1.815800000000000000e+04 -2.535300000000000000e+04
1.844700000000000000e+04 -2.627400000000000000e+04
1.486700000000000000e+04 -2.594900000000000000e+04
1.343500000000000000e+04 -2.925700000000000000e+04
1.234400000000000000e+04 -2.927400000000000000e+04
1.051900000000000000e+04 -3.075700000000000000e+04
6.819000000000000000e+03 -3.316200000000000000e+04
6.786000000000000000e+03 -3.357000000000000000e+04
3.785000000000000000e+03 -3.508800000000000000e+04
1.228000000000000000e+03 -3.541200000000000000e+04
0.000000000000000000e+00 -3.563300000000000000e+04
-2.047000000000000000e+03 -3.556500000000000000e+04
-5.115000000000000000e+03 -3.597500000000000000e+04
-6.547000000000000000e+03 -3.679300000000000000e+04
-8.883000000000000000e+03 -3.660500000000000000e+04
-1.096300000000000000e+04 -3.691300000000000000e+04
-1.466300000000000000e+04 -3.430400000000000000e+04
-1.648700000000000000e+04 -3.595700000000000000e+04
-1.730600000000000000e+04 -3.411600000000000000e+04
-2.020400000000000000e+04 -3.295600000000000000e+04
-2.267600000000000000e+04 -3.075700000000000000e+04
-2.378500000000000000e+04 -2.978500000000000000e+04
-2.651200000000000000e+04 -2.876200000000000000e+04
-2.821800000000000000e+04 -2.734800000000000000e+04
-2.782500000000000000e+04 -2.494400000000000000e+04
-3.077400000000000000e+04 -2.236900000000000000e+04
-3.195100000000000000e+04 -2.262500000000000000e+04
-3.350300000000000000e+04 -2.081800000000000000e+04
-3.546300000000000000e+04 -1.703300000000000000e+04
-3.490000000000000000e+04 -1.375900000000000000e+04
-3.618000000000000000e+04 -1.202000000000000000e+04
-3.742400000000000000e+04 -1.198500000000000000e+04
-3.844700000000000000e+04 -8.746000000000000000e+03
-3.728700000000000000e+04 -7.007000000000000000e+03
-3.892500000000000000e+04 -2.149000000000000000e+03
-3.851500000000000000e+04 -1.893000000000000000e+03
-3.706500000000000000e+04 1.535000000000000000e+03
-3.790100000000000000e+04 1.824000000000000000e+03
-3.752600000000000000e+04 6.342000000000000000e+03
-3.636700000000000000e+04 7.280000000000000000e+03
-3.623000000000000000e+04 1.053700000000000000e+04
-3.570200000000000000e+04 1.227500000000000000e+04
-3.452500000000000000e+04 1.360600000000000000e+04
-3.433800000000000000e+04 1.561700000000000000e+04
-3.275300000000000000e+04 1.919800000000000000e+04
-3.138800000000000000e+04 1.994800000000000000e+04
-2.859200000000000000e+04 2.294900000000000000e+04
-2.862700000000000000e+04 2.330700000000000000e+04
-2.646100000000000000e+04 2.571100000000000000e+04
-2.653000000000000000e+04 2.726200000000000000e+04
-2.441500000000000000e+04 2.893300000000000000e+04
-2.236900000000000000e+04 2.956400000000000000e+04
-1.904500000000000000e+04 3.150700000000000000e+04
-1.824300000000000000e+04 3.309300000000000000e+04
-1.522500000000000000e+04 3.350200000000000000e+04
-1.447500000000000000e+04 3.524100000000000000e+04
-1.130400000000000000e+04 3.604300000000000000e+04
-1.011100000000000000e+04 3.566700000000000000e+04
-7.058000000000000000e+03 3.737300000000000000e+04
-6.002000000000000000e+03 3.582100000000000000e+04
-3.189000000000000000e+03 3.723600000000000000e+04
-1.995000000000000000e+03 3.725300000000000000e+04
3.052000000000000000e+03 3.752600000000000000e+04
3.631000000000000000e+03 3.756000000000000000e+04
5.199000000000000000e+03 3.670700000000000000e+04
7.297000000000000000e+03 3.704900000000000000e+04
1.029800000000000000e+04 3.583800000000000000e+04
1.169600000000000000e+04 3.621300000000000000e+04
1.503700000000000000e+04 3.568500000000000000e+04
1.607700000000000000e+04 3.496900000000000000e+04
1.808900000000000000e+04 3.300800000000000000e+04
2.001600000000000000e+04 3.108100000000000000e+04
2.235200000000000000e+04 3.172900000000000000e+04
2.477300000000000000e+04 2.905200000000000000e+04
2.569400000000000000e+04 2.915500000000000000e+04
2.680200000000000000e+04 2.727900000000000000e+04
2.927400000000000000e+04 2.591500000000000000e+04
2.992200000000000000e+04 2.470500000000000000e+04
3.099600000000000000e+04 2.187500000000000000e+04
3.248000000000000000e+04 2.097100000000000000e+04
3.505400000000000000e+04 1.740700000000000000e+04
3.503600000000000000e+04 1.664100000000000000e+04
3.675900000000000000e+04 1.374200000000000000e+04
3.660600000000000000e+04 1.193500000000000000e+04
3.636700000000000000e+04 1.000800000000000000e+04
3.766200000000000000e+04 7.229000000000000000e+03
3.737200000000000000e+04 6.069000000000000000e+03
3.960600000000000000e+04 3.614000000000000000e+03
3.975900000000000000e+04 1.773000000000000000e+03
3.841200000000000000e+04 4.780000000000000000e+02
3.858300000000000000e+04 -4.263000000000000000e+03
3.798600000000000000e+04 -3.564000000000000000e+03
3.834400000000000000e+04 -5.592000000000000000e+03
3.769600000000000000e+04 -8.406000000000000000e+03
3.737200000000000000e+04 -1.142400000000000000e+04
3.617900000000000000e+04 -1.270200000000000000e+04
3.500300000000000000e+04 -1.479900000000000000e+04
3.430300000000000000e+04 -1.766300000000000000e+04
3.365600000000000000e+04 -1.781700000000000000e+04
3.275200000000000000e+04 -2.156700000000000000e+04
3.258100000000000000e+04 -2.274400000000000000e+04
2.975100000000000000e+04 -2.509700000000000000e+04
3.000700000000000000e+04 -2.688800000000000000e+04
2.659700000000000000e+04 -2.855800000000000000e+04
2.702400000000000000e+04 -2.907000000000000000e+04
2.405700000000000000e+04 -3.115000000000000000e+04
2.231700000000000000e+04 -3.433800000000000000e+04
1.950500000000000000e+04 -3.392800000000000000e+04
1.865200000000000000e+04 -3.645200000000000000e+04
1.749200000000000000e+04 -3.716800000000000000e+04
1.386100000000000000e+04 -3.652000000000000000e+04
1.195100000000000000e+04 -3.889000000000000000e+04
1.046900000000000000e+04 -4.085100000000000000e+04
8.115000000000000000e+03 -4.109000000000000000e+04
6.734000000000000000e+03 -4.303300000000000000e+04
4.876000000000000000e+03 -4.229900000000000000e+04
9.720000000000000000e+02 -4.243600000000000000e+04
-1.398000000000000000e+03 -4.305100000000000000e+04
-5.200000000000000000e+03 -4.322100000000000000e+04
-7.860000000000000000e+03 -4.313500000000000000e+04
-8.985000000000000000e+03 -4.349300000000000000e+04
-1.357100000000000000e+04 -4.247100000000000000e+04
-1.479900000000000000e+04 -4.316900000000000000e+04
-1.722100000000000000e+04 -4.260700000000000000e+04
-2.008400000000000000e+04 -4.255500000000000000e+04
-2.335800000000000000e+04 -4.061200000000000000e+04
-2.480700000000000000e+04 -3.974200000000000000e+04
-2.770600000000000000e+04 -3.955400000000000000e+04
-3.094500000000000000e+04 -3.827700000000000000e+04
-3.345100000000000000e+04 -3.720200000000000000e+04
-3.657200000000000000e+04 -3.522500000000000000e+04
-3.836100000000000000e+04 -3.409900000000000000e+04
-4.120800000000000000e+04 -3.217200000000000000e+04
-4.403900000000000000e+04 -2.965000000000000000e+04
-4.524900000000000000e+04 -2.741600000000000000e+04
-4.789200000000000000e+04 -2.392100000000000000e+04
-4.946100000000000000e+04 -2.291500000000000000e+04
-5.149000000000000000e+04 -1.880600000000000000e+04
-5.333100000000000000e+04 -1.551500000000000000e+04
-5.517200000000000000e+04 -1.203700000000000000e+04
-5.575200000000000000e+04 -9.753000000000000000e+03
-5.740600000000000000e+04 -6.377000000000000000e+03
-5.849700000000000000e+04 -3.870000000000000000e+03
-5.936600000000000000e+04 1.705000000000000000e+03
-5.960500000000000000e+04 5.848000000000000000e+03
-6.038900000000000000e+04 1.031500000000000000e+04
-5.878700000000000000e+04 1.316200000000000000e+04
-5.880400000000000000e+04 1.681100000000000000e+04
-5.791800000000000000e+04 2.170400000000000000e+04
-5.761100000000000000e+04 2.567600000000000000e+04
-5.462700000000000000e+04 3.005800000000000000e+04
-5.428500000000000000e+04 3.425200000000000000e+04
-5.234200000000000000e+04 3.829300000000000000e+04
-4.961400000000000000e+04 4.327100000000000000e+04
-4.605100000000000000e+04 4.707400000000000000e+04
-4.277800000000000000e+04 4.959700000000000000e+04
-4.122500000000000000e+04 5.433600000000000000e+04
-3.720200000000000000e+04 5.616100000000000000e+04
-3.438800000000000000e+04 6.078100000000000000e+04
-3.051900000000000000e+04 6.313400000000000000e+04
-2.641000000000000000e+04 6.364600000000000000e+04
-2.066400000000000000e+04 6.736200000000000000e+04
-1.705000000000000000e+04 6.934000000000000000e+04
-1.113400000000000000e+04 7.009100000000000000e+04
-6.155000000000000000e+03 7.061900000000000000e+04
-4.364000000000000000e+03 7.210300000000000000e+04
2.165000000000000000e+03 7.408000000000000000e+04
7.587000000000000000e+03 7.275100000000000000e+04
1.225900000000000000e+04 7.326200000000000000e+04
1.686200000000000000e+04 7.160800000000000000e+04
2.030500000000000000e+04 7.152300000000000000e+04
2.557400000000000000e+04 7.200000000000000000e+04
3.096200000000000000e+04 6.830000000000000000e+04
3.537800000000000000e+04 6.775500000000000000e+04
4.021900000000000000e+04 6.507800000000000000e+04
4.216400000000000000e+04 6.296300000000000000e+04
4.869300000000000000e+04 5.897500000000000000e+04
5.010800000000000000e+04 5.561500000000000000e+04
5.387600000000000000e+04 5.356900000000000000e+04
5.732000000000000000e+04 4.947700000000000000e+04
6.047500000000000000e+04 4.785700000000000000e+04
6.229800000000000000e+04 4.223200000000000000e+04
6.489100000000000000e+04 3.853200000000000000e+04
6.703900000000000000e+04 3.554900000000000000e+04
6.903300000000000000e+04 2.971700000000000000e+04
7.060200000000000000e+04 2.808100000000000000e+04
7.210200000000000000e+04 2.293200000000000000e+04
7.488100000000000000e+04 1.761200000000000000e+04
7.604000000000000000e+04 1.326500000000000000e+04
7.592000000000000000e+04 8.337000000000000000e+03
7.503400000000000000e+04 3.615000000000000000e+03
7.518700000000000000e+04 3.410000000000000000e+02
7.469300000000000000e+04 -5.115000000000000000e+03
7.307300000000000000e+04 -1.019600000000000000e+04
7.292000000000000000e+04 -1.440700000000000000e+04
7.297100000000000000e+04 -1.783400000000000000e+04
7.051700000000000000e+04 -2.347700000000000000e+04
6.997200000000000000e+04 -2.820000000000000000e+04
6.666400000000000000e+04 -3.178100000000000000e+04
6.627100000000000000e+04 -3.307700000000000000e+04
6.160000000000000000e+04 -3.831000000000000000e+04
6.037200000000000000e+04 -4.148200000000000000e+04
5.655300000000000000e+04 -4.603300000000000000e+04
5.537700000000000000e+04 -4.903500000000000000e+04
5.031300000000000000e+04 -5.292200000000000000e+04
4.894900000000000000e+04 -5.462600000000000000e+04
4.356100000000000000e+04 -5.815600000000000000e+04
4.229900000000000000e+04 -6.105500000000000000e+04
3.764500000000000000e+04 -6.287900000000000000e+04
3.391100000000000000e+04 -6.574300000000000000e+04
3.101300000000000000e+04 -6.698800000000000000e+04
2.523300000000000000e+04 -6.801000000000000000e+04
2.330700000000000000e+04 -7.179500000000000000e+04
1.976000000000000000e+04 -7.239200000000000000e+04
1.348600000000000000e+04 -7.183000000000000000e+04
1.036600000000000000e+04 -7.239200000000000000e+04
5.967000000000000000e+03 -7.232400000000000000e+04
2.882000000000000000e+03 -7.264800000000000000e+04
-1.961000000000000000e+03 -7.329600000000000000e+04
-6.548000000000000000e+03 -7.278500000000000000e+04
-9.036000000000000000e+03 -7.232400000000000000e+04
-1.423600000000000000e+04 -7.032900000000000000e+04
-1.776500000000000000e+04 -7.162500000000000000e+04
-2.282900000000000000e+04 -7.003900000000000000e+04
-2.511400000000000000e+04 -6.680000000000000000e+04
-2.917200000000000000e+04 -6.656100000000000000e+04
-3.220700000000000000e+04 -6.434500000000000000e+04
-3.513900000000000000e+04 -6.059400000000000000e+04
-4.061200000000000000e+04 -5.994700000000000000e+04
-4.233500000000000000e+04 -5.784900000000000000e+04
-4.516400000000000000e+04 -5.559800000000000000e+04
-4.661400000000000000e+04 -5.392700000000000000e+04
-4.886500000000000000e+04 -5.043300000000000000e+04
-5.413200000000000000e+04 -4.739800000000000000e+04
-5.544500000000000000e+04 -4.364600000000000000e+04
-5.870200000000000000e+04 -4.129400000000000000e+04
-6.044000000000000000e+04 -3.675900000000000000e+04
-6.040700000000000000e+04 -3.498500000000000000e+04
-6.189000000000000000e+04 -3.179700000000000000e+04
-6.596500000000000000e+04 -2.574500000000000000e+04
-6.690300000000000000e+04 -2.424400000000000000e+04
-6.744800000000000000e+04 -2.057800000000000000e+04
-6.732900000000000000e+04 -1.718600000000000000e+04
-6.940900000000000000e+04 -1.677700000000000000e+04
-7.099300000000000000e+04 -8.610000000000000000e+03
-7.021000000000000000e+04 -4.586000000000000000e+03
-7.251200000000000000e+04 -1.142000000000000000e+03
-7.027800000000000000e+04 1.006000000000000000e+03
-7.062000000000000000e+04 5.882000000000000000e+03
-7.053400000000000000e+04 1.048500000000000000e+04
-7.131800000000000000e+04 1.254800000000000000e+04
-7.130100000000000000e+04 1.751000000000000000e+04
-6.963000000000000000e+04 2.247100000000000000e+04
-6.787400000000000000e+04 2.402200000000000000e+04
-6.664700000000000000e+04 2.917200000000000000e+04
-6.512900000000000000e+04 3.283700000000000000e+04
-6.458300000000000000e+04 3.706500000000000000e+04
-6.274300000000000000e+04 4.038900000000000000e+04
-6.148100000000000000e+04 4.480600000000000000e+04
-5.987700000000000000e+04 4.837000000000000000e+04
-5.624600000000000000e+04 5.188200000000000000e+04
-5.522400000000000000e+04 5.443900000000000000e+04
-5.276900000000000000e+04 5.975800000000000000e+04
-4.787500000000000000e+04 6.291300000000000000e+04
-4.644300000000000000e+04 6.559000000000000000e+04
-4.344200000000000000e+04 6.680000000000000000e+04
-3.914600000000000000e+04 7.123300000000000000e+04
-3.447400000000000000e+04 7.552900000000000000e+04
-3.227500000000000000e+04 7.813800000000000000e+04
-2.768900000000000000e+04 8.009800000000000000e+04
-2.218200000000000000e+04 8.325300000000000000e+04
-1.916300000000000000e+04 8.550300000000000000e+04
-1.408300000000000000e+04 8.518000000000000000e+04
-1.125300000000000000e+04 8.913500000000000000e+04
-5.029000000000000000e+03 8.995300000000000000e+04
9.550000000000000000e+02 9.055000000000000000e+04
6.649000000000000000e+03 9.101000000000000000e+04
9.991000000000000000e+03 9.257800000000000000e+04
1.563500000000000000e+04 9.336300000000000000e+04
2.163700000000000000e+04 9.089100000000000000e+04
2.736500000000000000e+04 9.147100000000000000e+04
3.467800000000000000e+04 9.228900000000000000e+04
3.843000000000000000e+04 8.828300000000000000e+04
4.482300000000000000e+04 8.770300000000000000e+04
5.096100000000000000e+04 8.676400000000000000e+04
5.684300000000000000e+04 8.453100000000000000e+04
6.180500000000000000e+04 8.142800000000000000e+04
6.557300000000000000e+04 7.827400000000000000e+04
7.263100000000000000e+04 7.488100000000000000e+04
7.815500000000000000e+04 7.167600000000000000e+04
8.284400000000000000e+04 6.523200000000000000e+04
8.640700000000000000e+04 6.141300000000000000e+04
9.234000000000000000e+04 5.285300000000000000e+04
9.292000000000000000e+04 5.622900000000000000e+04
1.005750000000000000e+05 4.610200000000000000e+04
1.021780000000000000e+05 3.950300000000000000e+04
1.032010000000000000e+05 3.113300000000000000e+04
1.077360000000000000e+05 2.446600000000000000e+04
1.096110000000000000e+05 1.918000000000000000e+04
1.121180000000000000e+05 1.104800000000000000e+04
1.109240000000000000e+05 3.188000000000000000e+03
1.133110000000000000e+05 -4.313000000000000000e+03
1.119140000000000000e+05 -1.125300000000000000e+04
1.122540000000000000e+05 -1.844700000000000000e+04
1.099700000000000000e+05 -2.566000000000000000e+04
1.093900000000000000e+05 -3.590600000000000000e+04
1.052810000000000000e+05 -4.120900000000000000e+04
1.033880000000000000e+05 -4.917000000000000000e+04
1.009670000000000000e+05 -5.638300000000000000e+04
9.696100000000000000e+04 -6.407200000000000000e+04
9.198200000000000000e+04 -6.992000000000000000e+04
8.640700000000000000e+04 -7.631300000000000000e+04
8.315100000000000000e+04 -8.224700000000000000e+04
7.510300000000000000e+04 -8.690100000000000000e+04
7.019300000000000000e+04 -9.297100000000000000e+04
6.364600000000000000e+04 -9.839200000000000000e+04
5.769500000000000000e+04 -1.034390000000000000e+05
5.152400000000000000e+04 -1.066270000000000000e+05
4.368100000000000000e+04 -1.104290000000000000e+05
3.740600000000000000e+04 -1.135830000000000000e+05
2.958100000000000000e+04 -1.160900000000000000e+05
2.366500000000000000e+04 -1.196200000000000000e+05
1.491900000000000000e+04 -1.197220000000000000e+05
6.224000000000000000e+03 -1.205230000000000000e+05
-1.329000000000000000e+03 -1.214780000000000000e+05
-9.650000000000000000e+03 -1.205400000000000000e+05
-1.503800000000000000e+04 -1.204550000000000000e+05
-2.378300000000000000e+04 -1.201140000000000000e+05
-3.200200000000000000e+04 -1.168920000000000000e+05
-3.837800000000000000e+04 -1.164650000000000000e+05
-4.695500000000000000e+04 -1.148620000000000000e+05
-5.375700000000000000e+04 -1.097310000000000000e+05
-6.040600000000000000e+04 -1.068150000000000000e+05
-6.611700000000000000e+04 -1.031160000000000000e+05
-7.234100000000000000e+04 -9.859700000000000000e+04
-7.670600000000000000e+04 -9.346500000000000000e+04
-8.165000000000000000e+04 -8.903300000000000000e+04
-8.807800000000000000e+04 -8.456500000000000000e+04
-9.237400000000000000e+04 -7.771100000000000000e+04
-9.573300000000000000e+04 -7.278500000000000000e+04
-1.012400000000000000e+05 -6.579400000000000000e+04
-1.020590000000000000e+05 -6.025300000000000000e+04
-1.052810000000000000e+05 -5.423500000000000000e+04
-1.072580000000000000e+05 -4.495900000000000000e+04
-1.103950000000000000e+05 -3.987800000000000000e+04
-1.120660000000000000e+05 -3.341700000000000000e+04
-1.128670000000000000e+05 -2.567700000000000000e+04
-1.125780000000000000e+05 -1.677700000000000000e+04
-1.126290000000000000e+05 -1.202000000000000000e+04
-1.136690000000000000e+05 -4.109000000000000000e+03
-1.122190000000000000e+05 1.603000000000000000e+03
-1.104290000000000000e+05 1.106600000000000000e+04
-1.091670000000000000e+05 1.657200000000000000e+04
-1.057410000000000000e+05 2.286300000000000000e+04
-1.056730000000000000e+05 3.094500000000000000e+04
-1.014450000000000000e+05 3.648600000000000000e+04
-9.830700000000000000e+04 4.086700000000000000e+04
-9.501700000000000000e+04 4.712600000000000000e+04
-9.080500000000000000e+04 5.319500000000000000e+04
-8.742900000000000000e+04 5.798600000000000000e+04
-8.379900000000000000e+04 6.277600000000000000e+04
-7.776300000000000000e+04 6.913500000000000000e+04
-7.394300000000000000e+04 7.331300000000000000e+04
-6.770400000000000000e+04 7.702900000000000000e+04
-6.342400000000000000e+04 8.159900000000000000e+04
-5.996300000000000000e+04 8.562300000000000000e+04
-5.210300000000000000e+04 8.876000000000000000e+04
-4.625500000000000000e+04 9.056700000000000000e+04
-4.185700000000000000e+04 9.430100000000000000e+04
-3.629900000000000000e+04 9.629600000000000000e+04
-2.983700000000000000e+04 9.808700000000000000e+04
-2.509600000000000000e+04 1.006940000000000000e+05
-1.769700000000000000e+04 9.967200000000000000e+04
-1.273600000000000000e+04 1.016490000000000000e+05
-6.513000000000000000e+03 1.018540000000000000e+05
-2.148000000000000000e+03 1.020240000000000000e+05
4.688000000000000000e+03 1.018030000000000000e+05
1.147400000000000000e+04 1.006780000000000000e+05
1.822600000000000000e+04 1.016500000000000000e+05
2.214800000000000000e+04 1.015800000000000000e+05
2.797900000000000000e+04 9.956900000000000000e+04
3.409900000000000000e+04 9.878500000000000000e+04
3.778200000000000000e+04 9.629600000000000000e+04
4.383400000000000000e+04 9.447200000000000000e+04
4.922200000000000000e+04 9.227200000000000000e+04
5.423400000000000000e+04 8.930600000000000000e+04
6.086700000000000000e+04 8.707300000000000000e+04
6.441400000000000000e+04 8.197400000000000000e+04
6.906800000000000000e+04 8.040600000000000000e+04
7.130100000000000000e+04 7.551200000000000000e+04
7.714900000000000000e+04 7.171100000000000000e+04
7.873500000000000000e+04 6.719200000000000000e+04
8.533300000000000000e+04 6.276000000000000000e+04
8.743000000000000000e+04 5.824200000000000000e+04
8.968100000000000000e+04 5.222300000000000000e+04
9.351700000000000000e+04 4.852300000000000000e+04
9.711500000000000000e+04 4.434600000000000000e+04
9.919400000000000000e+04 3.716800000000000000e+04
1.009840000000000000e+05 3.152500000000000000e+04
1.025020000000000000e+05 2.511400000000000000e+04
1.047860000000000000e+05 2.015300000000000000e+04
1.048210000000000000e+05 1.350400000000000000e+04
1.073440000000000000e+05 7.212000000000000000e+03
1.071740000000000000e+05 -6.480000000000000000e+02
1.078210000000000000e+05 -6.189000000000000000e+03
1.062860000000000000e+05 -1.457800000000000000e+04
1.071740000000000000e+05 -2.129500000000000000e+04
1.045650000000000000e+05 -2.547200000000000000e+04
1.039510000000000000e+05 -3.409900000000000000e+04
1.018540000000000000e+05 -3.917900000000000000e+04
9.858100000000000000e+04 -4.807900000000000000e+04
9.677300000000000000e+04 -5.460900000000000000e+04
9.372100000000000000e+04 -6.091800000000000000e+04
9.019200000000000000e+04 -6.722700000000000000e+04
8.553800000000000000e+04 -7.481300000000000000e+04
8.252000000000000000e+04 -8.030200000000000000e+04
7.692800000000000000e+04 -8.790800000000000000e+04
7.184600000000000000e+04 -9.338000000000000000e+04
6.426000000000000000e+04 -9.835800000000000000e+04
5.899100000000000000e+04 -1.043430000000000000e+05
5.220600000000000000e+04 -1.081440000000000000e+05
4.514700000000000000e+04 -1.132420000000000000e+05
3.827600000000000000e+04 -1.172830000000000000e+05
3.123500000000000000e+04 -1.208300000000000000e+05
2.146600000000000000e+04 -1.255350000000000000e+05
1.483300000000000000e+04 -1.284510000000000000e+05
5.643000000000000000e+03 -1.294910000000000000e+05
-5.285000000000000000e+03 -1.296950000000000000e+05
-1.111600000000000000e+04 -1.319120000000000000e+05
-2.253900000000000000e+04 -1.314170000000000000e+05
-2.990400000000000000e+04 -1.324240000000000000e+05
-3.912800000000000000e+04 -1.340260000000000000e+05
-4.743100000000000000e+04 -1.301390000000000000e+05
-5.660400000000000000e+04 -1.279900000000000000e+05
-6.613500000000000000e+04 -1.235920000000000000e+05
-7.484600000000000000e+04 -1.196880000000000000e+05
-8.333700000000000000e+04 -1.171640000000000000e+05
-9.186300000000000000e+04 -1.112480000000000000e+05
-9.878500000000000000e+04 -1.060820000000000000e+05
-1.059460000000000000e+05 -9.955200000000000000e+04
-1.124580000000000000e+05 -9.237400000000000000e+04
-1.200790000000000000e+05 -8.437800000000000000e+04
-1.245980000000000000e+05 -7.703000000000000000e+04
-1.296790000000000000e+05 -6.971600000000000000e+04
-1.344860000000000000e+05 -6.011700000000000000e+04
-1.396700000000000000e+05 -5.092700000000000000e+04
-1.420220000000000000e+05 -4.209500000000000000e+04
-1.445290000000000000e+05 -3.041700000000000000e+04
-1.465400000000000000e+05 -2.066400000000000000e+04
-1.497120000000000000e+05 -9.888000000000000000e+03
-1.494390000000000000e+05 1.210000000000000000e+03
-1.474780000000000000e+05 1.060500000000000000e+04
-1.471540000000000000e+05 2.059500000000000000e+04
-1.456360000000000000e+05 3.103000000000000000e+04
-1.422950000000000000e+05 4.233400000000000000e+04
-1.399590000000000000e+05 5.288700000000000000e+04
-1.353220000000000000e+05 6.221400000000000000e+04
-1.311620000000000000e+05 7.228900000000000000e+04
-1.252620000000000000e+05 8.175200000000000000e+04
-1.172670000000000000e+05 9.135200000000000000e+04
-1.111110000000000000e+05 9.939900000000000000e+04
-1.042750000000000000e+05 1.081790000000000000e+05
-9.505100000000000000e+04 1.143840000000000000e+05
-8.800900000000000000e+04 1.224490000000000000e+05
-7.852900000000000000e+04 1.300360000000000000e+05
-6.969800000000000000e+04 1.332590000000000000e+05
-5.972500000000000000e+04 1.407090000000000000e+05
-4.934100000000000000e+04 1.452950000000000000e+05
-4.013400000000000000e+04 1.479720000000000000e+05
-2.922300000000000000e+04 1.507690000000000000e+05
-1.824300000000000000e+04 1.527810000000000000e+05
-6.683000000000000000e+03 1.544680000000000000e+05
4.160000000000000000e+03 1.541610000000000000e+05
1.423700000000000000e+04 1.552700000000000000e+05
2.456900000000000000e+04 1.542640000000000000e+05
3.462800000000000000e+04 1.509050000000000000e+05
4.422700000000000000e+04 1.476310000000000000e+05
5.428600000000000000e+04 1.452950000000000000e+05
6.402200000000000000e+04 1.416640000000000000e+05
7.409800000000000000e+04 1.370100000000000000e+05
8.069600000000000000e+04 1.305820000000000000e+05
9.060100000000000000e+04 1.260980000000000000e+05
9.815400000000000000e+04 1.195340000000000000e+05
1.049400000000000000e+05 1.116570000000000000e+05
1.112150000000000000e+05 1.055360000000000000e+05
1.179830000000000000e+05 9.638100000000000000e+04
1.213750000000000000e+05 8.795800000000000000e+04
1.277690000000000000e+05 8.078100000000000000e+04
1.311790000000000000e+05 7.293800000000000000e+04
1.353900000000000000e+05 6.127600000000000000e+04
1.371640000000000000e+05 5.317800000000000000e+04
1.398740000000000000e+05 4.322100000000000000e+04
1.413060000000000000e+05 3.391200000000000000e+04
1.417150000000000000e+05 2.439800000000000000e+04
1.406920000000000000e+05 1.514000000000000000e+04
1.404710000000000000e+05 6.052000000000000000e+03
1.400960000000000000e+05 -2.336000000000000000e+03
1.375390000000000000e+05 -1.081000000000000000e+04
1.354250000000000000e+05 -1.996500000000000000e+04
1.332590000000000000e+05 -2.895000000000000000e+04
1.299850000000000000e+05 -3.631500000000000000e+04
1.270010000000000000e+05 -4.357900000000000000e+04
1.244430000000000000e+05 -5.114800000000000000e+04
1.190910000000000000e+05 -5.834400000000000000e+04
1.147260000000000000e+05 -6.630600000000000000e+04
1.089300000000000000e+05 -7.114800000000000000e+04
1.037630000000000000e+05 -7.796700000000000000e+04
9.876900000000000000e+04 -8.417400000000000000e+04
9.298800000000000000e+04 -8.983400000000000000e+04
8.593000000000000000e+04 -9.498300000000000000e+04
8.204200000000000000e+04 -9.953500000000000000e+04
7.375600000000000000e+04 -1.030980000000000000e+05
6.738000000000000000e+04 -1.066100000000000000e+05
6.102000000000000000e+04 -1.098670000000000000e+05
5.406400000000000000e+04 -1.134480000000000000e+05
4.773900000000000000e+04 -1.154250000000000000e+05
4.091900000000000000e+04 -1.186980000000000000e+05
3.389500000000000000e+04 -1.199090000000000000e+05
2.738100000000000000e+04 -1.221260000000000000e+05
2.040800000000000000e+04 -1.228750000000000000e+05
1.428800000000000000e+04 -1.234050000000000000e+05
6.052000000000000000e+03 -1.246660000000000000e+05
1.360000000000000000e+02 -1.243080000000000000e+05
-6.087000000000000000e+03 -1.229780000000000000e+05
-1.439000000000000000e+04 -1.228420000000000000e+05
-2.080000000000000000e+04 -1.216490000000000000e+05
-2.717700000000000000e+04 -1.201650000000000000e+05
-3.280400000000000000e+04 -1.194140000000000000e+05
-3.824100000000000000e+04 -1.165510000000000000e+05
-4.557400000000000000e+04 -1.138910000000000000e+05
-5.137000000000000000e+04 -1.109750000000000000e+05
-5.551300000000000000e+04 -1.089130000000000000e+05
-6.206000000000000000e+04 -1.061160000000000000e+05
-6.845400000000000000e+04 -1.024160000000000000e+05
-7.454000000000000000e+04 -9.851200000000000000e+04
-7.829100000000000000e+04 -9.542600000000000000e+04
-8.344100000000000000e+04 -8.954400000000000000e+04
-8.618500000000000000e+04 -8.606600000000000000e+04
-9.365300000000000000e+04 -8.003100000000000000e+04
-9.498200000000000000e+04 -7.684200000000000000e+04
-9.997800000000000000e+04 -7.147100000000000000e+04
-1.029630000000000000e+05 -6.680000000000000000e+04
-1.064920000000000000e+05 -6.027000000000000000e+04
-1.081610000000000000e+05 -5.457600000000000000e+04
-1.121680000000000000e+05 -4.790900000000000000e+04
-1.143510000000000000e+05 -4.259000000000000000e+04
-1.154770000000000000e+05 -3.607700000000000000e+04
-1.180160000000000000e+05 -2.963200000000000000e+04
-1.200460000000000000e+05 -2.339300000000000000e+04
-1.201980000000000000e+05 -1.802100000000000000e+04
-1.208130000000000000e+05 -1.014500000000000000e+04
-1.216830000000000000e+05 -3.598000000000000000e+03
-1.209160000000000000e+05 3.665000000000000000e+03
-1.209660000000000000e+05 8.763000000000000000e+03
-1.183070000000000000e+05 1.686200000000000000e+04
-1.190570000000000000e+05 2.271000000000000000e+04
-1.167040000000000000e+05 2.941100000000000000e+04
-1.139070000000000000e+05 3.512200000000000000e+04
-1.130550000000000000e+05 4.195800000000000000e+04
-1.087420000000000000e+05 4.726100000000000000e+04
-1.074460000000000000e+05 5.314300000000000000e+04
-1.033030000000000000e+05 5.924700000000000000e+04
-1.005250000000000000e+05 6.548700000000000000e+04
-9.684100000000000000e+04 7.114800000000000000e+04
-9.240900000000000000e+04 7.539300000000000000e+04
-8.838500000000000000e+04 8.194000000000000000e+04
-8.395200000000000000e+04 8.608300000000000000e+04
-7.841100000000000000e+04 9.298800000000000000e+04
-7.237600000000000000e+04 9.436900000000000000e+04
-6.709000000000000000e+04 9.927900000000000000e+04
-6.386800000000000000e+04 1.041210000000000000e+05
-5.631500000000000000e+04 1.060310000000000000e+05
-5.024500000000000000e+04 1.090660000000000000e+05
-4.484000000000000000e+04 1.118100000000000000e+05
-3.849800000000000000e+04 1.146060000000000000e+05
-3.005800000000000000e+04 1.157480000000000000e+05
-2.508000000000000000e+04 1.185620000000000000e+05
-1.986200000000000000e+04 1.195170000000000000e+05
-1.236200000000000000e+04 1.203530000000000000e+05
-6.496000000000000000e+03 1.205910000000000000e+05
1.360000000000000000e+02 1.222100000000000000e+05
6.597000000000000000e+03 1.203860000000000000e+05
1.370800000000000000e+04 1.207440000000000000e+05
2.112300000000000000e+04 1.201650000000000000e+05
2.802900000000000000e+04 1.210340000000000000e+05
3.582100000000000000e+04 1.187320000000000000e+05
4.003200000000000000e+04 1.157660000000000000e+05
4.572700000000000000e+04 1.149640000000000000e+05
5.305800000000000000e+04 1.123900000000000000e+05
5.861600000000000000e+04 1.105490000000000000e+05
4.576000000000000000e+04 9.612500000000000000e+04
7.143800000000000000e+04 1.021780000000000000e+05
7.641600000000000000e+04 9.890400000000000000e+04
8.229800000000000000e+04 9.469200000000000000e+04
8.787300000000000000e+04 9.232300000000000000e+04
9.232300000000000000e+04 8.528200000000000000e+04
9.721600000000000000e+04 8.067800000000000000e+04
1.011370000000000000e+05 7.645000000000000000e+04
1.057580000000000000e+05 7.077300000000000000e+04
1.096110000000000000e+05 6.446400000000000000e+04
1.128840000000000000e+05 5.870200000000000000e+04
1.165160000000000000e+05 5.251300000000000000e+04
1.188860000000000000e+05 4.417500000000000000e+04
1.229440000000000000e+05 3.914600000000000000e+04
1.249560000000000000e+05 3.147300000000000000e+04
1.264560000000000000e+05 2.525000000000000000e+04
1.280760000000000000e+05 1.778300000000000000e+04
1.277350000000000000e+05 1.000800000000000000e+04
1.296610000000000000e+05 2.455000000000000000e+03
1.291150000000000000e+05 -6.172000000000000000e+03
1.288250000000000000e+05 -1.198600000000000000e+04
1.277520000000000000e+05 -2.069800000000000000e+04
1.259100000000000000e+05 -2.630700000000000000e+04
1.242570000000000000e+05 -3.559900000000000000e+04
1.231990000000000000e+05 -4.259000000000000000e+04
1.195170000000000000e+05 -4.971700000000000000e+04
1.154080000000000000e+05 -5.708100000000000000e+04
1.118270000000000000e+05 -6.470300000000000000e+04
1.089460000000000000e+05 -7.010700000000000000e+04
1.032520000000000000e+05 -7.720000000000000000e+04
9.733500000000000000e+04 -8.207600000000000000e+04
9.169200000000000000e+04 -8.790700000000000000e+04
8.582700000000000000e+04 -9.119800000000000000e+04
7.938200000000000000e+04 -9.805200000000000000e+04
7.425100000000000000e+04 -1.003370000000000000e+05
6.693700000000000000e+04 -1.054850000000000000e+05
5.883700000000000000e+04 -1.078380000000000000e+05
5.281900000000000000e+04 -1.111450000000000000e+05
4.639100000000000000e+04 -1.141290000000000000e+05
3.940100000000000000e+04 -1.145560000000000000e+05
3.200200000000000000e+04 -1.150850000000000000e+05
2.552300000000000000e+04 -1.165840000000000000e+05
1.646900000000000000e+04 -1.165500000000000000e+05
9.633000000000000000e+03 -1.161410000000000000e+05
6.359000000000000000e+03 -1.166020000000000000e+05
-4.808000000000000000e+03 -1.139420000000000000e+05
-1.017900000000000000e+04 -1.120660000000000000e+05
-1.638500000000000000e+04 -1.109230000000000000e+05
-2.233500000000000000e+04 -1.084520000000000000e+05
-2.826900000000000000e+04 -1.045310000000000000e+05
-3.382700000000000000e+04 -1.026720000000000000e+05
-3.975900000000000000e+04 -9.997900000000000000e+04
-4.409000000000000000e+04 -9.472700000000000000e+04
-4.918800000000000000e+04 -9.138500000000000000e+04
-5.241000000000000000e+04 -8.985100000000000000e+04
-5.682600000000000000e+04 -8.228100000000000000e+04
-5.982700000000000000e+04 -7.842700000000000000e+04
-6.400500000000000000e+04 -7.496600000000000000e+04
-6.640800000000000000e+04 -7.048300000000000000e+04
-6.896500000000000000e+04 -6.487300000000000000e+04
-7.397800000000000000e+04 -5.921300000000000000e+04
-7.299000000000000000e+04 -5.636500000000000000e+04
-7.595600000000000000e+04 -5.043300000000000000e+04
-7.650100000000000000e+04 -4.652800000000000000e+04
-8.066200000000000000e+04 -3.940100000000000000e+04
-8.084900000000000000e+04 -3.539500000000000000e+04
-8.078100000000000000e+04 -3.104700000000000000e+04
-8.049100000000000000e+04 -2.572700000000000000e+04
-8.248600000000000000e+04 -2.025500000000000000e+04
-8.175200000000000000e+04 -1.718600000000000000e+04
-8.030400000000000000e+04 -1.208800000000000000e+04
-8.108800000000000000e+04 -5.915000000000000000e+03
-7.991200000000000000e+04 -4.160000000000000000e+03
-7.818900000000000000e+04 1.961000000000000000e+03
-7.728500000000000000e+04 6.206000000000000000e+03
-7.653500000000000000e+04 -8.013000000000000000e+03
5.439000000000000000e+03 -1.876000000000000000e+03
2.387000000000000000e+03 -6.820000000000000000e+02
4.430000000000000000e+02 -2.711000000000000000e+03
-1.739000000000000000e+03 -1.398000000000000000e+03
-5.268000000000000000e+03 -3.819000000000000000e+03
-5.405000000000000000e+03 -5.081000000000000000e+03
-5.115000000000000000e+03 -7.211000000000000000e+03
-6.206000000000000000e+03 -9.292000000000000000e+03
-5.592000000000000000e+03 -1.055300000000000000e+04
-5.183000000000000000e+03 -9.735000000000000000e+03
-5.303000000000000000e+03 -1.113300000000000000e+04
-6.480000000000000000e+03 -1.079200000000000000e+04
-4.860000000000000000e+03 -1.080900000000000000e+04
-6.479000000000000000e+03 -1.220700000000000000e+04
-4.416000000000000000e+03 -1.159400000000000000e+04
-5.814000000000000000e+03 -1.014400000000000000e+04
-4.620000000000000000e+03 -1.109900000000000000e+04
-3.887000000000000000e+03 -9.991000000000000000e+03
-4.075000000000000000e+03 -7.706000000000000000e+03
-4.484000000000000000e+03 -9.786000000000000000e+03
-6.002000000000000000e+03 -7.263000000000000000e+03
-7.093000000000000000e+03 -5.660000000000000000e+03
-7.110000000000000000e+03 -4.722000000000000000e+03
-9.617000000000000000e+03 -2.592000000000000000e+03
-1.084300000000000000e+04 -1.040000000000000000e+03
-1.294100000000000000e+04 -2.779000000000000000e+03
-1.425400000000000000e+04 -1.875000000000000000e+03
-1.607700000000000000e+04 1.540000000000000000e+02
-1.706600000000000000e+04 -1.228000000000000000e+03
-1.742400000000000000e+04 -7.160000000000000000e+02
-1.788600000000000000e+04 -1.006000000000000000e+03
-1.868700000000000000e+04 -4.100000000000000000e+02
-1.854900000000000000e+04 -4.100000000000000000e+02
-1.606100000000000000e+04 1.739000000000000000e+03
-1.514000000000000000e+04 1.023000000000000000e+03
-1.561800000000000000e+04 5.115000000000000000e+03
-1.761200000000000000e+04 3.955000000000000000e+03
-1.450900000000000000e+04 5.371000000000000000e+03
-1.370800000000000000e+04 3.922000000000000000e+03
-1.558300000000000000e+04 6.377000000000000000e+03
-1.377600000000000000e+04 8.594000000000000000e+03
-1.251500000000000000e+04 8.491000000000000000e+03
-1.120100000000000000e+04 1.086000000000000000e+04
-1.092900000000000000e+04 1.164500000000000000e+04
-1.157600000000000000e+04 1.319600000000000000e+04
-9.514000000000000000e+03 1.502000000000000000e+04
-9.395000000000000000e+03 1.479900000000000000e+04
-8.678000000000000000e+03 1.568600000000000000e+04
-9.770000000000000000e+03 1.730500000000000000e+04
-8.491000000000000000e+03 1.664100000000000000e+04
-8.746000000000000000e+03 1.618000000000000000e+04
-9.173000000000000000e+03 1.708400000000000000e+04
-7.434000000000000000e+03 1.619700000000000000e+04
-4.791000000000000000e+03 1.742500000000000000e+04
-4.758000000000000000e+03 1.706700000000000000e+04
-4.347000000000000000e+03 1.638500000000000000e+04
-2.609000000000000000e+03 1.691300000000000000e+04
-2.711000000000000000e+03 1.672500000000000000e+04
0.000000000000000000e+00 1.672500000000000000e+04
1.398000000000000000e+03 1.531100000000000000e+04
1.756000000000000000e+03 1.508800000000000000e+04
3.819000000000000000e+03 1.519100000000000000e+04
5.525000000000000000e+03 1.561700000000000000e+04
6.666000000000000000e+03 1.580500000000000000e+04
8.269000000000000000e+03 1.720300000000000000e+04
8.081000000000000000e+03 1.600900000000000000e+04
8.933000000000000000e+03 1.786900000000000000e+04
1.179800000000000000e+04 1.739000000000000000e+04
1.106500000000000000e+04 1.727200000000000000e+04
1.331500000000000000e+04 1.781700000000000000e+04
1.338300000000000000e+04 1.819200000000000000e+04
1.340100000000000000e+04 1.984600000000000000e+04
1.459400000000000000e+04 1.786800000000000000e+04
1.716800000000000000e+04 1.665700000000000000e+04
1.706600000000000000e+04 1.604400000000000000e+04
1.877200000000000000e+04 1.520800000000000000e+04
1.887400000000000000e+04 1.450900000000000000e+04
1.868600000000000000e+04 1.329800000000000000e+04
2.086900000000000000e+04 1.236100000000000000e+04
2.330700000000000000e+04 1.188400000000000000e+04
2.470500000000000000e+04 1.007700000000000000e+04
2.605200000000000000e+04 9.105000000000000000e+03
2.809700000000000000e+04 7.007000000000000000e+03
2.908600000000000000e+04 5.796000000000000000e+03
2.997300000000000000e+04 4.620000000000000000e+03
3.108100000000000000e+04 2.898000000000000000e+03
3.636700000000000000e+04 1.330000000000000000e+03
3.478100000000000000e+04 -2.148000000000000000e+03
3.510500000000000000e+04 -4.518000000000000000e+03
3.747500000000000000e+04 -5.081000000000000000e+03
3.844700000000000000e+04 -6.853000000000000000e+03
3.829300000000000000e+04 -8.968000000000000000e+03
3.720200000000000000e+04 -1.092800000000000000e+04
3.602600000000000000e+04 -1.372500000000000000e+04
3.599200000000000000e+04 -1.565100000000000000e+04
3.270100000000000000e+04 -1.855000000000000000e+04
3.174700000000000000e+04 -2.185700000000000000e+04
3.265000000000000000e+04 -2.363100000000000000e+04
2.939300000000000000e+04 -2.673300000000000000e+04
2.705700000000000000e+04 -2.970000000000000000e+04
2.509700000000000000e+04 -3.178000000000000000e+04
2.284600000000000000e+04 -3.519000000000000000e+04
2.061200000000000000e+04 -3.768000000000000000e+04
1.918000000000000000e+04 -3.672400000000000000e+04
1.447500000000000000e+04 -3.999900000000000000e+04
1.277000000000000000e+04 -3.998100000000000000e+04
9.547000000000000000e+03 -4.180500000000000000e+04
6.802000000000000000e+03 -4.444800000000000000e+04
2.899000000000000000e+03 -4.318700000000000000e+04
1.040000000000000000e+03 -4.506200000000000000e+04
-4.195000000000000000e+03 -4.310200000000000000e+04
-6.002000000000000000e+03 -4.463500000000000000e+04
-9.378000000000000000e+03 -4.405500000000000000e+04
-1.401500000000000000e+04 -4.550500000000000000e+04
-1.749300000000000000e+04 -4.427700000000000000e+04
-1.781600000000000000e+04 -4.395300000000000000e+04
-1.984600000000000000e+04 -4.466900000000000000e+04
2.390400000000000000e+04 -4.913600000000000000e+04
-4.051000000000000000e+04 -2.860900000000000000e+04
-3.745800000000000000e+04 -3.462800000000000000e+04
-3.817400000000000000e+04 -3.299100000000000000e+04
-3.938500000000000000e+04 -3.108100000000000000e+04
-4.028800000000000000e+04 -3.002400000000000000e+04
-4.390300000000000000e+04 -2.772200000000000000e+04
-4.436400000000000000e+04 -2.531900000000000000e+04
-4.572700000000000000e+04 -2.243700000000000000e+04
-4.628900000000000000e+04 -1.936800000000000000e+04
-4.821600000000000000e+04 -1.809000000000000000e+04
-4.848900000000000000e+04 -1.711800000000000000e+04
-5.050000000000000000e+04 -1.234400000000000000e+04
-5.070500000000000000e+04 -8.269000000000000000e+03
-5.230700000000000000e+04 -5.080000000000000000e+03
-5.321200000000000000e+04 -4.450000000000000000e+03
-5.212000000000000000e+04 7.510000000000000000e+02
-5.472900000000000000e+04 3.530000000000000000e+03
-5.362100000000000000e+04 6.871000000000000000e+03
-5.367200000000000000e+04 7.826000000000000000e+03
-5.176200000000000000e+04 1.155900000000000000e+04
-5.114900000000000000e+04 1.500300000000000000e+04
-5.120000000000000000e+04 1.882300000000000000e+04
-4.937500000000000000e+04 2.045900000000000000e+04
-4.807900000000000000e+04 2.593300000000000000e+04
-4.627300000000000000e+04 2.577900000000000000e+04
-4.615300000000000000e+04 3.062100000000000000e+04
-4.415800000000000000e+04 3.215500000000000000e+04
-4.219700000000000000e+04 3.495100000000000000e+04
-3.926500000000000000e+04 3.571900000000000000e+04
-3.810600000000000000e+04 3.767900000000000000e+04
-3.570200000000000000e+04 4.010000000000000000e+04
-3.317900000000000000e+04 4.192500000000000000e+04
-2.896700000000000000e+04 4.409000000000000000e+04
-2.494400000000000000e+04 4.480600000000000000e+04
-2.334100000000000000e+04 4.726100000000000000e+04
-1.931700000000000000e+04 4.877900000000000000e+04
-1.580500000000000000e+04 4.995500000000000000e+04
-1.299200000000000000e+04 4.995500000000000000e+04
-9.974000000000000000e+03 4.855700000000000000e+04
-6.036000000000000000e+03 5.184700000000000000e+04
-1.739000000000000000e+03 5.176200000000000000e+04
8.700000000000000000e+02 5.094400000000000000e+04
4.484000000000000000e+03 5.125100000000000000e+04
8.916000000000000000e+03 4.959700000000000000e+04
1.031400000000000000e+04 4.869300000000000000e+04
1.479900000000000000e+04 5.017700000000000000e+04
1.809000000000000000e+04 4.613600000000000000e+04
2.155000000000000000e+04 4.513000000000000000e+04
2.490900000000000000e+04 4.465300000000000000e+04
2.799500000000000000e+04 4.545400000000000000e+04
3.077400000000000000e+04 4.223200000000000000e+04
3.251300000000000000e+04 4.071400000000000000e+04
3.340000000000000000e+04 3.842900000000000000e+04
3.582100000000000000e+04 3.669100000000000000e+04
3.831000000000000000e+04 3.525800000000000000e+04
4.040700000000000000e+04 3.051800000000000000e+04
4.354400000000000000e+04 3.017700000000000000e+04
4.559000000000000000e+04 2.699000000000000000e+04
4.606700000000000000e+04 2.540400000000000000e+04
4.721000000000000000e+04 2.323900000000000000e+04
4.756800000000000000e+04 2.129500000000000000e+04
4.983600000000000000e+04 1.824300000000000000e+04
4.988600000000000000e+04 1.616300000000000000e+04
5.164300000000000000e+04 1.536200000000000000e+04
5.062000000000000000e+04 1.171300000000000000e+04
5.266600000000000000e+04 9.139000000000000000e+03
5.099500000000000000e+04 7.520000000000000000e+03
5.430300000000000000e+04 3.665000000000000000e+03
5.377300000000000000e+04 -2.900000000000000000e+02
5.215400000000000000e+04 3.250000000000000000e+02
5.229100000000000000e+04 -3.819000000000000000e+03
5.251200000000000000e+04 -5.814000000000000000e+03
5.121600000000000000e+04 -7.212000000000000000e+03
5.206900000000000000e+04 -8.235000000000000000e+03
5.070500000000000000e+04 -1.123500000000000000e+04
5.034700000000000000e+04 -1.440700000000000000e+04
4.840300000000000000e+04 -1.675900000000000000e+04
5.027800000000000000e+04 -1.872000000000000000e+04
4.864200000000000000e+04 -2.109000000000000000e+04
4.893200000000000000e+04 -2.143100000000000000e+04
4.669900000000000000e+04 -2.550700000000000000e+04
4.593100000000000000e+04 -2.504600000000000000e+04
4.584500000000000000e+04 -2.947800000000000000e+04
4.499400000000000000e+04 -3.077400000000000000e+04
4.262300000000000000e+04 -3.218900000000000000e+04
4.064500000000000000e+04 -3.626400000000000000e+04
3.858300000000000000e+04 -3.728700000000000000e+04
3.682700000000000000e+04 -4.010100000000000000e+04
3.588900000000000000e+04 -4.170300000000000000e+04
3.317800000000000000e+04 -4.395300000000000000e+04
3.186600000000000000e+04 -4.584600000000000000e+04
2.968300000000000000e+04 -4.673300000000000000e+04
2.712600000000000000e+04 -4.975100000000000000e+04
2.629000000000000000e+04 -5.188100000000000000e+04
2.206200000000000000e+04 -5.426800000000000000e+04
1.969200000000000000e+04 -5.363800000000000000e+04
1.754400000000000000e+04 -5.495100000000000000e+04
1.183200000000000000e+04 -5.732000000000000000e+04
8.728000000000000000e+03 -5.982600000000000000e+04
5.524000000000000000e+03 -6.069600000000000000e+04
-1.360000000000000000e+02 -6.076400000000000000e+04
-3.410000000000000000e+03 -6.292900000000000000e+04
-5.626000000000000000e+03 -6.293000000000000000e+04
-1.041800000000000000e+04 -6.347500000000000000e+04
-1.638400000000000000e+04 -6.376500000000000000e+04
-1.953900000000000000e+04 -6.366300000000000000e+04
4.076600000000000000e+04 -5.595700000000000000e+04
3.588900000000000000e+04 -5.943500000000000000e+04
3.461100000000000000e+04 -6.265700000000000000e+04
2.825100000000000000e+04 -6.591300000000000000e+04
2.664800000000000000e+04 -6.893100000000000000e+04
2.245400000000000000e+04 -7.118200000000000000e+04
1.599200000000000000e+04 -7.210300000000000000e+04
1.244600000000000000e+04 -7.455700000000000000e+04
6.836000000000000000e+03 -7.484700000000000000e+04
3.307000000000000000e+03 -7.812100000000000000e+04
-2.830000000000000000e+03 -7.829200000000000000e+04
-9.036000000000000000e+03 -7.803600000000000000e+04
-1.541300000000000000e+04 -7.767700000000000000e+04
-1.998200000000000000e+04 -7.854700000000000000e+04
-2.693900000000000000e+04 -7.829100000000000000e+04
-3.241100000000000000e+04 -7.754100000000000000e+04
-3.906000000000000000e+04 -7.731900000000000000e+04
-4.504500000000000000e+04 -7.571700000000000000e+04
-5.096100000000000000e+04 -7.309200000000000000e+04
-5.726900000000000000e+04 -6.906800000000000000e+04
-6.383400000000000000e+04 -6.644200000000000000e+04
-6.816300000000000000e+04 -6.393600000000000000e+04
-7.541000000000000000e+04 -6.027000000000000000e+04
-7.951900000000000000e+04 -5.500200000000000000e+04
-8.277600000000000000e+04 -5.138700000000000000e+04
-8.889600000000000000e+04 -4.666400000000000000e+04
-9.111300000000000000e+04 -4.020300000000000000e+04
-9.372100000000000000e+04 -3.648600000000000000e+04
-9.767700000000000000e+04 -3.009300000000000000e+04
-9.975700000000000000e+04 -2.392000000000000000e+04
-1.034390000000000000e+05 -1.684500000000000000e+04
-1.046150000000000000e+05 -1.161100000000000000e+04
-1.056730000000000000e+05 -5.098000000000000000e+03
-1.062360000000000000e+05 4.950000000000000000e+02
-1.054850000000000000e+05 7.092000000000000000e+03
-1.065080000000000000e+05 1.195200000000000000e+04
-1.050250000000000000e+05 2.119300000000000000e+04
-1.021950000000000000e+05 2.523300000000000000e+04
-1.020930000000000000e+05 3.108100000000000000e+04
-9.854600000000000000e+04 3.600900000000000000e+04
-9.498300000000000000e+04 4.144700000000000000e+04
-9.331300000000000000e+04 4.685200000000000000e+04
-9.126600000000000000e+04 5.143800000000000000e+04
-8.592900000000000000e+04 5.853100000000000000e+04
-8.257100000000000000e+04 6.142900000000000000e+04
-7.888800000000000000e+04 6.649300000000000000e+04
-7.278400000000000000e+04 7.135200000000000000e+04
-6.789100000000000000e+04 7.450600000000000000e+04
-6.321900000000000000e+04 7.880300000000000000e+04
-5.634900000000000000e+04 8.280900000000000000e+04
-5.133600000000000000e+04 8.465100000000000000e+04
-4.439700000000000000e+04 8.697000000000000000e+04
-3.715100000000000000e+04 8.867500000000000000e+04
-3.382600000000000000e+04 9.145300000000000000e+04
-2.509700000000000000e+04 9.309100000000000000e+04
-2.020400000000000000e+04 9.365300000000000000e+04
-1.280400000000000000e+04 9.508600000000000000e+04
-5.166000000000000000e+03 9.520400000000000000e+04
-1.211000000000000000e+03 9.384000000000000000e+04
5.661000000000000000e+03 9.339700000000000000e+04
1.396300000000000000e+04 9.211800000000000000e+04
1.938500000000000000e+04 9.043100000000000000e+04
2.571100000000000000e+04 9.017500000000000000e+04
3.101300000000000000e+04 8.550400000000000000e+04
3.761100000000000000e+04 8.349200000000000000e+04
4.361300000000000000e+04 8.154800000000000000e+04
4.847100000000000000e+04 7.696200000000000000e+04
5.355300000000000000e+04 7.431900000000000000e+04
6.086700000000000000e+04 7.099400000000000000e+04
6.451600000000000000e+04 6.821400000000000000e+04
6.794200000000000000e+04 6.250400000000000000e+04
7.304000000000000000e+04 5.975900000000000000e+04
7.484800000000000000e+04 5.522300000000000000e+04
7.858100000000000000e+04 5.062000000000000000e+04
8.248500000000000000e+04 4.651100000000000000e+04
8.511100000000000000e+04 4.178800000000000000e+04
