3.665000000000000000e+03 -1.296000000000000000e+03
2.472000000000000000e+03 -1.381000000000000000e+03
1.177000000000000000e+03 -1.483000000000000000e+03
1.569000000000000000e+03 -1.670000000000000000e+03
1.370000000000000000e+02 -1.841000000000000000e+03
1.880000000000000000e+02 -2.984000000000000000e+03
-1.159000000000000000e+03 -8.020000000000000000e+02
-3.836000000000000000e+03 -2.380000000000000000e+02
-3.307000000000000000e+03 3.070000000000000000e+02
-5.064000000000000000e+03 3.904000000000000000e+03
-4.144000000000000000e+03 4.211000000000000000e+03
-4.109000000000000000e+03 8.490000000000000000e+03
3.400000000000000000e+01 1.072300000000000000e+04
2.642000000000000000e+03 1.251400000000000000e+04
7.962000000000000000e+03 1.294100000000000000e+04
1.486700000000000000e+04 9.923000000000000000e+03
2.013600000000000000e+04 3.222000000000000000e+03
2.214700000000000000e+04 -3.700000000000000000e+03
1.742400000000000000e+04 -1.343600000000000000e+04
9.770000000000000000e+03 -1.754400000000000000e+04
1.227000000000000000e+03 -2.097000000000000000e+04
-4.809000000000000000e+03 -1.660600000000000000e+04
-1.079200000000000000e+04 -1.168000000000000000e+04
-1.326500000000000000e+04 -6.734000000000000000e+03
-1.304300000000000000e+04 -1.756000000000000000e+03
-1.179900000000000000e+04 1.875000000000000000e+03
-9.327000000000000000e+03 6.513000000000000000e+03
-6.035000000000000000e+03 8.116000000000000000e+03
-4.194000000000000000e+03 9.121000000000000000e+03
-2.847000000000000000e+03 9.429000000000000000e+03
-1.347000000000000000e+03 8.423000000000000000e+03
-2.040000000000000000e+02 8.388000000000000000e+03
2.915000000000000000e+03 8.337000000000000000e+03
2.813000000000000000e+03 7.706000000000000000e+03
4.296000000000000000e+03 6.990000000000000000e+03
4.449000000000000000e+03 5.660000000000000000e+03
4.876000000000000000e+03 5.030000000000000000e+03
6.956000000000000000e+03 4.637000000000000000e+03
7.143000000000000000e+03 3.086000000000000000e+03
5.097000000000000000e+03 6.480000000000000000e+02
7.160000000000000000e+03 1.176000000000000000e+03
4.740000000000000000e+03 1.295000000000000000e+03
6.172000000000000000e+03 -3.500000000000000000e+01
3.615000000000000000e+03 -2.693000000000000000e+03
3.904000000000000000e+03 -4.910000000000000000e+03
3.256000000000000000e+03 -4.859000000000000000e+03
1.517000000000000000e+03 -6.394000000000000000e+03
2.050000000000000000e+02 -7.315000000000000000e+03
-1.978000000000000000e+03 -9.531000000000000000e+03
-2.455000000000000000e+03 -1.074100000000000000e+04
-6.905000000000000000e+03 -8.474000000000000000e+03
-1.063900000000000000e+04 -7.860000000000000000e+03
-1.370800000000000000e+04 -4.415000000000000000e+03
-1.711800000000000000e+04 -2.302000000000000000e+03
-1.590700000000000000e+04 3.921000000000000000e+03
-1.485000000000000000e+04 8.763000000000000000e+03
-1.300800000000000000e+04 1.377500000000000000e+04
-3.307000000000000000e+03 1.551500000000000000e+04
1.880000000000000000e+02 1.500300000000000000e+04
3.496000000000000000e+03 1.381000000000000000e+04
7.843000000000000000e+03 9.599000000000000000e+03
8.439000000000000000e+03 4.518000000000000000e+03
8.763000000000000000e+03 2.114000000000000000e+03
6.922000000000000000e+03 -1.074000000000000000e+03
5.626000000000000000e+03 -1.773000000000000000e+03
4.535000000000000000e+03 -3.325000000000000000e+03
3.479000000000000000e+03 -6.104000000000000000e+03
1.790000000000000000e+03 -4.552000000000000000e+03
1.449000000000000000e+03 -5.098000000000000000e+03
-1.960000000000000000e+03 -4.058000000000000000e+03
-2.626000000000000000e+03 -4.245000000000000000e+03
-2.267000000000000000e+03 -5.899000000000000000e+03
-3.716000000000000000e+03 -4.654000000000000000e+03
-6.819000000000000000e+03 -3.444000000000000000e+03
-6.138000000000000000e+03 -5.319000000000000000e+03
-3.649000000000000000e+03 -4.876000000000000000e+03
-6.206000000000000000e+03 -4.314000000000000000e+03
-5.950000000000000000e+03 -6.547000000000000000e+03
-5.711000000000000000e+03 -6.070000000000000000e+03
-5.677000000000000000e+03 -5.303000000000000000e+03
-4.756000000000000000e+03 -5.916000000000000000e+03
-4.773000000000000000e+03 -4.911000000000000000e+03
-4.722000000000000000e+03 -5.183000000000000000e+03
-3.922000000000000000e+03 -3.802000000000000000e+03
-3.495000000000000000e+03 -1.705000000000000000e+03
-1.381000000000000000e+03 -2.900000000000000000e+02
-7.500000000000000000e+02 4.125000000000000000e+03
-1.710000000000000000e+02 5.388000000000000000e+03
1.296000000000000000e+03 7.741000000000000000e+03
3.256000000000000000e+03 9.974000000000000000e+03
5.490000000000000000e+03 1.157700000000000000e+04
9.429000000000000000e+03 1.115000000000000000e+04
1.241300000000000000e+04 8.508000000000000000e+03
1.297500000000000000e+04 4.723000000000000000e+03
1.454400000000000000e+04 1.637000000000000000e+03
1.173100000000000000e+04 -4.229000000000000000e+03
9.429000000000000000e+03 -6.837000000000000000e+03
3.410000000000000000e+03 -9.087000000000000000e+03
2.677000000000000000e+03 -8.507000000000000000e+03
1.261000000000000000e+03 -7.655000000000000000e+03
-2.369000000000000000e+03 -5.626000000000000000e+03
-1.347000000000000000e+03 -5.319000000000000000e+03
-2.220000000000000000e+02 -2.762000000000000000e+03
-2.404000000000000000e+03 -1.023000000000000000e+03
-1.540000000000000000e+02 -2.557000000000000000e+03
-1.381000000000000000e+03 1.773000000000000000e+03
-1.347000000000000000e+03 8.870000000000000000e+02
-1.705000000000000000e+03 2.319000000000000000e+03
-1.705000000000000000e+03 4.297000000000000000e+03
-1.552000000000000000e+03 4.313000000000000000e+03
-3.580000000000000000e+02 4.279000000000000000e+03
-1.091000000000000000e+03 4.194000000000000000e+03
-2.900000000000000000e+02 6.036000000000000000e+03
4.260000000000000000e+02 7.348000000000000000e+03
-1.126000000000000000e+03 7.791000000000000000e+03
-1.398000000000000000e+03 5.797000000000000000e+03
-7.330000000000000000e+02 6.104000000000000000e+03
-1.228000000000000000e+03 8.610000000000000000e+03
-3.230000000000000000e+02 6.172000000000000000e+03
-2.079000000000000000e+03 6.258000000000000000e+03
1.160000000000000000e+03 5.217000000000000000e+03
1.585000000000000000e+03 5.302000000000000000e+03
1.859000000000000000e+03 4.007000000000000000e+03
3.086000000000000000e+03 3.648000000000000000e+03
3.018000000000000000e+03 2.967000000000000000e+03
4.757000000000000000e+03 1.279000000000000000e+03
6.462000000000000000e+03 -2.730000000000000000e+02
2.677000000000000000e+03 -2.711000000000000000e+03
1.876000000000000000e+03 -5.252000000000000000e+03
-1.313000000000000000e+03 -8.849000000000000000e+03
-4.109000000000000000e+03 -8.508000000000000000e+03
-2.730000000000000000e+02 -1.277000000000000000e+04
-1.007600000000000000e+04 -4.262000000000000000e+03
-1.232600000000000000e+04 8.500000000000000000e+01
-1.103000000000000000e+04 4.399000000000000000e+03
-9.667000000000000000e+03 3.785000000000000000e+03
-5.898000000000000000e+03 5.661000000000000000e+03
-4.398000000000000000e+03 6.581000000000000000e+03
-4.655000000000000000e+03 5.695000000000000000e+03
-1.381000000000000000e+03 4.790000000000000000e+03
-1.483000000000000000e+03 4.654000000000000000e+03
1.020000000000000000e+02 3.836000000000000000e+03
2.050000000000000000e+02 3.426000000000000000e+03
-9.040000000000000000e+02 3.035000000000000000e+03
1.870000000000000000e+02 2.523000000000000000e+03
-1.040000000000000000e+03 2.609000000000000000e+03
-2.050000000000000000e+02 2.659000000000000000e+03
-8.020000000000000000e+02 6.470000000000000000e+02
-5.280000000000000000e+02 2.730000000000000000e+02
-1.773000000000000000e+03 -4.090000000000000000e+02
-1.278000000000000000e+03 -2.267000000000000000e+03
-8.860000000000000000e+02 -2.148000000000000000e+03
8.350000000000000000e+02 -2.149000000000000000e+03
-2.730000000000000000e+02 -2.438000000000000000e+03
-1.870000000000000000e+02 -3.461000000000000000e+03
-1.347000000000000000e+03 -3.819000000000000000e+03
-1.960000000000000000e+03 -2.831000000000000000e+03
-3.393000000000000000e+03 -3.768000000000000000e+03
-2.677000000000000000e+03 -4.808000000000000000e+03
-3.427000000000000000e+03 -4.927000000000000000e+03
-3.990000000000000000e+03 -4.553000000000000000e+03
-3.836000000000000000e+03 -6.700000000000000000e+03
-6.001000000000000000e+03 -6.513000000000000000e+03
-7.502000000000000000e+03 -5.405000000000000000e+03
-7.365000000000000000e+03 -4.484000000000000000e+03
-9.377000000000000000e+03 -2.131000000000000000e+03
-1.217300000000000000e+04 6.990000000000000000e+02
-8.371000000000000000e+03 3.478000000000000000e+03
-4.125000000000000000e+03 3.717000000000000000e+03
-1.808000000000000000e+03 5.370000000000000000e+03
2.967000000000000000e+03 4.876000000000000000e+03
4.279000000000000000e+03 2.472000000000000000e+03
4.723000000000000000e+03 1.125000000000000000e+03
6.598000000000000000e+03 -4.090000000000000000e+02
5.234000000000000000e+03 -1.876000000000000000e+03
3.530000000000000000e+03 -3.188000000000000000e+03
2.046000000000000000e+03 -4.024000000000000000e+03
2.677000000000000000e+03 -6.411000000000000000e+03
6.990000000000000000e+02 -6.240000000000000000e+03
2.012000000000000000e+03 -5.422000000000000000e+03
1.109000000000000000e+03 -3.376000000000000000e+03
1.880000000000000000e+02 -4.621000000000000000e+03
-2.560000000000000000e+02 -5.814000000000000000e+03
-9.200000000000000000e+02 -4.569000000000000000e+03
-2.353000000000000000e+03 -4.910000000000000000e+03
1.360000000000000000e+02 -5.098000000000000000e+03
-1.159000000000000000e+03 -3.990000000000000000e+03
-9.720000000000000000e+02 -1.910000000000000000e+03
-3.137000000000000000e+03 -3.018000000000000000e+03
-2.489000000000000000e+03 -3.172000000000000000e+03
-1.399000000000000000e+03 -4.416000000000000000e+03
-5.460000000000000000e+02 -2.609000000000000000e+03
-2.114000000000000000e+03 -3.598000000000000000e+03
-2.730000000000000000e+02 -1.944000000000000000e+03
-2.380000000000000000e+02 -2.591000000000000000e+03
3.240000000000000000e+02 -2.560000000000000000e+02
4.610000000000000000e+02 1.370000000000000000e+02
-1.030000000000000000e+02 1.552000000000000000e+03
-5.100000000000000000e+01 2.949000000000000000e+03
1.671000000000000000e+03 1.824000000000000000e+03
2.097000000000000000e+03 2.591000000000000000e+03
2.404000000000000000e+03 3.137000000000000000e+03
5.712000000000000000e+03 1.535000000000000000e+03
6.496000000000000000e+03 7.500000000000000000e+02
7.740000000000000000e+03 -1.193000000000000000e+03
8.593000000000000000e+03 -2.762000000000000000e+03
4.843000000000000000e+03 -3.990000000000000000e+03
1.654000000000000000e+03 -3.836000000000000000e+03
4.950000000000000000e+02 -5.388000000000000000e+03
-4.440000000000000000e+02 -6.291000000000000000e+03
-1.381000000000000000e+03 -4.672000000000000000e+03
-2.558000000000000000e+03 -3.717000000000000000e+03
-4.194000000000000000e+03 -1.791000000000000000e+03
-2.898000000000000000e+03 -7.160000000000000000e+02
-2.012000000000000000e+03 7.160000000000000000e+02
-1.892000000000000000e+03 -9.720000000000000000e+02
-1.432000000000000000e+03 -9.370000000000000000e+02
-1.330000000000000000e+03 -5.460000000000000000e+02
2.900000000000000000e+02 9.380000000000000000e+02
-1.540000000000000000e+02 5.620000000000000000e+02
5.960000000000000000e+02 -6.990000000000000000e+02
3.734000000000000000e+03 4.430000000000000000e+02
3.648000000000000000e+03 8.350000000000000000e+02
4.416000000000000000e+03 1.432000000000000000e+03
2.745000000000000000e+03 6.640000000000000000e+02
4.007000000000000000e+03 7.160000000000000000e+02
4.245000000000000000e+03 1.466000000000000000e+03
5.268000000000000000e+03 9.550000000000000000e+02
4.911000000000000000e+03 1.944000000000000000e+03
4.825000000000000000e+03 2.046000000000000000e+03
3.973000000000000000e+03 2.233000000000000000e+03
4.706000000000000000e+03 2.643000000000000000e+03
4.689000000000000000e+03 2.796000000000000000e+03
5.917000000000000000e+03 3.546000000000000000e+03
5.064000000000000000e+03 1.244000000000000000e+03
3.513000000000000000e+03 2.285000000000000000e+03
6.735000000000000000e+03 -2.472000000000000000e+03
4.433000000000000000e+03 1.194000000000000000e+03
3.308000000000000000e+03 -5.790000000000000000e+02
1.688000000000000000e+03 -1.020000000000000000e+02
1.517000000000000000e+03 -1.108000000000000000e+03
2.730000000000000000e+02 -2.097000000000000000e+03
-1.995000000000000000e+03 -2.046000000000000000e+03
-2.540000000000000000e+03 -1.330000000000000000e+03
-4.229000000000000000e+03 8.500000000000000000e+01
-5.319000000000000000e+03 2.097000000000000000e+03
-4.195000000000000000e+03 3.119000000000000000e+03
-3.785000000000000000e+03 3.222000000000000000e+03
-1.654000000000000000e+03 4.109000000000000000e+03
-7.850000000000000000e+02 2.967000000000000000e+03
1.364000000000000000e+03 2.898000000000000000e+03
2.890000000000000000e+02 5.200000000000000000e+03
1.058000000000000000e+03 5.507000000000000000e+03
1.466000000000000000e+03 3.597000000000000000e+03
1.910000000000000000e+03 3.767000000000000000e+03
1.501000000000000000e+03 4.586000000000000000e+03
2.047000000000000000e+03 2.301000000000000000e+03
1.671000000000000000e+03 2.796000000000000000e+03
2.591000000000000000e+03 2.847000000000000000e+03
2.763000000000000000e+03 1.859000000000000000e+03
2.097000000000000000e+03 3.069000000000000000e+03
3.257000000000000000e+03 2.251000000000000000e+03
1.670000000000000000e+03 2.558000000000000000e+03
9.380000000000000000e+02 1.347000000000000000e+03
2.097000000000000000e+03 1.841000000000000000e+03
5.790000000000000000e+02 1.483000000000000000e+03
1.108000000000000000e+03 2.012000000000000000e+03
4.770000000000000000e+02 2.694000000000000000e+03
2.899000000000000000e+03 1.705000000000000000e+03
1.530000000000000000e+02 -3.070000000000000000e+02
1.671000000000000000e+03 2.950000000000000000e+03
1.261000000000000000e+03 1.705000000000000000e+03
1.700000000000000000e+02 1.653000000000000000e+03
-1.620000000000000000e+03 5.450000000000000000e+02
-4.610000000000000000e+02 1.995000000000000000e+03
-2.489000000000000000e+03 4.950000000000000000e+02
-2.353000000000000000e+03 2.182000000000000000e+03
-1.347000000000000000e+03 3.529000000000000000e+03
-4.484000000000000000e+03 2.881000000000000000e+03
-3.887000000000000000e+03 3.819000000000000000e+03
-3.001000000000000000e+03 5.865000000000000000e+03
-1.398000000000000000e+03 3.069000000000000000e+03
-2.677000000000000000e+03 3.632000000000000000e+03
-5.984000000000000000e+03 4.688000000000000000e+03
-2.234000000000000000e+03 6.547000000000000000e+03
-3.018000000000000000e+03 8.456000000000000000e+03
-9.720000000000000000e+02 7.536000000000000000e+03
-9.720000000000000000e+02 8.303000000000000000e+03
6.820000000000000000e+02 8.627000000000000000e+03
1.870000000000000000e+02 7.211000000000000000e+03
6.470000000000000000e+02 6.700000000000000000e+03
9.380000000000000000e+02 5.881000000000000000e+03
6.140000000000000000e+02 6.769000000000000000e+03
1.620000000000000000e+03 5.234000000000000000e+03
2.029000000000000000e+03 5.847000000000000000e+03
1.739000000000000000e+03 2.574000000000000000e+03
1.637000000000000000e+03 4.177000000000000000e+03
2.183000000000000000e+03 2.830000000000000000e+03
9.210000000000000000e+02 2.524000000000000000e+03
1.023000000000000000e+03 1.466000000000000000e+03
7.500000000000000000e+02 -8.010000000000000000e+02
8.360000000000000000e+02 -7.170000000000000000e+02
8.020000000000000000e+02 -7.160000000000000000e+02
8.690000000000000000e+02 -5.630000000000000000e+02
-9.210000000000000000e+02 -8.350000000000000000e+02
0.000000000000000000e+00 -1.126000000000000000e+03
1.228000000000000000e+03 -3.717000000000000000e+03
6.650000000000000000e+02 -2.506000000000000000e+03
-9.210000000000000000e+02 -2.915000000000000000e+03
5.630000000000000000e+02 -2.694000000000000000e+03
2.730000000000000000e+02 -4.620000000000000000e+03
4.090000000000000000e+02 -3.717000000000000000e+03
-1.977000000000000000e+03 -3.990000000000000000e+03
-2.028000000000000000e+03 -3.018000000000000000e+03
-1.125000000000000000e+03 -2.558000000000000000e+03
-1.534000000000000000e+03 -1.347000000000000000e+03
-3.580000000000000000e+02 9.720000000000000000e+02
-3.410000000000000000e+02 1.176000000000000000e+03
1.432000000000000000e+03 3.274000000000000000e+03
-8.350000000000000000e+02 4.688000000000000000e+03
9.370000000000000000e+02 5.200000000000000000e+03
3.530000000000000000e+03 6.308000000000000000e+03
4.791000000000000000e+03 4.722000000000000000e+03
6.718000000000000000e+03 2.847000000000000000e+03
6.411000000000000000e+03 3.324000000000000000e+03
5.712000000000000000e+03 1.449000000000000000e+03
7.008000000000000000e+03 1.449000000000000000e+03
5.934000000000000000e+03 -1.978000000000000000e+03
4.586000000000000000e+03 -1.619000000000000000e+03
2.182000000000000000e+03 -2.267000000000000000e+03
2.730000000000000000e+02 -2.693000000000000000e+03
9.040000000000000000e+02 -4.211000000000000000e+03
-1.944000000000000000e+03 -5.302000000000000000e+03
-2.796000000000000000e+03 -5.712000000000000000e+03
-5.217000000000000000e+03 -5.984000000000000000e+03
-4.825000000000000000e+03 -6.479000000000000000e+03
-6.614000000000000000e+03 -5.507000000000000000e+03
-7.331000000000000000e+03 -5.046000000000000000e+03
-7.433000000000000000e+03 -5.371000000000000000e+03
-8.456000000000000000e+03 -2.966000000000000000e+03
-9.429000000000000000e+03 -3.120000000000000000e+03
-7.894000000000000000e+03 -2.728000000000000000e+03
-8.081000000000000000e+03 6.800000000000000000e+01
-9.667000000000000000e+03 1.006000000000000000e+03
-6.855000000000000000e+03 3.103000000000000000e+03
-6.325000000000000000e+03 4.961000000000000000e+03
-4.825000000000000000e+03 5.541000000000000000e+03
-2.285000000000000000e+03 7.893000000000000000e+03
-6.990000000000000000e+02 9.479000000000000000e+03
2.285000000000000000e+03 9.548000000000000000e+03
4.927000000000000000e+03 1.012800000000000000e+04
7.416000000000000000e+03 9.037000000000000000e+03
9.139000000000000000e+03 8.781000000000000000e+03
1.072400000000000000e+04 5.422000000000000000e+03
1.162700000000000000e+04 3.938000000000000000e+03
1.222500000000000000e+04 1.710000000000000000e+02
1.261600000000000000e+04 -3.751000000000000000e+03
1.075800000000000000e+04 -6.155000000000000000e+03
8.423000000000000000e+03 -9.514000000000000000e+03
2.932000000000000000e+03 -1.150800000000000000e+04
1.056000000000000000e+03 -1.386100000000000000e+04
-3.392000000000000000e+03 -1.406500000000000000e+04
-8.252000000000000000e+03 -1.346900000000000000e+04
-1.106400000000000000e+04 -1.101400000000000000e+04
-1.652100000000000000e+04 -7.655000000000000000e+03
-1.488400000000000000e+04 -5.200000000000000000e+03
-1.462800000000000000e+04 -1.360000000000000000e+02
-1.335000000000000000e+04 4.331000000000000000e+03
-9.411000000000000000e+03 7.314000000000000000e+03
-7.093000000000000000e+03 8.422000000000000000e+03
-4.654000000000000000e+03 1.115100000000000000e+04
-1.756000000000000000e+03 1.104800000000000000e+04
1.501000000000000000e+03 1.101400000000000000e+04
4.126000000000000000e+03 1.048500000000000000e+04
6.172000000000000000e+03 1.128700000000000000e+04
1.435500000000000000e+04 6.052000000000000000e+03
1.079200000000000000e+04 8.201000000000000000e+03
1.227500000000000000e+04 9.207000000000000000e+03
1.244600000000000000e+04 6.871000000000000000e+03
1.282100000000000000e+04 6.036000000000000000e+03
1.353700000000000000e+04 1.245000000000000000e+03
1.297400000000000000e+04 4.950000000000000000e+02
1.154300000000000000e+04 -1.517000000000000000e+03
1.115000000000000000e+04 -2.625000000000000000e+03
9.480000000000000000e+03 -5.490000000000000000e+03
7.519000000000000000e+03 -7.008000000000000000e+03
6.531000000000000000e+03 -9.633000000000000000e+03
4.296000000000000000e+03 -9.957000000000000000e+03
-8.500000000000000000e+01 -9.872000000000000000e+03
-3.734000000000000000e+03 -1.072400000000000000e+04
-4.826000000000000000e+03 -1.232700000000000000e+04
-9.292000000000000000e+03 -1.103100000000000000e+04
-1.346900000000000000e+04 -9.820000000000000000e+03
-1.502100000000000000e+04 -1.034900000000000000e+04
-1.805500000000000000e+04 -4.860000000000000000e+03
-1.950500000000000000e+04 -1.960000000000000000e+03
-2.329000000000000000e+04 4.600000000000000000e+02
-2.126100000000000000e+04 7.126000000000000000e+03
-2.211300000000000000e+04 1.089500000000000000e+04
-1.822600000000000000e+04 1.740800000000000000e+04
-1.377600000000000000e+04 1.974300000000000000e+04
-7.382000000000000000e+03 2.424500000000000000e+04
-2.216000000000000000e+03 2.410800000000000000e+04
4.893000000000000000e+03 2.409100000000000000e+04
1.021300000000000000e+04 2.368200000000000000e+04
1.345200000000000000e+04 1.866900000000000000e+04
1.895900000000000000e+04 1.527600000000000000e+04
2.138000000000000000e+04 9.889000000000000000e+03
2.378400000000000000e+04 4.841000000000000000e+03
2.279600000000000000e+04 -1.671000000000000000e+03
2.129500000000000000e+04 -4.859000000000000000e+03
2.017000000000000000e+04 -1.060500000000000000e+04
1.855000000000000000e+04 -1.411800000000000000e+04
1.498600000000000000e+04 -1.737400000000000000e+04
9.940000000000000000e+03 -2.042600000000000000e+04
6.376000000000000000e+03 -1.964100000000000000e+04
1.603000000000000000e+03 -2.216400000000000000e+04
-2.813000000000000000e+03 -2.184100000000000000e+04
-8.166000000000000000e+03 -2.064700000000000000e+04
-1.225800000000000000e+04 -1.926600000000000000e+04
-1.452600000000000000e+04 -1.667500000000000000e+04
-1.667400000000000000e+04 -1.713500000000000000e+04
-2.052800000000000000e+04 -1.191800000000000000e+04
-2.168700000000000000e+04 -9.718000000000000000e+03
-2.335800000000000000e+04 -4.961000000000000000e+03
-2.622200000000000000e+04 -2.250000000000000000e+03
-2.671600000000000000e+04 2.643000000000000000e+03
-2.891600000000000000e+04 8.320000000000000000e+03
-2.785800000000000000e+04 1.420300000000000000e+04
-2.855800000000000000e+04 2.127800000000000000e+04
-2.439700000000000000e+04 2.842200000000000000e+04
-1.974400000000000000e+04 3.459400000000000000e+04
-1.283800000000000000e+04 4.233400000000000000e+04
-1.500000000000000000e+03 4.818100000000000000e+04
8.644000000000000000e+03 4.942600000000000000e+04
2.281300000000000000e+04 4.935800000000000000e+04
3.686100000000000000e+04 4.286200000000000000e+04
4.744900000000000000e+04 3.186500000000000000e+04
5.585400000000000000e+04 1.657300000000000000e+04
5.824100000000000000e+04 6.800000000000000000e+01
5.679200000000000000e+04 -1.522600000000000000e+04
5.142200000000000000e+04 -3.099700000000000000e+04
4.238600000000000000e+04 -4.231700000000000000e+04
3.040000000000000000e+04 -5.063700000000000000e+04
1.832800000000000000e+04 -5.571800000000000000e+04
5.643000000000000000e+03 -6.052600000000000000e+04
-8.541000000000000000e+03 -5.878600000000000000e+04
-1.965800000000000000e+04 -5.478000000000000000e+04
-3.022900000000000000e+04 -4.944400000000000000e+04
-3.709900000000000000e+04 -3.929900000000000000e+04
-4.354400000000000000e+04 -3.096300000000000000e+04
-4.767000000000000000e+04 -1.947100000000000000e+04
-4.949400000000000000e+04 -1.166200000000000000e+04
-4.867600000000000000e+04 -7.160000000000000000e+02
-4.567500000000000000e+04 8.780000000000000000e+03
-4.472000000000000000e+04 1.832800000000000000e+04
-4.216300000000000000e+04 2.562500000000000000e+04
-3.718500000000000000e+04 3.316200000000000000e+04
-3.048400000000000000e+04 4.235000000000000000e+04
-2.525000000000000000e+04 5.062000000000000000e+04
-1.597500000000000000e+04 5.708100000000000000e+04
-5.899000000000000000e+03 6.110500000000000000e+04
5.456000000000000000e+03 6.777200000000000000e+04
1.848200000000000000e+04 7.056800000000000000e+04
3.501900000000000000e+04 6.961300000000000000e+04
5.326300000000000000e+04 6.422600000000000000e+04
7.027800000000000000e+04 5.491600000000000000e+04
8.731100000000000000e+04 3.984500000000000000e+04
9.757500000000000000e+04 1.778200000000000000e+04
1.052130000000000000e+05 -1.169600000000000000e+04
1.037290000000000000e+05 -4.218000000000000000e+04
9.147100000000000000e+04 -7.401200000000000000e+04
6.867500000000000000e+04 -9.875100000000000000e+04
4.015100000000000000e+04 -1.188860000000000000e+05
8.764000000000000000e+03 -1.300200000000000000e+05
-2.533500000000000000e+04 -1.276840000000000000e+05
-5.491700000000000000e+04 -1.182730000000000000e+05
-8.158100000000000000e+04 -9.912600000000000000e+04
-9.934700000000000000e+04 -7.476200000000000000e+04
-1.106340000000000000e+05 -4.559100000000000000e+04
-1.136690000000000000e+05 -1.502100000000000000e+04
-1.103440000000000000e+05 1.201900000000000000e+04
-9.847700000000000000e+04 3.911100000000000000e+04
-8.485500000000000000e+04 5.998000000000000000e+04
-6.864100000000000000e+04 7.617700000000000000e+04
-4.964800000000000000e+04 8.831700000000000000e+04
-2.743300000000000000e+04 9.622700000000000000e+04
-1.040000000000000000e+04 1.006270000000000000e+05
1.524200000000000000e+04 1.009330000000000000e+05
3.365500000000000000e+04 9.665300000000000000e+04
5.036400000000000000e+04 8.901500000000000000e+04
6.898300000000000000e+04 7.991100000000000000e+04
8.158200000000000000e+04 6.731200000000000000e+04
9.459100000000000000e+04 5.027900000000000000e+04
1.049060000000000000e+05 3.101300000000000000e+04
1.122030000000000000e+05 8.627000000000000000e+03
1.141640000000000000e+05 -1.941900000000000000e+04
1.120840000000000000e+05 -4.381700000000000000e+04
1.018710000000000000e+05 -7.297100000000000000e+04
8.587900000000000000e+04 -1.001660000000000000e+05
6.153200000000000000e+04 -1.252450000000000000e+05
3.091100000000000000e+04 -1.433180000000000000e+05
-6.308000000000000000e+03 -1.539240000000000000e+05
-4.427700000000000000e+04 -1.536850000000000000e+05
-8.279200000000000000e+04 -1.422100000000000000e+05
-1.174200000000000000e+05 -1.220570000000000000e+05
-1.457900000000000000e+05 -8.746300000000000000e+04
-1.647320000000000000e+05 -4.806200000000000000e+04
-1.722340000000000000e+05 -2.080000000000000000e+03
-1.647320000000000000e+05 4.333900000000000000e+04
-1.452620000000000000e+05 8.686800000000000000e+04
-1.162270000000000000e+05 1.241890000000000000e+05
-7.989400000000000000e+04 1.482120000000000000e+05
-3.843000000000000000e+04 1.645280000000000000e+05
4.075000000000000000e+03 1.685680000000000000e+05
4.475500000000000000e+04 1.605040000000000000e+05
8.161600000000000000e+04 1.423800000000000000e+05
1.096630000000000000e+05 1.156130000000000000e+05
1.303090000000000000e+05 8.502600000000000000e+04
1.422780000000000000e+05 5.036400000000000000e+04
1.477170000000000000e+05 1.439000000000000000e+04
1.430790000000000000e+05 -2.010100000000000000e+04
1.336010000000000000e+05 -5.297200000000000000e+04
1.157670000000000000e+05 -8.112200000000000000e+04
9.440300000000000000e+04 -1.063210000000000000e+05
6.676600000000000000e+04 -1.255020000000000000e+05
3.672400000000000000e+04 -1.385440000000000000e+05
5.098000000000000000e+03 -1.453300000000000000e+05
-3.019500000000000000e+04 -1.441530000000000000e+05
-6.385000000000000000e+04 -1.346230000000000000e+05
-9.520400000000000000e+04 -1.166180000000000000e+05
-1.214950000000000000e+05 -9.220300000000000000e+04
-1.398230000000000000e+05 -6.139500000000000000e+04
-1.516380000000000000e+05 -2.525100000000000000e+04
-1.554740000000000000e+05 1.213900000000000000e+04
-1.473760000000000000e+05 5.108100000000000000e+04
-1.335320000000000000e+05 8.669600000000000000e+04
-1.091850000000000000e+05 1.194490000000000000e+05
-7.663700000000000000e+04 1.477170000000000000e+05
-3.767900000000000000e+04 1.655850000000000000e+05
6.019000000000000000e+03 1.720300000000000000e+05
4.893200000000000000e+04 1.707500000000000000e+05
9.080600000000000000e+04 1.570430000000000000e+05
1.287410000000000000e+05 1.309920000000000000e+05
1.602820000000000000e+05 9.708000000000000000e+04
1.770250000000000000e+05 5.280300000000000000e+04
1.850210000000000000e+05 5.643000000000000000e+03
1.785430000000000000e+05 -4.391900000000000000e+04
1.592260000000000000e+05 -8.956100000000000000e+04
1.309570000000000000e+05 -1.285870000000000000e+05
9.263000000000000000e+04 -1.580150000000000000e+05
5.029600000000000000e+04 -1.734450000000000000e+05
4.740000000000000000e+03 -1.790880000000000000e+05
-3.687800000000000000e+04 -1.729840000000000000e+05
-7.563200000000000000e+04 -1.577930000000000000e+05
-1.104970000000000000e+05 -1.314520000000000000e+05
-1.334290000000000000e+05 -1.015130000000000000e+05
-1.518940000000000000e+05 -6.398700000000000000e+04
-1.588850000000000000e+05 -2.521600000000000000e+04
-1.567190000000000000e+05 1.259900000000000000e+04
-1.478870000000000000e+05 4.966500000000000000e+04
-1.312130000000000000e+05 8.270700000000000000e+04
-1.086730000000000000e+05 1.126450000000000000e+05
-7.834200000000000000e+04 1.328330000000000000e+05
-4.487400000000000000e+04 1.489610000000000000e+05
-1.176400000000000000e+04 1.536340000000000000e+05
2.207900000000000000e+04 1.525590000000000000e+05
5.445700000000000000e+04 1.426020000000000000e+05
8.054200000000000000e+04 1.283830000000000000e+05
1.063540000000000000e+05 1.051950000000000000e+05
1.271210000000000000e+05 8.255400000000000000e+04
1.364810000000000000e+05 5.379100000000000000e+04
1.463190000000000000e+05 2.209700000000000000e+04
1.478700000000000000e+05 -1.116700000000000000e+04
1.423640000000000000e+05 -4.235100000000000000e+04
1.303950000000000000e+05 -7.396000000000000000e+04
1.136520000000000000e+05 -1.020750000000000000e+05
8.959500000000000000e+04 -1.277520000000000000e+05
5.950300000000000000e+04 -1.503600000000000000e+05
2.255700000000000000e+04 -1.632150000000000000e+05
-1.556600000000000000e+04 -1.694380000000000000e+05
-5.317700000000000000e+04 -1.649880000000000000e+05
-9.425000000000000000e+04 -1.548770000000000000e+05
-1.296110000000000000e+05 -1.274110000000000000e+05
-1.576390000000000000e+05 -9.389100000000000000e+04
-1.767180000000000000e+05 -5.177900000000000000e+04
-1.816630000000000000e+05 -5.882000000000000000e+03
-1.738710000000000000e+05 4.008300000000000000e+04
-1.566340000000000000e+05 8.091600000000000000e+04
-1.279060000000000000e+05 1.189550000000000000e+05
-9.194800000000000000e+04 1.466260000000000000e+05
-5.309200000000000000e+04 1.635560000000000000e+05
-8.508000000000000000e+03 1.709380000000000000e+05
3.271800000000000000e+04 1.649030000000000000e+05
7.097800000000000000e+04 1.516040000000000000e+05
1.000810000000000000e+05 1.293890000000000000e+05
1.275470000000000000e+05 9.887000000000000000e+04
1.435570000000000000e+05 6.635600000000000000e+04
1.496950000000000000e+05 2.891600000000000000e+04
1.459100000000000000e+05 -6.683000000000000000e+03
1.360550000000000000e+05 -4.008400000000000000e+04
1.193470000000000000e+05 -7.193200000000000000e+04
9.575000000000000000e+04 -9.365300000000000000e+04
6.975000000000000000e+04 -1.122370000000000000e+05
4.248800000000000000e+04 -1.225680000000000000e+05
1.382700000000000000e+04 -1.296790000000000000e+05
-1.445800000000000000e+04 -1.280760000000000000e+05
-4.161800000000000000e+04 -1.236090000000000000e+05
-6.502700000000000000e+04 -1.126970000000000000e+05
-8.872500000000000000e+04 -9.767700000000000000e+04
-1.067810000000000000e+05 -7.626300000000000000e+04
-1.226200000000000000e+05 -5.244400000000000000e+04
-1.304970000000000000e+05 -2.361300000000000000e+04
-1.356110000000000000e+05 8.952000000000000000e+03
-1.311790000000000000e+05 4.115800000000000000e+04
-1.191250000000000000e+05 7.677400000000000000e+04
-9.817100000000000000e+04 1.074280000000000000e+05
-6.841900000000000000e+04 1.362090000000000000e+05
-3.210400000000000000e+04 1.557980000000000000e+05
1.217400000000000000e+04 1.628400000000000000e+05
5.790000000000000000e+04 1.601630000000000000e+05
1.007620000000000000e+05 1.408800000000000000e+05
1.387660000000000000e+05 1.107530000000000000e+05
1.623460000000000000e+05 6.777200000000000000e+04
1.719270000000000000e+05 1.776600000000000000e+04
1.710070000000000000e+05 -3.137100000000000000e+04
1.522690000000000000e+05 -7.907500000000000000e+04
1.215290000000000000e+05 -1.180000000000000000e+05
8.228200000000000000e+04 -1.462340000000000000e+05
3.730400000000000000e+04 -1.628910000000000000e+05
-6.598000000000000000e+03 -1.675630000000000000e+05
-4.903400000000000000e+04 -1.552350000000000000e+05
-8.379900000000000000e+04 -1.348790000000000000e+05
-1.125260000000000000e+05 -1.073610000000000000e+05
-1.283990000000000000e+05 -7.629600000000000000e+04
-1.349810000000000000e+05 -4.218000000000000000e+04
-1.343670000000000000e+05 -9.702000000000000000e+03
-1.268140000000000000e+05 2.008400000000000000e+04
-1.142650000000000000e+05 4.310200000000000000e+04
-9.856300000000000000e+04 6.509500000000000000e+04
-8.078100000000000000e+04 7.962100000000000000e+04
-6.209400000000000000e+04 9.266400000000000000e+04
-4.146400000000000000e+04 9.979100000000000000e+04
-2.158400000000000000e+04 1.044460000000000000e+05
-2.864000000000000000e+03 1.052470000000000000e+05
1.655500000000000000e+04 1.030310000000000000e+05
3.519000000000000000e+04 9.905800000000000000e+04
5.207000000000000000e+04 9.247600000000000000e+04
6.957900000000000000e+04 8.246800000000000000e+04
8.429300000000000000e+04 6.911900000000000000e+04
9.822300000000000000e+04 5.377400000000000000e+04
1.104470000000000000e+05 3.345100000000000000e+04
1.176250000000000000e+05 1.096300000000000000e+04
1.202500000000000000e+05 -1.486700000000000000e+04
1.188010000000000000e+05 -4.182300000000000000e+04
1.085030000000000000e+05 -6.871000000000000000e+04
8.661200000000000000e+04 -9.215300000000000000e+04
6.719200000000000000e+04 -1.161410000000000000e+05
3.709900000000000000e+04 -1.305480000000000000e+05
7.007000000000000000e+03 -1.377600000000000000e+05
-2.952900000000000000e+04 -1.352710000000000000e+05
-6.127700000000000000e+04 -1.219210000000000000e+05
-8.937300000000000000e+04 -1.026210000000000000e+05
-1.087920000000000000e+05 -7.510300000000000000e+04
-1.219550000000000000e+05 -4.739800000000000000e+04
-1.270010000000000000e+05 -1.502000000000000000e+04
-1.222110000000000000e+05 1.404800000000000000e+04
-1.098670000000000000e+05 3.969100000000000000e+04
-9.240900000000000000e+04 6.148100000000000000e+04
-7.133500000000000000e+04 7.554600000000000000e+04
-5.128500000000000000e+04 8.228100000000000000e+04
-2.978500000000000000e+04 8.560600000000000000e+04
-9.633000000000000000e+03 8.245200000000000000e+04
4.877000000000000000e+03 7.614300000000000000e+04
1.805500000000000000e+04 6.731200000000000000e+04
-1.120200000000000000e+04 7.195000000000000000e+03
-8.661000000000000000e+03 2.285000000000000000e+03
-1.944000000000000000e+03 4.260000000000000000e+02
-2.390000000000000000e+02 4.484000000000000000e+03
-3.239000000000000000e+03 8.917000000000000000e+03
-2.625000000000000000e+03 1.099700000000000000e+04
-3.904000000000000000e+03 9.121000000000000000e+03
-1.278000000000000000e+03 7.468000000000000000e+03
5.695000000000000000e+03 4.893000000000000000e+03
1.159300000000000000e+04 1.183200000000000000e+04
1.215600000000000000e+04 1.260000000000000000e+04
1.217300000000000000e+04 1.062200000000000000e+04
1.626600000000000000e+04 5.473000000000000000e+03
1.872000000000000000e+04 -4.940000000000000000e+02
2.289700000000000000e+04 -4.262000000000000000e+03
2.276100000000000000e+04 -7.092000000000000000e+03
2.092000000000000000e+04 -1.121800000000000000e+04
1.561700000000000000e+04 -1.638400000000000000e+04
1.172900000000000000e+04 -2.296500000000000000e+04
8.235000000000000000e+03 -2.849000000000000000e+04
7.500000000000000000e+02 -3.150800000000000000e+04
-6.888000000000000000e+03 -3.258200000000000000e+04
-1.846500000000000000e+04 -3.079100000000000000e+04
-3.016100000000000000e+04 -2.666600000000000000e+04
-3.878800000000000000e+04 -2.112400000000000000e+04
-4.622100000000000000e+04 -1.358800000000000000e+04
-4.980200000000000000e+04 -2.029000000000000000e+03
-4.674900000000000000e+04 1.031500000000000000e+04
-4.218100000000000000e+04 2.485800000000000000e+04
-2.003300000000000000e+04 4.867700000000000000e+04
-2.548800000000000000e+04 3.931600000000000000e+04
-1.103100000000000000e+04 4.441400000000000000e+04
1.074000000000000000e+03 4.523300000000000000e+04
1.270200000000000000e+04 4.586300000000000000e+04
2.305100000000000000e+04 4.037300000000000000e+04
3.106500000000000000e+04 3.416700000000000000e+04
3.706500000000000000e+04 2.787600000000000000e+04
4.339200000000000000e+04 1.861900000000000000e+04
4.901800000000000000e+04 9.702000000000000000e+03
5.022800000000000000e+04 -7.500000000000000000e+02
4.981900000000000000e+04 -9.001000000000000000e+03
4.828500000000000000e+04 -1.834500000000000000e+04
4.448200000000000000e+04 -2.831900000000000000e+04
3.674200000000000000e+04 -3.981100000000000000e+04
2.603500000000000000e+04 -4.504400000000000000e+04
1.493600000000000000e+04 -4.836900000000000000e+04
3.171000000000000000e+03 -5.200100000000000000e+04
-1.193500000000000000e+04 -5.247800000000000000e+04
-2.508000000000000000e+04 -5.068800000000000000e+04
-3.899200000000000000e+04 -4.599900000000000000e+04
-5.266600000000000000e+04 -3.710000000000000000e+04
-6.217900000000000000e+04 -2.779000000000000000e+04
-7.080700000000000000e+04 -1.430400000000000000e+04
-7.472700000000000000e+04 1.700000000000000000e+02
-7.539300000000000000e+04 1.839700000000000000e+04
-7.266500000000000000e+04 3.201900000000000000e+04
-8.298000000000000000e+04 -1.331500000000000000e+04
-8.714000000000000000e+04 3.461000000000000000e+03
-8.618600000000000000e+04 2.286300000000000000e+04
-8.313400000000000000e+04 3.943500000000000000e+04
-7.143800000000000000e+04 6.047500000000000000e+04
-5.576900000000000000e+04 7.513800000000000000e+04
-3.464400000000000000e+04 8.570800000000000000e+04
-9.155000000000000000e+03 9.597200000000000000e+04
2.083500000000000000e+04 9.648400000000000000e+04
4.719300000000000000e+04 8.925400000000000000e+04
7.252900000000000000e+04 7.593800000000000000e+04
9.106200000000000000e+04 5.537700000000000000e+04
1.037300000000000000e+05 3.241200000000000000e+04
1.072240000000000000e+05 6.087000000000000000e+03
1.070020000000000000e+05 -1.481600000000000000e+04
9.800100000000000000e+04 -3.643500000000000000e+04
8.673100000000000000e+04 -5.283700000000000000e+04
7.036400000000000000e+04 -6.734600000000000000e+04
5.060300000000000000e+04 -7.726800000000000000e+04
2.924000000000000000e+04 -8.482100000000000000e+04
7.553000000000000000e+03 -8.708900000000000000e+04
-1.462800000000000000e+04 -8.563900000000000000e+04
-3.640000000000000000e+04 -8.280900000000000000e+04
-5.498500000000000000e+04 -7.339800000000000000e+04
-6.927200000000000000e+04 -6.344100000000000000e+04
-8.269100000000000000e+04 -4.813100000000000000e+04
-9.130000000000000000e+04 -3.062100000000000000e+04
-9.581800000000000000e+04 -9.173000000000000000e+03
-9.888700000000000000e+04 1.101500000000000000e+04
-9.844500000000000000e+04 3.069000000000000000e+04
-9.482900000000000000e+04 4.323800000000000000e+04
-8.021900000000000000e+04 5.518900000000000000e+04
-6.656100000000000000e+04 6.695400000000000000e+04
-4.985300000000000000e+04 7.554700000000000000e+04
-3.130300000000000000e+04 8.565700000000000000e+04
-8.576000000000000000e+03 9.433500000000000000e+04
1.004200000000000000e+04 9.912600000000000000e+04
2.606900000000000000e+04 1.014450000000000000e+05
4.470300000000000000e+04 9.783000000000000000e+04
6.545300000000000000e+04 8.801000000000000000e+04
8.734400000000000000e+04 7.433600000000000000e+04
1.184430000000000000e+05 5.865100000000000000e+04
1.396360000000000000e+05 2.644400000000000000e+04
1.567530000000000000e+05 5.353000000000000000e+03
1.623790000000000000e+05 -2.364800000000000000e+04
1.718250000000000000e+05 -5.662100000000000000e+04
1.388170000000000000e+05 -8.748100000000000000e+04
1.162260000000000000e+05 -1.159020000000000000e+05
6.634000000000000000e+04 -1.449210000000000000e+05
2.195900000000000000e+04 -1.566170000000000000e+05
-2.629000000000000000e+04 -1.643570000000000000e+05
-7.021000000000000000e+04 -1.625670000000000000e+05
-1.044290000000000000e+05 -1.503260000000000000e+05
-1.340940000000000000e+05 -1.207450000000000000e+05
-1.631980000000000000e+05 -7.813700000000000000e+04
-1.966830000000000000e+05 -3.377500000000000000e+04
-2.393410000000000000e+05 7.621000000000000000e+03
-2.380120000000000000e+05 4.594800000000000000e+04
-2.260430000000000000e+05 7.646700000000000000e+04
-1.869640000000000000e+05 1.043590000000000000e+05
-1.436080000000000000e+05 1.295080000000000000e+05
-9.147100000000000000e+04 1.521670000000000000e+05
-3.885500000000000000e+04 1.718250000000000000e+05
1.278700000000000000e+04 1.870500000000000000e+05
5.948600000000000000e+04 1.978940000000000000e+05
1.362940000000000000e+05 2.032640000000000000e+05
1.318090000000000000e+05 1.826180000000000000e+05
1.477690000000000000e+05 1.260820000000000000e+05
1.974850000000000000e+05 5.155800000000000000e+04
2.588460000000000000e+05 2.061300000000000000e+04
2.909500000000000000e+05 1.478200000000000000e+04
2.879840000000000000e+05 -1.978000000000000000e+03
2.709670000000000000e+05 -3.817400000000000000e+04
2.478150000000000000e+05 -8.862300000000000000e+04
2.209100000000000000e+05 -1.444950000000000000e+05
1.884650000000000000e+05 -2.082940000000000000e+05
1.511260000000000000e+05 -2.743090000000000000e+05
1.102080000000000000e+05 -3.351260000000000000e+05
6.845400000000000000e+04 -3.772710000000000000e+05
9.974000000000000000e+03 -3.860690000000000000e+05
-7.699600000000000000e+04 -3.630010000000000000e+05
-1.906470000000000000e+05 -3.160470000000000000e+05
-3.139670000000000000e+05 -2.608060000000000000e+05
-4.096480000000000000e+05 -1.881250000000000000e+05
-4.683320000000000000e+05 -8.944200000000000000e+04
-4.894070000000000000e+05 2.731400000000000000e+04
-4.652810000000000000e+05 1.498820000000000000e+05
-4.054720000000000000e+05 2.634150000000000000e+05
-3.068910000000000000e+05 3.601030000000000000e+05
-1.849360000000000000e+05 4.410540000000000000e+05
-5.854800000000000000e+04 4.933450000000000000e+05
6.502600000000000000e+04 5.044780000000000000e+05
1.736150000000000000e+05 4.641220000000000000e+05
2.708320000000000000e+05 3.688830000000000000e+05
3.587050000000000000e+05 2.370050000000000000e+05
4.285570000000000000e+05 1.012910000000000000e+05
4.568760000000000000e+05 -2.368100000000000000e+04
4.440890000000000000e+05 -1.281450000000000000e+05
3.961960000000000000e+05 -2.118740000000000000e+05
3.248960000000000000e+05 -2.705080000000000000e+05
2.386760000000000000e+05 -3.088520000000000000e+05
1.434550000000000000e+05 -3.305050000000000000e+05
5.247800000000000000e+04 -3.427970000000000000e+05
-2.704000000000000000e+04 -3.454570000000000000e+05
-9.315800000000000000e+04 -3.340000000000000000e+05
-1.443070000000000000e+05 -3.027320000000000000e+05
-1.861290000000000000e+05 -2.506280000000000000e+05
-2.304060000000000000e+05 -1.815270000000000000e+05
-2.780430000000000000e+05 -1.124580000000000000e+05
-3.186210000000000000e+05 -4.349400000000000000e+04
-3.461230000000000000e+05 2.337500000000000000e+04
-3.603410000000000000e+05 9.034600000000000000e+04
-3.535390000000000000e+05 1.547920000000000000e+05
-3.254580000000000000e+05 2.186760000000000000e+05
-2.751110000000000000e+05 2.808910000000000000e+05
-2.040660000000000000e+05 3.389100000000000000e+05
-1.102420000000000000e+05 3.877220000000000000e+05
-7.927000000000000000e+03 4.176110000000000000e+05
9.878500000000000000e+04 4.180880000000000000e+05
2.050720000000000000e+05 3.801700000000000000e+05
3.054590000000000000e+05 3.059540000000000000e+05
3.977660000000000000e+05 1.994790000000000000e+05
4.647180000000000000e+05 7.437000000000000000e+04
5.018180000000000000e+05 -5.675800000000000000e+04
5.013410000000000000e+05 -1.839130000000000000e+05
4.592970000000000000e+05 -2.947860000000000000e+05
3.798970000000000000e+05 -3.890020000000000000e+05
2.614040000000000000e+05 -4.563120000000000000e+05
1.186480000000000000e+05 -4.886220000000000000e+05
-3.720200000000000000e+04 -4.847520000000000000e+05
-1.878350000000000000e+05 -4.433050000000000000e+05
-3.157570000000000000e+05 -3.658660000000000000e+05
-4.022670000000000000e+05 -2.605160000000000000e+05
-4.452480000000000000e+05 -1.415110000000000000e+05
-4.500730000000000000e+05 -1.505400000000000000e+04
-4.250100000000000000e+05 9.346500000000000000e+04
-3.785160000000000000e+05 1.827530000000000000e+05
-3.186380000000000000e+05 2.470810000000000000e+05
-2.493140000000000000e+05 2.890060000000000000e+05
-1.781510000000000000e+05 3.091930000000000000e+05
-1.098840000000000000e+05 3.114440000000000000e+05
-4.589700000000000000e+04 3.033280000000000000e+05
1.004200000000000000e+04 2.889210000000000000e+05
5.998000000000000000e+04 2.741050000000000000e+05
1.067810000000000000e+05 2.616590000000000000e+05
1.489610000000000000e+05 2.492810000000000000e+05
1.941770000000000000e+05 2.308340000000000000e+05
2.373810000000000000e+05 2.047820000000000000e+05
2.791010000000000000e+05 1.696090000000000000e+05
3.169340000000000000e+05 1.191770000000000000e+05
3.509310000000000000e+05 5.643400000000000000e+04
3.719010000000000000e+05 -1.490100000000000000e+04
3.831700000000000000e+05 -9.436900000000000000e+04
3.737420000000000000e+05 -1.786780000000000000e+05
3.438030000000000000e+05 -2.584880000000000000e+05
2.909490000000000000e+05 -3.333010000000000000e+05
2.125050000000000000e+05 -3.956340000000000000e+05
1.136690000000000000e+05 -4.363820000000000000e+05
-3.035000000000000000e+03 -4.542330000000000000e+05
-1.261320000000000000e+05 -4.467650000000000000e+05
-2.491270000000000000e+05 -4.136720000000000000e+05
-3.611430000000000000e+05 -3.473490000000000000e+05
-4.558350000000000000e+05 -2.579940000000000000e+05
-5.226870000000000000e+05 -1.412550000000000000e+05
-5.574340000000000000e+05 -7.518000000000000000e+03
-5.526600000000000000e+05 1.370780000000000000e+05
-5.049210000000000000e+05 2.770710000000000000e+05
-4.160590000000000000e+05 4.001180000000000000e+05
-2.935930000000000000e+05 4.884170000000000000e+05
-1.509060000000000000e+05 5.323360000000000000e+05
-2.727000000000000000e+03 5.272730000000000000e+05
1.355950000000000000e+05 4.832860000000000000e+05
2.539190000000000000e+05 4.049940000000000000e+05
3.461730000000000000e+05 3.106770000000000000e+05
4.086250000000000000e+05 2.152330000000000000e+05
4.407810000000000000e+05 1.206770000000000000e+05
4.480100000000000000e+05 3.667400000000000000e+04
4.301420000000000000e+05 -3.998200000000000000e+04
3.934010000000000000e+05 -1.093560000000000000e+05
3.477420000000000000e+05 -1.874930000000000000e+05
3.017940000000000000e+05 -2.626310000000000000e+05
2.495880000000000000e+05 -3.166950000000000000e+05
1.873400000000000000e+05 -3.534020000000000000e+05
1.102760000000000000e+05 -3.754480000000000000e+05
2.504600000000000000e+04 -3.889670000000000000e+05
-6.427700000000000000e+04 -3.880980000000000000e+05
-1.534120000000000000e+05 -3.695650000000000000e+05
-2.414900000000000000e+05 -3.359950000000000000e+05
-3.199510000000000000e+05 -2.821520000000000000e+05
-3.896320000000000000e+05 -2.102380000000000000e+05
-4.430140000000000000e+05 -1.214100000000000000e+05
-4.745400000000000000e+05 -2.236900000000000000e+04
-4.774370000000000000e+05 8.487200000000000000e+04
-4.566710000000000000e+05 1.929840000000000000e+05
-4.083360000000000000e+05 2.903200000000000000e+05
-3.330970000000000000e+05 3.705360000000000000e+05
-2.353180000000000000e+05 4.320850000000000000e+05
-1.219720000000000000e+05 4.717430000000000000e+05
1.909000000000000000e+03 4.827570000000000000e+05
1.323210000000000000e+05 4.725270000000000000e+05
2.606190000000000000e+05 4.327000000000000000e+05
3.788910000000000000e+05 3.669060000000000000e+05
4.777950000000000000e+05 2.765090000000000000e+05
5.460790000000000000e+05 1.656530000000000000e+05
5.758300000000000000e+05 4.114100000000000000e+04
5.604680000000000000e+05 -8.456600000000000000e+04
5.027730000000000000e+05 -2.008440000000000000e+05
4.060850000000000000e+05 -2.993380000000000000e+05
2.885970000000000000e+05 -3.683720000000000000e+05
1.621060000000000000e+05 -4.050450000000000000e+05
4.023600000000000000e+04 -4.160760000000000000e+05
-6.872700000000000000e+04 -4.017210000000000000e+05
-1.643750000000000000e+05 -3.686610000000000000e+05
-2.392220000000000000e+05 -3.195420000000000000e+05
-2.994920000000000000e+05 -2.628690000000000000e+05
-3.439910000000000000e+05 -1.990700000000000000e+05
-3.708270000000000000e+05 -1.309410000000000000e+05
-3.850980000000000000e+05 -6.199200000000000000e+04
-3.849610000000000000e+05 4.739000000000000000e+03
-3.686270000000000000e+05 6.968100000000000000e+04
-3.418600000000000000e+05 1.321680000000000000e+05
-2.995260000000000000e+05 1.890960000000000000e+05
-2.421710000000000000e+05 2.377380000000000000e+05
-1.755930000000000000e+05 2.770550000000000000e+05
-1.018200000000000000e+05 3.048450000000000000e+05
-2.015200000000000000e+04 3.176670000000000000e+05
5.953700000000000000e+04 3.147340000000000000e+05
1.388510000000000000e+05 2.972240000000000000e+05
2.120610000000000000e+05 2.645230000000000000e+05
2.665350000000000000e+05 2.205360000000000000e+05
3.070110000000000000e+05 1.635560000000000000e+05
3.310330000000000000e+05 9.805200000000000000e+04
3.423030000000000000e+05 3.242800000000000000e+04
3.404790000000000000e+05 -3.227500000000000000e+04
3.249980000000000000e+05 -9.344800000000000000e+04
2.921270000000000000e+05 -1.506150000000000000e+05
2.462290000000000000e+05 -1.980470000000000000e+05
1.875790000000000000e+05 -2.336120000000000000e+05
1.246660000000000000e+05 -2.561010000000000000e+05
5.726900000000000000e+04 -2.717530000000000000e+05
-1.554900000000000000e+04 -2.736960000000000000e+05
-8.736200000000000000e+04 -2.585900000000000000e+05
-1.573840000000000000e+05 -2.277990000000000000e+05
-2.185740000000000000e+05 -1.849530000000000000e+05
-2.707970000000000000e+05 -1.348780000000000000e+05
-3.160810000000000000e+05 -7.474600000000000000e+04
-3.429850000000000000e+05 3.137000000000000000e+03
-3.219110000000000000e+05 7.232400000000000000e+04
-2.866190000000000000e+05 1.334800000000000000e+05
-2.379430000000000000e+05 1.825150000000000000e+05
-1.832990000000000000e+05 2.172790000000000000e+05
-1.208460000000000000e+05 2.433820000000000000e+05
-5.582000000000000000e+04 2.550770000000000000e+05
8.013000000000000000e+03 2.549240000000000000e+05
6.942600000000000000e+04 2.422910000000000000e+05
1.266770000000000000e+05 2.196150000000000000e+05
1.768890000000000000e+05 1.897440000000000000e+05
2.160340000000000000e+05 1.464900000000000000e+05
2.429890000000000000e+05 9.866600000000000000e+04
2.574990000000000000e+05 4.639200000000000000e+04
2.593570000000000000e+05 -6.956000000000000000e+03
2.452410000000000000e+05 -5.679300000000000000e+04
2.217450000000000000e+05 -1.027570000000000000e+05
1.861290000000000000e+05 -1.392950000000000000e+05
1.451260000000000000e+05 -1.683640000000000000e+05
9.900600000000000000e+04 -1.882100000000000000e+05
4.988700000000000000e+04 -1.997180000000000000e+05
2.591000000000000000e+03 -1.996160000000000000e+05
-4.560700000000000000e+04 -1.960520000000000000e+05
-8.739600000000000000e+04 -1.812370000000000000e+05
-1.274960000000000000e+05 -1.604880000000000000e+05
-1.604700000000000000e+05 -1.336850000000000000e+05
-1.883120000000000000e+05 -1.006100000000000000e+05
-2.081400000000000000e+05 -6.175300000000000000e+04
-2.205350000000000000e+05 -1.960700000000000000e+04
-2.223940000000000000e+05 2.675100000000000000e+04
-2.113630000000000000e+05 7.131800000000000000e+04
-1.909200000000000000e+05 1.136180000000000000e+05
-1.554920000000000000e+05 1.499170000000000000e+05
-1.112650000000000000e+05 1.798900000000000000e+05
-5.813900000000000000e+04 1.975010000000000000e+05
-3.904000000000000000e+03 2.022240000000000000e+05
5.123400000000000000e+04 1.933410000000000000e+05
1.000290000000000000e+05 1.744510000000000000e+05
1.423460000000000000e+05 1.440350000000000000e+05
1.748430000000000000e+05 1.085200000000000000e+05
1.941420000000000000e+05 6.893100000000000000e+04
2.037920000000000000e+05 2.908700000000000000e+04
2.026330000000000000e+05 -1.237800000000000000e+04
1.888230000000000000e+05 -5.046700000000000000e+04
1.681080000000000000e+05 -8.577600000000000000e+04
1.393970000000000000e+05 -1.142830000000000000e+05
1.045310000000000000e+05 -1.357140000000000000e+05
6.405500000000000000e+04 -1.499670000000000000e+05
2.363000000000000000e+04 -1.533770000000000000e+05
-1.445800000000000000e+04 -1.488260000000000000e+05
-5.056900000000000000e+04 -1.395160000000000000e+05
-8.233200000000000000e+04 -1.212900000000000000e+05
-1.058090000000000000e+05 -9.938200000000000000e+04
-1.229440000000000000e+05 -7.344900000000000000e+04
-1.326280000000000000e+05 -4.835200000000000000e+04
-1.355950000000000000e+05 -2.069800000000000000e+04
-1.325090000000000000e+05 5.916000000000000000e+03
-1.246310000000000000e+05 2.756900000000000000e+04
-1.053660000000000000e+05 4.047600000000000000e+04
-1.030980000000000000e+05 6.714100000000000000e+04
-8.173500000000000000e+04 8.258800000000000000e+04
-6.306600000000000000e+04 9.317500000000000000e+04
-4.165200000000000000e+04 1.010180000000000000e+05
-1.705000000000000000e+04 1.050760000000000000e+05
8.695000000000000000e+03 1.034050000000000000e+05
3.409900000000000000e+04 1.004390000000000000e+05
5.986100000000000000e+04 9.297200000000000000e+04
8.263900000000000000e+04 7.986000000000000000e+04
1.005590000000000000e+05 6.211200000000000000e+04
1.166870000000000000e+05 4.214700000000000000e+04
1.259790000000000000e+05 1.861800000000000000e+04
1.265420000000000000e+05 -6.411000000000000000e+03
1.201140000000000000e+05 -3.123500000000000000e+04
1.073270000000000000e+05 -5.316000000000000000e+04
9.077200000000000000e+04 -7.322800000000000000e+04
6.853900000000000000e+04 -8.736100000000000000e+04
4.635800000000000000e+04 -9.801800000000000000e+04
2.076700000000000000e+04 -1.036790000000000000e+05
-4.229000000000000000e+03 -1.040020000000000000e+05
-2.688700000000000000e+04 -9.963700000000000000e+04
-4.675000000000000000e+04 -9.060100000000000000e+04
-6.588000000000000000e+04 -7.535800000000000000e+04
-8.156500000000000000e+04 -5.902500000000000000e+04
-9.281800000000000000e+04 -3.919700000000000000e+04
-9.875200000000000000e+04 -1.899300000000000000e+04
-9.762600000000000000e+04 2.064000000000000000e+03
-9.360200000000000000e+04 2.028900000000000000e+04
-8.388400000000000000e+04 3.740700000000000000e+04
-6.908500000000000000e+04 5.080800000000000000e+04
-5.522300000000000000e+04 6.221400000000000000e+04
-3.669000000000000000e+04 6.862400000000000000e+04
-1.989600000000000000e+04 7.109600000000000000e+04
-7.198400000000000000e+04 2.387000000000000000e+04
-6.199200000000000000e+04 3.655400000000000000e+04
-5.208600000000000000e+04 4.627300000000000000e+04
-4.005000000000000000e+04 5.299000000000000000e+04
-2.687100000000000000e+04 5.836100000000000000e+04
-1.541300000000000000e+04 6.165100000000000000e+04
4.610000000000000000e+02 6.120800000000000000e+04
1.360500000000000000e+04 6.115700000000000000e+04
2.695500000000000000e+04 5.883900000000000000e+04
3.783300000000000000e+04 5.244400000000000000e+04
4.821600000000000000e+04 4.623800000000000000e+04
5.582000000000000000e+04 3.522400000000000000e+04
6.461800000000000000e+04 2.453400000000000000e+04
6.865900000000000000e+04 1.239500000000000000e+04
6.966400000000000000e+04 8.600000000000000000e+01
6.714200000000000000e+04 -1.427000000000000000e+04
6.235100000000000000e+04 -2.518300000000000000e+04
5.510500000000000000e+04 -3.802000000000000000e+04
4.117400000000000000e+04 -4.785800000000000000e+04
2.924000000000000000e+04 -5.576900000000000000e+04
1.508900000000000000e+04 -6.062800000000000000e+04
9.540000000000000000e+02 -6.137900000000000000e+04
-1.265100000000000000e+04 -6.166800000000000000e+04
-2.712600000000000000e+04 -5.706500000000000000e+04
-3.994700000000000000e+04 -4.981900000000000000e+04
-5.065500000000000000e+04 -4.040700000000000000e+04
-5.870200000000000000e+04 -3.043400000000000000e+04
-6.683500000000000000e+04 -1.745800000000000000e+04
-6.952800000000000000e+04 -7.587000000000000000e+03
-7.000500000000000000e+04 7.554000000000000000e+03
-6.637400000000000000e+04 1.771400000000000000e+04
-5.963900000000000000e+04 2.944500000000000000e+04
-5.237600000000000000e+04 3.698100000000000000e+04
-4.170300000000000000e+04 4.494300000000000000e+04
-2.988800000000000000e+04 5.056900000000000000e+04
-1.791800000000000000e+04 5.331400000000000000e+04
-5.813000000000000000e+03 5.382500000000000000e+04
4.689000000000000000e+03 5.094400000000000000e+04
1.561700000000000000e+04 4.912000000000000000e+04
2.554000000000000000e+04 4.274300000000000000e+04
3.355400000000000000e+04 3.759400000000000000e+04
3.974300000000000000e+04 3.036500000000000000e+04
4.441300000000000000e+04 2.204500000000000000e+04
4.956300000000000000e+04 1.239500000000000000e+04
5.137000000000000000e+04 5.132000000000000000e+03
5.056900000000000000e+04 -4.518000000000000000e+03
4.889800000000000000e+04 -1.556600000000000000e+04
4.552200000000000000e+04 -2.405700000000000000e+04
3.906000000000000000e+04 -3.167800000000000000e+04
2.941000000000000000e+04 -3.938400000000000000e+04
1.972600000000000000e+04 -4.608400000000000000e+04
8.098000000000000000e+03 -4.867600000000000000e+04
-3.887000000000000000e+03 -5.053500000000000000e+04
-1.803800000000000000e+04 -4.715900000000000000e+04
-3.058700000000000000e+04 -4.381700000000000000e+04
-4.105500000000000000e+04 -3.619600000000000000e+04
-5.070500000000000000e+04 -2.743200000000000000e+04
-5.575200000000000000e+04 -1.740700000000000000e+04
-6.204400000000000000e+04 -6.223000000000000000e+03
-6.252100000000000000e+04 5.951000000000000000e+03
-5.955400000000000000e+04 1.739000000000000000e+04
-5.568400000000000000e+04 2.821700000000000000e+04
-4.917100000000000000e+04 3.825900000000000000e+04
-3.938400000000000000e+04 4.690300000000000000e+04
-2.835400000000000000e+04 5.290400000000000000e+04
-1.324700000000000000e+04 5.703100000000000000e+04
-1.245000000000000000e+03 5.583700000000000000e+04
1.323100000000000000e+04 5.459300000000000000e+04
2.627300000000000000e+04 5.184700000000000000e+04
3.776500000000000000e+04 4.245300000000000000e+04
4.477200000000000000e+04 3.484900000000000000e+04
4.966500000000000000e+04 2.564200000000000000e+04
5.242700000000000000e+04 1.677700000000000000e+04
5.309200000000000000e+04 9.002000000000000000e+03
5.082500000000000000e+04 2.796000000000000000e+03
4.901700000000000000e+04 -2.575000000000000000e+03
4.649300000000000000e+04 -7.229000000000000000e+03
4.233400000000000000e+04 -1.104900000000000000e+04
3.921400000000000000e+04 -1.242900000000000000e+04
3.904300000000000000e+04 -1.570300000000000000e+04
4.081600000000000000e+04 -1.652100000000000000e+04
4.310100000000000000e+04 -2.230100000000000000e+04
4.620400000000000000e+04 -3.028000000000000000e+04
4.917000000000000000e+04 -4.110700000000000000e+04
5.455800000000000000e+04 -5.536000000000000000e+04
5.863300000000000000e+04 -8.146300000000000000e+04
7.575100000000000000e+04 -1.270880000000000000e+05
-1.081290000000000000e+05 -2.714790000000000000e+05
-2.286000000000000000e+05 -1.723190000000000000e+05
-2.703700000000000000e+05 -3.106400000000000000e+04
-2.423930000000000000e+05 1.091000000000000000e+05
-1.545540000000000000e+05 2.185570000000000000e+05
-1.732200000000000000e+04 2.599540000000000000e+05
1.433020000000000000e+05 1.744170000000000000e+05
1.470520000000000000e+05 3.125200000000000000e+04
1.070880000000000000e+05 7.365000000000000000e+03
8.449800000000000000e+04 -7.928000000000000000e+03
6.968100000000000000e+04 -1.907800000000000000e+04
5.327900000000000000e+04 -2.453500000000000000e+04
4.218100000000000000e+04 -3.007600000000000000e+04
3.271900000000000000e+04 -3.268500000000000000e+04
2.303400000000000000e+04 -3.162700000000000000e+04
1.805600000000000000e+04 -3.450900000000000000e+04
8.457000000000000000e+03 -3.302500000000000000e+04
3.239000000000000000e+03 -3.058800000000000000e+04
-4.176000000000000000e+03 -2.835300000000000000e+04
-8.286000000000000000e+03 -2.741500000000000000e+04
-1.280500000000000000e+04 -2.480700000000000000e+04
-1.505500000000000000e+04 -2.124400000000000000e+04
-1.803800000000000000e+04 -1.578800000000000000e+04
-1.972500000000000000e+04 -1.253200000000000000e+04
-2.138000000000000000e+04 -1.019600000000000000e+04
-1.866900000000000000e+04 -6.615000000000000000e+03
-2.175500000000000000e+04 -3.035000000000000000e+03
-2.153300000000000000e+04 3.920000000000000000e+02
-2.008400000000000000e+04 3.154000000000000000e+03
-1.829400000000000000e+04 5.933000000000000000e+03
-1.619700000000000000e+04 7.331000000000000000e+03
-1.515800000000000000e+04 9.156000000000000000e+03
-1.277000000000000000e+04 1.116800000000000000e+04
-9.274000000000000000e+03 1.173000000000000000e+04
-6.018000000000000000e+03 1.459500000000000000e+04
-1.722000000000000000e+03 1.302600000000000000e+04
1.125000000000000000e+03 1.411700000000000000e+04
2.574000000000000000e+03 1.466300000000000000e+04
6.734000000000000000e+03 1.335000000000000000e+04
9.735000000000000000e+03 1.043400000000000000e+04
1.115000000000000000e+04 9.940000000000000000e+03
1.423700000000000000e+04 6.615000000000000000e+03
1.445800000000000000e+04 3.222000000000000000e+03
1.461200000000000000e+04 2.251000000000000000e+03
1.370800000000000000e+04 -2.148000000000000000e+03
1.292400000000000000e+04 -3.734000000000000000e+03
1.283800000000000000e+04 -6.836000000000000000e+03
9.565000000000000000e+03 -7.058000000000000000e+03
9.821000000000000000e+03 -8.320000000000000000e+03
6.155000000000000000e+03 -1.074100000000000000e+04
3.734000000000000000e+03 -1.080900000000000000e+04
1.483000000000000000e+03 -1.087800000000000000e+04
-1.705000000000000000e+03 -1.181600000000000000e+04
-5.694000000000000000e+03 -1.149100000000000000e+04
-6.376000000000000000e+03 -1.191800000000000000e+04
-9.480000000000000000e+03 -9.173000000000000000e+03
-1.058700000000000000e+04 -9.735000000000000000e+03
-1.203600000000000000e+04 -7.468000000000000000e+03
-1.355500000000000000e+04 -6.002000000000000000e+03
-1.525900000000000000e+04 -2.882000000000000000e+03
-1.517400000000000000e+04 -1.190000000000000000e+02
-1.391300000000000000e+04 2.046000000000000000e+03
-1.231000000000000000e+04 4.484000000000000000e+03
-1.314500000000000000e+04 7.041000000000000000e+03
-1.108200000000000000e+04 8.132000000000000000e+03
-9.087000000000000000e+03 8.593000000000000000e+03
-7.536000000000000000e+03 1.005900000000000000e+04
-4.858000000000000000e+03 1.132100000000000000e+04
-2.063000000000000000e+03 1.287200000000000000e+04
-1.075000000000000000e+03 1.232700000000000000e+04
1.449000000000000000e+03 1.278700000000000000e+04
5.217000000000000000e+03 1.290700000000000000e+04
9.770000000000000000e+03 9.292000000000000000e+03
9.719000000000000000e+03 8.882000000000000000e+03
1.244700000000000000e+04 8.132000000000000000e+03
1.408400000000000000e+04 5.080000000000000000e+03
1.456100000000000000e+04 1.466000000000000000e+03
1.490100000000000000e+04 -1.296000000000000000e+03
1.323100000000000000e+04 -3.530000000000000000e+03
1.214000000000000000e+04 -5.592000000000000000e+03
1.005900000000000000e+04 -7.638000000000000000e+03
7.707000000000000000e+03 -1.082600000000000000e+04
6.172000000000000000e+03 -1.086100000000000000e+04
2.796000000000000000e+03 -1.200300000000000000e+04
-2.114000000000000000e+03 -1.174700000000000000e+04
-3.614000000000000000e+03 -1.152500000000000000e+04
-6.615000000000000000e+03 -1.050300000000000000e+04
-8.320000000000000000e+03 -1.011100000000000000e+04
-1.149100000000000000e+04 -7.178000000000000000e+03
-1.299200000000000000e+04 -6.427000000000000000e+03
-1.323000000000000000e+04 -3.324000000000000000e+03
-1.594100000000000000e+04 -2.131000000000000000e+03
-1.667500000000000000e+04 -9.210000000000000000e+02
-1.577100000000000000e+04 2.471000000000000000e+03
-1.461200000000000000e+04 5.848000000000000000e+03
-1.490100000000000000e+04 6.325000000000000000e+03
-1.213900000000000000e+04 7.450000000000000000e+03
-1.031400000000000000e+04 1.012700000000000000e+04
-8.047000000000000000e+03 9.599000000000000000e+03
-4.978000000000000000e+03 1.246300000000000000e+04
-2.574000000000000000e+03 1.283800000000000000e+04
-1.211000000000000000e+03 1.392900000000000000e+04
1.893000000000000000e+03 1.369100000000000000e+04
5.780000000000000000e+03 1.515700000000000000e+04
8.508000000000000000e+03 1.527700000000000000e+04
1.190100000000000000e+04 1.420200000000000000e+04
1.409900000000000000e+04 1.074100000000000000e+04
1.703200000000000000e+04 8.831000000000000000e+03
1.761300000000000000e+04 5.388000000000000000e+03
1.572000000000000000e+04 1.092000000000000000e+03
1.536200000000000000e+04 -1.603000000000000000e+03
1.467900000000000000e+04 -6.206000000000000000e+03
1.147400000000000000e+04 -8.832000000000000000e+03
7.996000000000000000e+03 -1.118400000000000000e+04
4.109000000000000000e+03 -1.246400000000000000e+04
1.774000000000000000e+03 -1.294100000000000000e+04
-2.404000000000000000e+03 -1.251500000000000000e+04
-5.677000000000000000e+03 -1.016200000000000000e+04
-8.764000000000000000e+03 -1.081000000000000000e+04
-1.009400000000000000e+04 -1.110000000000000000e+04
-1.225900000000000000e+04 -7.024000000000000000e+03
-1.314600000000000000e+04 -4.552000000000000000e+03
-1.222500000000000000e+04 -2.900000000000000000e+02
-1.462900000000000000e+04 5.290000000000000000e+02
-1.379300000000000000e+04 2.745000000000000000e+03
-1.196900000000000000e+04 6.905000000000000000e+03
-1.036600000000000000e+04 8.422000000000000000e+03
-8.389000000000000000e+03 1.036700000000000000e+04
-4.860000000000000000e+03 1.294100000000000000e+04
-1.483000000000000000e+03 1.162700000000000000e+04
4.770000000000000000e+02 1.306000000000000000e+04
5.387000000000000000e+03 1.285600000000000000e+04
5.643000000000000000e+03 1.205400000000000000e+04
1.040000000000000000e+04 1.224200000000000000e+04
1.113300000000000000e+04 1.099700000000000000e+04
1.306000000000000000e+04 1.171300000000000000e+04
1.352000000000000000e+04 8.679000000000000000e+03
1.391300000000000000e+04 4.433000000000000000e+03
1.445800000000000000e+04 3.563000000000000000e+03
1.323000000000000000e+04 -2.730000000000000000e+02
1.174700000000000000e+04 -3.257000000000000000e+03
9.804000000000000000e+03 -6.717000000000000000e+03
7.757000000000000000e+03 -8.508000000000000000e+03
6.189000000000000000e+03 -1.176400000000000000e+04
4.620000000000000000e+03 -1.208800000000000000e+04
3.580000000000000000e+02 -1.456000000000000000e+04
-2.813000000000000000e+03 -1.522500000000000000e+04
-6.342000000000000000e+03 -1.464500000000000000e+04
-7.196000000000000000e+03 -1.447500000000000000e+04
-9.958000000000000000e+03 -1.425300000000000000e+04
-1.232700000000000000e+04 -1.019600000000000000e+04
-1.391300000000000000e+04 -7.348000000000000000e+03
-1.350400000000000000e+04 -5.456000000000000000e+03
-1.302600000000000000e+04 -2.390000000000000000e+02
-1.282100000000000000e+04 2.455000000000000000e+03
-1.089500000000000000e+04 5.661000000000000000e+03
-9.855000000000000000e+03 1.041700000000000000e+04
-7.349000000000000000e+03 1.202000000000000000e+04
-6.411000000000000000e+03 1.447500000000000000e+04
-2.336000000000000000e+03 1.551500000000000000e+04
8.870000000000000000e+02 1.762900000000000000e+04
2.966000000000000000e+03 1.732300000000000000e+04
6.530000000000000000e+03 1.664100000000000000e+04
7.007000000000000000e+03 1.462900000000000000e+04
1.017800000000000000e+04 1.300900000000000000e+04
9.990000000000000000e+03 9.139000000000000000e+03
1.184900000000000000e+04 5.201000000000000000e+03
1.287300000000000000e+04 2.557000000000000000e+03
1.101400000000000000e+04 -8.500000000000000000e+01
9.922000000000000000e+03 -4.314000000000000000e+03
9.565000000000000000e+03 -8.269000000000000000e+03
8.746000000000000000e+03 -9.752000000000000000e+03
5.933000000000000000e+03 -1.200300000000000000e+04
4.978000000000000000e+03 -1.302600000000000000e+04
4.483000000000000000e+03 -1.273600000000000000e+04
-4.770000000000000000e+02 -1.401500000000000000e+04
-1.364000000000000000e+03 -1.297500000000000000e+04
-2.693000000000000000e+03 -1.297500000000000000e+04
-4.313000000000000000e+03 -9.719000000000000000e+03
-7.962000000000000000e+03 -1.084300000000000000e+04
-1.053700000000000000e+04 -7.485000000000000000e+03
-9.156000000000000000e+03 -5.353000000000000000e+03
-1.079300000000000000e+04 -3.086000000000000000e+03
-1.106500000000000000e+04 -4.260000000000000000e+02
-1.219100000000000000e+04 2.097000000000000000e+03
-1.161100000000000000e+04 5.593000000000000000e+03
-9.019000000000000000e+03 7.178000000000000000e+03
-1.040000000000000000e+04 1.116700000000000000e+04
-7.382000000000000000e+03 1.212200000000000000e+04
-4.552000000000000000e+03 1.249800000000000000e+04
-3.358000000000000000e+03 1.283800000000000000e+04
1.551000000000000000e+03 1.311100000000000000e+04
5.507000000000000000e+03 1.183300000000000000e+04
6.513000000000000000e+03 8.644000000000000000e+03
1.069100000000000000e+04 7.008000000000000000e+03
1.406600000000000000e+04 4.706000000000000000e+03
1.556700000000000000e+04 1.210000000000000000e+03
1.650400000000000000e+04 -3.070000000000000000e+02
1.754400000000000000e+04 -5.046000000000000000e+03
1.832800000000000000e+04 -7.484000000000000000e+03
1.790200000000000000e+04 -6.837000000000000000e+03
1.645200000000000000e+04 -8.712000000000000000e+03
1.307700000000000000e+04 -1.005900000000000000e+04
1.036600000000000000e+04 -8.251000000000000000e+03
7.775000000000000000e+03 -1.009300000000000000e+04
2.523000000000000000e+03 -8.832000000000000000e+03
-1.875000000000000000e+03 -5.728000000000000000e+03
-5.951000000000000000e+03 -5.899000000000000000e+03
-9.514000000000000000e+03 -4.348000000000000000e+03
-1.229300000000000000e+04 -4.740000000000000000e+03
-1.278700000000000000e+04 -2.966000000000000000e+03
-1.594100000000000000e+04 -1.415000000000000000e+03
-1.381000000000000000e+04 5.970000000000000000e+02
-1.362300000000000000e+04 2.745000000000000000e+03
-1.108300000000000000e+04 4.416000000000000000e+03
-1.043400000000000000e+04 8.337000000000000000e+03
-7.997000000000000000e+03 1.041800000000000000e+04
-8.115000000000000000e+03 1.249700000000000000e+04
-4.075000000000000000e+03 1.275400000000000000e+04
-3.904000000000000000e+03 1.570200000000000000e+04
4.950000000000000000e+02 1.629900000000000000e+04
1.415000000000000000e+03 1.815800000000000000e+04
4.569000000000000000e+03 1.686200000000000000e+04
5.830000000000000000e+03 1.498700000000000000e+04
6.956000000000000000e+03 1.217300000000000000e+04
9.104000000000000000e+03 1.060400000000000000e+04
9.599000000000000000e+03 6.684000000000000000e+03
1.230900000000000000e+04 5.421000000000000000e+03
1.152500000000000000e+04 1.740000000000000000e+03
1.009300000000000000e+04 -1.756000000000000000e+03
9.224000000000000000e+03 -4.502000000000000000e+03
8.218000000000000000e+03 -8.320000000000000000e+03
6.905000000000000000e+03 -1.157600000000000000e+04
6.359000000000000000e+03 -1.135500000000000000e+04
2.387000000000000000e+03 -1.193400000000000000e+04
5.100000000000000000e+01 -1.290600000000000000e+04
-9.550000000000000000e+02 -1.326400000000000000e+04
-4.280000000000000000e+03 -1.217300000000000000e+04
-7.024000000000000000e+03 -1.138900000000000000e+04
-8.320000000000000000e+03 -8.815000000000000000e+03
-7.587000000000000000e+03 -6.786000000000000000e+03
-7.638000000000000000e+03 -5.200000000000000000e+03
-6.666000000000000000e+03 -2.404000000000000000e+03
-3.972000000000000000e+03 -1.160000000000000000e+03
-5.848000000000000000e+03 1.705000000000000000e+03
-4.365000000000000000e+03 7.500000000000000000e+02
-3.529000000000000000e+03 4.160000000000000000e+03
-3.733000000000000000e+03 5.013000000000000000e+03
-1.091000000000000000e+03 5.166000000000000000e+03
-1.262000000000000000e+03 9.036000000000000000e+03
-1.006000000000000000e+03 7.707000000000000000e+03
4.270000000000000000e+02 8.098000000000000000e+03
-1.540000000000000000e+02 1.024600000000000000e+04
1.500000000000000000e+03 9.479000000000000000e+03
1.944000000000000000e+03 8.474000000000000000e+03
3.188000000000000000e+03 6.530000000000000000e+03
3.802000000000000000e+03 6.428000000000000000e+03
2.489000000000000000e+03 4.484000000000000000e+03
1.841000000000000000e+03 1.790000000000000000e+03
3.290000000000000000e+03 3.410000000000000000e+02
3.256000000000000000e+03 -1.586000000000000000e+03
3.189000000000000000e+03 -4.859000000000000000e+03
1.671000000000000000e+03 -7.178000000000000000e+03
1.790000000000000000e+03 -7.519000000000000000e+03
-5.450000000000000000e+02 -9.276000000000000000e+03
-1.347000000000000000e+03 -9.173000000000000000e+03
-3.035000000000000000e+03 -1.045200000000000000e+04
-2.898000000000000000e+03 -1.127000000000000000e+04
-3.973000000000000000e+03 -9.190000000000000000e+03
-5.047000000000000000e+03 -9.735000000000000000e+03
-5.575000000000000000e+03 -9.855000000000000000e+03
-5.847000000000000000e+03 -7.383000000000000000e+03
-7.399000000000000000e+03 -5.866000000000000000e+03
-5.677000000000000000e+03 -5.046000000000000000e+03
-7.075000000000000000e+03 -3.496000000000000000e+03
-6.479000000000000000e+03 5.100000000000000000e+01
-5.848000000000000000e+03 9.380000000000000000e+02
-4.212000000000000000e+03 2.148000000000000000e+03
-2.575000000000000000e+03 4.330000000000000000e+03
-2.285000000000000000e+03 4.739000000000000000e+03
-1.568000000000000000e+03 3.972000000000000000e+03
5.970000000000000000e+02 6.717000000000000000e+03
-2.550000000000000000e+02 5.439000000000000000e+03
3.717000000000000000e+03 7.024000000000000000e+03
3.666000000000000000e+03 5.849000000000000000e+03
3.529000000000000000e+03 4.450000000000000000e+03
4.621000000000000000e+03 6.667000000000000000e+03
2.387000000000000000e+03 3.444000000000000000e+03
3.052000000000000000e+03 3.325000000000000000e+03
3.802000000000000000e+03 1.193000000000000000e+03
8.690000000000000000e+02 7.330000000000000000e+02
9.540000000000000000e+02 -1.023000000000000000e+03
-5.100000000000000000e+01 -2.199000000000000000e+03
-2.148000000000000000e+03 -3.683000000000000000e+03
-1.449000000000000000e+03 -6.393000000000000000e+03
-4.722000000000000000e+03 -7.571000000000000000e+03
-5.984000000000000000e+03 -8.422000000000000000e+03
-4.500000000000000000e+03 -1.138900000000000000e+04
-6.598000000000000000e+03 -1.207100000000000000e+04
-7.791000000000000000e+03 -1.295700000000000000e+04
-5.251000000000000000e+03 -1.273600000000000000e+04
-3.632000000000000000e+03 -1.350400000000000000e+04
-4.399000000000000000e+03 -1.173000000000000000e+04
-3.955000000000000000e+03 -1.091200000000000000e+04
-3.154000000000000000e+03 -9.548000000000000000e+03
-1.227000000000000000e+03 -6.496000000000000000e+03
-5.800000000000000000e+02 -5.985000000000000000e+03
1.500000000000000000e+03 -2.950000000000000000e+03
3.188000000000000000e+03 -1.910000000000000000e+03
2.932000000000000000e+03 -1.364000000000000000e+03
4.399000000000000000e+03 1.876000000000000000e+03
7.843000000000000000e+03 5.012000000000000000e+03
9.513000000000000000e+03 6.001000000000000000e+03
9.275000000000000000e+03 8.627000000000000000e+03
1.193500000000000000e+04 1.278800000000000000e+04
1.270200000000000000e+04 1.464500000000000000e+04
1.314500000000000000e+04 1.595800000000000000e+04
9.411000000000000000e+03 1.785100000000000000e+04
6.445000000000000000e+03 2.069800000000000000e+04
3.649000000000000000e+03 2.083500000000000000e+04
-3.035000000000000000e+03 2.255600000000000000e+04
-1.017800000000000000e+04 2.059600000000000000e+04
-1.520800000000000000e+04 1.839700000000000000e+04
-2.318800000000000000e+04 1.348700000000000000e+04
-3.029700000000000000e+04 8.901000000000000000e+03
-3.396200000000000000e+04 4.950000000000000000e+02
-3.832800000000000000e+04 -8.712000000000000000e+03
-3.931700000000000000e+04 -1.727100000000000000e+04
-3.665600000000000000e+04 -2.625600000000000000e+04
-3.120000000000000000e+04 -3.566700000000000000e+04
-2.180600000000000000e+04 -4.458500000000000000e+04
-1.029700000000000000e+04 -4.830100000000000000e+04
2.438000000000000000e+03 -4.891500000000000000e+04
1.553300000000000000e+04 -4.840300000000000000e+04
2.877900000000000000e+04 -4.097000000000000000e+04
4.102200000000000000e+04 -3.195000000000000000e+04
4.993800000000000000e+04 -1.999900000000000000e+04
5.353600000000000000e+04 -6.104000000000000000e+03
5.375700000000000000e+04 7.672000000000000000e+03
5.154100000000000000e+04 2.214700000000000000e+04
4.422700000000000000e+04 3.411600000000000000e+04
3.404800000000000000e+04 4.143100000000000000e+04
2.329000000000000000e+04 4.808000000000000000e+04
1.418600000000000000e+04 5.370600000000000000e+04
