8.552000000000000000e+04 -4.400500000000000000e+04
8.369600000000000000e+04 -4.884600000000000000e+04
8.021800000000000000e+04 -5.582000000000000000e+04
7.777900000000000000e+04 -6.050900000000000000e+04
7.667100000000000000e+04 -6.536800000000000000e+04
7.244200000000000000e+04 -7.024400000000000000e+04
6.755000000000000000e+04 -7.655200000000000000e+04
6.589600000000000000e+04 -8.226400000000000000e+04
6.284400000000000000e+04 -8.761800000000000000e+04
5.660400000000000000e+04 -9.532400000000000000e+04
5.089300000000000000e+04 -9.684100000000000000e+04
4.589700000000000000e+04 -1.043940000000000000e+05
4.021900000000000000e+04 -1.079740000000000000e+05
3.338300000000000000e+04 -1.104640000000000000e+05
2.615400000000000000e+04 -1.149140000000000000e+05
1.969200000000000000e+04 -1.183750000000000000e+05
1.253100000000000000e+04 -1.225010000000000000e+05
3.938000000000000000e+03 -1.232680000000000000e+05
-1.705000000000000000e+03 -1.273600000000000000e+05
-1.253200000000000000e+04 -1.268830000000000000e+05
-1.921500000000000000e+04 -1.285700000000000000e+05
-2.823400000000000000e+04 -1.292010000000000000e+05
-3.648600000000000000e+04 -1.262000000000000000e+05
-4.489200000000000000e+04 -1.268820000000000000e+05
-5.254600000000000000e+04 -1.234220000000000000e+05
-6.296300000000000000e+04 -1.201650000000000000e+05
-7.029500000000000000e+04 -1.181710000000000000e+05
-7.822300000000000000e+04 -1.147610000000000000e+05
-8.611800000000000000e+04 -1.096790000000000000e+05
-9.295400000000000000e+04 -1.036950000000000000e+05
-9.963800000000000000e+04 -9.805200000000000000e+04
-1.059460000000000000e+05 -9.486400000000000000e+04
-1.131920000000000000e+05 -8.507700000000000000e+04
-1.190400000000000000e+05 -7.856400000000000000e+04
-1.234730000000000000e+05 -7.031200000000000000e+04
-1.291330000000000000e+05 -6.086700000000000000e+04
-1.319460000000000000e+05 -5.261500000000000000e+04
-1.376070000000000000e+05 -4.374900000000000000e+04
-1.372480000000000000e+05 -3.507100000000000000e+04
-1.388510000000000000e+05 -2.543800000000000000e+04
-1.411520000000000000e+05 -1.505500000000000000e+04
-1.418180000000000000e+05 -5.797000000000000000e+03
-1.415960000000000000e+05 4.109000000000000000e+03
-1.410340000000000000e+05 1.420300000000000000e+04
-1.390900000000000000e+05 2.271000000000000000e+04
-1.370790000000000000e+05 3.323000000000000000e+04
-1.345720000000000000e+05 4.149800000000000000e+04
-1.315030000000000000e+05 5.140400000000000000e+04
-1.278210000000000000e+05 6.214500000000000000e+04
-1.208640000000000000e+05 6.840300000000000000e+04
-1.175220000000000000e+05 7.846100000000000000e+04
-1.107020000000000000e+05 8.429200000000000000e+04
-1.058610000000000000e+05 9.169300000000000000e+04
-9.856400000000000000e+04 9.835800000000000000e+04
-9.130000000000000000e+04 1.061340000000000000e+05
-8.529900000000000000e+04 1.113840000000000000e+05
-7.771200000000000000e+04 1.178970000000000000e+05
-6.928900000000000000e+04 1.204880000000000000e+05
-6.134400000000000000e+04 1.252800000000000000e+05
-5.171100000000000000e+04 1.279570000000000000e+05
-4.369800000000000000e+04 1.316730000000000000e+05
-3.398000000000000000e+04 1.334120000000000000e+05
-2.593200000000000000e+04 1.347590000000000000e+05
-1.614600000000000000e+04 1.376750000000000000e+05
-6.308000000000000000e+03 1.363960000000000000e+05
4.100000000000000000e+02 1.353050000000000000e+05
8.234000000000000000e+03 1.358330000000000000e+05
1.829400000000000000e+04 1.361060000000000000e+05
2.675100000000000000e+04 1.330720000000000000e+05
3.365600000000000000e+04 1.290810000000000000e+05
4.158300000000000000e+04 1.288600000000000000e+05
5.016000000000000000e+04 1.245470000000000000e+05
5.619500000000000000e+04 1.193470000000000000e+05
6.282800000000000000e+04 1.167890000000000000e+05
6.819800000000000000e+04 1.108040000000000000e+05
7.537500000000000000e+04 1.071570000000000000e+05
7.991100000000000000e+04 1.011720000000000000e+05
8.589500000000000000e+04 9.597100000000000000e+04
9.303900000000000000e+04 9.159000000000000000e+04
9.672200000000000000e+04 8.453100000000000000e+04
1.024850000000000000e+05 7.880300000000000000e+04
1.050930000000000000e+05 7.119800000000000000e+04
1.088770000000000000e+05 6.402100000000000000e+04
1.111280000000000000e+05 5.832700000000000000e+04
1.129870000000000000e+05 5.150600000000000000e+04
1.169250000000000000e+05 4.432900000000000000e+04
1.174030000000000000e+05 3.691300000000000000e+04
1.189210000000000000e+05 3.036500000000000000e+04
1.201140000000000000e+05 2.346000000000000000e+04
1.191930000000000000e+05 1.570200000000000000e+04
1.209150000000000000e+05 8.712000000000000000e+03
1.205740000000000000e+05 1.825000000000000000e+03
1.198240000000000000e+05 -5.064000000000000000e+03
1.199430000000000000e+05 -1.198600000000000000e+04
1.165850000000000000e+05 -1.710100000000000000e+04
1.180680000000000000e+05 -2.518300000000000000e+04
1.139240000000000000e+05 -3.203600000000000000e+04
1.116050000000000000e+05 -3.887300000000000000e+04
1.084520000000000000e+05 -4.473800000000000000e+04
1.074450000000000000e+05 -4.946000000000000000e+04
1.034730000000000000e+05 -5.704800000000000000e+04
1.000120000000000000e+05 -6.211200000000000000e+04
9.576600000000000000e+04 -6.811300000000000000e+04
9.174300000000000000e+04 -7.290400000000000000e+04
8.625400000000000000e+04 -7.963900000000000000e+04
8.250200000000000000e+04 -8.318500000000000000e+04
7.810300000000000000e+04 -8.956100000000000000e+04
7.181300000000000000e+04 -9.281700000000000000e+04
6.785700000000000000e+04 -9.680800000000000000e+04
6.243400000000000000e+04 -1.021440000000000000e+05
5.484800000000000000e+04 -1.053840000000000000e+05
4.968200000000000000e+04 -1.100380000000000000e+05
4.460100000000000000e+04 -1.108730000000000000e+05
3.831000000000000000e+04 -1.152720000000000000e+05
3.172900000000000000e+04 -1.176240000000000000e+05
2.438000000000000000e+04 -1.186980000000000000e+05
1.911300000000000000e+04 -1.204380000000000000e+05
9.735000000000000000e+03 -1.227740000000000000e+05
4.245000000000000000e+03 -1.236260000000000000e+05
-1.739000000000000000e+03 -1.265080000000000000e+05
-9.974000000000000000e+03 -1.254500000000000000e+05
-1.837900000000000000e+04 -1.271890000000000000e+05
-2.591600000000000000e+04 -1.249390000000000000e+05
-3.369000000000000000e+04 -1.231480000000000000e+05
-4.066300000000000000e+04 -1.233190000000000000e+05
-4.763700000000000000e+04 -1.212730000000000000e+05
-5.386000000000000000e+04 -1.184090000000000000e+05
-6.166900000000000000e+04 -1.165000000000000000e+05
-6.911900000000000000e+04 -1.123910000000000000e+05
-7.696200000000000000e+04 -1.093390000000000000e+05
-8.344000000000000000e+04 -1.063890000000000000e+05
-8.913500000000000000e+04 -1.010700000000000000e+05
-9.684200000000000000e+04 -9.522200000000000000e+04
-1.015650000000000000e+05 -9.246000000000000000e+04
-1.072930000000000000e+05 -8.606600000000000000e+04
-1.150500000000000000e+05 -7.928000000000000000e+04
-1.195510000000000000e+05 -7.193100000000000000e+04
-1.241380000000000000e+05 -6.410600000000000000e+04
-1.293200000000000000e+05 -5.817300000000000000e+04
-1.343330000000000000e+05 -4.911900000000000000e+04
-1.366690000000000000e+05 -4.189100000000000000e+04
-1.400450000000000000e+05 -3.362100000000000000e+04
-1.411870000000000000e+05 -2.560900000000000000e+04
-1.446480000000000000e+05 -1.657200000000000000e+04
-1.462850000000000000e+05 -6.956000000000000000e+03
-1.470000000000000000e+05 3.239000000000000000e+03
-1.471880000000000000e+05 1.398000000000000000e+04
-1.469670000000000000e+05 2.269300000000000000e+04
-1.462170000000000000e+05 3.070600000000000000e+04
-1.439660000000000000e+05 4.054400000000000000e+04
-1.409820000000000000e+05 5.143900000000000000e+04
-1.392600000000000000e+05 6.044000000000000000e+04
-1.352370000000000000e+05 7.053400000000000000e+04
-1.320660000000000000e+05 7.953500000000000000e+04
-1.254510000000000000e+05 8.770300000000000000e+04
-1.210680000000000000e+05 9.852900000000000000e+04
-1.147090000000000000e+05 1.058430000000000000e+05
-1.071730000000000000e+05 1.144020000000000000e+05
-9.975700000000000000e+04 1.204550000000000000e+05
-9.157300000000000000e+04 1.293710000000000000e+05
-8.381600000000000000e+04 1.359360000000000000e+05
-7.556400000000000000e+04 1.428580000000000000e+05
-6.674900000000000000e+04 1.465400000000000000e+05
-5.578600000000000000e+04 1.522700000000000000e+05
-4.746600000000000000e+04 1.573670000000000000e+05
-3.585600000000000000e+04 1.609810000000000000e+05
-2.557500000000000000e+04 1.650910000000000000e+05
-1.377600000000000000e+04 1.662320000000000000e+05
-1.279000000000000000e+03 1.685860000000000000e+05
8.081000000000000000e+03 1.690280000000000000e+05
1.832900000000000000e+04 1.692500000000000000e+05
2.857500000000000000e+04 1.701540000000000000e+05
4.020300000000000000e+04 1.673920000000000000e+05
5.138700000000000000e+04 1.665220000000000000e+05
6.248600000000000000e+04 1.619020000000000000e+05
7.392700000000000000e+04 1.601800000000000000e+05
8.366100000000000000e+04 1.546900000000000000e+05
9.525500000000000000e+04 1.506660000000000000e+05
1.026210000000000000e+05 1.425510000000000000e+05
1.132600000000000000e+05 1.383740000000000000e+05
1.222620000000000000e+05 1.304290000000000000e+05
1.299850000000000000e+05 1.233530000000000000e+05
1.377090000000000000e+05 1.137710000000000000e+05
1.439150000000000000e+05 1.061330000000000000e+05
1.499330000000000000e+05 9.583500000000000000e+04
1.578450000000000000e+05 8.449700000000000000e+04
1.616470000000000000e+05 7.552900000000000000e+04
1.677670000000000000e+05 6.451500000000000000e+04
1.702730000000000000e+05 5.309200000000000000e+04
1.731040000000000000e+05 4.333900000000000000e+04
1.748770000000000000e+05 3.000700000000000000e+04
1.763600000000000000e+05 1.959000000000000000e+04
1.758150000000000000e+05 7.501000000000000000e+03
1.772980000000000000e+05 -5.388000000000000000e+03
1.764620000000000000e+05 -1.565200000000000000e+04
1.736150000000000000e+05 -2.757000000000000000e+04
1.707500000000000000e+05 -3.788400000000000000e+04
1.669650000000000000e+05 -5.084200000000000000e+04
1.635220000000000000e+05 -5.967400000000000000e+04
1.576400000000000000e+05 -7.259700000000000000e+04
1.521670000000000000e+05 -8.127500000000000000e+04
1.466600000000000000e+05 -9.107900000000000000e+04
1.392430000000000000e+05 -1.011890000000000000e+05
1.317070000000000000e+05 -1.093560000000000000e+05
1.251950000000000000e+05 -1.182720000000000000e+05
1.147260000000000000e+05 -1.246320000000000000e+05
1.074630000000000000e+05 -1.343000000000000000e+05
9.806900000000000000e+04 -1.405220000000000000e+05
8.935600000000000000e+04 -1.455860000000000000e+05
7.994500000000000000e+04 -1.495240000000000000e+05
6.993700000000000000e+04 -1.546220000000000000e+05
5.982700000000000000e+04 -1.577760000000000000e+05
5.019400000000000000e+04 -1.618510000000000000e+05
3.902600000000000000e+04 -1.632490000000000000e+05
2.908700000000000000e+04 -1.653460000000000000e+05
2.006700000000000000e+04 -1.667270000000000000e+05
8.371000000000000000e+03 -1.680410000000000000e+05
-1.880000000000000000e+02 -1.655680000000000000e+05
-1.145700000000000000e+04 -1.662500000000000000e+05
-2.364800000000000000e+04 -1.629760000000000000e+05
-2.920600000000000000e+04 -1.623800000000000000e+05
-4.139600000000000000e+04 -1.569750000000000000e+05
-4.898300000000000000e+04 -1.569240000000000000e+05
-5.447300000000000000e+04 -1.522690000000000000e+05
-6.545400000000000000e+04 -1.491330000000000000e+05
-7.377300000000000000e+04 -1.446660000000000000e+05
-8.294600000000000000e+04 -1.390560000000000000e+05
-8.920400000000000000e+04 -1.326800000000000000e+05
-9.498300000000000000e+04 -1.274110000000000000e+05
-1.027240000000000000e+05 -1.202500000000000000e+05
-1.088270000000000000e+05 -1.146240000000000000e+05
-1.141460000000000000e+05 -1.060650000000000000e+05
-1.206090000000000000e+05 -9.813700000000000000e+04
-1.241710000000000000e+05 -9.223800000000000000e+04
-1.290480000000000000e+05 -8.269000000000000000e+04
-1.325090000000000000e+05 -7.617800000000000000e+04
-1.351850000000000000e+05 -6.770300000000000000e+04
-1.383740000000000000e+05 -6.144600000000000000e+04
-1.416810000000000000e+05 -5.159200000000000000e+04
-1.440520000000000000e+05 -4.190800000000000000e+04
-1.456710000000000000e+05 -3.467900000000000000e+04
-1.467620000000000000e+05 -2.600100000000000000e+04
-1.482790000000000000e+05 -1.735700000000000000e+04
-1.474450000000000000e+05 -8.337000000000000000e+03
-1.480920000000000000e+05 -8.690000000000000000e+02
-1.474270000000000000e+05 9.547000000000000000e+03
-1.472740000000000000e+05 1.861800000000000000e+04
-1.431480000000000000e+05 2.649500000000000000e+04
-1.436080000000000000e+05 3.392800000000000000e+04
-1.403170000000000000e+05 4.233400000000000000e+04
-1.374880000000000000e+05 5.195000000000000000e+04
-1.346060000000000000e+05 5.945200000000000000e+04
-1.290820000000000000e+05 6.947700000000000000e+04
-1.247180000000000000e+05 7.377300000000000000e+04
-1.227910000000000000e+05 8.100200000000000000e+04
-1.162780000000000000e+05 8.882800000000000000e+04
-1.114870000000000000e+05 9.677300000000000000e+04
-1.047860000000000000e+05 1.036440000000000000e+05
-9.939900000000000000e+04 1.073440000000000000e+05
-9.358500000000000000e+04 1.139750000000000000e+05
-8.593000000000000000e+04 1.206760000000000000e+05
-7.866700000000000000e+04 1.254160000000000000e+05
-7.172700000000000000e+04 1.296610000000000000e+05
-6.579400000000000000e+04 1.340260000000000000e+05
-5.865100000000000000e+04 1.370950000000000000e+05
-5.143800000000000000e+04 1.431310000000000000e+05
-4.194200000000000000e+04 1.450400000000000000e+05
-3.224100000000000000e+04 1.464040000000000000e+05
-2.612000000000000000e+04 1.472050000000000000e+05
-1.648700000000000000e+04 1.505470000000000000e+05
-8.457000000000000000e+03 1.516040000000000000e+05
-1.193000000000000000e+03 1.519960000000000000e+05
9.053000000000000000e+03 1.529000000000000000e+05
1.730500000000000000e+04 1.535650000000000000e+05
2.564200000000000000e+04 1.510930000000000000e+05
3.203600000000000000e+04 1.512120000000000000e+05
4.045800000000000000e+04 1.469490000000000000e+05
4.913700000000000000e+04 1.452100000000000000e+05
5.692800000000000000e+04 1.422950000000000000e+05
6.487300000000000000e+04 1.377090000000000000e+05
7.421600000000000000e+04 1.360890000000000000e+05
8.142900000000000000e+04 1.312980000000000000e+05
8.836800000000000000e+04 1.264560000000000000e+05
9.476100000000000000e+04 1.223990000000000000e+05
1.012220000000000000e+05 1.173180000000000000e+05
1.066790000000000000e+05 1.111790000000000000e+05
1.132590000000000000e+05 1.049230000000000000e+05
1.199770000000000000e+05 9.834100000000000000e+04
1.232160000000000000e+05 9.380600000000000000e+04
1.278030000000000000e+05 8.615100000000000000e+04
1.313830000000000000e+05 7.781400000000000000e+04
1.371630000000000000e+05 7.026200000000000000e+04
1.424990000000000000e+05 6.235000000000000000e+04
1.450060000000000000e+05 5.553100000000000000e+04
1.471200000000000000e+05 4.697100000000000000e+04
1.508370000000000000e+05 3.737300000000000000e+04
1.505470000000000000e+05 2.901800000000000000e+04
1.524730000000000000e+05 2.124400000000000000e+04
1.534960000000000000e+05 1.183300000000000000e+04
1.538720000000000000e+05 3.938000000000000000e+03
1.545880000000000000e+05 -3.547000000000000000e+03
1.534620000000000000e+05 -1.423600000000000000e+04
1.544010000000000000e+05 -2.264200000000000000e+04
1.527290000000000000e+05 -3.237700000000000000e+04
1.486200000000000000e+05 -3.974300000000000000e+04
1.475800000000000000e+05 -4.842100000000000000e+04
1.440860000000000000e+05 -5.877000000000000000e+04
1.422780000000000000e+05 -6.688500000000000000e+04
1.388860000000000000e+05 -7.501800000000000000e+04
1.337190000000000000e+05 -8.250300000000000000e+04
1.288260000000000000e+05 -9.266400000000000000e+04
1.229100000000000000e+05 -9.835900000000000000e+04
1.187840000000000000e+05 -1.061330000000000000e+05
1.135320000000000000e+05 -1.141810000000000000e+05
1.061670000000000000e+05 -1.209320000000000000e+05
9.861400000000000000e+04 -1.284000000000000000e+05
9.320900000000000000e+04 -1.350840000000000000e+05
8.405400000000000000e+04 -1.408120000000000000e+05
7.517100000000000000e+04 -1.459440000000000000e+05
6.676600000000000000e+04 -1.512120000000000000e+05
5.766100000000000000e+04 -1.555600000000000000e+05
4.751700000000000000e+04 -1.607600000000000000e+05
4.071400000000000000e+04 -1.634030000000000000e+05
2.934200000000000000e+04 -1.674780000000000000e+05
1.892500000000000000e+04 -1.696770000000000000e+05
7.620000000000000000e+03 -1.714160000000000000e+05
-3.308000000000000000e+03 -1.712290000000000000e+05
7.680000000000000000e+02 -1.716030000000000000e+05
-2.056200000000000000e+04 -1.750810000000000000e+05
-3.069000000000000000e+04 -1.751670000000000000e+05
-4.235100000000000000e+04 -1.723200000000000000e+05
-5.227400000000000000e+04 -1.721830000000000000e+05
-6.258900000000000000e+04 -1.684150000000000000e+05
-7.286900000000000000e+04 -1.639820000000000000e+05
-8.335600000000000000e+04 -1.614080000000000000e+05
-9.199900000000000000e+04 -1.556280000000000000e+05
-1.021950000000000000e+05 -1.511610000000000000e+05
-1.120840000000000000e+05 -1.440350000000000000e+05
-1.208990000000000000e+05 -1.384940000000000000e+05
-1.286220000000000000e+05 -1.311110000000000000e+05
-1.359020000000000000e+05 -1.227400000000000000e+05
-1.429090000000000000e+05 -1.149480000000000000e+05
-1.507860000000000000e+05 -1.063550000000000000e+05
-1.543320000000000000e+05 -9.684200000000000000e+04
-1.616980000000000000e+05 -8.678200000000000000e+04
-1.653980000000000000e+05 -7.692800000000000000e+04
-1.691660000000000000e+05 -6.511200000000000000e+04
-1.731040000000000000e+05 -5.564900000000000000e+04
-1.755250000000000000e+05 -4.453400000000000000e+04
-1.763090000000000000e+05 -3.556500000000000000e+04
-1.795140000000000000e+05 -2.283000000000000000e+04
-1.782020000000000000e+05 -1.036600000000000000e+04
-1.772470000000000000e+05 8.500000000000000000e+01
-1.770070000000000000e+05 1.007700000000000000e+04
-1.745870000000000000e+05 2.277800000000000000e+04
-1.710230000000000000e+05 3.326400000000000000e+04
-1.689430000000000000e+05 4.501100000000000000e+04
-1.645280000000000000e+05 5.467800000000000000e+04
-1.600600000000000000e+05 6.608400000000000000e+04
-1.547930000000000000e+05 7.469400000000000000e+04
-1.476660000000000000e+05 8.354300000000000000e+04
-1.430960000000000000e+05 9.300500000000000000e+04
-1.357140000000000000e+05 1.032690000000000000e+05
-1.278550000000000000e+05 1.098670000000000000e+05
-1.200450000000000000e+05 1.178470000000000000e+05
-1.123550000000000000e+05 1.251940000000000000e+05
-1.034740000000000000e+05 1.316900000000000000e+05
-9.517000000000000000e+04 1.371800000000000000e+05
-8.572500000000000000e+04 1.430450000000000000e+05
-7.593900000000000000e+04 1.481760000000000000e+05
-6.683500000000000000e+04 1.509220000000000000e+05
-5.524100000000000000e+04 1.557130000000000000e+05
-4.714200000000000000e+04 1.590370000000000000e+05
-3.575300000000000000e+04 1.610490000000000000e+05
-2.487500000000000000e+04 1.614250000000000000e+05
-1.577100000000000000e+04 1.636580000000000000e+05
-5.694000000000000000e+03 1.658230000000000000e+05
5.114000000000000000e+03 1.638630000000000000e+05
1.377500000000000000e+04 1.629940000000000000e+05
2.439800000000000000e+04 1.641530000000000000e+05
3.389500000000000000e+04 1.620380000000000000e+05
4.299900000000000000e+04 1.583040000000000000e+05
5.169500000000000000e+04 1.563100000000000000e+05
6.178800000000000000e+04 1.507520000000000000e+05
6.995400000000000000e+04 1.483480000000000000e+05
7.691000000000000000e+04 1.433520000000000000e+05
8.591300000000000000e+04 1.375390000000000000e+05
9.435200000000000000e+04 1.336850000000000000e+05
1.003530000000000000e+05 1.266440000000000000e+05
1.075310000000000000e+05 1.204550000000000000e+05
1.136690000000000000e+05 1.116060000000000000e+05
1.205570000000000000e+05 1.064740000000000000e+05
1.244270000000000000e+05 9.859800000000000000e+04
1.293540000000000000e+05 9.121500000000000000e+04
1.338900000000000000e+05 8.272400000000000000e+04
1.375900000000000000e+05 7.430200000000000000e+04
1.412200000000000000e+05 6.669800000000000000e+04
1.433360000000000000e+05 5.633100000000000000e+04
1.455520000000000000e+05 4.893200000000000000e+04
1.481260000000000000e+05 3.919700000000000000e+04
1.499340000000000000e+05 3.053700000000000000e+04
1.490640000000000000e+05 2.219900000000000000e+04
1.488250000000000000e+05 1.253200000000000000e+04
1.494390000000000000e+05 3.051000000000000000e+03
1.473420000000000000e+05 -5.557000000000000000e+03
1.444610000000000000e+05 -1.404900000000000000e+04
1.424830000000000000e+05 -2.224900000000000000e+04
1.385270000000000000e+05 -3.128600000000000000e+04
1.381360000000000000e+05 -4.122600000000000000e+04
1.333790000000000000e+05 -4.826700000000000000e+04
1.290480000000000000e+05 -5.616100000000000000e+04
1.242230000000000000e+05 -6.376500000000000000e+04
1.205910000000000000e+05 -7.119800000000000000e+04
1.129360000000000000e+05 -7.934800000000000000e+04
1.108560000000000000e+05 -8.384900000000000000e+04
1.045810000000000000e+05 -9.196500000000000000e+04
9.742100000000000000e+04 -9.805200000000000000e+04
9.073800000000000000e+04 -1.002170000000000000e+05
8.361100000000000000e+04 -1.079920000000000000e+05
7.800200000000000000e+04 -1.138230000000000000e+05
6.954500000000000000e+04 -1.161580000000000000e+05
6.287900000000000000e+04 -1.215290000000000000e+05
5.571800000000000000e+04 -1.251260000000000000e+05
4.806300000000000000e+04 -1.261320000000000000e+05
3.899200000000000000e+04 -1.306330000000000000e+05
3.224000000000000000e+04 -1.307690000000000000e+05
2.419400000000000000e+04 -1.353220000000000000e+05
1.687900000000000000e+04 -1.356290000000000000e+05
8.098000000000000000e+03 -1.359860000000000000e+05
1.159000000000000000e+03 -1.375720000000000000e+05
-4.995000000000000000e+03 -1.367710000000000000e+05
-1.551500000000000000e+04 -1.368220000000000000e+05
-2.098800000000000000e+04 -1.355260000000000000e+05
-2.850600000000000000e+04 -1.345890000000000000e+05
-3.802000000000000000e+04 -1.308040000000000000e+05
-4.281200000000000000e+04 -1.315200000000000000e+05
-5.196700000000000000e+04 -1.280930000000000000e+05
-5.851400000000000000e+04 -1.265080000000000000e+05
-6.502700000000000000e+04 -1.227050000000000000e+05
-7.165900000000000000e+04 -1.180680000000000000e+05
-8.079700000000000000e+04 -1.161240000000000000e+05
-8.400200000000000000e+04 -1.107530000000000000e+05
-9.179400000000000000e+04 -1.060480000000000000e+05
-9.585300000000000000e+04 -1.011550000000000000e+05
-1.027240000000000000e+05 -9.718200000000000000e+04
-1.070700000000000000e+05 -9.055000000000000000e+04
-1.126970000000000000e+05 -8.466800000000000000e+04
-1.175560000000000000e+05 -7.955300000000000000e+04
-1.223130000000000000e+05 -7.269800000000000000e+04
-1.244610000000000000e+05 -6.637400000000000000e+04
-1.281270000000000000e+05 -5.837700000000000000e+04
-1.318280000000000000e+05 -5.058600000000000000e+04
-1.357820000000000000e+05 -4.398800000000000000e+04
-1.367370000000000000e+05 -3.445800000000000000e+04
-1.390900000000000000e+05 -2.755100000000000000e+04
-1.422090000000000000e+05 -1.924800000000000000e+04
-1.424660000000000000e+05 -1.101400000000000000e+04
-1.415110000000000000e+05 -4.260000000000000000e+02
-1.440000000000000000e+05 7.109000000000000000e+03
-1.414600000000000000e+05 1.554900000000000000e+04
-1.426870000000000000e+05 2.606800000000000000e+04
-1.401980000000000000e+05 3.423600000000000000e+04
-1.378630000000000000e+05 4.194200000000000000e+04
-1.360730000000000000e+05 5.232500000000000000e+04
-1.339580000000000000e+05 6.204300000000000000e+04
-1.292520000000000000e+05 6.884600000000000000e+04
-1.242410000000000000e+05 7.928000000000000000e+04
-1.197740000000000000e+05 8.833300000000000000e+04
-1.148970000000000000e+05 9.742100000000000000e+04
-1.093210000000000000e+05 1.044290000000000000e+05
-1.036440000000000000e+05 1.136180000000000000e+05
-9.585300000000000000e+04 1.212900000000000000e+05
-8.737900000000000000e+04 1.270360000000000000e+05
-7.810300000000000000e+04 1.347080000000000000e+05
-7.130100000000000000e+04 1.417840000000000000e+05
-6.236700000000000000e+04 1.469330000000000000e+05
-5.014300000000000000e+04 1.531720000000000000e+05
-4.022000000000000000e+04 1.565490000000000000e+05
-2.959800000000000000e+04 1.597190000000000000e+05
-2.066300000000000000e+04 1.645960000000000000e+05
-7.587000000000000000e+03 1.658580000000000000e+05
2.915000000000000000e+03 1.681250000000000000e+05
1.473100000000000000e+04 1.682450000000000000e+05
2.658000000000000000e+04 1.690290000000000000e+05
3.805400000000000000e+04 1.689270000000000000e+05
5.070500000000000000e+04 1.658750000000000000e+05
6.211200000000000000e+04 1.630440000000000000e+05
7.363600000000000000e+04 1.591910000000000000e+05
8.453200000000000000e+04 1.565310000000000000e+05
9.445500000000000000e+04 1.484160000000000000e+05
1.056210000000000000e+05 1.434710000000000000e+05
1.153240000000000000e+05 1.342480000000000000e+05
1.241720000000000000e+05 1.284680000000000000e+05
1.328840000000000000e+05 1.201310000000000000e+05
1.397550000000000000e+05 1.110940000000000000e+05
1.463530000000000000e+05 1.014450000000000000e+05
1.551340000000000000e+05 8.991800000000000000e+04
1.605210000000000000e+05 7.922800000000000000e+04
1.646470000000000000e+05 6.715800000000000000e+04
1.676660000000000000e+05 5.566600000000000000e+04
1.706320000000000000e+05 4.526600000000000000e+04
1.735120000000000000e+05 3.253100000000000000e+04
1.755070000000000000e+05 2.006800000000000000e+04
1.762060000000000000e+05 8.268000000000000000e+03
1.744680000000000000e+05 -5.729000000000000000e+03
1.736830000000000000e+05 -1.722000000000000000e+04
1.690630000000000000e+05 -2.934300000000000000e+04
1.662160000000000000e+05 -4.274300000000000000e+04
1.640840000000000000e+05 -5.368900000000000000e+04
1.585610000000000000e+05 -6.422600000000000000e+04
1.515700000000000000e+05 -7.595600000000000000e+04
1.462840000000000000e+05 -8.683400000000000000e+04
1.380330000000000000e+05 -9.595500000000000000e+04
1.324400000000000000e+05 -1.062700000000000000e+05
1.231480000000000000e+05 -1.142320000000000000e+05
1.151360000000000000e+05 -1.211370000000000000e+05
1.047180000000000000e+05 -1.308210000000000000e+05
9.592100000000000000e+04 -1.374530000000000000e+05
8.473600000000000000e+04 -1.437270000000000000e+05
7.411400000000000000e+04 -1.483820000000000000e+05
6.499200000000000000e+04 -1.532070000000000000e+05
5.428600000000000000e+04 -1.570770000000000000e+05
4.397000000000000000e+04 -1.614930000000000000e+05
3.104700000000000000e+04 -1.621070000000000000e+05
2.073200000000000000e+04 -1.655170000000000000e+05
1.017800000000000000e+04 -1.645620000000000000e+05
2.550000000000000000e+02 -1.652270000000000000e+05
-1.053700000000000000e+04 -1.646310000000000000e+05
-2.271000000000000000e+04 -1.618170000000000000e+05
-2.995600000000000000e+04 -1.583890000000000000e+05
-4.144700000000000000e+04 -1.569230000000000000e+05
-5.089300000000000000e+04 -1.568050000000000000e+05
-6.047500000000000000e+04 -1.505810000000000000e+05
-6.784000000000000000e+04 -1.447680000000000000e+05
-7.701300000000000000e+04 -1.403170000000000000e+05
-8.465100000000000000e+04 -1.334290000000000000e+05
-9.351700000000000000e+04 -1.274280000000000000e+05
-9.796600000000000000e+04 -1.222790000000000000e+05
-1.048890000000000000e+05 -1.161410000000000000e+05
-1.114010000000000000e+05 -1.070880000000000000e+05
-1.168580000000000000e+05 -9.968900000000000000e+04
-1.215970000000000000e+05 -9.111300000000000000e+04
-1.246490000000000000e+05 -8.511100000000000000e+04
-1.290130000000000000e+05 -7.668900000000000000e+04
-1.310600000000000000e+05 -6.789100000000000000e+04
-1.332940000000000000e+05 -5.935000000000000000e+04
-1.362420000000000000e+05 -5.195000000000000000e+04
-1.375390000000000000e+05 -4.199300000000000000e+04
-1.372660000000000000e+05 -3.398000000000000000e+04
-1.392260000000000000e+05 -2.606900000000000000e+04
-1.393110000000000000e+05 -1.959000000000000000e+04
-1.372830000000000000e+05 -1.133800000000000000e+04
-1.355440000000000000e+05 -3.649000000000000000e+03
-1.337030000000000000e+05 4.194000000000000000e+03
-1.328330000000000000e+05 1.106500000000000000e+04
-1.287930000000000000e+05 1.832800000000000000e+04
-1.281950000000000000e+05 2.637500000000000000e+04
-1.241890000000000000e+05 3.140500000000000000e+04
-1.218690000000000000e+05 3.909500000000000000e+04
-1.184090000000000000e+05 4.386800000000000000e+04
-1.146580000000000000e+05 5.075600000000000000e+04
-1.097300000000000000e+05 5.561600000000000000e+04
-1.072930000000000000e+05 6.195800000000000000e+04
-1.018370000000000000e+05 6.709000000000000000e+04
-9.570000000000000000e+04 7.136900000000000000e+04
-9.240800000000000000e+04 7.449000000000000000e+04
-8.696900000000000000e+04 7.892200000000000000e+04
-8.292900000000000000e+04 8.400300000000000000e+04
-7.801900000000000000e+04 8.787300000000000000e+04
-7.237600000000000000e+04 9.020900000000000000e+04
-6.652700000000000000e+04 9.208400000000000000e+04
-6.236700000000000000e+04 9.537500000000000000e+04
-5.737200000000000000e+04 9.764300000000000000e+04
-5.220600000000000000e+04 9.989300000000000000e+04
-4.586400000000000000e+04 1.019220000000000000e+05
-4.180600000000000000e+04 1.045990000000000000e+05
-3.701400000000000000e+04 1.046160000000000000e+05
-3.297300000000000000e+04 1.055710000000000000e+05
-2.641000000000000000e+04 1.072070000000000000e+05
-2.172100000000000000e+04 1.077190000000000000e+05
-1.546400000000000000e+04 1.089300000000000000e+05
-1.157700000000000000e+04 1.098330000000000000e+05
-4.876000000000000000e+03 1.097820000000000000e+05
-8.700000000000000000e+02 1.081960000000000000e+05
4.109000000000000000e+03 1.078380000000000000e+05
8.234000000000000000e+03 1.086730000000000000e+05
1.295700000000000000e+04 1.095950000000000000e+05
1.895900000000000000e+04 1.078210000000000000e+05
2.305100000000000000e+04 1.075320000000000000e+05
2.954700000000000000e+04 1.053660000000000000e+05
3.399700000000000000e+04 1.038150000000000000e+05
3.877000000000000000e+04 1.028080000000000000e+05
4.241800000000000000e+04 1.022450000000000000e+05
4.707400000000000000e+04 9.951800000000000000e+04
5.143800000000000000e+04 9.742100000000000000e+04
5.701300000000000000e+04 9.448800000000000000e+04
6.042300000000000000e+04 9.206700000000000000e+04
6.628900000000000000e+04 9.044800000000000000e+04
6.980100000000000000e+04 8.659400000000000000e+04
7.346700000000000000e+04 8.471800000000000000e+04
7.777900000000000000e+04 8.110400000000000000e+04
8.095100000000000000e+04 7.696100000000000000e+04
8.587800000000000000e+04 7.258000000000000000e+04
8.993600000000000000e+04 7.031200000000000000e+04
9.380600000000000000e+04 6.780600000000000000e+04
9.858000000000000000e+04 6.170300000000000000e+04
1.005410000000000000e+05 5.742300000000000000e+04
1.032850000000000000e+05 5.351800000000000000e+04
1.077700000000000000e+05 4.749900000000000000e+04
1.110260000000000000e+05 4.189100000000000000e+04
1.126970000000000000e+05 3.665700000000000000e+04
1.150160000000000000e+05 3.324600000000000000e+04
1.172660000000000000e+05 2.620500000000000000e+04
1.197040000000000000e+05 1.914600000000000000e+04
1.221770000000000000e+05 1.370800000000000000e+04
1.214440000000000000e+05 7.382000000000000000e+03
1.239500000000000000e+05 8.530000000000000000e+02
1.242740000000000000e+05 -5.559000000000000000e+03
1.253990000000000000e+05 -1.352000000000000000e+04
1.248870000000000000e+05 -1.897600000000000000e+04
1.244950000000000000e+05 -2.562600000000000000e+04
1.222790000000000000e+05 -3.496800000000000000e+04
1.211030000000000000e+05 -4.202700000000000000e+04
1.195510000000000000e+05 -4.729600000000000000e+04
1.216140000000000000e+05 -6.378200000000000000e+04
1.147260000000000000e+05 -6.269100000000000000e+04
1.124750000000000000e+05 -7.082400000000000000e+04
1.072760000000000000e+05 -7.546100000000000000e+04
1.040530000000000000e+05 -8.330400000000000000e+04
1.004720000000000000e+05 -9.077200000000000000e+04
9.583500000000000000e+04 -9.718300000000000000e+04
8.876000000000000000e+04 -1.020070000000000000e+05
8.294600000000000000e+04 -1.078730000000000000e+05
7.598900000000000000e+04 -1.124760000000000000e+05
7.036400000000000000e+04 -1.172840000000000000e+05
6.304900000000000000e+04 -1.223470000000000000e+05
5.616100000000000000e+04 -1.272410000000000000e+05
4.739700000000000000e+04 -1.301730000000000000e+05
4.085000000000000000e+04 -1.335150000000000000e+05
3.144000000000000000e+04 -1.355100000000000000e+05
2.271000000000000000e+04 -1.372490000000000000e+05
1.379300000000000000e+04 -1.397720000000000000e+05
4.808000000000000000e+03 -1.394130000000000000e+05
-1.824000000000000000e+03 -1.394990000000000000e+05
-1.142400000000000000e+04 -1.388520000000000000e+05
-2.054500000000000000e+04 -1.372320000000000000e+05
-2.860900000000000000e+04 -1.360720000000000000e+05
-3.652000000000000000e+04 -1.341800000000000000e+05
-4.323800000000000000e+04 -1.319980000000000000e+05
-5.215400000000000000e+04 -1.284850000000000000e+05
-5.975900000000000000e+04 -1.239160000000000000e+05
-6.811300000000000000e+04 -1.194150000000000000e+05
-7.370500000000000000e+04 -1.168400000000000000e+05
-7.986000000000000000e+04 -1.099520000000000000e+05
-8.640700000000000000e+04 -1.034560000000000000e+05
-9.092600000000000000e+04 -9.750700000000000000e+04
-9.699500000000000000e+04 -9.189700000000000000e+04
-1.006090000000000000e+05 -8.613400000000000000e+04
-1.059960000000000000e+05 -7.904200000000000000e+04
-1.089130000000000000e+05 -7.099300000000000000e+04
-1.132430000000000000e+05 -6.477100000000000000e+04
-1.181530000000000000e+05 -5.667200000000000000e+04
-1.195520000000000000e+05 -4.893300000000000000e+04
-1.193460000000000000e+05 -4.190700000000000000e+04
-1.197900000000000000e+05 -3.324700000000000000e+04
-1.202160000000000000e+05 -2.712600000000000000e+04
-1.212730000000000000e+05 -1.958900000000000000e+04
-1.207450000000000000e+05 -1.094600000000000000e+04
-1.202670000000000000e+05 -5.643000000000000000e+03
-1.196190000000000000e+05 2.148000000000000000e+03
-1.187500000000000000e+05 8.269000000000000000e+03
-1.170110000000000000e+05 1.619700000000000000e+04
-1.147780000000000000e+05 2.388700000000000000e+04
-1.100720000000000000e+05 2.951300000000000000e+04
-1.064410000000000000e+05 3.517300000000000000e+04
-1.034730000000000000e+05 3.993000000000000000e+04
-9.980800000000000000e+04 4.465300000000000000e+04
-9.552800000000000000e+04 5.126800000000000000e+04
-9.171000000000000000e+04 5.445600000000000000e+04
-8.690200000000000000e+04 6.100300000000000000e+04
-8.166800000000000000e+04 6.357800000000000000e+04
-7.735300000000000000e+04 6.622000000000000000e+04
-7.280100000000000000e+04 7.024400000000000000e+04
-6.552200000000000000e+04 7.333000000000000000e+04
-6.253800000000000000e+04 7.590400000000000000e+04
-5.726900000000000000e+04 7.527400000000000000e+04
-5.128500000000000000e+04 7.795000000000000000e+04
-4.739800000000000000e+04 7.926300000000000000e+04
-4.126000000000000000e+04 8.047400000000000000e+04
-3.737300000000000000e+04 8.027000000000000000e+04
-3.253100000000000000e+04 8.071200000000000000e+04
-2.550600000000000000e+04 8.144600000000000000e+04
-2.156800000000000000e+04 7.982600000000000000e+04
-1.696500000000000000e+04 7.962100000000000000e+04
-1.415100000000000000e+04 7.835900000000000000e+04
-1.021300000000000000e+04 7.914400000000000000e+04
-5.439000000000000000e+03 7.645000000000000000e+04
-2.575000000000000000e+03 7.529100000000000000e+04
1.398000000000000000e+03 7.288600000000000000e+04
6.905000000000000000e+03 -7.157300000000000000e+04
-1.062200000000000000e+04 4.808000000000000000e+03
-1.161100000000000000e+04 2.473000000000000000e+03
-1.237800000000000000e+04 3.188000000000000000e+03
-1.099700000000000000e+04 2.831000000000000000e+03
-1.065600000000000000e+04 -8.700000000000000000e+02
-1.058800000000000000e+04 1.870000000000000000e+02
-7.604000000000000000e+03 -1.075000000000000000e+03
-7.672000000000000000e+03 -1.313000000000000000e+03
-4.962000000000000000e+03 -8.870000000000000000e+02
-3.836000000000000000e+03 -6.310000000000000000e+02
-4.279000000000000000e+03 2.720000000000000000e+02
-3.154000000000000000e+03 6.650000000000000000e+02
-1.893000000000000000e+03 2.387000000000000000e+03
-1.995000000000000000e+03 1.603000000000000000e+03
-2.217000000000000000e+03 5.030000000000000000e+03
-2.387000000000000000e+03 5.575000000000000000e+03
-3.154000000000000000e+03 4.620000000000000000e+03
-5.319000000000000000e+03 4.399000000000000000e+03
-4.722000000000000000e+03 6.445000000000000000e+03
-5.728000000000000000e+03 7.792000000000000000e+03
-6.189000000000000000e+03 7.877000000000000000e+03
-8.150000000000000000e+03 9.139000000000000000e+03
-7.042000000000000000e+03 8.661000000000000000e+03
-7.793000000000000000e+03 8.372000000000000000e+03
-8.593000000000000000e+03 8.269000000000000000e+03
-9.122000000000000000e+03 7.639000000000000000e+03
-9.429000000000000000e+03 7.570000000000000000e+03
-9.104000000000000000e+03 5.950000000000000000e+03
-7.621000000000000000e+03 7.587000000000000000e+03
-8.593000000000000000e+03 6.410000000000000000e+03
-4.024000000000000000e+03 6.939000000000000000e+03
-4.689000000000000000e+03 8.355000000000000000e+03
-3.547000000000000000e+03 7.707000000000000000e+03
-9.720000000000000000e+02 4.126000000000000000e+03
3.973000000000000000e+03 8.729000000000000000e+03
6.939000000000000000e+03 1.399800000000000000e+04
5.507000000000000000e+03 1.348700000000000000e+04
3.802000000000000000e+03 1.406600000000000000e+04
4.825000000000000000e+03 1.438900000000000000e+04
6.104000000000000000e+03 1.553200000000000000e+04
6.854000000000000000e+03 1.693000000000000000e+04
6.325000000000000000e+03 1.517400000000000000e+04
6.837000000000000000e+03 1.454300000000000000e+04
6.905000000000000000e+03 1.556600000000000000e+04
6.291000000000000000e+03 1.408300000000000000e+04
7.519000000000000000e+03 1.389500000000000000e+04
9.650000000000000000e+03 1.283900000000000000e+04
9.803000000000000000e+03 1.331600000000000000e+04
9.514000000000000000e+03 1.196900000000000000e+04
1.133800000000000000e+04 1.118500000000000000e+04
1.220700000000000000e+04 1.043500000000000000e+04
1.198600000000000000e+04 8.985000000000000000e+03
1.447500000000000000e+04 7.655000000000000000e+03
1.606100000000000000e+04 6.104000000000000000e+03
1.534400000000000000e+04 6.240000000000000000e+03
1.641800000000000000e+04 5.525000000000000000e+03
1.921500000000000000e+04 4.075000000000000000e+03
1.996500000000000000e+04 2.932000000000000000e+03
2.097100000000000000e+04 3.256000000000000000e+03
2.158500000000000000e+04 2.268000000000000000e+03
2.115900000000000000e+04 2.711000000000000000e+03
2.344300000000000000e+04 1.534000000000000000e+03
2.349400000000000000e+04 2.234000000000000000e+03
2.393700000000000000e+04 3.750000000000000000e+02
2.463600000000000000e+04 -1.540000000000000000e+02
2.347700000000000000e+04 -6.990000000000000000e+02
2.369800000000000000e+04 -1.108000000000000000e+03
2.303400000000000000e+04 -3.836000000000000000e+03
2.218100000000000000e+04 -2.796000000000000000e+03
2.122700000000000000e+04 -6.649000000000000000e+03
2.252200000000000000e+04 -7.109000000000000000e+03
2.233500000000000000e+04 -9.854000000000000000e+03
2.236900000000000000e+04 -1.191700000000000000e+04
2.086800000000000000e+04 -1.389600000000000000e+04
2.131200000000000000e+04 -1.527600000000000000e+04
2.143200000000000000e+04 -1.737400000000000000e+04
2.163600000000000000e+04 -1.838000000000000000e+04
2.018700000000000000e+04 -2.102200000000000000e+04
1.928200000000000000e+04 -2.225000000000000000e+04
1.940200000000000000e+04 -2.525000000000000000e+04
1.826000000000000000e+04 -2.652900000000000000e+04
1.696500000000000000e+04 -2.796100000000000000e+04
1.570200000000000000e+04 -2.838700000000000000e+04
1.305900000000000000e+04 -3.045000000000000000e+04
1.157600000000000000e+04 -3.149100000000000000e+04
1.048500000000000000e+04 -3.125200000000000000e+04
7.706000000000000000e+03 -3.290600000000000000e+04
5.030000000000000000e+03 -3.360500000000000000e+04
1.739000000000000000e+03 -3.529300000000000000e+04
-1.262000000000000000e+03 -3.602600000000000000e+04
-5.201000000000000000e+03 -3.432000000000000000e+04
-7.673000000000000000e+03 -3.624700000000000000e+04
-1.082700000000000000e+04 -3.689500000000000000e+04
-1.449200000000000000e+04 -3.571900000000000000e+04
-1.793700000000000000e+04 -3.387800000000000000e+04
-2.197700000000000000e+04 -3.585500000000000000e+04
-2.415900000000000000e+04 -3.650300000000000000e+04
-2.617100000000000000e+04 -3.503700000000000000e+04
-3.002400000000000000e+04 -3.454300000000000000e+04
-3.174700000000000000e+04 -3.125100000000000000e+04
-3.542900000000000000e+04 -3.099600000000000000e+04
-3.645200000000000000e+04 -2.773900000000000000e+04
-3.965700000000000000e+04 -2.620500000000000000e+04
-4.168700000000000000e+04 -2.583000000000000000e+04
-4.190800000000000000e+04 -2.165300000000000000e+04
-4.380000000000000000e+04 -1.931700000000000000e+04
-4.676700000000000000e+04 -1.541300000000000000e+04
-4.884700000000000000e+04 -1.437200000000000000e+04
-4.790900000000000000e+04 -9.957000000000000000e+03
-4.910300000000000000e+04 -7.008000000000000000e+03
-5.002300000000000000e+04 -4.058000000000000000e+03
-5.048400000000000000e+04 -1.006000000000000000e+03
-4.772200000000000000e+04 3.137000000000000000e+03
-4.934100000000000000e+04 5.831000000000000000e+03
-4.813100000000000000e+04 8.661000000000000000e+03
-4.726100000000000000e+04 1.360600000000000000e+04
-4.281100000000000000e+04 1.786800000000000000e+04
-2.613700000000000000e+04 5.588800000000000000e+04
-5.841200000000000000e+04 9.292000000000000000e+03
-4.680200000000000000e+04 1.943600000000000000e+04
-4.400500000000000000e+04 2.313600000000000000e+04
-4.436400000000000000e+04 2.593300000000000000e+04
-3.861800000000000000e+04 2.794400000000000000e+04
-3.670800000000000000e+04 3.227500000000000000e+04
-3.500300000000000000e+04 3.341700000000000000e+04
-3.198500000000000000e+04 3.716800000000000000e+04
-2.784200000000000000e+04 3.762900000000000000e+04
-2.571100000000000000e+04 4.127700000000000000e+04
-2.228400000000000000e+04 4.323700000000000000e+04
-1.996600000000000000e+04 4.289600000000000000e+04
-1.778300000000000000e+04 4.438000000000000000e+04
-1.427000000000000000e+04 4.478900000000000000e+04
-1.075900000000000000e+04 4.453300000000000000e+04
-6.565000000000000000e+03 4.617000000000000000e+04
-4.774000000000000000e+03 4.523200000000000000e+04
-3.240000000000000000e+03 4.721000000000000000e+04
8.500000000000000000e+01 4.657900000000000000e+04
2.540000000000000000e+03 4.439700000000000000e+04
5.626000000000000000e+03 4.576000000000000000e+04
8.951000000000000000e+03 4.305000000000000000e+04
1.232700000000000000e+04 4.504400000000000000e+04
1.334900000000000000e+04 4.361300000000000000e+04
1.544700000000000000e+04 4.288000000000000000e+04
1.897600000000000000e+04 4.081700000000000000e+04
2.040800000000000000e+04 4.016900000000000000e+04
2.288000000000000000e+04 3.846400000000000000e+04
2.666500000000000000e+04 3.817400000000000000e+04
2.772200000000000000e+04 3.476400000000000000e+04
3.080800000000000000e+04 3.498600000000000000e+04
3.016100000000000000e+04 3.346800000000000000e+04
3.379200000000000000e+04 3.181400000000000000e+04
3.660600000000000000e+04 3.068900000000000000e+04
3.800400000000000000e+04 2.833600000000000000e+04
4.032200000000000000e+04 2.509700000000000000e+04
4.131000000000000000e+04 2.407400000000000000e+04
4.282800000000000000e+04 2.190900000000000000e+04
4.530000000000000000e+04 1.843000000000000000e+04
4.690300000000000000e+04 1.906200000000000000e+04
4.656200000000000000e+04 1.565100000000000000e+04
4.819900000000000000e+04 1.413400000000000000e+04
4.894900000000000000e+04 1.074100000000000000e+04
4.990400000000000000e+04 9.121000000000000000e+03
4.961400000000000000e+04 6.769000000000000000e+03
4.944300000000000000e+04 4.893000000000000000e+03
5.121700000000000000e+04 1.893000000000000000e+03
5.157500000000000000e+04 -6.650000000000000000e+02
5.063700000000000000e+04 -4.075000000000000000e+03
5.155700000000000000e+04 -6.223000000000000000e+03
5.210300000000000000e+04 -7.775000000000000000e+03
5.058500000000000000e+04 -1.099700000000000000e+04
4.886400000000000000e+04 -1.391300000000000000e+04
4.881300000000000000e+04 -1.590700000000000000e+04
4.840400000000000000e+04 -1.844800000000000000e+04
4.811400000000000000e+04 -2.013600000000000000e+04
4.681700000000000000e+04 -2.235200000000000000e+04
4.434500000000000000e+04 -2.468800000000000000e+04
4.398800000000000000e+04 -2.797900000000000000e+04
4.374800000000000000e+04 -2.883000000000000000e+04
4.100400000000000000e+04 -3.036500000000000000e+04
4.004900000000000000e+04 -3.355300000000000000e+04
3.733900000000000000e+04 -3.457700000000000000e+04
3.594100000000000000e+04 -3.553100000000000000e+04
3.466200000000000000e+04 -3.832700000000000000e+04
3.215600000000000000e+04 -4.153200000000000000e+04
3.055300000000000000e+04 -4.153200000000000000e+04
2.785800000000000000e+04 -4.536900000000000000e+04
2.499400000000000000e+04 -4.547000000000000000e+04
2.441400000000000000e+04 -4.738000000000000000e+04
2.064700000000000000e+04 -4.722700000000000000e+04
1.761200000000000000e+04 -4.920400000000000000e+04
1.502100000000000000e+04 -4.932400000000000000e+04
1.234400000000000000e+04 -5.067100000000000000e+04
9.616000000000000000e+03 -5.285300000000000000e+04
4.876000000000000000e+03 -5.309300000000000000e+04
2.933000000000000000e+03 -5.495100000000000000e+04
-4.260000000000000000e+02 -5.551300000000000000e+04
-4.740000000000000000e+03 -5.609300000000000000e+04
-8.764000000000000000e+03 -5.643400000000000000e+04
-9.872000000000000000e+03 -5.660400000000000000e+04
-1.517400000000000000e+04 -5.662200000000000000e+04
-1.834500000000000000e+04 -5.645100000000000000e+04
-2.274400000000000000e+04 -5.699600000000000000e+04
-2.728000000000000000e+04 -5.554800000000000000e+04
-2.978600000000000000e+04 -5.467800000000000000e+04
-3.394500000000000000e+04 -5.454100000000000000e+04
-3.986200000000000000e+04 -5.258100000000000000e+04
-4.281100000000000000e+04 -4.995400000000000000e+04
-4.731300000000000000e+04 -4.929000000000000000e+04
-5.167800000000000000e+04 -4.755100000000000000e+04
-5.518900000000000000e+04 -4.548800000000000000e+04
-5.897400000000000000e+04 -4.299900000000000000e+04
-6.267500000000000000e+04 -4.054400000000000000e+04
-6.454900000000000000e+04 -3.631600000000000000e+04
-7.036300000000000000e+04 -3.266700000000000000e+04
-7.269900000000000000e+04 -2.878000000000000000e+04
-7.539300000000000000e+04 -2.596600000000000000e+04
-7.766100000000000000e+04 -1.981200000000000000e+04
-8.047400000000000000e+04 -1.831100000000000000e+04
-8.282700000000000000e+04 -1.162800000000000000e+04
-8.202500000000000000e+04 -8.968000000000000000e+03
-8.437800000000000000e+04 -3.614000000000000000e+03
-8.621900000000000000e+04 1.296000000000000000e+03
-8.673100000000000000e+04 6.991000000000000000e+03
-8.799300000000000000e+04 1.190100000000000000e+04
-6.651000000000000000e+04 -5.021000000000000000e+04
-7.157400000000000000e+04 -4.732900000000000000e+04
-7.520500000000000000e+04 -4.400400000000000000e+04
-7.866700000000000000e+04 -3.929900000000000000e+04
-8.166800000000000000e+04 -3.541200000000000000e+04
-8.550400000000000000e+04 -3.143900000000000000e+04
-9.027700000000000000e+04 -2.704000000000000000e+04
-9.027700000000000000e+04 -2.262500000000000000e+04
-9.315900000000000000e+04 -1.739000000000000000e+04
-9.358500000000000000e+04 -1.183200000000000000e+04
-9.610900000000000000e+04 -7.996000000000000000e+03
-9.864900000000000000e+04 -3.035000000000000000e+03
-9.950200000000000000e+04 2.983000000000000000e+03
-9.943300000000000000e+04 8.815000000000000000e+03
-9.803600000000000000e+04 1.282200000000000000e+04
-1.000130000000000000e+05 1.834500000000000000e+04
-9.747200000000000000e+04 2.545500000000000000e+04
-9.728500000000000000e+04 3.074100000000000000e+04
-9.542600000000000000e+04 3.294000000000000000e+04
-9.312400000000000000e+04 4.182200000000000000e+04
-8.978300000000000000e+04 4.593100000000000000e+04
-8.826500000000000000e+04 5.237600000000000000e+04
-8.451400000000000000e+04 5.738900000000000000e+04
-8.086600000000000000e+04 6.333900000000000000e+04
-7.677400000000000000e+04 6.748200000000000000e+04
-7.068700000000000000e+04 7.051700000000000000e+04
-6.797600000000000000e+04 7.742200000000000000e+04
-6.458400000000000000e+04 7.938200000000000000e+04
-5.776400000000000000e+04 8.321900000000000000e+04
-5.155700000000000000e+04 8.550300000000000000e+04
-4.714300000000000000e+04 8.889600000000000000e+04
-3.885600000000000000e+04 9.297100000000000000e+04
-3.312700000000000000e+04 9.373900000000000000e+04
-2.598400000000000000e+04 9.796700000000000000e+04
-1.875400000000000000e+04 9.916100000000000000e+04
-1.260000000000000000e+04 9.934800000000000000e+04
-4.127000000000000000e+03 1.012230000000000000e+05
2.404000000000000000e+03 1.010180000000000000e+05
8.592000000000000000e+03 9.912600000000000000e+04
1.732200000000000000e+04 9.858100000000000000e+04
2.557400000000000000e+04 9.798400000000000000e+04
3.051800000000000000e+04 9.563100000000000000e+04
3.866800000000000000e+04 9.525600000000000000e+04
4.506100000000000000e+04 9.065300000000000000e+04
5.072200000000000000e+04 8.916900000000000000e+04
5.786600000000000000e+04 8.540100000000000000e+04
6.328800000000000000e+04 8.221300000000000000e+04
6.997200000000000000e+04 7.599000000000000000e+04
7.426700000000000000e+04 7.165900000000000000e+04
7.909200000000000000e+04 6.857300000000000000e+04
8.405400000000000000e+04 6.359500000000000000e+04
8.640700000000000000e+04 5.755900000000000000e+04
9.078900000000000000e+04 5.261500000000000000e+04
9.339700000000000000e+04 4.658000000000000000e+04
9.646600000000000000e+04 4.369800000000000000e+04
9.800000000000000000e+04 3.469600000000000000e+04
1.005920000000000000e+05 2.976900000000000000e+04
1.043600000000000000e+05 2.400600000000000000e+04
1.043940000000000000e+05 1.999900000000000000e+04
1.042750000000000000e+05 1.321300000000000000e+04
1.042240000000000000e+05 7.468000000000000000e+03
1.042750000000000000e+05 1.160000000000000000e+03
1.039170000000000000e+05 -3.307000000000000000e+03
1.023310000000000000e+05 -8.081000000000000000e+03
1.034910000000000000e+05 -1.391300000000000000e+04
1.006260000000000000e+05 -1.701500000000000000e+04
1.009160000000000000e+05 -2.233500000000000000e+04
9.617600000000000000e+04 -2.610300000000000000e+04
9.726700000000000000e+04 -3.048500000000000000e+04
9.196500000000000000e+04 -3.461000000000000000e+04
9.174400000000000000e+04 -3.865100000000000000e+04
8.792400000000000000e+04 -4.260600000000000000e+04
8.431000000000000000e+04 -4.741500000000000000e+04
7.986000000000000000e+04 -5.019400000000000000e+04
7.798400000000000000e+04 -5.278600000000000000e+04
7.350000000000000000e+04 -5.694500000000000000e+04
