8.415600000000000000e+04 -5.691100000000000000e+04
8.170200000000000000e+04 -6.368000000000000000e+04
7.921200000000000000e+04 -6.945900000000000000e+04
7.650100000000000000e+04 -7.529100000000000000e+04
7.285200000000000000e+04 -8.127500000000000000e+04
7.063600000000000000e+04 -8.642400000000000000e+04
6.449900000000000000e+04 -9.421500000000000000e+04
5.892300000000000000e+04 -9.808500000000000000e+04
5.363700000000000000e+04 -1.035930000000000000e+05
4.727800000000000000e+04 -1.088610000000000000e+05
4.173700000000000000e+04 -1.123900000000000000e+05
3.421800000000000000e+04 -1.174710000000000000e+05
2.794500000000000000e+04 -1.224840000000000000e+05
2.034000000000000000e+04 -1.252620000000000000e+05
1.207200000000000000e+04 -1.269850000000000000e+05
5.148000000000000000e+03 -1.294910000000000000e+05
-4.672000000000000000e+03 -1.306330000000000000e+05
-1.212300000000000000e+04 -1.334290000000000000e+05
-2.013600000000000000e+04 -1.335150000000000000e+05
-2.889900000000000000e+04 -1.344870000000000000e+05
-3.803800000000000000e+04 -1.322540000000000000e+05
-4.840400000000000000e+04 -1.312130000000000000e+05
-5.629700000000000000e+04 -1.304630000000000000e+05
-6.482200000000000000e+04 -1.271390000000000000e+05
-7.462600000000000000e+04 -1.251090000000000000e+05
-8.226400000000000000e+04 -1.185800000000000000e+05
-8.954400000000000000e+04 -1.139590000000000000e+05
-9.829100000000000000e+04 -1.084350000000000000e+05
-1.047870000000000000e+05 -1.034060000000000000e+05
-1.129360000000000000e+05 -9.542700000000000000e+04
-1.174550000000000000e+05 -8.828200000000000000e+04
-1.249050000000000000e+05 -8.170100000000000000e+04
-1.307190000000000000e+05 -7.377300000000000000e+04
-1.344020000000000000e+05 -6.456600000000000000e+04
-1.375720000000000000e+05 -5.609300000000000000e+04
-1.410160000000000000e+05 -4.582900000000000000e+04
-1.440690000000000000e+05 -3.689500000000000000e+04
-1.472230000000000000e+05 -2.589800000000000000e+04
-1.488590000000000000e+05 -1.662400000000000000e+04
-1.476830000000000000e+05 -6.888000000000000000e+03
-1.505470000000000000e+05 4.143000000000000000e+03
-1.468990000000000000e+05 1.285500000000000000e+04
-1.473930000000000000e+05 2.386900000000000000e+04
-1.427730000000000000e+05 3.384300000000000000e+04
-1.397550000000000000e+05 4.289700000000000000e+04
-1.367710000000000000e+05 5.319400000000000000e+04
-1.332940000000000000e+05 6.083300000000000000e+04
-1.289460000000000000e+05 7.072100000000000000e+04
-1.222790000000000000e+05 8.047300000000000000e+04
-1.159720000000000000e+05 8.794100000000000000e+04
-1.101400000000000000e+05 9.566500000000000000e+04
-1.040700000000000000e+05 1.028260000000000000e+05
-9.639900000000000000e+04 1.107190000000000000e+05
-8.806100000000000000e+04 1.158340000000000000e+05
-8.142900000000000000e+04 1.220570000000000000e+05
-7.247700000000000000e+04 1.264050000000000000e+05
-6.417500000000000000e+04 1.310420000000000000e+05
-5.513900000000000000e+04 1.358510000000000000e+05
-4.548800000000000000e+04 1.385620000000000000e+05
-3.583800000000000000e+04 1.402500000000000000e+05
-2.722800000000000000e+04 1.417500000000000000e+05
-1.742500000000000000e+04 1.440680000000000000e+05
-9.190000000000000000e+03 1.444770000000000000e+05
5.450000000000000000e+02 1.452280000000000000e+05
9.854000000000000000e+03 1.440690000000000000e+05
1.786800000000000000e+04 1.431480000000000000e+05
2.710800000000000000e+04 1.408970000000000000e+05
3.488300000000000000e+04 1.359870000000000000e+05
4.333900000000000000e+04 1.345370000000000000e+05
5.189900000000000000e+04 1.306850000000000000e+05
6.003100000000000000e+04 1.267120000000000000e+05
6.618600000000000000e+04 1.220230000000000000e+05
7.249400000000000000e+04 1.177600000000000000e+05
7.953500000000000000e+04 1.125950000000000000e+05
8.637300000000000000e+04 1.074120000000000000e+05
9.251100000000000000e+04 1.009330000000000000e+05
9.576700000000000000e+04 9.435200000000000000e+04
1.003200000000000000e+05 8.930600000000000000e+04
1.067300000000000000e+05 8.391800000000000000e+04
1.104980000000000000e+05 7.455700000000000000e+04
1.145220000000000000e+05 6.806200000000000000e+04
1.171640000000000000e+05 6.105400000000000000e+04
1.192440000000000000e+05 5.275100000000000000e+04
1.205570000000000000e+05 4.603400000000000000e+04
1.249210000000000000e+05 3.909500000000000000e+04
1.240180000000000000e+05 3.142300000000000000e+04
1.266270000000000000e+05 2.458500000000000000e+04
1.254670000000000000e+05 1.640100000000000000e+04
1.272910000000000000e+05 8.098000000000000000e+03
1.257060000000000000e+05 2.200000000000000000e+03
1.245460000000000000e+05 -5.150000000000000000e+03
1.252460000000000000e+05 -1.155900000000000000e+04
1.223640000000000000e+05 -1.989700000000000000e+04
1.217160000000000000e+05 -2.661400000000000000e+04
1.196020000000000000e+05 -3.288800000000000000e+04
1.159710000000000000e+05 -3.982800000000000000e+04
1.138050000000000000e+05 -4.767100000000000000e+04
1.100880000000000000e+05 -5.440500000000000000e+04
1.082300000000000000e+05 -5.958800000000000000e+04
1.057590000000000000e+05 -6.512900000000000000e+04
9.851200000000000000e+04 -7.293800000000000000e+04
9.547700000000000000e+04 -7.766000000000000000e+04
9.155600000000000000e+04 -8.330400000000000000e+04
8.402000000000000000e+04 -8.904900000000000000e+04
8.173500000000000000e+04 -9.355100000000000000e+04
7.674000000000000000e+04 -9.941600000000000000e+04
6.906700000000000000e+04 -1.016490000000000000e+05
6.405400000000000000e+04 -1.065250000000000000e+05
5.851400000000000000e+04 -1.088100000000000000e+05
5.091000000000000000e+04 -1.132430000000000000e+05
4.606700000000000000e+04 -1.161240000000000000e+05
3.805400000000000000e+04 -1.196880000000000000e+05
3.143900000000000000e+04 -1.221770000000000000e+05
2.525000000000000000e+04 -1.248700000000000000e+05
1.802100000000000000e+04 -1.257410000000000000e+05
1.007600000000000000e+04 -1.273610000000000000e+05
2.983000000000000000e+03 -1.286900000000000000e+05
-4.570000000000000000e+03 -1.309060000000000000e+05
-1.222500000000000000e+04 -1.306170000000000000e+05
-2.011900000000000000e+04 -1.301050000000000000e+05
-2.704100000000000000e+04 -1.298840000000000000e+05
-3.391100000000000000e+04 -1.284340000000000000e+05
-4.221400000000000000e+04 -1.277180000000000000e+05
-4.929000000000000000e+04 -1.257910000000000000e+05
-5.805400000000000000e+04 -1.223640000000000000e+05
-6.449900000000000000e+04 -1.181370000000000000e+05
-7.281800000000000000e+04 -1.175740000000000000e+05
-7.883700000000000000e+04 -1.127990000000000000e+05
-8.620200000000000000e+04 -1.086570000000000000e+05
-9.234000000000000000e+04 -1.037120000000000000e+05
-9.771100000000000000e+04 -9.878500000000000000e+04
-1.051780000000000000e+05 -9.223800000000000000e+04
-1.124580000000000000e+05 -8.712300000000000000e+04
-1.166360000000000000e+05 -8.009800000000000000e+04
-1.231150000000000000e+05 -7.304100000000000000e+04
-1.286390000000000000e+05 -6.654400000000000000e+04
-1.314350000000000000e+05 -5.897500000000000000e+04
-1.358160000000000000e+05 -5.079100000000000000e+04
-1.412380000000000000e+05 -4.170400000000000000e+04
-1.415630000000000000e+05 -3.449100000000000000e+04
-1.447500000000000000e+05 -2.260800000000000000e+04
-1.483310000000000000e+05 -1.418500000000000000e+04
-1.485870000000000000e+05 -5.729000000000000000e+03
-1.490810000000000000e+05 5.183000000000000000e+03
-1.501210000000000000e+05 1.374200000000000000e+04
-1.484160000000000000e+05 2.306800000000000000e+04
-1.473590000000000000e+05 3.264900000000000000e+04
-1.466430000000000000e+05 4.378300000000000000e+04
-1.453300000000000000e+05 5.285300000000000000e+04
-1.409320000000000000e+05 6.211100000000000000e+04
-1.364130000000000000e+05 7.087500000000000000e+04
-1.328670000000000000e+05 8.115600000000000000e+04
-1.276840000000000000e+05 9.063600000000000000e+04
-1.215460000000000000e+05 9.943200000000000000e+04
-1.170630000000000000e+05 1.082300000000000000e+05
-1.079070000000000000e+05 1.146240000000000000e+05
-1.012910000000000000e+05 1.245460000000000000e+05
-9.409600000000000000e+04 1.314350000000000000e+05
-8.603200000000000000e+04 1.381520000000000000e+05
-7.593900000000000000e+04 1.436590000000000000e+05
-6.509600000000000000e+04 1.501550000000000000e+05
-5.779900000000000000e+04 1.546730000000000000e+05
-4.687000000000000000e+04 1.604020000000000000e+05
-3.558200000000000000e+04 1.626010000000000000e+05
-2.583000000000000000e+04 1.663520000000000000e+05
-1.452600000000000000e+04 1.682280000000000000e+05
-4.178000000000000000e+03 1.706990000000000000e+05
7.041000000000000000e+03 1.707680000000000000e+05
1.802100000000000000e+04 1.723710000000000000e+05
2.975100000000000000e+04 1.718250000000000000e+05
4.120900000000000000e+04 1.679890000000000000e+05
5.089300000000000000e+04 1.694550000000000000e+05
6.074800000000000000e+04 1.659940000000000000e+05
7.283500000000000000e+04 1.608790000000000000e+05
8.378100000000000000e+04 1.571630000000000000e+05
9.355000000000000000e+04 1.526960000000000000e+05
1.035420000000000000e+05 1.465400000000000000e+05
1.141800000000000000e+05 1.406070000000000000e+05
1.218360000000000000e+05 1.336340000000000000e+05
1.305140000000000000e+05 1.248710000000000000e+05
1.386470000000000000e+05 1.172490000000000000e+05
1.456200000000000000e+05 1.091000000000000000e+05
1.518770000000000000e+05 9.726700000000000000e+04
1.592940000000000000e+05 8.925400000000000000e+04
1.633680000000000000e+05 7.950200000000000000e+04
1.688070000000000000e+05 6.814700000000000000e+04
1.717230000000000000e+05 5.679200000000000000e+04
1.754220000000000000e+05 4.553900000000000000e+04
1.774340000000000000e+05 3.278600000000000000e+04
1.777580000000000000e+05 2.192500000000000000e+04
1.796680000000000000e+05 9.905000000000000000e+03
1.794110000000000000e+05 -2.285000000000000000e+03
1.786790000000000000e+05 -1.386100000000000000e+04
1.771790000000000000e+05 -2.521700000000000000e+04
1.747580000000000000e+05 -3.744100000000000000e+04
1.720120000000000000e+05 -4.939200000000000000e+04
1.662490000000000000e+05 -5.999700000000000000e+04
1.616120000000000000e+05 -7.109700000000000000e+04
1.568220000000000000e+05 -8.130900000000000000e+04
1.509910000000000000e+05 -9.217000000000000000e+04
1.438300000000000000e+05 -1.020240000000000000e+05
1.352370000000000000e+05 -1.097140000000000000e+05
1.279220000000000000e+05 -1.185960000000000000e+05
1.199940000000000000e+05 -1.272410000000000000e+05
1.119980000000000000e+05 -1.351180000000000000e+05
1.025700000000000000e+05 -1.397210000000000000e+05
9.247600000000000000e+04 -1.476660000000000000e+05
8.236600000000000000e+04 -1.529340000000000000e+05
7.186400000000000000e+04 -1.570260000000000000e+05
6.313400000000000000e+04 -1.614770000000000000e+05
5.358600000000000000e+04 -1.637090000000000000e+05
4.197500000000000000e+04 -1.675120000000000000e+05
3.084300000000000000e+04 -1.672050000000000000e+05
2.129500000000000000e+04 -1.692680000000000000e+05
1.086100000000000000e+04 -1.709040000000000000e+05
5.630000000000000000e+02 -1.709890000000000000e+05
-8.747000000000000000e+03 -1.695240000000000000e+05
-2.042600000000000000e+04 -1.678530000000000000e+05
-2.876200000000000000e+04 -1.650400000000000000e+05
-3.928200000000000000e+04 -1.635050000000000000e+05
-4.959700000000000000e+04 -1.613050000000000000e+05
-5.841200000000000000e+04 -1.559520000000000000e+05
-6.649300000000000000e+04 -1.525930000000000000e+05
-7.401200000000000000e+04 -1.477340000000000000e+05
-8.318500000000000000e+04 -1.402830000000000000e+05
-9.092500000000000000e+04 -1.363960000000000000e+05
-9.706300000000000000e+04 -1.284340000000000000e+05
-1.051100000000000000e+05 -1.238650000000000000e+05
-1.109410000000000000e+05 -1.181200000000000000e+05
-1.168230000000000000e+05 -1.104470000000000000e+05
-1.213410000000000000e+05 -1.017010000000000000e+05
-1.271560000000000000e+05 -9.494900000000000000e+04
-1.320660000000000000e+05 -8.746400000000000000e+04
-1.340940000000000000e+05 -7.755900000000000000e+04
-1.402160000000000000e+05 -7.075600000000000000e+04
-1.436600000000000000e+05 -5.999800000000000000e+04
-1.443420000000000000e+05 -5.261500000000000000e+04
-1.460460000000000000e+05 -4.475600000000000000e+04
-1.513150000000000000e+05 -3.536000000000000000e+04
-1.525260000000000000e+05 -2.518200000000000000e+04
-1.513490000000000000e+05 -1.798700000000000000e+04
-1.508030000000000000e+05 -7.468000000000000000e+03
-1.506330000000000000e+05 -5.100000000000000000e+01
-1.505140000000000000e+05 1.024600000000000000e+04
-1.495580000000000000e+05 1.858400000000000000e+04
-1.456720000000000000e+05 2.652900000000000000e+04
-1.446150000000000000e+05 3.553100000000000000e+04
-1.418180000000000000e+05 4.518100000000000000e+04
-1.401640000000000000e+05 5.218800000000000000e+04
-1.352880000000000000e+05 6.166800000000000000e+04
-1.326960000000000000e+05 6.935800000000000000e+04
-1.284850000000000000e+05 7.767700000000000000e+04
-1.232160000000000000e+05 8.437800000000000000e+04
-1.169600000000000000e+05 9.097600000000000000e+04
-1.134130000000000000e+05 9.979100000000000000e+04
-1.074800000000000000e+05 1.059460000000000000e+05
-9.999500000000000000e+04 1.102250000000000000e+05
-9.407900000000000000e+04 1.175730000000000000e+05
-8.639000000000000000e+04 1.231480000000000000e+05
-8.086600000000000000e+04 1.271210000000000000e+05
-7.281900000000000000e+04 1.333270000000000000e+05
-6.480500000000000000e+04 1.382030000000000000e+05
-5.672400000000000000e+04 1.412040000000000000e+05
-4.918800000000000000e+04 1.431310000000000000e+05
-4.334000000000000000e+04 1.470340000000000000e+05
-3.375800000000000000e+04 1.494220000000000000e+05
-2.543800000000000000e+04 1.517920000000000000e+05
-1.526000000000000000e+04 1.529680000000000000e+05
-7.621000000000000000e+03 1.527290000000000000e+05
1.449000000000000000e+03 1.534110000000000000e+05
1.011000000000000000e+04 1.527120000000000000e+05
1.786800000000000000e+04 1.528320000000000000e+05
2.734700000000000000e+04 1.533430000000000000e+05
3.546300000000000000e+04 1.497110000000000000e+05
4.250400000000000000e+04 1.488080000000000000e+05
5.070400000000000000e+04 1.451080000000000000e+05
5.911000000000000000e+04 1.436770000000000000e+05
6.811300000000000000e+04 1.394140000000000000e+05
7.489800000000000000e+04 1.355950000000000000e+05
8.136000000000000000e+04 1.320820000000000000e+05
8.847000000000000000e+04 1.276490000000000000e+05
9.665300000000000000e+04 1.206590000000000000e+05
1.010690000000000000e+05 1.169430000000000000e+05
1.076500000000000000e+05 1.113850000000000000e+05
1.155960000000000000e+05 1.043600000000000000e+05
1.199600000000000000e+05 9.829000000000000000e+04
1.231490000000000000e+05 9.107900000000000000e+04
1.286730000000000000e+05 8.420700000000000000e+04
1.323550000000000000e+05 7.808600000000000000e+04
1.366860000000000000e+05 7.053400000000000000e+04
1.404700000000000000e+05 6.369700000000000000e+04
1.438120000000000000e+05 5.513800000000000000e+04
1.464720000000000000e+05 4.545400000000000000e+04
1.491660000000000000e+05 3.984500000000000000e+04
1.520980000000000000e+05 3.051800000000000000e+04
1.533430000000000000e+05 2.059600000000000000e+04
1.535140000000000000e+05 1.248000000000000000e+04
1.541620000000000000e+05 5.354000000000000000e+03
1.523370000000000000e+05 -4.586000000000000000e+03
1.554740000000000000e+05 -1.220700000000000000e+04
1.516040000000000000e+05 -2.144900000000000000e+04
1.510930000000000000e+05 -2.929100000000000000e+04
1.492510000000000000e+05 -3.981100000000000000e+04
1.471370000000000000e+05 -4.825000000000000000e+04
1.451930000000000000e+05 -5.931500000000000000e+04
1.404540000000000000e+05 -6.596400000000000000e+04
1.374360000000000000e+05 -7.363700000000000000e+04
1.331900000000000000e+05 -8.071200000000000000e+04
1.311960000000000000e+05 -8.985100000000000000e+04
1.232500000000000000e+05 -9.798400000000000000e+04
1.182040000000000000e+05 -1.053310000000000000e+05
1.140270000000000000e+05 -1.130210000000000000e+05
1.083830000000000000e+05 -1.194990000000000000e+05
9.856300000000000000e+04 -1.259960000000000000e+05
9.353300000000000000e+04 -1.323210000000000000e+05
8.640700000000000000e+04 -1.388850000000000000e+05
7.624500000000000000e+04 -1.443240000000000000e+05
6.882800000000000000e+04 -1.496260000000000000e+05
6.127600000000000000e+04 -1.540430000000000000e+05
5.213800000000000000e+04 -1.581680000000000000e+05
4.202700000000000000e+04 -1.629260000000000000e+05
3.307600000000000000e+04 -1.664210000000000000e+05
2.207900000000000000e+04 -1.681760000000000000e+05
1.369100000000000000e+04 -1.716210000000000000e+05
1.892000000000000000e+03 -1.723360000000000000e+05
-7.161000000000000000e+03 -1.729850000000000000e+05
-1.984600000000000000e+04 -1.716030000000000000e+05
-1.524200000000000000e+04 -1.746720000000000000e+05
-3.589000000000000000e+04 -1.743490000000000000e+05
-4.905100000000000000e+04 -1.717400000000000000e+05
-5.868500000000000000e+04 -1.692000000000000000e+05
-6.862400000000000000e+04 -1.662160000000000000e+05
-7.946800000000000000e+04 -1.625680000000000000e+05
-8.906700000000000000e+04 -1.582700000000000000e+05
-9.890500000000000000e+04 -1.516560000000000000e+05
-1.080430000000000000e+05 -1.483480000000000000e+05
-1.175230000000000000e+05 -1.412550000000000000e+05
-1.251100000000000000e+05 -1.346750000000000000e+05
-1.353730000000000000e+05 -1.257920000000000000e+05
-1.396360000000000000e+05 -1.180170000000000000e+05
-1.472570000000000000e+05 -1.093730000000000000e+05
-1.550650000000000000e+05 -1.002350000000000000e+05
-1.593450000000000000e+05 -9.020800000000000000e+04
-1.637780000000000000e+05 -8.026900000000000000e+04
-1.693530000000000000e+05 -7.046600000000000000e+04
-1.743650000000000000e+05 -5.960500000000000000e+04
-1.752350000000000000e+05 -5.017700000000000000e+04
-1.776730000000000000e+05 -3.667300000000000000e+04
-1.782520000000000000e+05 -2.533500000000000000e+04
-1.793440000000000000e+05 -1.456100000000000000e+04
-1.798550000000000000e+05 -3.035000000000000000e+03
-1.793610000000000000e+05 6.581000000000000000e+03
-1.777920000000000000e+05 1.991400000000000000e+04
-1.742970000000000000e+05 2.854100000000000000e+04
-1.719620000000000000e+05 4.131000000000000000e+04
-1.674940000000000000e+05 5.099500000000000000e+04
-1.649200000000000000e+05 6.044000000000000000e+04
-1.578440000000000000e+05 7.056700000000000000e+04
-1.520640000000000000e+05 8.185500000000000000e+04
-1.462340000000000000e+05 9.031100000000000000e+04
-1.396350000000000000e+05 9.985900000000000000e+04
-1.308220000000000000e+05 1.086910000000000000e+05
-1.258260000000000000e+05 1.168230000000000000e+05
-1.163800000000000000e+05 1.237790000000000000e+05
-1.077870000000000000e+05 1.316050000000000000e+05
-9.808600000000000000e+04 1.362090000000000000e+05
-8.947500000000000000e+04 1.413750000000000000e+05
-8.040500000000000000e+04 1.478360000000000000e+05
-6.985200000000000000e+04 1.526780000000000000e+05
-6.004800000000000000e+04 1.562590000000000000e+05
-5.099500000000000000e+04 1.603170000000000000e+05
-4.010000000000000000e+04 1.613740000000000000e+05
-2.985300000000000000e+04 1.643570000000000000e+05
-1.902700000000000000e+04 1.652270000000000000e+05
-9.326000000000000000e+03 1.679890000000000000e+05
1.040000000000000000e+03 1.674430000000000000e+05
1.164400000000000000e+04 1.667440000000000000e+05
2.148300000000000000e+04 1.638290000000000000e+05
3.149100000000000000e+04 1.634880000000000000e+05
4.180600000000000000e+04 1.603160000000000000e+05
4.954600000000000000e+04 1.590720000000000000e+05
5.824100000000000000e+04 1.546060000000000000e+05
6.705600000000000000e+04 1.511450000000000000e+05
7.655200000000000000e+04 1.472230000000000000e+05
8.644100000000000000e+04 1.419030000000000000e+05
9.350000000000000000e+04 1.357140000000000000e+05
1.000630000000000000e+05 1.289970000000000000e+05
1.068660000000000000e+05 1.240520000000000000e+05
1.134130000000000000e+05 1.172840000000000000e+05
1.198920000000000000e+05 1.089460000000000000e+05
1.231830000000000000e+05 1.011550000000000000e+05
1.277180000000000000e+05 9.476100000000000000e+04
1.336170000000000000e+05 8.567400000000000000e+04
1.386640000000000000e+05 7.633100000000000000e+04
1.418180000000000000e+05 6.681700000000000000e+04
1.445450000000000000e+05 5.897400000000000000e+04
1.464380000000000000e+05 5.070600000000000000e+04
1.489440000000000000e+05 4.107200000000000000e+04
1.489280000000000000e+05 3.292300000000000000e+04
1.497460000000000000e+05 2.235200000000000000e+04
1.481270000000000000e+05 1.551600000000000000e+04
1.488430000000000000e+05 5.729000000000000000e+03
1.478360000000000000e+05 -3.580000000000000000e+03
1.480070000000000000e+05 -1.254800000000000000e+04
1.437780000000000000e+05 -2.163600000000000000e+04
1.403170000000000000e+05 -2.976900000000000000e+04
1.383230000000000000e+05 -3.861700000000000000e+04
1.357490000000000000e+05 -4.627200000000000000e+04
1.307530000000000000e+05 -5.476300000000000000e+04
1.277010000000000000e+05 -6.221300000000000000e+04
1.208810000000000000e+05 -7.102900000000000000e+04
1.166020000000000000e+05 -7.651700000000000000e+04
1.106510000000000000e+05 -8.134300000000000000e+04
1.056730000000000000e+05 -8.915200000000000000e+04
9.904100000000000000e+04 -9.675500000000000000e+04
9.136900000000000000e+04 -1.018540000000000000e+05
8.666200000000000000e+04 -1.068660000000000000e+05
7.897300000000000000e+04 -1.123550000000000000e+05
7.109600000000000000e+04 -1.155100000000000000e+05
6.564200000000000000e+04 -1.188690000000000000e+05
5.779800000000000000e+04 -1.225170000000000000e+05
5.026200000000000000e+04 -1.259950000000000000e+05
4.238500000000000000e+04 -1.297130000000000000e+05
3.426900000000000000e+04 -1.314180000000000000e+05
2.654700000000000000e+04 -1.340430000000000000e+05
1.984600000000000000e+04 -1.354760000000000000e+05
1.246400000000000000e+04 -1.355100000000000000e+05
5.831000000000000000e+03 -1.368740000000000000e+05
-3.614000000000000000e+03 -1.348620000000000000e+05
-1.113300000000000000e+04 -1.367030000000000000e+05
-1.831100000000000000e+04 -1.357650000000000000e+05
-2.780700000000000000e+04 -1.330030000000000000e+05
-3.300800000000000000e+04 -1.327810000000000000e+05
-4.149800000000000000e+04 -1.326280000000000000e+05
-4.906800000000000000e+04 -1.277180000000000000e+05
-5.507000000000000000e+04 -1.258760000000000000e+05
-6.185600000000000000e+04 -1.234730000000000000e+05
-6.932400000000000000e+04 -1.199780000000000000e+05
-7.629600000000000000e+04 -1.158860000000000000e+05
-7.941700000000000000e+04 -1.129870000000000000e+05
-8.722500000000000000e+04 -1.072070000000000000e+05
-9.349900000000000000e+04 -1.029450000000000000e+05
-9.854700000000000000e+04 -9.772800000000000000e+04
-1.041900000000000000e+05 -9.361900000000000000e+04
-1.091000000000000000e+05 -8.662800000000000000e+04
-1.153060000000000000e+05 -8.095000000000000000e+04
-1.182890000000000000e+05 -7.372100000000000000e+04
-1.205400000000000000e+05 -6.886300000000000000e+04
-1.268480000000000000e+05 -6.037200000000000000e+04
-1.290650000000000000e+05 -5.571800000000000000e+04
-1.315370000000000000e+05 -4.584600000000000000e+04
-1.344180000000000000e+05 -3.924800000000000000e+04
-1.367030000000000000e+05 -3.263300000000000000e+04
-1.388010000000000000e+05 -2.356200000000000000e+04
-1.417660000000000000e+05 -1.537900000000000000e+04
-1.407770000000000000e+05 -5.968000000000000000e+03
-1.413230000000000000e+05 1.910000000000000000e+03
-1.418860000000000000e+05 9.906000000000000000e+03
-1.407090000000000000e+05 1.914600000000000000e+04
-1.391580000000000000e+05 2.768900000000000000e+04
-1.384250000000000000e+05 3.749100000000000000e+04
-1.374190000000000000e+05 4.702300000000000000e+04
-1.327810000000000000e+05 5.489900000000000000e+04
-1.313660000000000000e+05 6.359400000000000000e+04
-1.263700000000000000e+05 7.213600000000000000e+04
-1.219380000000000000e+05 8.403700000000000000e+04
-1.190060000000000000e+05 9.031100000000000000e+04
-1.135670000000000000e+05 9.766000000000000000e+04
-1.066100000000000000e+05 1.068490000000000000e+05
-9.805200000000000000e+04 1.151700000000000000e+05
-9.082200000000000000e+04 1.206080000000000000e+05
-8.402000000000000000e+04 1.306170000000000000e+05
-7.694400000000000000e+04 1.361070000000000000e+05
-6.724300000000000000e+04 1.421580000000000000e+05
-5.570000000000000000e+04 1.491320000000000000e+05
-4.779000000000000000e+04 1.532060000000000000e+05
-3.762800000000000000e+04 1.573160000000000000e+05
-2.705800000000000000e+04 1.584060000000000000e+05
-1.568500000000000000e+04 1.638970000000000000e+05
-5.132000000000000000e+03 1.655160000000000000e+05
6.666000000000000000e+03 1.684320000000000000e+05
1.829400000000000000e+04 1.690110000000000000e+05
2.883100000000000000e+04 1.676480000000000000e+05
4.182200000000000000e+04 1.665560000000000000e+05
5.293800000000000000e+04 1.643580000000000000e+05
6.530000000000000000e+04 1.613900000000000000e+05
7.578500000000000000e+04 1.593110000000000000e+05
8.661100000000000000e+04 1.517240000000000000e+05
9.713100000000000000e+04 1.468980000000000000e+05
1.093210000000000000e+05 1.408120000000000000e+05
1.184260000000000000e+05 1.331910000000000000e+05
1.280070000000000000e+05 1.253650000000000000e+05
1.342990000000000000e+05 1.178800000000000000e+05
1.417330000000000000e+05 1.079240000000000000e+05
1.486370000000000000e+05 9.771100000000000000e+04
1.565140000000000000e+05 8.693600000000000000e+04
1.603000000000000000e+05 7.675700000000000000e+04
1.659940000000000000e+05 6.623800000000000000e+04
1.712620000000000000e+05 5.184800000000000000e+04
1.725750000000000000e+05 4.011700000000000000e+04
1.746720000000000000e+05 2.888100000000000000e+04
1.756270000000000000e+05 1.563500000000000000e+04
1.755070000000000000e+05 3.955000000000000000e+03
1.757300000000000000e+05 -9.855000000000000000e+03
1.723710000000000000e+05 -2.216500000000000000e+04
1.691480000000000000e+05 -3.311000000000000000e+04
1.659760000000000000e+05 -4.555600000000000000e+04
1.612200000000000000e+05 -5.803700000000000000e+04
1.567700000000000000e+05 -6.794200000000000000e+04
1.502570000000000000e+05 -8.047400000000000000e+04
1.437780000000000000e+05 -9.048200000000000000e+04
1.358840000000000000e+05 -9.919400000000000000e+04
1.300030000000000000e+05 -1.115380000000000000e+05
1.197900000000000000e+05 -1.191420000000000000e+05
1.122370000000000000e+05 -1.261150000000000000e+05
1.023310000000000000e+05 -1.353560000000000000e+05
9.217000000000000000e+04 -1.414430000000000000e+05
8.202500000000000000e+04 -1.478190000000000000e+05
7.237500000000000000e+04 -1.509230000000000000e+05
5.786600000000000000e+04 -1.556110000000000000e+05
5.094300000000000000e+04 -1.593270000000000000e+05
3.842900000000000000e+04 -1.609480000000000000e+05
2.857500000000000000e+04 -1.646300000000000000e+05
1.870300000000000000e+04 -1.661300000000000000e+05
4.416000000000000000e+03 -1.656020000000000000e+05
-5.609000000000000000e+03 -1.662500000000000000e+05
-1.445900000000000000e+04 -1.647150000000000000e+05
-2.659700000000000000e+04 -1.644600000000000000e+05
-3.641800000000000000e+04 -1.596350000000000000e+05
-4.565900000000000000e+04 -1.574180000000000000e+05
-5.636600000000000000e+04 -1.530540000000000000e+05
-6.495900000000000000e+04 -1.484680000000000000e+05
-7.276800000000000000e+04 -1.441190000000000000e+05
-8.207700000000000000e+04 -1.389360000000000000e+05
-8.968000000000000000e+04 -1.325600000000000000e+05
-9.713200000000000000e+04 -1.256040000000000000e+05
-1.039000000000000000e+05 -1.201640000000000000e+05
-1.094570000000000000e+05 -1.137210000000000000e+05
-1.158860000000000000e+05 -1.048380000000000000e+05
-1.199780000000000000e+05 -9.672200000000000000e+04
-1.236090000000000000e+05 -8.899900000000000000e+04
-1.277350000000000000e+05 -8.090000000000000000e+04
-1.316220000000000000e+05 -7.334700000000000000e+04
-1.334980000000000000e+05 -6.371400000000000000e+04
-1.368400000000000000e+05 -5.501900000000000000e+04
-1.380670000000000000e+05 -4.840300000000000000e+04
-1.376240000000000000e+05 -3.836100000000000000e+04
-1.385270000000000000e+05 -2.951300000000000000e+04
-1.386810000000000000e+05 -2.228400000000000000e+04
-1.369940000000000000e+05 -1.421900000000000000e+04
-1.362090000000000000e+05 -7.076000000000000000e+03
-1.351860000000000000e+05 1.603000000000000000e+03
-1.346910000000000000e+05 9.121000000000000000e+03
-1.315890000000000000e+05 1.572000000000000000e+04
-1.280590000000000000e+05 2.400600000000000000e+04
-1.263540000000000000e+05 2.874600000000000000e+04
-1.241550000000000000e+05 3.689500000000000000e+04
-1.191590000000000000e+05 4.083300000000000000e+04
-1.159190000000000000e+05 4.872700000000000000e+04
-1.124590000000000000e+05 5.462700000000000000e+04
-1.094240000000000000e+05 6.037200000000000000e+04
-1.049570000000000000e+05 6.351000000000000000e+04
-9.907500000000000000e+04 6.918700000000000000e+04
-9.508500000000000000e+04 7.362000000000000000e+04
-9.029400000000000000e+04 7.883700000000000000e+04
-8.678200000000000000e+04 8.093400000000000000e+04
-7.900700000000000000e+04 8.621900000000000000e+04
-7.558100000000000000e+04 8.865700000000000000e+04
-7.078900000000000000e+04 9.090800000000000000e+04
-6.533400000000000000e+04 9.605600000000000000e+04
-5.931500000000000000e+04 9.709700000000000000e+04
-5.449000000000000000e+04 9.822300000000000000e+04
-4.975100000000000000e+04 1.003360000000000000e+05
-4.305000000000000000e+04 1.027400000000000000e+05
-4.011700000000000000e+04 1.040710000000000000e+05
-3.442300000000000000e+04 1.055540000000000000e+05
-2.925700000000000000e+04 1.070030000000000000e+05
-2.404000000000000000e+04 1.095770000000000000e+05
-1.837900000000000000e+04 1.082470000000000000e+05
-1.249800000000000000e+04 1.086570000000000000e+05
-8.303000000000000000e+03 1.099190000000000000e+05
-2.915000000000000000e+03 1.094060000000000000e+05
3.018000000000000000e+03 1.079570000000000000e+05
7.297000000000000000e+03 1.092530000000000000e+05
1.142400000000000000e+04 1.086060000000000000e+05
1.681100000000000000e+04 1.087600000000000000e+05
2.146500000000000000e+04 1.062190000000000000e+05
2.685300000000000000e+04 1.058940000000000000e+05
3.101200000000000000e+04 1.038310000000000000e+05
3.588900000000000000e+04 1.024340000000000000e+05
4.074700000000000000e+04 1.014960000000000000e+05
4.552200000000000000e+04 1.001320000000000000e+05
5.000600000000000000e+04 9.798300000000000000e+04
5.382500000000000000e+04 9.575100000000000000e+04
5.752500000000000000e+04 9.592100000000000000e+04
6.301500000000000000e+04 9.090800000000000000e+04
6.634000000000000000e+04 8.679900000000000000e+04
7.087400000000000000e+04 8.625400000000000000e+04
7.629600000000000000e+04 8.142800000000000000e+04
7.936500000000000000e+04 7.745600000000000000e+04
8.354300000000000000e+04 7.655300000000000000e+04
8.727700000000000000e+04 6.864200000000000000e+04
9.133400000000000000e+04 6.766900000000000000e+04
9.566500000000000000e+04 6.429400000000000000e+04
9.956900000000000000e+04 5.781500000000000000e+04
1.018190000000000000e+05 5.559900000000000000e+04
1.061330000000000000e+05 4.891400000000000000e+04
1.079750000000000000e+05 4.565800000000000000e+04
1.114870000000000000e+05 3.938500000000000000e+04
1.129530000000000000e+05 3.408200000000000000e+04
1.170270000000000000e+05 2.755200000000000000e+04
1.184080000000000000e+05 2.322100000000000000e+04
1.192780000000000000e+05 1.773200000000000000e+04
1.214440000000000000e+05 1.069000000000000000e+04
1.220230000000000000e+05 4.978000000000000000e+03
1.240350000000000000e+05 -2.540000000000000000e+03
1.234730000000000000e+05 -9.463000000000000000e+03
1.252800000000000000e+05 -1.583800000000000000e+04
1.243760000000000000e+05 -2.219900000000000000e+04
1.228070000000000000e+05 -2.900200000000000000e+04
1.235060000000000000e+05 -3.800400000000000000e+04
1.197210000000000000e+05 -4.364700000000000000e+04
1.193800000000000000e+05 -5.254600000000000000e+04
1.177090000000000000e+05 -5.880400000000000000e+04
1.174370000000000000e+05 -5.116600000000000000e+04
1.115210000000000000e+05 -7.423400000000000000e+04
1.059800000000000000e+05 -8.062800000000000000e+04
1.031670000000000000e+05 -8.557200000000000000e+04
9.779500000000000000e+04 -9.295400000000000000e+04
9.264700000000000000e+04 -9.929700000000000000e+04
8.845300000000000000e+04 -1.056390000000000000e+05
8.166700000000000000e+04 -1.109240000000000000e+05
7.448900000000000000e+04 -1.151860000000000000e+05
6.657800000000000000e+04 -1.194490000000000000e+05
6.057700000000000000e+04 -1.238650000000000000e+05
5.350100000000000000e+04 -1.272910000000000000e+05
4.449900000000000000e+04 -1.315370000000000000e+05
3.684400000000000000e+04 -1.333100000000000000e+05
2.814900000000000000e+04 -1.388170000000000000e+05
1.989700000000000000e+04 -1.383230000000000000e+05
1.162700000000000000e+04 -1.396870000000000000e+05
2.285000000000000000e+03 -1.413750000000000000e+05
-6.121000000000000000e+03 -1.392770000000000000e+05
-1.420200000000000000e+04 -1.395500000000000000e+05
-2.308500000000000000e+04 -1.374540000000000000e+05
-3.111500000000000000e+04 -1.367030000000000000e+05
-4.061200000000000000e+04 -1.350150000000000000e+05
-4.833600000000000000e+04 -1.318440000000000000e+05
-5.474600000000000000e+04 -1.283490000000000000e+05
-6.306700000000000000e+04 -1.242060000000000000e+05
-7.048300000000000000e+04 -1.180340000000000000e+05
-7.605800000000000000e+04 -1.148280000000000000e+05
-8.367900000000000000e+04 -1.091170000000000000e+05
-8.869200000000000000e+04 -1.027580000000000000e+05
-9.506800000000000000e+04 -9.822200000000000000e+04
-9.962100000000000000e+04 -9.063500000000000000e+04
-1.039000000000000000e+05 -8.521400000000000000e+04
-1.080940000000000000e+05 -7.798400000000000000e+04
-1.128170000000000000e+05 -6.969900000000000000e+04
-1.163800000000000000e+05 -6.313500000000000000e+04
-1.190570000000000000e+05 -5.438800000000000000e+04
-1.203190000000000000e+05 -4.676700000000000000e+04
-1.230130000000000000e+05 -4.023700000000000000e+04
-1.223130000000000000e+05 -3.045000000000000000e+04
-1.249050000000000000e+05 -2.356300000000000000e+04
-1.234210000000000000e+05 -1.745900000000000000e+04
-1.226030000000000000e+05 -9.292000000000000000e+03
-1.219040000000000000e+05 -1.841000000000000000e+03
-1.212390000000000000e+05 5.592000000000000000e+03
-1.182900000000000000e+05 1.277000000000000000e+04
-1.173520000000000000e+05 2.049300000000000000e+04
-1.139930000000000000e+05 2.473800000000000000e+04
-1.110440000000000000e+05 3.195100000000000000e+04
-1.074630000000000000e+05 3.791800000000000000e+04
-1.050250000000000000e+05 4.253900000000000000e+04
-9.858100000000000000e+04 4.765300000000000000e+04
-9.754100000000000000e+04 5.392700000000000000e+04
-9.075400000000000000e+04 5.800200000000000000e+04
-8.630500000000000000e+04 6.287900000000000000e+04
-8.316800000000000000e+04 6.628900000000000000e+04
-7.599000000000000000e+04 6.777200000000000000e+04
-7.188100000000000000e+04 7.293800000000000000e+04
-6.564100000000000000e+04 7.443800000000000000e+04
-6.113900000000000000e+04 7.749000000000000000e+04
-5.616100000000000000e+04 7.969000000000000000e+04
-5.195000000000000000e+04 8.120700000000000000e+04
-4.676700000000000000e+04 8.216100000000000000e+04
-3.871900000000000000e+04 8.195700000000000000e+04
-3.503700000000000000e+04 8.231600000000000000e+04
-2.951300000000000000e+04 8.216200000000000000e+04
-2.521600000000000000e+04 8.270700000000000000e+04
-2.035700000000000000e+04 8.103600000000000000e+04
-1.614700000000000000e+04 8.195700000000000000e+04
-1.147400000000000000e+04 7.974100000000000000e+04
-7.008000000000000000e+03 7.858200000000000000e+04
-4.177000000000000000e+03 7.743900000000000000e+04
5.110000000000000000e+02 7.660400000000000000e+04
3.836000000000000000e+03 7.287000000000000000e+04
6.257000000000000000e+03 7.191500000000000000e+04
1.046900000000000000e+04 -7.027800000000000000e+04
-1.167900000000000000e+04 6.513000000000000000e+03
-1.256600000000000000e+04 4.416000000000000000e+03
-1.256600000000000000e+04 2.438000000000000000e+03
-1.162800000000000000e+04 1.483000000000000000e+03
-1.060500000000000000e+04 3.920000000000000000e+02
-8.474000000000000000e+03 -3.410000000000000000e+02
-8.797000000000000000e+03 -2.506000000000000000e+03
-7.042000000000000000e+03 -6.480000000000000000e+02
-5.814000000000000000e+03 2.730000000000000000e+02
-2.455000000000000000e+03 -1.517000000000000000e+03
-3.495000000000000000e+03 -6.650000000000000000e+02
-3.256000000000000000e+03 1.518000000000000000e+03
-8.350000000000000000e+02 2.455000000000000000e+03
-8.690000000000000000e+02 2.387000000000000000e+03
-1.825000000000000000e+03 3.513000000000000000e+03
-1.977000000000000000e+03 5.797000000000000000e+03
-1.688000000000000000e+03 5.541000000000000000e+03
-3.819000000000000000e+03 6.632000000000000000e+03
-5.524000000000000000e+03 6.939000000000000000e+03
-5.268000000000000000e+03 7.860000000000000000e+03
-5.780000000000000000e+03 9.497000000000000000e+03
-7.502000000000000000e+03 8.798000000000000000e+03
-7.280000000000000000e+03 8.849000000000000000e+03
-9.735000000000000000e+03 9.139000000000000000e+03
-9.121000000000000000e+03 8.781000000000000000e+03
-7.928000000000000000e+03 7.826000000000000000e+03
-8.610000000000000000e+03 7.605000000000000000e+03
-9.480000000000000000e+03 6.241000000000000000e+03
-7.110000000000000000e+03 7.537000000000000000e+03
-5.763000000000000000e+03 7.434000000000000000e+03
-4.432000000000000000e+03 5.849000000000000000e+03
-2.574000000000000000e+03 6.752000000000000000e+03
-1.483000000000000000e+03 7.008000000000000000e+03
2.898000000000000000e+03 2.915000000000000000e+03
3.444000000000000000e+03 7.791000000000000000e+03
8.422000000000000000e+03 1.258300000000000000e+04
7.604000000000000000e+03 1.537800000000000000e+04
5.201000000000000000e+03 1.362300000000000000e+04
5.456000000000000000e+03 1.534500000000000000e+04
6.854000000000000000e+03 1.520800000000000000e+04
7.689000000000000000e+03 1.611100000000000000e+04
8.440000000000000000e+03 1.457700000000000000e+04
6.104000000000000000e+03 1.541200000000000000e+04
8.321000000000000000e+03 1.389500000000000000e+04
7.928000000000000000e+03 1.423700000000000000e+04
8.559000000000000000e+03 1.398100000000000000e+04
1.046800000000000000e+04 1.367300000000000000e+04
1.082600000000000000e+04 1.232700000000000000e+04
1.079200000000000000e+04 1.127000000000000000e+04
1.166100000000000000e+04 9.429000000000000000e+03
1.070700000000000000e+04 7.348000000000000000e+03
1.331600000000000000e+04 6.172000000000000000e+03
1.473000000000000000e+04 6.922000000000000000e+03
1.636700000000000000e+04 4.245000000000000000e+03
1.657200000000000000e+04 5.013000000000000000e+03
1.878900000000000000e+04 2.779000000000000000e+03
1.826000000000000000e+04 2.319000000000000000e+03
2.022100000000000000e+04 3.120000000000000000e+03
1.993100000000000000e+04 1.944000000000000000e+03
2.180600000000000000e+04 8.020000000000000000e+02
2.248800000000000000e+04 3.240000000000000000e+02
2.443200000000000000e+04 1.227000000000000000e+03
2.383500000000000000e+04 5.280000000000000000e+02
2.444900000000000000e+04 -9.040000000000000000e+02
2.281200000000000000e+04 -8.010000000000000000e+02
2.327200000000000000e+04 -2.217000000000000000e+03
2.296600000000000000e+04 -5.763000000000000000e+03
2.151700000000000000e+04 -5.882000000000000000e+03
2.194200000000000000e+04 -8.372000000000000000e+03
2.219900000000000000e+04 -9.053000000000000000e+03
2.090300000000000000e+04 -1.007600000000000000e+04
2.310200000000000000e+04 -1.050200000000000000e+04
1.998200000000000000e+04 -1.323000000000000000e+04
2.008400000000000000e+04 -1.520900000000000000e+04
2.119300000000000000e+04 -1.863500000000000000e+04
1.948800000000000000e+04 -2.010200000000000000e+04
1.853300000000000000e+04 -2.076600000000000000e+04
1.727100000000000000e+04 -2.424500000000000000e+04
1.744200000000000000e+04 -2.479000000000000000e+04
1.715200000000000000e+04 -2.709200000000000000e+04
1.699800000000000000e+04 -2.676800000000000000e+04
1.389500000000000000e+04 -2.937600000000000000e+04
1.203600000000000000e+04 -3.021200000000000000e+04
1.014400000000000000e+04 -3.080800000000000000e+04
8.644000000000000000e+03 -3.302500000000000000e+04
5.968000000000000000e+03 -3.278600000000000000e+04
4.228000000000000000e+03 -3.377500000000000000e+04
1.876000000000000000e+03 -3.502000000000000000e+04
-4.090000000000000000e+02 -3.370700000000000000e+04
-2.063000000000000000e+03 -3.454200000000000000e+04
-6.803000000000000000e+03 -3.524200000000000000e+04
-1.017900000000000000e+04 -3.508800000000000000e+04
-1.415100000000000000e+04 -3.484900000000000000e+04
-1.795300000000000000e+04 -3.488300000000000000e+04
-2.141400000000000000e+04 -3.389400000000000000e+04
-2.271000000000000000e+04 -3.421800000000000000e+04
-2.673400000000000000e+04 -3.440600000000000000e+04
-2.920500000000000000e+04 -3.229100000000000000e+04
-3.239500000000000000e+04 -3.130200000000000000e+04
-3.539500000000000000e+04 -3.159200000000000000e+04
-3.735500000000000000e+04 -2.796100000000000000e+04
-3.767900000000000000e+04 -2.603500000000000000e+04
-4.242000000000000000e+04 -2.480800000000000000e+04
-4.172000000000000000e+04 -2.291400000000000000e+04
-4.494200000000000000e+04 -1.892500000000000000e+04
-4.506200000000000000e+04 -1.580500000000000000e+04
-4.741500000000000000e+04 -1.249700000000000000e+04
-4.826700000000000000e+04 -9.428000000000000000e+03
-4.959700000000000000e+04 -5.967000000000000000e+03
-4.901700000000000000e+04 -2.932000000000000000e+03
-4.809700000000000000e+04 -7.840000000000000000e+02
-4.988700000000000000e+04 2.745000000000000000e+03
-5.104700000000000000e+04 7.281000000000000000e+03
-4.937600000000000000e+04 9.224000000000000000e+03
-4.831800000000000000e+04 1.304300000000000000e+04
-4.412400000000000000e+04 1.572000000000000000e+04
-4.216300000000000000e+04 2.262500000000000000e+04
-2.064700000000000000e+04 4.825000000000000000e+04
-5.467800000000000000e+04 1.135500000000000000e+04
-4.664800000000000000e+04 2.177300000000000000e+04
-4.163500000000000000e+04 2.583000000000000000e+04
-3.808800000000000000e+04 2.927400000000000000e+04
-3.592300000000000000e+04 3.317800000000000000e+04
-3.261600000000000000e+04 3.312800000000000000e+04
-3.150800000000000000e+04 3.660600000000000000e+04
-2.809800000000000000e+04 3.866900000000000000e+04
-2.496100000000000000e+04 4.003300000000000000e+04
-2.300000000000000000e+04 4.231700000000000000e+04
-1.872000000000000000e+04 4.257300000000000000e+04
-1.657200000000000000e+04 4.565900000000000000e+04
-1.263300000000000000e+04 4.618700000000000000e+04
-1.087800000000000000e+04 4.502800000000000000e+04
-5.916000000000000000e+03 4.664700000000000000e+04
-4.808000000000000000e+03 4.635700000000000000e+04
-8.180000000000000000e+02 4.410700000000000000e+04
4.600000000000000000e+02 4.739800000000000000e+04
2.284000000000000000e+03 4.574400000000000000e+04
6.700000000000000000e+03 4.463600000000000000e+04
9.257000000000000000e+03 4.494300000000000000e+04
1.167800000000000000e+04 4.403900000000000000e+04
1.485000000000000000e+04 4.267500000000000000e+04
1.650400000000000000e+04 4.170300000000000000e+04
1.848100000000000000e+04 4.172000000000000000e+04
2.011800000000000000e+04 4.030500000000000000e+04
2.516500000000000000e+04 3.899200000000000000e+04
2.676800000000000000e+04 3.739000000000000000e+04
2.850600000000000000e+04 3.595800000000000000e+04
2.956400000000000000e+04 3.280300000000000000e+04
3.087700000000000000e+04 3.055200000000000000e+04
3.384400000000000000e+04 3.137100000000000000e+04
3.664000000000000000e+04 2.939300000000000000e+04
3.941900000000000000e+04 2.918900000000000000e+04
4.090100000000000000e+04 2.690400000000000000e+04
4.156700000000000000e+04 2.337500000000000000e+04
4.335600000000000000e+04 2.184100000000000000e+04
4.495900000000000000e+04 1.977800000000000000e+04
4.719300000000000000e+04 1.785100000000000000e+04
4.765300000000000000e+04 1.444100000000000000e+04
4.763600000000000000e+04 1.312800000000000000e+04
4.975000000000000000e+04 1.024700000000000000e+04
4.886400000000000000e+04 7.127000000000000000e+03
4.992100000000000000e+04 6.683000000000000000e+03
5.055100000000000000e+04 2.455000000000000000e+03
5.246100000000000000e+04 1.330000000000000000e+03
5.065400000000000000e+04 -2.507000000000000000e+03
5.237600000000000000e+04 -3.444000000000000000e+03
5.019400000000000000e+04 -5.490000000000000000e+03
5.044900000000000000e+04 -9.633000000000000000e+03
5.252900000000000000e+04 -1.155900000000000000e+04
4.869300000000000000e+04 -1.384400000000000000e+04
4.905100000000000000e+04 -1.611100000000000000e+04
4.903400000000000000e+04 -1.776600000000000000e+04
4.678400000000000000e+04 -1.911200000000000000e+04
4.697100000000000000e+04 -2.332400000000000000e+04
4.523200000000000000e+04 -2.450000000000000000e+04
4.361200000000000000e+04 -2.637600000000000000e+04
4.206000000000000000e+04 -2.964900000000000000e+04
4.110500000000000000e+04 -3.353600000000000000e+04
3.752600000000000000e+04 -3.416700000000000000e+04
3.599200000000000000e+04 -3.721900000000000000e+04
3.570200000000000000e+04 -3.878800000000000000e+04
3.525900000000000000e+04 -3.943600000000000000e+04
3.176300000000000000e+04 -3.974200000000000000e+04
2.941100000000000000e+04 -4.320300000000000000e+04
2.591500000000000000e+04 -4.564100000000000000e+04
2.434600000000000000e+04 -4.702200000000000000e+04
2.265800000000000000e+04 -4.741500000000000000e+04
2.008400000000000000e+04 -4.753300000000000000e+04
1.658900000000000000e+04 -5.193300000000000000e+04
1.445800000000000000e+04 -5.106300000000000000e+04
1.094600000000000000e+04 -5.299000000000000000e+04
7.774000000000000000e+03 -5.476300000000000000e+04
3.648000000000000000e+03 -5.559900000000000000e+04
1.347000000000000000e+03 -5.423400000000000000e+04
-2.336000000000000000e+03 -5.387700000000000000e+04
-6.377000000000000000e+03 -5.634900000000000000e+04
-1.004300000000000000e+04 -5.755900000000000000e+04
-1.335000000000000000e+04 -5.546200000000000000e+04
-1.670800000000000000e+04 -5.616100000000000000e+04
-2.083400000000000000e+04 -5.621200000000000000e+04
-2.572800000000000000e+04 -5.532600000000000000e+04
-2.939400000000000000e+04 -5.510400000000000000e+04
-3.273500000000000000e+04 -5.350100000000000000e+04
-3.546300000000000000e+04 -5.488300000000000000e+04
-4.049300000000000000e+04 -5.087600000000000000e+04
-4.417600000000000000e+04 -5.067100000000000000e+04
-4.787600000000000000e+04 -4.799400000000000000e+04
-5.131900000000000000e+04 -4.622100000000000000e+04
-5.643500000000000000e+04 -4.243600000000000000e+04
-5.909400000000000000e+04 -4.011700000000000000e+04
-6.339100000000000000e+04 -3.757700000000000000e+04
-6.744800000000000000e+04 -3.433800000000000000e+04
-7.085800000000000000e+04 -3.130300000000000000e+04
-7.148900000000000000e+04 -2.656300000000000000e+04
-7.559800000000000000e+04 -2.368200000000000000e+04
-7.803600000000000000e+04 -2.030600000000000000e+04
-8.108800000000000000e+04 -1.471400000000000000e+04
-8.073000000000000000e+04 -1.125200000000000000e+04
-8.313300000000000000e+04 -5.797000000000000000e+03
-8.410500000000000000e+04 -1.227000000000000000e+03
-8.466800000000000000e+04 3.103000000000000000e+03
-8.606600000000000000e+04 7.929000000000000000e+03
-8.661200000000000000e+04 1.231000000000000000e+04
-8.495700000000000000e+04 1.776600000000000000e+04
-7.143800000000000000e+04 -4.477200000000000000e+04
-7.621200000000000000e+04 -4.115700000000000000e+04
-7.984300000000000000e+04 -3.612800000000000000e+04
-8.188900000000000000e+04 -3.251300000000000000e+04
-8.541800000000000000e+04 -2.939300000000000000e+04
-8.906700000000000000e+04 -2.381800000000000000e+04
-9.017500000000000000e+04 -2.006800000000000000e+04
-9.153900000000000000e+04 -1.444100000000000000e+04
-9.370500000000000000e+04 -9.752000000000000000e+03
-9.532400000000000000e+04 -6.581000000000000000e+03
-9.716600000000000000e+04 -8.190000000000000000e+02
-9.704600000000000000e+04 5.354000000000000000e+03
-9.974000000000000000e+04 1.118500000000000000e+04
-9.627900000000000000e+04 1.648700000000000000e+04
-9.701200000000000000e+04 1.960700000000000000e+04
-9.726800000000000000e+04 2.601800000000000000e+04
-9.380700000000000000e+04 3.140500000000000000e+04
-9.356800000000000000e+04 3.807200000000000000e+04
-9.029500000000000000e+04 4.306800000000000000e+04
-8.928800000000000000e+04 4.738100000000000000e+04
-8.608300000000000000e+04 5.334800000000000000e+04
-8.369600000000000000e+04 5.706500000000000000e+04
-7.911000000000000000e+04 6.221300000000000000e+04
-7.616100000000000000e+04 6.726000000000000000e+04
-7.010700000000000000e+04 7.237500000000000000e+04
-6.618600000000000000e+04 7.619500000000000000e+04
-6.221400000000000000e+04 7.968900000000000000e+04
-5.633100000000000000e+04 8.437800000000000000e+04
-4.958000000000000000e+04 8.734500000000000000e+04
-4.351000000000000000e+04 8.922000000000000000e+04
-3.906100000000000000e+04 9.288600000000000000e+04
-3.162700000000000000e+04 9.570000000000000000e+04
-2.395400000000000000e+04 9.716500000000000000e+04
-1.646900000000000000e+04 9.856300000000000000e+04
-1.040000000000000000e+04 9.985900000000000000e+04
-2.268000000000000000e+03 9.798400000000000000e+04
3.802000000000000000e+03 1.014110000000000000e+05
1.072400000000000000e+04 9.980800000000000000e+04
1.745800000000000000e+04 9.914300000000000000e+04
2.555700000000000000e+04 9.711400000000000000e+04
3.218900000000000000e+04 9.621000000000000000e+04
4.028800000000000000e+04 9.222100000000000000e+04
4.702200000000000000e+04 8.908400000000000000e+04
5.251300000000000000e+04 8.650900000000000000e+04
5.934900000000000000e+04 8.265600000000000000e+04
6.519700000000000000e+04 7.905800000000000000e+04
7.080700000000000000e+04 7.592100000000000000e+04
7.542700000000000000e+04 7.172700000000000000e+04
8.146200000000000000e+04 6.680000000000000000e+04
8.400300000000000000e+04 6.158300000000000000e+04
8.935600000000000000e+04 5.796800000000000000e+04
9.203300000000000000e+04 5.247800000000000000e+04
9.626100000000000000e+04 4.509700000000000000e+04
9.783000000000000000e+04 3.856600000000000000e+04
9.929600000000000000e+04 3.462800000000000000e+04
1.015970000000000000e+05 2.792700000000000000e+04
1.013940000000000000e+05 2.163600000000000000e+04
1.049570000000000000e+05 1.827700000000000000e+04
1.062350000000000000e+05 1.331500000000000000e+04
1.049400000000000000e+05 5.763000000000000000e+03
1.064910000000000000e+05 -2.730000000000000000e+02
1.037120000000000000e+05 -5.150000000000000000e+03
1.036780000000000000e+05 -1.063900000000000000e+04
1.025860000000000000e+05 -1.384400000000000000e+04
1.024850000000000000e+05 -1.962400000000000000e+04
9.958600000000000000e+04 -2.444900000000000000e+04
9.810300000000000000e+04 -2.780700000000000000e+04
9.440300000000000000e+04 -3.282000000000000000e+04
9.307300000000000000e+04 -3.750900000000000000e+04
9.046500000000000000e+04 -4.126000000000000000e+04
8.647500000000000000e+04 -4.431100000000000000e+04
8.429300000000000000e+04 -4.806300000000000000e+04
8.009900000000000000e+04 -5.239300000000000000e+04
7.633100000000000000e+04 -5.621200000000000000e+04
7.387600000000000000e+04 -5.795200000000000000e+04
7.082400000000000000e+04 -6.069600000000000000e+04
