-2.220000000000000000e+02 3.324000000000000000e+03
1.142000000000000000e+03 4.024000000000000000e+03
1.552000000000000000e+03 3.717000000000000000e+03
1.091000000000000000e+03 5.558000000000000000e+03
4.159000000000000000e+03 2.575000000000000000e+03
2.114000000000000000e+03 2.063000000000000000e+03
1.347000000000000000e+03 1.347000000000000000e+03
4.430000000000000000e+02 2.148000000000000000e+03
6.820000000000000000e+02 9.720000000000000000e+02
-2.890000000000000000e+02 1.006000000000000000e+03
-2.097000000000000000e+03 1.722000000000000000e+03
-4.143000000000000000e+03 2.029000000000000000e+03
-5.472000000000000000e+03 3.785000000000000000e+03
-2.915000000000000000e+03 2.506000000000000000e+03
-1.893000000000000000e+03 6.786000000000000000e+03
1.381000000000000000e+03 6.803000000000000000e+03
2.421000000000000000e+03 7.212000000000000000e+03
2.114000000000000000e+03 7.485000000000000000e+03
2.455000000000000000e+03 4.740000000000000000e+03
1.074000000000000000e+03 2.984000000000000000e+03
3.580000000000000000e+02 2.643000000000000000e+03
9.380000000000000000e+02 4.260000000000000000e+02
0.000000000000000000e+00 3.750000000000000000e+02
-1.568000000000000000e+03 -2.541000000000000000e+03
-3.188000000000000000e+03 -2.131000000000000000e+03
-8.350000000000000000e+02 -3.342000000000000000e+03
-2.148000000000000000e+03 -2.626000000000000000e+03
-5.120000000000000000e+02 -2.050000000000000000e+02
1.313000000000000000e+03 3.342000000000000000e+03
5.115000000000000000e+03 2.267000000000000000e+03
7.587000000000000000e+03 5.970000000000000000e+02
5.302000000000000000e+03 -7.160000000000000000e+02
2.660000000000000000e+03 -3.376000000000000000e+03
2.040000000000000000e+02 -4.978000000000000000e+03
-4.058000000000000000e+03 -2.916000000000000000e+03
-6.052000000000000000e+03 -4.007000000000000000e+03
-8.712000000000000000e+03 -1.450000000000000000e+03
-7.298000000000000000e+03 3.400000000000000000e+01
-6.035000000000000000e+03 3.172000000000000000e+03
-1.842000000000000000e+03 5.865000000000000000e+03
3.154000000000000000e+03 5.933000000000000000e+03
7.451000000000000000e+03 5.438000000000000000e+03
1.184900000000000000e+04 -8.600000000000000000e+01
6.973000000000000000e+03 -5.081000000000000000e+03
2.336000000000000000e+03 -7.706000000000000000e+03
-5.302000000000000000e+03 -7.996000000000000000e+03
-8.798000000000000000e+03 -2.335000000000000000e+03
-8.627000000000000000e+03 1.705000000000000000e+03
-4.842000000000000000e+03 4.893000000000000000e+03
6.990000000000000000e+02 4.348000000000000000e+03
3.341000000000000000e+03 5.302000000000000000e+03
5.013000000000000000e+03 4.740000000000000000e+03
6.018000000000000000e+03 3.426000000000000000e+03
1.004200000000000000e+04 1.330000000000000000e+03
8.337000000000000000e+03 -1.347000000000000000e+03
4.501000000000000000e+03 -4.365000000000000000e+03
4.610000000000000000e+02 -4.928000000000000000e+03
-3.734000000000000000e+03 -3.870000000000000000e+03
-9.496000000000000000e+03 -2.796000000000000000e+03
-1.311100000000000000e+04 2.182000000000000000e+03
-1.224100000000000000e+04 9.190000000000000000e+03
-6.035000000000000000e+03 1.316200000000000000e+04
3.580000000000000000e+02 1.094600000000000000e+04
6.274000000000000000e+03 7.996000000000000000e+03
1.029800000000000000e+04 2.728000000000000000e+03
9.327000000000000000e+03 -2.932000000000000000e+03
7.587000000000000000e+03 -6.547000000000000000e+03
4.091000000000000000e+03 -1.125200000000000000e+04
-1.977000000000000000e+03 -1.207100000000000000e+04
-7.911000000000000000e+03 -9.309000000000000000e+03
-1.164500000000000000e+04 -6.155000000000000000e+03
-1.614600000000000000e+04 6.820000000000000000e+02
-1.647000000000000000e+04 6.224000000000000000e+03
-1.309400000000000000e+04 1.543000000000000000e+04
-3.443000000000000000e+03 2.576100000000000000e+04
1.440600000000000000e+04 2.313600000000000000e+04
2.550600000000000000e+04 1.096200000000000000e+04
2.719400000000000000e+04 -6.854000000000000000e+03
1.967400000000000000e+04 -2.119300000000000000e+04
5.507000000000000000e+03 -2.975100000000000000e+04
-8.235000000000000000e+03 -2.804700000000000000e+04
-2.063000000000000000e+04 -2.027200000000000000e+04
-2.531900000000000000e+04 -9.293000000000000000e+03
-2.571100000000000000e+04 3.359000000000000000e+03
-2.189100000000000000e+04 1.720300000000000000e+04
-1.227600000000000000e+04 2.826700000000000000e+04
1.926000000000000000e+03 3.795300000000000000e+04
2.242000000000000000e+04 3.779900000000000000e+04
4.571000000000000000e+04 2.393700000000000000e+04
5.834300000000000000e+04 -1.130300000000000000e+04
4.163500000000000000e+04 -4.980100000000000000e+04
1.091000000000000000e+03 -6.840300000000000000e+04
-3.495200000000000000e+04 -5.657000000000000000e+04
-5.675800000000000000e+04 -2.670000000000000000e+04
-5.759300000000000000e+04 8.474000000000000000e+03
-4.093500000000000000e+04 4.083400000000000000e+04
-1.403200000000000000e+04 5.466000000000000000e+04
1.488400000000000000e+04 5.674100000000000000e+04
3.815700000000000000e+04 4.806200000000000000e+04
5.883800000000000000e+04 2.506300000000000000e+04
