3.128600000000000000e+04 -8.662800000000000000e+04
-2.615400000000000000e+04 -8.831600000000000000e+04
-7.150600000000000000e+04 -6.347600000000000000e+04
-9.730100000000000000e+04 -1.849900000000000000e+04
-9.956900000000000000e+04 3.039900000000000000e+04
-7.440500000000000000e+04 6.267300000000000000e+04
-2.953000000000000000e+04 8.710600000000000000e+04
1.725400000000000000e+04 1.028420000000000000e+05
6.766900000000000000e+04 8.990300000000000000e+04
1.312640000000000000e+05 4.697200000000000000e+04
1.654650000000000000e+05 -2.670000000000000000e+04
1.226880000000000000e+05 -1.077530000000000000e+05
1.466200000000000000e+04 -1.562070000000000000e+05
-8.882800000000000000e+04 -1.560200000000000000e+05
-1.624310000000000000e+05 -7.500100000000000000e+04
-2.416940000000000000e+05 2.918800000000000000e+04
-1.828900000000000000e+05 1.045650000000000000e+05
-6.359500000000000000e+04 1.610500000000000000e+05
5.227300000000000000e+04 1.976030000000000000e+05
1.320140000000000000e+05 1.541620000000000000e+05
2.657340000000000000e+05 2.571000000000000000e+04
2.831410000000000000e+05 -1.176500000000000000e+04
2.268610000000000000e+05 -1.445630000000000000e+05
1.422110000000000000e+05 -3.162850000000000000e+05
1.964100000000000000e+04 -3.951230000000000000e+05
-2.643870000000000000e+05 -2.975480000000000000e+05
-4.774370000000000000e+05 -9.571600000000000000e+04
-4.476000000000000000e+05 2.100840000000000000e+05
-1.918410000000000000e+05 4.504650000000000000e+05
1.147950000000000000e+05 4.997900000000000000e+05
3.615860000000000000e+05 2.379770000000000000e+05
4.570460000000000000e+05 -6.956200000000000000e+04
3.304020000000000000e+05 -2.619480000000000000e+05
1.108730000000000000e+05 -3.357900000000000000e+05
-7.634800000000000000e+04 -3.437180000000000000e+05
-1.957630000000000000e+05 -2.302710000000000000e+05
-3.223720000000000000e+05 -6.298100000000000000e+04
-3.762320000000000000e+05 1.090990000000000000e+05
-2.969010000000000000e+05 2.836360000000000000e+05
-8.113900000000000000e+04 4.268180000000000000e+05
2.024290000000000000e+05 4.058630000000000000e+05
4.512670000000000000e+05 1.479050000000000000e+05
5.256020000000000000e+05 -1.905620000000000000e+05
3.350570000000000000e+05 -4.448380000000000000e+05
-4.146500000000000000e+04 -4.981530000000000000e+05
-3.696330000000000000e+05 -3.201050000000000000e+05
-4.524260000000000000e+05 -1.802100000000000000e+04
-3.584660000000000000e+05 2.175350000000000000e+05
-1.946550000000000000e+05 3.127570000000000000e+05
-2.465400000000000000e+04 3.079650000000000000e+05
1.118280000000000000e+05 2.657680000000000000e+05
2.194790000000000000e+05 2.202450000000000000e+05
3.219630000000000000e+05 1.244450000000000000e+05
3.939120000000000000e+05 -4.925600000000000000e+04
3.630690000000000000e+05 -2.652740000000000000e+05
1.774680000000000000e+05 -4.358530000000000000e+05
-1.318270000000000000e+05 -4.689130000000000000e+05
-4.316940000000000000e+05 -3.143590000000000000e+05
-5.811830000000000000e+05 7.416000000000000000e+03
-4.692710000000000000e+05 3.670420000000000000e+05
-1.383910000000000000e+05 5.400600000000000000e+05
2.059240000000000000e+05 4.418730000000000000e+05
4.083870000000000000e+05 2.110390000000000000e+05
4.420430000000000000e+05 -4.944000000000000000e+03
3.522080000000000000e+05 -1.859080000000000000e+05
2.305770000000000000e+05 -3.392160000000000000e+05
3.389500000000000000e+04 -3.966060000000000000e+05
-1.974500000000000000e+05 -3.674000000000000000e+05
-3.987360000000000000e+05 -2.199390000000000000e+05
-4.934130000000000000e+05 3.120000000000000000e+04
-4.227600000000000000e+05 3.000200000000000000e+05
-1.883630000000000000e+05 4.718450000000000000e+05
1.411190000000000000e+05 4.880600000000000000e+05
4.535000000000000000e+05 3.287490000000000000e+05
5.935950000000000000e+05 2.767200000000000000e+04
4.609680000000000000e+05 -2.690750000000000000e+05
1.563950000000000000e+05 -4.115590000000000000e+05
-1.208980000000000000e+05 -3.868870000000000000e+05
-2.990490000000000000e+05 -2.633980000000000000e+05
-3.818580000000000000e+05 -9.856300000000000000e+04
-3.761630000000000000e+05 6.954500000000000000e+04
-2.791520000000000000e+05 2.154720000000000000e+05
-1.084870000000000000e+05 3.081530000000000000e+05
9.339700000000000000e+04 3.127400000000000000e+05
2.666200000000000000e+05 2.255820000000000000e+05
3.473840000000000000e+05 6.871000000000000000e+04
3.374780000000000000e+05 -9.411300000000000000e+04
2.333730000000000000e+05 -2.288900000000000000e+05
5.994600000000000000e+04 -2.879150000000000000e+05
-1.295420000000000000e+05 -2.572770000000000000e+05
-2.758950000000000000e+05 -1.348610000000000000e+05
-3.451500000000000000e+05 4.318700000000000000e+04
-2.441150000000000000e+05 1.891980000000000000e+05
-8.937300000000000000e+04 2.561180000000000000e+05
7.259700000000000000e+04 2.472350000000000000e+05
1.979620000000000000e+05 1.678860000000000000e+05
2.569530000000000000e+05 4.455000000000000000e+04
2.351630000000000000e+05 -8.004800000000000000e+04
1.480070000000000000e+05 -1.672560000000000000e+05
3.183100000000000000e+04 -2.010310000000000000e+05
