6.140000000000000000e+02 3.905000000000000000e+03
-1.530000000000000000e+02 4.211000000000000000e+03
9.210000000000000000e+02 4.365000000000000000e+03
2.830000000000000000e+03 2.523000000000000000e+03
2.284000000000000000e+03 2.949000000000000000e+03
2.455000000000000000e+03 3.939000000000000000e+03
1.449000000000000000e+03 4.348000000000000000e+03
-4.090000000000000000e+02 3.751000000000000000e+03
2.592000000000000000e+03 3.632000000000000000e+03
2.182000000000000000e+03 2.984000000000000000e+03
2.950000000000000000e+03 4.569000000000000000e+03
2.012000000000000000e+03 3.564000000000000000e+03
8.360000000000000000e+02 4.519000000000000000e+03
2.949000000000000000e+03 2.523000000000000000e+03
2.625000000000000000e+03 4.600000000000000000e+02
2.284000000000000000e+03 4.313000000000000000e+03
2.540000000000000000e+03 3.410000000000000000e+03
2.864000000000000000e+03 3.938000000000000000e+03
2.080000000000000000e+03 2.950000000000000000e+03
2.625000000000000000e+03 2.728000000000000000e+03
3.137000000000000000e+03 2.438000000000000000e+03
2.233000000000000000e+03 2.216000000000000000e+03
2.012000000000000000e+03 2.796000000000000000e+03
3.580000000000000000e+03 4.501000000000000000e+03
1.824000000000000000e+03 3.137000000000000000e+03
2.097000000000000000e+03 1.807000000000000000e+03
3.120000000000000000e+03 2.319000000000000000e+03
2.404000000000000000e+03 4.313000000000000000e+03
3.955000000000000000e+03 2.183000000000000000e+03
3.375000000000000000e+03 1.024000000000000000e+03
2.950000000000000000e+03 2.029000000000000000e+03
2.966000000000000000e+03 9.370000000000000000e+02
2.949000000000000000e+03 1.484000000000000000e+03
5.063000000000000000e+03 1.484000000000000000e+03
1.943000000000000000e+03 1.074000000000000000e+03
2.898000000000000000e+03 1.586000000000000000e+03
2.795000000000000000e+03 1.449000000000000000e+03
2.694000000000000000e+03 8.360000000000000000e+02
2.438000000000000000e+03 5.620000000000000000e+02
1.772000000000000000e+03 1.995000000000000000e+03
1.347000000000000000e+03 2.046000000000000000e+03
3.325000000000000000e+03 6.990000000000000000e+02
2.898000000000000000e+03 1.228000000000000000e+03
3.239000000000000000e+03 1.586000000000000000e+03
2.284000000000000000e+03 2.251000000000000000e+03
2.779000000000000000e+03 2.080000000000000000e+03
2.830000000000000000e+03 2.233000000000000000e+03
3.376000000000000000e+03 2.626000000000000000e+03
8.700000000000000000e+02 1.586000000000000000e+03
4.415000000000000000e+03 6.974000000000000000e+03
1.722000000000000000e+03 1.500000000000000000e+03
2.131000000000000000e+03 1.995000000000000000e+03
2.029000000000000000e+03 2.865000000000000000e+03
1.602000000000000000e+03 1.926000000000000000e+03
2.796000000000000000e+03 1.500000000000000000e+03
9.720000000000000000e+02 1.552000000000000000e+03
1.177000000000000000e+03 5.110000000000000000e+02
1.262000000000000000e+03 1.483000000000000000e+03
1.449000000000000000e+03 2.080000000000000000e+03
1.961000000000000000e+03 -1.710000000000000000e+02
-1.360000000000000000e+02 2.677000000000000000e+03
1.535000000000000000e+03 1.313000000000000000e+03
1.415000000000000000e+03 1.978000000000000000e+03
1.414000000000000000e+03 1.739000000000000000e+03
1.330000000000000000e+03 8.180000000000000000e+02
1.926000000000000000e+03 2.148000000000000000e+03
1.978000000000000000e+03 4.260000000000000000e+02
3.682000000000000000e+03 1.501000000000000000e+03
1.006000000000000000e+03 1.108000000000000000e+03
1.091000000000000000e+03 1.483000000000000000e+03
1.074000000000000000e+03 6.990000000000000000e+02
1.670000000000000000e+03 1.330000000000000000e+03
4.270000000000000000e+02 1.176000000000000000e+03
4.770000000000000000e+02 1.125000000000000000e+03
5.460000000000000000e+02 4.090000000000000000e+02
2.900000000000000000e+02 6.820000000000000000e+02
1.020000000000000000e+02 -1.023000000000000000e+03
3.750000000000000000e+02 1.569000000000000000e+03
1.398000000000000000e+03 1.568000000000000000e+03
5.290000000000000000e+02 8.190000000000000000e+02
2.557000000000000000e+03 3.920000000000000000e+02
1.193000000000000000e+03 9.890000000000000000e+02
9.720000000000000000e+02 1.200000000000000000e+02
1.278000000000000000e+03 1.654000000000000000e+03
1.176000000000000000e+03 1.790000000000000000e+03
1.978000000000000000e+03 2.728000000000000000e+03
7.840000000000000000e+02 1.245000000000000000e+03
8.520000000000000000e+02 9.550000000000000000e+02
8.600000000000000000e+01 9.210000000000000000e+02
2.489000000000000000e+03 2.762000000000000000e+03
-1.700000000000000000e+01 1.091000000000000000e+03
-7.500000000000000000e+02 1.160000000000000000e+03
-1.125000000000000000e+03 3.308000000000000000e+03
1.399000000000000000e+03 2.183000000000000000e+03
-1.870000000000000000e+02 2.182000000000000000e+03
-6.820000000000000000e+02 1.893000000000000000e+03
-5.630000000000000000e+02 2.301000000000000000e+03
-8.360000000000000000e+02 3.597000000000000000e+03
1.143000000000000000e+03 1.568000000000000000e+03
1.190000000000000000e+02 3.427000000000000000e+03
-3.240000000000000000e+02 2.012000000000000000e+03
-2.268000000000000000e+03 1.841000000000000000e+03
-6.650000000000000000e+02 3.206000000000000000e+03
-2.046000000000000000e+03 2.148000000000000000e+03
-3.035000000000000000e+03 1.585000000000000000e+03
-1.790000000000000000e+03 3.581000000000000000e+03
-2.814000000000000000e+03 2.353000000000000000e+03
-2.233000000000000000e+03 1.978000000000000000e+03
-2.541000000000000000e+03 3.325000000000000000e+03
-3.171000000000000000e+03 5.098000000000000000e+03
-2.370000000000000000e+03 3.427000000000000000e+03
-4.075000000000000000e+03 6.071000000000000000e+03
-4.023000000000000000e+03 5.116000000000000000e+03
-2.149000000000000000e+03 4.416000000000000000e+03
-2.711000000000000000e+03 4.996000000000000000e+03
-3.376000000000000000e+03 5.899000000000000000e+03
-4.229000000000000000e+03 4.979000000000000000e+03
-4.416000000000000000e+03 5.763000000000000000e+03
-4.637000000000000000e+03 5.592000000000000000e+03
-3.427000000000000000e+03 6.462000000000000000e+03
-3.461000000000000000e+03 6.292000000000000000e+03
-3.938000000000000000e+03 5.422000000000000000e+03
-3.462000000000000000e+03 7.809000000000000000e+03
-3.410000000000000000e+03 7.366000000000000000e+03
-3.682000000000000000e+03 3.938000000000000000e+03
-4.058000000000000000e+03 3.546000000000000000e+03
-2.387000000000000000e+03 4.432000000000000000e+03
-3.375000000000000000e+03 4.416000000000000000e+03
-2.506000000000000000e+03 3.581000000000000000e+03
-3.955000000000000000e+03 5.302000000000000000e+03
-4.211000000000000000e+03 6.087000000000000000e+03
-3.171000000000000000e+03 4.723000000000000000e+03
-3.547000000000000000e+03 6.292000000000000000e+03
-2.302000000000000000e+03 6.428000000000000000e+03
-1.926000000000000000e+03 7.093000000000000000e+03
-2.864000000000000000e+03 6.940000000000000000e+03
-1.875000000000000000e+03 7.894000000000000000e+03
-1.636000000000000000e+03 7.690000000000000000e+03
-1.994000000000000000e+03 6.241000000000000000e+03
-8.690000000000000000e+02 7.962000000000000000e+03
-1.978000000000000000e+03 8.678000000000000000e+03
-1.637000000000000000e+03 8.082000000000000000e+03
-1.602000000000000000e+03 8.064000000000000000e+03
-8.860000000000000000e+02 9.292000000000000000e+03
-1.841000000000000000e+03 9.053000000000000000e+03
-1.330000000000000000e+03 8.917000000000000000e+03
-6.990000000000000000e+02 8.798000000000000000e+03
1.540000000000000000e+02 8.593000000000000000e+03
1.381000000000000000e+03 8.747000000000000000e+03
3.410000000000000000e+02 8.865000000000000000e+03
1.700000000000000000e+01 9.736000000000000000e+03
5.450000000000000000e+02 9.411000000000000000e+03
2.560000000000000000e+02 9.906000000000000000e+03
1.995000000000000000e+03 8.184000000000000000e+03
2.131000000000000000e+03 9.599000000000000000e+03
6.990000000000000000e+02 8.746000000000000000e+03
6.480000000000000000e+02 7.774000000000000000e+03
1.773000000000000000e+03 8.355000000000000000e+03
1.876000000000000000e+03 8.934000000000000000e+03
1.057000000000000000e+03 8.440000000000000000e+03
1.995000000000000000e+03 9.003000000000000000e+03
4.950000000000000000e+02 8.303000000000000000e+03
2.063000000000000000e+03 6.496000000000000000e+03
2.421000000000000000e+03 7.450000000000000000e+03
2.148000000000000000e+03 8.065000000000000000e+03
1.143000000000000000e+03 7.195000000000000000e+03
2.047000000000000000e+03 7.570000000000000000e+03
1.688000000000000000e+03 7.383000000000000000e+03
1.808000000000000000e+03 6.530000000000000000e+03
1.330000000000000000e+03 6.684000000000000000e+03
3.717000000000000000e+03 6.547000000000000000e+03
4.600000000000000000e+02 5.439000000000000000e+03
3.581000000000000000e+03 5.285000000000000000e+03
3.035000000000000000e+03 4.604000000000000000e+03
2.625000000000000000e+03 6.155000000000000000e+03
2.881000000000000000e+03 5.404000000000000000e+03
2.114000000000000000e+03 3.837000000000000000e+03
1.705000000000000000e+03 5.149000000000000000e+03
2.608000000000000000e+03 4.859000000000000000e+03
2.831000000000000000e+03 3.921000000000000000e+03
1.006000000000000000e+03 4.075000000000000000e+03
2.080000000000000000e+03 5.047000000000000000e+03
5.110000000000000000e+02 2.660000000000000000e+03
4.780000000000000000e+02 3.683000000000000000e+03
1.551000000000000000e+03 3.665000000000000000e+03
1.279000000000000000e+03 4.466000000000000000e+03
1.534000000000000000e+03 4.041000000000000000e+03
1.432000000000000000e+03 1.603000000000000000e+03
4.950000000000000000e+02 3.939000000000000000e+03
1.466000000000000000e+03 2.216000000000000000e+03
5.280000000000000000e+02 2.268000000000000000e+03
1.501000000000000000e+03 2.506000000000000000e+03
9.550000000000000000e+02 2.864000000000000000e+03
9.890000000000000000e+02 1.637000000000000000e+03
1.177000000000000000e+03 1.535000000000000000e+03
1.722000000000000000e+03 1.091000000000000000e+03
8.010000000000000000e+02 2.438000000000000000e+03
-4.940000000000000000e+02 1.193000000000000000e+03
5.620000000000000000e+02 1.057000000000000000e+03
-6.820000000000000000e+02 1.040000000000000000e+03
-4.260000000000000000e+02 -3.240000000000000000e+02
7.670000000000000000e+02 9.550000000000000000e+02
-8.500000000000000000e+01 -4.600000000000000000e+02
-8.500000000000000000e+01 4.260000000000000000e+02
-1.370000000000000000e+02 4.610000000000000000e+02
-1.296000000000000000e+03 -2.050000000000000000e+02
-3.070000000000000000e+02 -2.251000000000000000e+03
1.108000000000000000e+03 -1.313000000000000000e+03
3.400000000000000000e+01 -2.199000000000000000e+03
5.120000000000000000e+02 -1.126000000000000000e+03
-8.600000000000000000e+01 -1.142000000000000000e+03
-8.500000000000000000e+01 -1.961000000000000000e+03
8.190000000000000000e+02 -2.455000000000000000e+03
5.100000000000000000e+01 -9.550000000000000000e+02
-6.650000000000000000e+02 -2.268000000000000000e+03
-2.380000000000000000e+02 -2.933000000000000000e+03
3.070000000000000000e+02 -2.216000000000000000e+03
-2.040000000000000000e+02 -2.608000000000000000e+03
-2.560000000000000000e+02 -2.387000000000000000e+03
9.380000000000000000e+02 -2.012000000000000000e+03
1.126000000000000000e+03 -2.353000000000000000e+03
1.700000000000000000e+01 -1.671000000000000000e+03
-7.850000000000000000e+02 -2.199000000000000000e+03
-5.800000000000000000e+02 -1.433000000000000000e+03
-5.110000000000000000e+02 -1.569000000000000000e+03
-4.600000000000000000e+02 -4.195000000000000000e+03
2.199000000000000000e+03 -3.580000000000000000e+03
-1.880000000000000000e+02 -3.018000000000000000e+03
9.210000000000000000e+02 -3.615000000000000000e+03
-5.620000000000000000e+02 -3.018000000000000000e+03
9.210000000000000000e+02 -3.734000000000000000e+03
1.142000000000000000e+03 -4.041000000000000000e+03
-5.200000000000000000e+01 -3.411000000000000000e+03
-8.180000000000000000e+02 -2.250000000000000000e+03
-2.900000000000000000e+02 -1.517000000000000000e+03
-6.140000000000000000e+02 -4.058000000000000000e+03
-3.750000000000000000e+02 -3.871000000000000000e+03
1.190000000000000000e+02 -3.956000000000000000e+03
3.750000000000000000e+02 -3.665000000000000000e+03
9.540000000000000000e+02 -4.637000000000000000e+03
-6.320000000000000000e+02 -2.830000000000000000e+03
-1.398000000000000000e+03 -3.461000000000000000e+03
-4.600000000000000000e+02 -3.819000000000000000e+03
-8.190000000000000000e+02 -5.064000000000000000e+03
-2.456000000000000000e+03 -4.553000000000000000e+03
-8.870000000000000000e+02 -3.922000000000000000e+03
-9.890000000000000000e+02 -3.052000000000000000e+03
-9.040000000000000000e+02 -3.001000000000000000e+03
-1.074000000000000000e+03 -3.478000000000000000e+03
-2.250000000000000000e+03 -4.739000000000000000e+03
-4.260000000000000000e+02 -3.512000000000000000e+03
-2.166000000000000000e+03 -1.807000000000000000e+03
-5.800000000000000000e+02 -3.563000000000000000e+03
-3.001000000000000000e+03 -2.182000000000000000e+03
-4.090000000000000000e+02 -1.842000000000000000e+03
-1.807000000000000000e+03 -1.381000000000000000e+03
-1.880000000000000000e+02 -2.643000000000000000e+03
-1.927000000000000000e+03 -4.600000000000000000e+02
-1.892000000000000000e+03 -1.245000000000000000e+03
-1.636000000000000000e+03 1.466000000000000000e+03
-1.534000000000000000e+03 -7.840000000000000000e+02
-1.807000000000000000e+03 6.310000000000000000e+02
-9.890000000000000000e+02 -1.360000000000000000e+02
-1.450000000000000000e+03 -5.460000000000000000e+02
-1.517000000000000000e+03 1.774000000000000000e+03
-6.480000000000000000e+02 9.550000000000000000e+02
-3.750000000000000000e+02 2.540000000000000000e+03
2.900000000000000000e+02 1.245000000000000000e+03
-2.220000000000000000e+02 4.228000000000000000e+03
-1.364000000000000000e+03 1.825000000000000000e+03
-6.140000000000000000e+02 2.609000000000000000e+03
-5.460000000000000000e+02 4.127000000000000000e+03
-1.381000000000000000e+03 3.103000000000000000e+03
4.260000000000000000e+02 4.314000000000000000e+03
1.296000000000000000e+03 4.399000000000000000e+03
1.040000000000000000e+03 4.433000000000000000e+03
3.035000000000000000e+03 5.149000000000000000e+03
1.927000000000000000e+03 5.320000000000000000e+03
2.864000000000000000e+03 6.053000000000000000e+03
2.966000000000000000e+03 6.172000000000000000e+03
2.642000000000000000e+03 5.780000000000000000e+03
4.655000000000000000e+03 5.780000000000000000e+03
4.450000000000000000e+03 6.189000000000000000e+03
4.671000000000000000e+03 5.302000000000000000e+03
3.904000000000000000e+03 6.360000000000000000e+03
4.568000000000000000e+03 4.023000000000000000e+03
7.161000000000000000e+03 6.018000000000000000e+03
6.444000000000000000e+03 4.484000000000000000e+03
6.052000000000000000e+03 5.354000000000000000e+03
6.087000000000000000e+03 4.910000000000000000e+03
6.018000000000000000e+03 4.928000000000000000e+03
7.433000000000000000e+03 4.501000000000000000e+03
7.945000000000000000e+03 4.552000000000000000e+03
7.126000000000000000e+03 4.518000000000000000e+03
7.092000000000000000e+03 4.876000000000000000e+03
7.127000000000000000e+03 3.530000000000000000e+03
8.967000000000000000e+03 3.546000000000000000e+03
9.138000000000000000e+03 3.393000000000000000e+03
8.933000000000000000e+03 2.200000000000000000e+03
7.502000000000000000e+03 2.608000000000000000e+03
8.559000000000000000e+03 2.012000000000000000e+03
8.235000000000000000e+03 2.081000000000000000e+03
8.644000000000000000e+03 2.762000000000000000e+03
6.649000000000000000e+03 1.467000000000000000e+03
7.092000000000000000e+03 -2.220000000000000000e+02
7.962000000000000000e+03 2.050000000000000000e+02
7.280000000000000000e+03 -5.100000000000000000e+01
7.451000000000000000e+03 -1.700000000000000000e+02
5.916000000000000000e+03 -9.200000000000000000e+02
5.643000000000000000e+03 -1.142000000000000000e+03
5.729000000000000000e+03 -2.336000000000000000e+03
3.870000000000000000e+03 -1.126000000000000000e+03
4.074000000000000000e+03 -3.325000000000000000e+03
5.217000000000000000e+03 -3.546000000000000000e+03
4.978000000000000000e+03 -2.421000000000000000e+03
2.574000000000000000e+03 -2.694000000000000000e+03
4.075000000000000000e+03 -2.967000000000000000e+03
1.176000000000000000e+03 -4.263000000000000000e+03
2.608000000000000000e+03 -3.836000000000000000e+03
2.541000000000000000e+03 -4.211000000000000000e+03
1.023000000000000000e+03 -4.245000000000000000e+03
2.217000000000000000e+03 -5.047000000000000000e+03
-1.020000000000000000e+02 -5.524000000000000000e+03
1.722000000000000000e+03 -7.041000000000000000e+03
-1.360000000000000000e+02 -5.695000000000000000e+03
-2.560000000000000000e+02 -5.473000000000000000e+03
-5.460000000000000000e+02 -5.387000000000000000e+03
-2.813000000000000000e+03 -5.984000000000000000e+03
-2.489000000000000000e+03 -5.660000000000000000e+03
-2.098000000000000000e+03 -6.377000000000000000e+03
-2.881000000000000000e+03 -5.609000000000000000e+03
-2.710000000000000000e+03 -6.087000000000000000e+03
-3.205000000000000000e+03 -4.842000000000000000e+03
-4.773000000000000000e+03 -4.672000000000000000e+03
-3.393000000000000000e+03 -6.939000000000000000e+03
-4.654000000000000000e+03 -5.200000000000000000e+03
-3.342000000000000000e+03 -6.291000000000000000e+03
-6.513000000000000000e+03 -7.298000000000000000e+03
-5.285000000000000000e+03 -6.803000000000000000e+03
-5.439000000000000000e+03 -6.615000000000000000e+03
-4.945000000000000000e+03 -5.865000000000000000e+03
-7.859000000000000000e+03 -3.751000000000000000e+03
-6.803000000000000000e+03 -6.752000000000000000e+03
-6.053000000000000000e+03 -5.234000000000000000e+03
-7.178000000000000000e+03 -6.462000000000000000e+03
-7.996000000000000000e+03 -5.370000000000000000e+03
-9.275000000000000000e+03 -5.559000000000000000e+03
-8.252000000000000000e+03 -5.626000000000000000e+03
-8.644000000000000000e+03 -5.746000000000000000e+03
-9.155000000000000000e+03 -6.206000000000000000e+03
-1.014500000000000000e+04 -5.882000000000000000e+03
-9.173000000000000000e+03 -5.081000000000000000e+03
-9.497000000000000000e+03 -5.763000000000000000e+03
-1.029800000000000000e+04 -5.967000000000000000e+03
-9.053000000000000000e+03 -5.883000000000000000e+03
-8.576000000000000000e+03 -4.194000000000000000e+03
-9.787000000000000000e+03 -3.479000000000000000e+03
-1.046900000000000000e+04 -5.575000000000000000e+03
-1.012700000000000000e+04 -3.580000000000000000e+03
-9.428000000000000000e+03 -3.239000000000000000e+03
-8.543000000000000000e+03 -2.455000000000000000e+03
-9.957000000000000000e+03 -4.689000000000000000e+03
-1.123600000000000000e+04 -2.507000000000000000e+03
-9.445000000000000000e+03 -1.347000000000000000e+03
-1.101500000000000000e+04 -1.364000000000000000e+03
-9.139000000000000000e+03 7.160000000000000000e+02
-8.541000000000000000e+03 1.360000000000000000e+02
-1.024700000000000000e+04 -3.070000000000000000e+02
-8.423000000000000000e+03 6.820000000000000000e+02
-8.542000000000000000e+03 1.244000000000000000e+03
-1.080900000000000000e+04 8.870000000000000000e+02
-9.258000000000000000e+03 1.756000000000000000e+03
-8.167000000000000000e+03 2.865000000000000000e+03
-8.371000000000000000e+03 2.285000000000000000e+03
-8.389000000000000000e+03 4.331000000000000000e+03
-7.366000000000000000e+03 3.308000000000000000e+03
-8.167000000000000000e+03 4.195000000000000000e+03
-7.434000000000000000e+03 4.194000000000000000e+03
-7.297000000000000000e+03 4.961000000000000000e+03
-7.110000000000000000e+03 5.337000000000000000e+03
-6.206000000000000000e+03 6.428000000000000000e+03
-3.666000000000000000e+03 6.751000000000000000e+03
-5.541000000000000000e+03 6.650000000000000000e+03
-3.205000000000000000e+03 7.962000000000000000e+03
-4.195000000000000000e+03 9.395000000000000000e+03
-3.206000000000000000e+03 7.877000000000000000e+03
-3.256000000000000000e+03 9.394000000000000000e+03
-1.057000000000000000e+03 8.422000000000000000e+03
-2.301000000000000000e+03 9.872000000000000000e+03
-8.520000000000000000e+02 1.041700000000000000e+04
-1.006000000000000000e+03 9.804000000000000000e+03
1.244000000000000000e+03 1.055300000000000000e+04
1.228000000000000000e+03 1.072400000000000000e+04
2.728000000000000000e+03 1.084300000000000000e+04
3.035000000000000000e+03 1.140600000000000000e+04
3.274000000000000000e+03 1.198600000000000000e+04
4.893000000000000000e+03 1.060400000000000000e+04
5.525000000000000000e+03 1.202000000000000000e+04
5.422000000000000000e+03 1.036600000000000000e+04
6.360000000000000000e+03 1.232600000000000000e+04
6.803000000000000000e+03 1.196800000000000000e+04
7.502000000000000000e+03 1.128600000000000000e+04
9.071000000000000000e+03 1.024700000000000000e+04
7.775000000000000000e+03 1.009300000000000000e+04
9.957000000000000000e+03 8.934000000000000000e+03
1.004200000000000000e+04 9.309000000000000000e+03
1.265000000000000000e+04 9.121000000000000000e+03
1.181500000000000000e+04 9.292000000000000000e+03
1.300900000000000000e+04 5.763000000000000000e+03
1.200200000000000000e+04 7.263000000000000000e+03
1.171300000000000000e+04 5.558000000000000000e+03
1.212200000000000000e+04 5.132000000000000000e+03
1.244600000000000000e+04 4.449000000000000000e+03
1.258200000000000000e+04 4.193000000000000000e+03
1.220700000000000000e+04 3.188000000000000000e+03
1.314500000000000000e+04 2.693000000000000000e+03
1.285500000000000000e+04 -4.770000000000000000e+02
1.338400000000000000e+04 8.500000000000000000e+01
1.425400000000000000e+04 -8.010000000000000000e+02
1.285500000000000000e+04 -1.893000000000000000e+03
1.270200000000000000e+04 -1.569000000000000000e+03
1.335000000000000000e+04 -2.472000000000000000e+03
1.481600000000000000e+04 -3.631000000000000000e+03
1.282100000000000000e+04 -6.291000000000000000e+03
1.201900000000000000e+04 -6.410000000000000000e+03
1.176400000000000000e+04 -5.490000000000000000e+03
1.335000000000000000e+04 -7.945000000000000000e+03
1.079200000000000000e+04 -9.224000000000000000e+03
1.000700000000000000e+04 -9.156000000000000000e+03
9.564000000000000000e+03 -1.050300000000000000e+04
9.036000000000000000e+03 -1.063900000000000000e+04
7.757000000000000000e+03 -1.263400000000000000e+04
7.689000000000000000e+03 -1.350400000000000000e+04
6.308000000000000000e+03 -1.401400000000000000e+04
4.467000000000000000e+03 -1.399800000000000000e+04
3.682000000000000000e+03 -1.500400000000000000e+04
3.171000000000000000e+03 -1.543000000000000000e+04
1.910000000000000000e+03 -1.578800000000000000e+04
1.360000000000000000e+02 -1.667500000000000000e+04
-1.057000000000000000e+03 -1.781700000000000000e+04
-7.510000000000000000e+02 -1.674300000000000000e+04
-3.069000000000000000e+03 -1.645300000000000000e+04
-3.649000000000000000e+03 -1.762900000000000000e+04
-4.296000000000000000e+03 -1.595900000000000000e+04
-6.513000000000000000e+03 -1.444100000000000000e+04
-8.303000000000000000e+03 -1.638500000000000000e+04
-9.411000000000000000e+03 -1.563400000000000000e+04
-1.055400000000000000e+04 -1.485000000000000000e+04
-1.161200000000000000e+04 -1.468000000000000000e+04
-1.196900000000000000e+04 -1.398100000000000000e+04
-1.408300000000000000e+04 -1.450900000000000000e+04
-1.331500000000000000e+04 -1.196900000000000000e+04
-1.549800000000000000e+04 -1.157700000000000000e+04
-1.699800000000000000e+04 -1.023100000000000000e+04
-1.611200000000000000e+04 -9.207000000000000000e+03
-1.696500000000000000e+04 -8.338000000000000000e+03
-1.841300000000000000e+04 -8.866000000000000000e+03
-1.749200000000000000e+04 -7.298000000000000000e+03
-1.855000000000000000e+04 -5.592000000000000000e+03
-1.884000000000000000e+04 -2.319000000000000000e+03
-1.735600000000000000e+04 -2.575000000000000000e+03
-1.725400000000000000e+04 -8.500000000000000000e+01
-1.858400000000000000e+04 -2.890000000000000000e+02
-1.585600000000000000e+04 6.480000000000000000e+02
-1.706700000000000000e+04 2.455000000000000000e+03
-1.612800000000000000e+04 4.586000000000000000e+03
-1.517400000000000000e+04 4.058000000000000000e+03
-1.509000000000000000e+04 6.837000000000000000e+03
-1.512300000000000000e+04 7.484000000000000000e+03
-1.410000000000000000e+04 8.081000000000000000e+03
-1.345300000000000000e+04 8.661000000000000000e+03
-1.214000000000000000e+04 9.701000000000000000e+03
-1.060500000000000000e+04 1.060400000000000000e+04
-1.144100000000000000e+04 1.132100000000000000e+04
-9.121000000000000000e+03 1.375900000000000000e+04
-9.650000000000000000e+03 1.268500000000000000e+04
-8.576000000000000000e+03 1.329800000000000000e+04
-6.326000000000000000e+03 1.225900000000000000e+04
-5.217000000000000000e+03 1.401500000000000000e+04
-5.184000000000000000e+03 1.425300000000000000e+04
-3.972000000000000000e+03 1.471400000000000000e+04
-2.831000000000000000e+03 1.399800000000000000e+04
-1.159000000000000000e+03 1.290700000000000000e+04
-2.012000000000000000e+03 1.551500000000000000e+04
2.148000000000000000e+03 1.546400000000000000e+04
1.824000000000000000e+03 1.674200000000000000e+04
1.346000000000000000e+03 1.677700000000000000e+04
4.126000000000000000e+03 1.444100000000000000e+04
4.263000000000000000e+03 1.515600000000000000e+04
5.660000000000000000e+03 1.336700000000000000e+04
5.405000000000000000e+03 1.570200000000000000e+04
6.649000000000000000e+03 1.512300000000000000e+04
8.320000000000000000e+03 1.454300000000000000e+04
7.400000000000000000e+03 1.459500000000000000e+04
9.889000000000000000e+03 1.416800000000000000e+04
1.075800000000000000e+04 1.275300000000000000e+04
9.343000000000000000e+03 1.244600000000000000e+04
1.115100000000000000e+04 1.181500000000000000e+04
1.142300000000000000e+04 1.265100000000000000e+04
1.225900000000000000e+04 1.254800000000000000e+04
1.321300000000000000e+04 1.109900000000000000e+04
1.249700000000000000e+04 1.205400000000000000e+04
1.386100000000000000e+04 1.103100000000000000e+04
1.331500000000000000e+04 1.028100000000000000e+04
1.352100000000000000e+04 5.729000000000000000e+03
2.404000000000000000e+04 4.075000000000000000e+03
1.728800000000000000e+04 1.336700000000000000e+04
1.725400000000000000e+04 1.000700000000000000e+04
1.657200000000000000e+04 8.712000000000000000e+03
1.568600000000000000e+04 8.183000000000000000e+03
1.636800000000000000e+04 7.979000000000000000e+03
1.696400000000000000e+04 5.660000000000000000e+03
1.779900000000000000e+04 5.097000000000000000e+03
1.560100000000000000e+04 5.523000000000000000e+03
1.727200000000000000e+04 4.637000000000000000e+03
1.858300000000000000e+04 4.416000000000000000e+03
1.572000000000000000e+04 2.745000000000000000e+03
1.568600000000000000e+04 2.217000000000000000e+03
1.691400000000000000e+04 -5.620000000000000000e+02
1.689600000000000000e+04 1.176000000000000000e+03
1.676000000000000000e+04 -4.090000000000000000e+02
1.614600000000000000e+04 -1.602000000000000000e+03
1.686200000000000000e+04 -2.380000000000000000e+02
1.491900000000000000e+04 -1.416000000000000000e+03
1.502100000000000000e+04 -2.574000000000000000e+03
1.534500000000000000e+04 -3.615000000000000000e+03
1.604400000000000000e+04 -4.826000000000000000e+03
1.456100000000000000e+04 -4.484000000000000000e+03
1.265100000000000000e+04 -6.462000000000000000e+03
1.403200000000000000e+04 -6.700000000000000000e+03
1.435600000000000000e+04 -7.451000000000000000e+03
1.278800000000000000e+04 -6.138000000000000000e+03
1.183300000000000000e+04 -7.962000000000000000e+03
1.011100000000000000e+04 -9.241000000000000000e+03
1.205400000000000000e+04 -9.531000000000000000e+03
8.320000000000000000e+03 -1.057200000000000000e+04
8.611000000000000000e+03 -1.079200000000000000e+04
8.491000000000000000e+03 -1.000800000000000000e+04
8.592000000000000000e+03 -1.110000000000000000e+04
6.496000000000000000e+03 -1.157700000000000000e+04
5.217000000000000000e+03 -1.043400000000000000e+04
5.319000000000000000e+03 -1.198600000000000000e+04
4.041000000000000000e+03 -1.239500000000000000e+04
3.699000000000000000e+03 -1.164500000000000000e+04
4.058000000000000000e+03 -1.144100000000000000e+04
2.797000000000000000e+03 -1.360600000000000000e+04
1.619000000000000000e+03 -1.241200000000000000e+04
2.643000000000000000e+03 -1.317900000000000000e+04
-4.600000000000000000e+02 -1.411700000000000000e+04
-2.250000000000000000e+03 -1.358900000000000000e+04
-1.585000000000000000e+03 -1.428800000000000000e+04
-2.848000000000000000e+03 -1.382700000000000000e+04
-4.842000000000000000e+03 -1.271900000000000000e+04
-5.200000000000000000e+03 -1.413400000000000000e+04
-7.399000000000000000e+03 -1.358900000000000000e+04
-6.871000000000000000e+03 -1.428800000000000000e+04
-6.155000000000000000e+03 -1.386200000000000000e+04
-7.723000000000000000e+03 -1.411800000000000000e+04
-1.070700000000000000e+04 -1.329900000000000000e+04
-1.080900000000000000e+04 -1.198600000000000000e+04
-1.237800000000000000e+04 -1.295800000000000000e+04
-1.294000000000000000e+04 -1.244600000000000000e+04
-1.292300000000000000e+04 -1.214000000000000000e+04
-1.302600000000000000e+04 -1.326500000000000000e+04
-1.401400000000000000e+04 -1.154300000000000000e+04
-1.495300000000000000e+04 -1.203800000000000000e+04
-1.507200000000000000e+04 -9.548000000000000000e+03
-1.776600000000000000e+04 -9.906000000000000000e+03
-1.843100000000000000e+04 -1.075900000000000000e+04
-1.972600000000000000e+04 -8.713000000000000000e+03
-1.996500000000000000e+04 -8.320000000000000000e+03
-2.165200000000000000e+04 -9.309000000000000000e+03
-2.369900000000000000e+04 -7.741000000000000000e+03
-2.376700000000000000e+04 -7.178000000000000000e+03
-2.770500000000000000e+04 -6.905000000000000000e+03
-2.363000000000000000e+04 -4.433000000000000000e+03
-2.421000000000000000e+04 -2.285000000000000000e+03
-2.444900000000000000e+04 -2.609000000000000000e+03
-2.542100000000000000e+04 3.750000000000000000e+02
-2.623900000000000000e+04 1.200000000000000000e+02
-2.637500000000000000e+04 2.114000000000000000e+03
-2.511400000000000000e+04 3.683000000000000000e+03
-2.632400000000000000e+04 5.201000000000000000e+03
-2.717600000000000000e+04 5.899000000000000000e+03
-2.634100000000000000e+04 7.979000000000000000e+03
-2.656300000000000000e+04 9.684000000000000000e+03
-2.763800000000000000e+04 1.077500000000000000e+04
-2.589800000000000000e+04 1.350300000000000000e+04
-2.482300000000000000e+04 1.515600000000000000e+04
-2.507900000000000000e+04 1.633300000000000000e+04
-2.386900000000000000e+04 1.865200000000000000e+04
-2.368200000000000000e+04 2.027200000000000000e+04
-2.315300000000000000e+04 2.151700000000000000e+04
-2.216400000000000000e+04 2.346000000000000000e+04
-1.923200000000000000e+04 2.415900000000000000e+04
-1.781700000000000000e+04 2.552300000000000000e+04
-1.764600000000000000e+04 2.681800000000000000e+04
-1.594100000000000000e+04 2.923900000000000000e+04
-1.297500000000000000e+04 2.866000000000000000e+04
-1.080900000000000000e+04 3.000700000000000000e+04
-1.147400000000000000e+04 3.219000000000000000e+04
-9.480000000000000000e+03 3.370600000000000000e+04
-6.086000000000000000e+03 3.172900000000000000e+04
-2.865000000000000000e+03 3.225800000000000000e+04
-1.756000000000000000e+03 3.292200000000000000e+04
1.688000000000000000e+03 3.273500000000000000e+04
1.927000000000000000e+03 3.246200000000000000e+04
4.587000000000000000e+03 3.287200000000000000e+04
7.536000000000000000e+03 3.186500000000000000e+04
8.576000000000000000e+03 3.200200000000000000e+04
9.634000000000000000e+03 3.138800000000000000e+04
1.081000000000000000e+04 3.022900000000000000e+04
1.384500000000000000e+04 2.971800000000000000e+04
1.479900000000000000e+04 2.859100000000000000e+04
1.815800000000000000e+04 2.709100000000000000e+04
1.955600000000000000e+04 2.617100000000000000e+04
2.083500000000000000e+04 2.559100000000000000e+04
2.143200000000000000e+04 2.436300000000000000e+04
2.395500000000000000e+04 2.153400000000000000e+04
2.491000000000000000e+04 1.863500000000000000e+04
2.595000000000000000e+04 1.895900000000000000e+04
2.697300000000000000e+04 1.655500000000000000e+04
2.866100000000000000e+04 1.519100000000000000e+04
2.966700000000000000e+04 1.420200000000000000e+04
2.924100000000000000e+04 1.065600000000000000e+04
3.050200000000000000e+04 9.701000000000000000e+03
3.179800000000000000e+04 9.207000000000000000e+03
3.094500000000000000e+04 8.150000000000000000e+03
3.174600000000000000e+04 3.427000000000000000e+03
3.217200000000000000e+04 2.762000000000000000e+03
3.080800000000000000e+04 1.739000000000000000e+03
2.993800000000000000e+04 -1.347000000000000000e+03
3.120100000000000000e+04 -2.284000000000000000e+03
3.103000000000000000e+04 -2.608000000000000000e+03
3.135500000000000000e+04 -7.314000000000000000e+03
2.896700000000000000e+04 -7.263000000000000000e+03
2.837100000000000000e+04 -8.935000000000000000e+03
2.734800000000000000e+04 -1.212200000000000000e+04
2.837100000000000000e+04 -1.585600000000000000e+04
2.624000000000000000e+04 -1.580500000000000000e+04
2.618900000000000000e+04 -1.687900000000000000e+04
2.513100000000000000e+04 -1.848200000000000000e+04
2.417700000000000000e+04 -1.916300000000000000e+04
2.356200000000000000e+04 -2.018700000000000000e+04
2.117600000000000000e+04 -2.180700000000000000e+04
2.124300000000000000e+04 -2.289800000000000000e+04
1.904500000000000000e+04 -2.416000000000000000e+04
1.885700000000000000e+04 -2.547200000000000000e+04
1.602600000000000000e+04 -2.542100000000000000e+04
1.476500000000000000e+04 -2.531900000000000000e+04
1.454400000000000000e+04 -2.750100000000000000e+04
1.242900000000000000e+04 -2.545500000000000000e+04
9.718000000000000000e+03 -2.953000000000000000e+04
9.480000000000000000e+03 -2.852400000000000000e+04
7.263000000000000000e+03 -2.852300000000000000e+04
7.843000000000000000e+03 -2.988800000000000000e+04
3.121000000000000000e+03 -2.917100000000000000e+04
4.212000000000000000e+03 -2.954600000000000000e+04
1.279000000000000000e+03 -2.975200000000000000e+04
6.820000000000000000e+02 -2.879600000000000000e+04
-1.671000000000000000e+03 -2.942800000000000000e+04
-1.739000000000000000e+03 -2.891600000000000000e+04
-3.563000000000000000e+03 -3.017800000000000000e+04
-5.337000000000000000e+03 -2.699000000000000000e+04
-4.688000000000000000e+03 -2.772200000000000000e+04
-7.689000000000000000e+03 -2.760300000000000000e+04
-8.610000000000000000e+03 -2.760300000000000000e+04
-9.445000000000000000e+03 -2.765500000000000000e+04
-1.229300000000000000e+04 -2.675100000000000000e+04
-1.377500000000000000e+04 -2.589900000000000000e+04
-1.471300000000000000e+04 -2.431300000000000000e+04
-1.597500000000000000e+04 -2.569400000000000000e+04
-1.658900000000000000e+04 -2.335800000000000000e+04
-1.797100000000000000e+04 -2.388700000000000000e+04
-1.904400000000000000e+04 -2.255700000000000000e+04
-1.993100000000000000e+04 -2.156800000000000000e+04
-1.928300000000000000e+04 -1.856700000000000000e+04
-2.124400000000000000e+04 -2.003300000000000000e+04
-2.322100000000000000e+04 -1.870300000000000000e+04
-2.395400000000000000e+04 -1.757800000000000000e+04
-2.267600000000000000e+04 -1.667400000000000000e+04
-2.492600000000000000e+04 -1.645300000000000000e+04
-2.606800000000000000e+04 -1.609400000000000000e+04
-2.637600000000000000e+04 -1.391300000000000000e+04
-2.649500000000000000e+04 -1.386100000000000000e+04
-2.888200000000000000e+04 -1.191800000000000000e+04
-2.799500000000000000e+04 -1.246300000000000000e+04
-2.935900000000000000e+04 -1.021200000000000000e+04
-2.925600000000000000e+04 -8.576000000000000000e+03
-3.094500000000000000e+04 -6.854000000000000000e+03
-3.092800000000000000e+04 -6.360000000000000000e+03
-3.183100000000000000e+04 -5.678000000000000000e+03
-3.242800000000000000e+04 -3.427000000000000000e+03
-3.111500000000000000e+04 -2.166000000000000000e+03
-3.188300000000000000e+04 -2.012000000000000000e+03
-3.363800000000000000e+04 8.520000000000000000e+02
-3.190000000000000000e+04 1.756000000000000000e+03
-3.486700000000000000e+04 2.779000000000000000e+03
-3.309300000000000000e+04 1.961000000000000000e+03
-3.319600000000000000e+04 5.644000000000000000e+03
-3.428600000000000000e+04 6.837000000000000000e+03
-3.290600000000000000e+04 9.053000000000000000e+03
-3.438900000000000000e+04 8.660000000000000000e+03
-3.462700000000000000e+04 1.074100000000000000e+04
-3.386000000000000000e+04 1.203700000000000000e+04
-3.358700000000000000e+04 1.621400000000000000e+04
-3.312700000000000000e+04 1.691300000000000000e+04
-3.490000000000000000e+04 1.841400000000000000e+04
-3.483200000000000000e+04 2.110700000000000000e+04
-3.263200000000000000e+04 2.392100000000000000e+04
-3.225800000000000000e+04 2.531800000000000000e+04
-3.140500000000000000e+04 2.700600000000000000e+04
-3.041700000000000000e+04 2.900100000000000000e+04
-3.087700000000000000e+04 3.234300000000000000e+04
-2.932500000000000000e+04 3.324700000000000000e+04
-2.947800000000000000e+04 3.500300000000000000e+04
-2.768800000000000000e+04 3.675900000000000000e+04
-2.702300000000000000e+04 4.030500000000000000e+04
-2.451700000000000000e+04 4.255500000000000000e+04
-2.170400000000000000e+04 4.490800000000000000e+04
-2.095400000000000000e+04 4.610200000000000000e+04
-1.819100000000000000e+04 4.760200000000000000e+04
-1.589100000000000000e+04 5.149000000000000000e+04
-1.485000000000000000e+04 5.278500000000000000e+04
-1.201900000000000000e+04 5.370600000000000000e+04
-8.184000000000000000e+03 5.602500000000000000e+04
-5.370000000000000000e+03 5.830900000000000000e+04
-1.789000000000000000e+03 5.877000000000000000e+04
8.700000000000000000e+02 6.166800000000000000e+04
4.996000000000000000e+03 6.228200000000000000e+04
9.888000000000000000e+03 6.246900000000000000e+04
1.188300000000000000e+04 6.136100000000000000e+04
1.778300000000000000e+04 6.415700000000000000e+04
2.046000000000000000e+04 6.507800000000000000e+04
2.627400000000000000e+04 6.368000000000000000e+04
2.961500000000000000e+04 6.079900000000000000e+04
3.667300000000000000e+04 6.086700000000000000e+04
3.846400000000000000e+04 5.989500000000000000e+04
4.388500000000000000e+04 5.752500000000000000e+04
4.782400000000000000e+04 5.474600000000000000e+04
5.259800000000000000e+04 5.195000000000000000e+04
5.525700000000000000e+04 4.959700000000000000e+04
5.933300000000000000e+04 4.420900000000000000e+04
6.221400000000000000e+04 4.192500000000000000e+04
6.456700000000000000e+04 3.508800000000000000e+04
6.632400000000000000e+04 3.271800000000000000e+04
6.963000000000000000e+04 2.658000000000000000e+04
7.201700000000000000e+04 2.271000000000000000e+04
7.353400000000000000e+04 1.689600000000000000e+04
7.569900000000000000e+04 1.077500000000000000e+04
7.525600000000000000e+04 5.473000000000000000e+03
7.529100000000000000e+04 -5.280000000000000000e+02
7.627900000000000000e+04 -5.319000000000000000e+03
7.500100000000000000e+04 -1.215600000000000000e+04
7.525700000000000000e+04 -1.783300000000000000e+04
7.384100000000000000e+04 -2.342700000000000000e+04
7.184700000000000000e+04 -2.765500000000000000e+04
7.138600000000000000e+04 -3.447400000000000000e+04
6.691900000000000000e+04 -3.858300000000000000e+04
6.518000000000000000e+04 -4.299900000000000000e+04
6.252000000000000000e+04 -4.879500000000000000e+04
5.749100000000000000e+04 -5.150700000000000000e+04
5.358700000000000000e+04 -5.626400000000000000e+04
5.060400000000000000e+04 -6.154900000000000000e+04
4.681800000000000000e+04 -6.258900000000000000e+04
4.405600000000000000e+04 -6.734500000000000000e+04
3.909400000000000000e+04 -6.911900000000000000e+04
3.624700000000000000e+04 -7.179600000000000000e+04
3.116700000000000000e+04 -7.419900000000000000e+04
2.617100000000000000e+04 -7.535900000000000000e+04
2.107400000000000000e+04 -7.718300000000000000e+04
1.657200000000000000e+04 -7.960400000000000000e+04
1.185000000000000000e+04 -7.711500000000000000e+04
7.877000000000000000e+03 -7.962200000000000000e+04
2.011000000000000000e+03 -8.037100000000000000e+04
-3.563000000000000000e+03 -7.958700000000000000e+04
-6.683000000000000000e+03 -7.737100000000000000e+04
-1.029800000000000000e+04 -7.766000000000000000e+04
-1.553200000000000000e+04 -7.663800000000000000e+04
-1.817400000000000000e+04 -7.674000000000000000e+04
-2.253900000000000000e+04 -7.402900000000000000e+04
-2.610300000000000000e+04 -7.297200000000000000e+04
-2.983600000000000000e+04 -6.985200000000000000e+04
-3.334900000000000000e+04 -6.743000000000000000e+04
-3.617900000000000000e+04 -6.473700000000000000e+04
-3.904300000000000000e+04 -6.417500000000000000e+04
-4.264100000000000000e+04 -5.965700000000000000e+04
-4.594800000000000000e+04 -5.694600000000000000e+04
-4.801100000000000000e+04 -5.391000000000000000e+04
-4.956300000000000000e+04 -5.065400000000000000e+04
-4.998900000000000000e+04 -4.895000000000000000e+04
-5.321200000000000000e+04 -4.526700000000000000e+04
-5.426800000000000000e+04 -4.151600000000000000e+04
-5.704800000000000000e+04 -3.844600000000000000e+04
-5.766100000000000000e+04 -3.512200000000000000e+04
-5.870100000000000000e+04 -3.249700000000000000e+04
-5.974200000000000000e+04 -2.934200000000000000e+04
-5.955400000000000000e+04 -2.586400000000000000e+04
-6.021900000000000000e+04 -2.189200000000000000e+04
-6.136100000000000000e+04 -1.890800000000000000e+04
-6.107100000000000000e+04 -1.497000000000000000e+04
-6.287800000000000000e+04 -1.328200000000000000e+04
-6.262300000000000000e+04 -9.906000000000000000e+03
-6.328800000000000000e+04 -4.347000000000000000e+03
-6.265700000000000000e+04 -2.949000000000000000e+03
-6.291200000000000000e+04 -3.240000000000000000e+02
-6.178700000000000000e+04 3.444000000000000000e+03
-5.996300000000000000e+04 6.819000000000000000e+03
-5.998000000000000000e+04 9.275000000000000000e+03
-6.175300000000000000e+04 1.242900000000000000e+04
-5.905900000000000000e+04 1.619700000000000000e+04
-5.781500000000000000e+04 1.641800000000000000e+04
-5.677400000000000000e+04 2.057800000000000000e+04
-5.599100000000000000e+04 2.434700000000000000e+04
-5.498500000000000000e+04 2.431200000000000000e+04
-5.423500000000000000e+04 2.900200000000000000e+04
-5.155800000000000000e+04 3.307500000000000000e+04
-5.150700000000000000e+04 3.362100000000000000e+04
-4.949500000000000000e+04 3.863500000000000000e+04
-4.847200000000000000e+04 4.047500000000000000e+04
-4.579500000000000000e+04 4.262300000000000000e+04
-4.388500000000000000e+04 4.364700000000000000e+04
-4.243700000000000000e+04 4.560800000000000000e+04
-4.202700000000000000e+04 4.831800000000000000e+04
-4.006600000000000000e+04 5.119900000000000000e+04
-3.635000000000000000e+04 5.254600000000000000e+04
-3.558200000000000000e+04 5.646800000000000000e+04
-3.292200000000000000e+04 5.759300000000000000e+04
-2.922300000000000000e+04 5.892300000000000000e+04
-2.837000000000000000e+04 6.223100000000000000e+04
-2.589900000000000000e+04 6.393600000000000000e+04
-2.250600000000000000e+04 6.572600000000000000e+04
-1.902800000000000000e+04 6.698700000000000000e+04
-1.693000000000000000e+04 7.097700000000000000e+04
-1.382800000000000000e+04 7.010700000000000000e+04
-1.135600000000000000e+04 7.275000000000000000e+04
-7.042000000000000000e+03 7.634700000000000000e+04
-4.160000000000000000e+03 7.617700000000000000e+04
-1.006000000000000000e+03 7.791600000000000000e+04
1.279000000000000000e+03 7.795000000000000000e+04
4.876000000000000000e+03 7.897300000000000000e+04
9.923000000000000000e+03 8.083100000000000000e+04
1.365700000000000000e+04 8.020000000000000000e+04
1.629900000000000000e+04 8.168300000000000000e+04
2.213000000000000000e+04 8.156500000000000000e+04
2.593200000000000000e+04 8.500800000000000000e+04
2.937700000000000000e+04 8.272400000000000000e+04
3.399600000000000000e+04 8.309900000000000000e+04
3.793500000000000000e+04 8.233200000000000000e+04
4.388500000000000000e+04 8.234900000000000000e+04
4.963100000000000000e+04 7.939900000000000000e+04
5.377400000000000000e+04 8.105300000000000000e+04
5.800300000000000000e+04 7.820600000000000000e+04
6.408900000000000000e+04 7.725100000000000000e+04
6.794300000000000000e+04 7.314200000000000000e+04
7.481300000000000000e+04 7.029600000000000000e+04
7.967200000000000000e+04 6.949400000000000000e+04
8.395200000000000000e+04 6.506100000000000000e+04
8.734500000000000000e+04 6.153100000000000000e+04
9.332900000000000000e+04 5.757600000000000000e+04
9.880200000000000000e+04 5.213700000000000000e+04
1.030470000000000000e+05 4.693700000000000000e+04
1.062520000000000000e+05 4.056000000000000000e+04
1.093220000000000000e+05 3.491800000000000000e+04
1.139080000000000000e+05 2.748300000000000000e+04
1.164820000000000000e+05 2.105600000000000000e+04
1.201480000000000000e+05 1.474700000000000000e+04
1.220230000000000000e+05 6.359000000000000000e+03
1.219210000000000000e+05 -3.001000000000000000e+03
1.252960000000000000e+05 -1.202000000000000000e+04
1.247340000000000000e+05 -1.991400000000000000e+04
1.245290000000000000e+05 -2.872900000000000000e+04
1.237110000000000000e+05 -3.918000000000000000e+04
1.242910000000000000e+05 -4.707400000000000000e+04
1.216820000000000000e+05 -5.730400000000000000e+04
1.174190000000000000e+05 -6.652700000000000000e+04
1.148450000000000000e+05 -7.639900000000000000e+04
1.108380000000000000e+05 -8.483900000000000000e+04
1.041550000000000000e+05 -9.414700000000000000e+04
9.890300000000000000e+04 -1.024170000000000000e+05
9.242500000000000000e+04 -1.101230000000000000e+05
8.321900000000000000e+04 -1.185110000000000000e+05
7.783000000000000000e+04 -1.250750000000000000e+05
6.963000000000000000e+04 -1.318100000000000000e+05
6.044000000000000000e+04 -1.386470000000000000e+05
5.126800000000000000e+04 -1.431980000000000000e+05
4.178800000000000000e+04 -1.488930000000000000e+05
3.370700000000000000e+04 -1.518090000000000000e+05
2.129400000000000000e+04 -1.545190000000000000e+05
1.033100000000000000e+04 -1.555090000000000000e+05
1.449000000000000000e+03 -1.586460000000000000e+05
-9.105000000000000000e+03 -1.583220000000000000e+05
-1.969200000000000000e+04 -1.590210000000000000e+05
-2.937700000000000000e+04 -1.574870000000000000e+05
-3.967400000000000000e+04 -1.560710000000000000e+05
-4.879600000000000000e+04 -1.525590000000000000e+05
-5.752500000000000000e+04 -1.499850000000000000e+05
-6.833500000000000000e+04 -1.451760000000000000e+05
-7.638100000000000000e+04 -1.414940000000000000e+05
-8.610000000000000000e+04 -1.348280000000000000e+05
-9.367100000000000000e+04 -1.296110000000000000e+05
-1.003710000000000000e+05 -1.218020000000000000e+05
-1.071390000000000000e+05 -1.155110000000000000e+05
-1.134480000000000000e+05 -1.079240000000000000e+05
-1.195520000000000000e+05 -1.008480000000000000e+05
-1.251950000000000000e+05 -8.882800000000000000e+04
-1.279570000000000000e+05 -8.325300000000000000e+04
-1.327650000000000000e+05 -7.414900000000000000e+04
-1.344530000000000000e+05 -6.529900000000000000e+04
-1.388350000000000000e+05 -5.622900000000000000e+04
-1.409990000000000000e+05 -4.657900000000000000e+04
-1.406920000000000000e+05 -3.628200000000000000e+04
-1.427380000000000000e+05 -2.690400000000000000e+04
-1.397720000000000000e+05 -1.890700000000000000e+04
-1.403340000000000000e+05 -8.406000000000000000e+03
-1.385610000000000000e+05 3.400000000000000000e+01
-1.380680000000000000e+05 8.064000000000000000e+03
-1.346240000000000000e+05 1.763000000000000000e+04
-1.318100000000000000e+05 2.658000000000000000e+04
-1.303440000000000000e+05 3.409900000000000000e+04
-1.250070000000000000e+05 4.296500000000000000e+04
-1.223990000000000000e+05 4.978400000000000000e+04
-1.167890000000000000e+05 5.761100000000000000e+04
-1.119300000000000000e+05 6.379900000000000000e+04
-1.064060000000000000e+05 6.867500000000000000e+04
-1.024510000000000000e+05 7.529100000000000000e+04
-9.668800000000000000e+04 8.190500000000000000e+04
-9.121500000000000000e+04 8.770300000000000000e+04
-8.381600000000000000e+04 9.242600000000000000e+04
-7.929800000000000000e+04 9.651700000000000000e+04
-7.150600000000000000e+04 1.004390000000000000e+05
-6.727700000000000000e+04 1.044800000000000000e+05
-5.909400000000000000e+04 1.074300000000000000e+05
-5.452400000000000000e+04 1.104980000000000000e+05
-4.770500000000000000e+04 1.137710000000000000e+05
-4.177200000000000000e+04 1.151010000000000000e+05
-3.597400000000000000e+04 1.176080000000000000e+05
-2.901800000000000000e+04 1.190060000000000000e+05
-2.221500000000000000e+04 1.202840000000000000e+05
-1.483300000000000000e+04 1.212900000000000000e+05
-8.610000000000000000e+03 1.204880000000000000e+05
-4.399000000000000000e+03 1.206770000000000000e+05
2.387000000000000000e+03 1.214950000000000000e+05
8.030000000000000000e+03 1.208810000000000000e+05
1.363900000000000000e+04 1.208120000000000000e+05
2.027100000000000000e+04 1.197560000000000000e+05
2.560900000000000000e+04 1.201820000000000000e+05
3.077500000000000000e+04 1.179650000000000000e+05
3.532700000000000000e+04 1.173680000000000000e+05
4.156700000000000000e+04 1.133110000000000000e+05
5.229000000000000000e+04 1.123560000000000000e+05
5.292100000000000000e+04 1.103960000000000000e+05
6.449800000000000000e+04 1.064750000000000000e+05
6.847100000000000000e+04 1.025190000000000000e+05
7.353500000000000000e+04 9.926200000000000000e+04
7.818900000000000000e+04 9.604000000000000000e+04
8.425800000000000000e+04 9.152100000000000000e+04
8.669600000000000000e+04 8.961200000000000000e+04
8.981700000000000000e+04 8.642400000000000000e+04
9.520500000000000000e+04 8.042300000000000000e+04
1.003710000000000000e+05 7.701300000000000000e+04
1.042240000000000000e+05 7.169300000000000000e+04
1.069510000000000000e+05 6.644200000000000000e+04
1.104640000000000000e+05 6.153200000000000000e+04
1.130720000000000000e+05 5.358700000000000000e+04
1.162100000000000000e+05 5.147200000000000000e+04
1.183920000000000000e+05 4.391900000000000000e+04
1.202160000000000000e+05 3.853200000000000000e+04
1.229440000000000000e+05 3.348600000000000000e+04
1.255350000000000000e+05 2.439800000000000000e+04
1.257740000000000000e+05 1.986300000000000000e+04
1.269510000000000000e+05 1.234400000000000000e+04
1.293210000000000000e+05 4.127000000000000000e+03
1.288610000000000000e+05 -1.807000000000000000e+03
1.302760000000000000e+05 -9.087000000000000000e+03
1.302250000000000000e+05 -1.542900000000000000e+04
1.295940000000000000e+05 -2.201100000000000000e+04
1.283320000000000000e+05 -3.092800000000000000e+04
1.269680000000000000e+05 -3.556500000000000000e+04
1.264390000000000000e+05 -4.453400000000000000e+04
1.250750000000000000e+05 -5.305800000000000000e+04
1.211200000000000000e+05 -6.037200000000000000e+04
1.192270000000000000e+05 -6.760100000000000000e+04
1.160050000000000000e+05 -7.580200000000000000e+04
1.115890000000000000e+05 -8.432600000000000000e+04
1.066960000000000000e+05 -9.051600000000000000e+04
1.019050000000000000e+05 -9.735200000000000000e+04
9.585300000000000000e+04 -1.047190000000000000e+05
9.276600000000000000e+04 -1.114870000000000000e+05
8.398700000000000000e+04 -1.192440000000000000e+05
8.047400000000000000e+04 -1.239160000000000000e+05
7.310800000000000000e+04 -1.302240000000000000e+05
6.567400000000000000e+04 -1.359020000000000000e+05
5.847900000000000000e+04 -1.403860000000000000e+05
4.939200000000000000e+04 -1.447850000000000000e+05
4.151500000000000000e+04 -1.503430000000000000e+05
3.387800000000000000e+04 -1.537350000000000000e+05
2.300000000000000000e+04 -1.581170000000000000e+05
1.560000000000000000e+04 -1.592940000000000000e+05
4.552000000000000000e+03 -1.623800000000000000e+05
