8.055063025317234227e-02 -2.500255210677460038e-01
9.798366825295025395e-02 -2.388816006170089712e-01
1.082252621884969568e-01 -2.357225346472116845e-01
1.237390768040796951e-01 -2.206150657376984292e-01
1.359362958304563274e-01 -2.095411699934044969e-01
1.529683173584226175e-01 -2.001251709265212675e-01
1.668512218955897630e-01 -1.704480638176186780e-01
1.747216055229649234e-01 -1.523223861206346175e-01
1.723320546558031185e-01 -1.378043186436432310e-01
1.790349523839240842e-01 -1.115502155807815421e-01
1.643811605733510595e-01 -8.284041673494077496e-02
1.603103004412794741e-01 -5.910584045617141985e-02
1.441088406662222599e-01 -4.481588889525114222e-02
1.197733841868296456e-01 -2.221507043703898829e-02
9.048241503722380397e-02 -2.425825446210474329e-02
6.348616109661546492e-02 -2.132418958857474831e-02
4.052177628683231031e-02 -2.570735099819992930e-02
1.815112629145887099e-02 -3.003219883285723410e-02
1.050580732632325036e-02 -4.281519267544080243e-02
-1.236961746105736011e-02 -5.399095876300225721e-02
-3.101866085044730284e-02 -5.964737686417115325e-02
-4.370850923162193646e-02 -7.994139281605108782e-02
-4.961478213581445307e-02 -9.842819004319509901e-02
-5.820743249878709835e-02 -1.115953134915856904e-01
-6.293307267909076241e-02 -1.314254100947511716e-01
-6.449553896315951551e-02 -1.420058299694182125e-01
-6.874839658008533028e-02 -1.654628261777562614e-01
-6.896473494401503257e-02 -1.776212630967533013e-01
-6.030534065890229972e-02 -2.028153592492319690e-01
-5.475526461569354270e-02 -2.158240553750171431e-01
-4.008359008674590440e-02 -2.309269183556373062e-01
-2.814386225697206034e-02 -2.379464065281303164e-01
-1.572695482879410411e-02 -2.510706993464884573e-01
6.779819200902152850e-03 -2.565863349232055945e-01
2.479833323284697660e-02 -2.469595964625449225e-01
5.203589140528592366e-02 -2.544955788393120089e-01
7.029838743739504070e-02 -2.431840525056827296e-01
