6.624000000000000000e+03 3.441400000000000000e+04
6.214000000000000000e+03 3.601700000000000000e+04
4.816000000000000000e+03 3.894900000000000000e+04
4.731000000000000000e+03 4.043300000000000000e+04
4.305000000000000000e+03 4.226600000000000000e+04
2.600000000000000000e+03 4.403100000000000000e+04
-1.450000000000000000e+02 4.611000000000000000e+04
-8.860000000000000000e+02 4.640100000000000000e+04
-4.697000000000000000e+03 4.716700000000000000e+04
-7.894000000000000000e+03 4.729500000000000000e+04
-9.463000000000000000e+03 4.721800000000000000e+04
-1.126200000000000000e+04 4.583800000000000000e+04
-1.230100000000000000e+04 4.467000000000000000e+04
-1.576200000000000000e+04 4.357000000000000000e+04
-1.701500000000000000e+04 4.235100000000000000e+04
-1.781600000000000000e+04 4.116600000000000000e+04
-1.922300000000000000e+04 3.960600000000000000e+04
-1.800500000000000000e+04 3.745800000000000000e+04
-1.716900000000000000e+04 3.823300000000000000e+04
-1.834500000000000000e+04 3.589800000000000000e+04
-1.789300000000000000e+04 3.467900000000000000e+04
-1.648700000000000000e+04 3.390300000000000000e+04
-1.788500000000000000e+04 3.213000000000000000e+04
-1.682800000000000000e+04 3.126800000000000000e+04
-1.527600000000000000e+04 2.854900000000000000e+04
-1.485900000000000000e+04 2.660500000000000000e+04
-1.358000000000000000e+04 2.516500000000000000e+04
-1.019600000000000000e+04 2.497800000000000000e+04
-8.448000000000000000e+03 2.281300000000000000e+04
-5.805000000000000000e+03 2.326400000000000000e+04
-2.532000000000000000e+03 2.484100000000000000e+04
0.000000000000000000e+00 2.592400000000000000e+04
2.395000000000000000e+03 2.756100000000000000e+04
3.946000000000000000e+03 2.850700000000000000e+04
4.961000000000000000e+03 3.092000000000000000e+04
5.277000000000000000e+03 3.301700000000000000e+04
4.697000000000000000e+03 3.430400000000000000e+04
