1.644400000000000000e+04 1.248800000000000000e+04
1.424400000000000000e+04 1.156800000000000000e+04
1.101400000000000000e+04 1.087800000000000000e+04
6.870000000000000000e+03 9.292000000000000000e+03
5.898000000000000000e+03 6.505000000000000000e+03
3.597000000000000000e+03 5.354000000000000000e+03
1.585000000000000000e+03 1.824000000000000000e+03
6.130000000000000000e+02 -2.012000000000000000e+03
9.380000000000000000e+02 -4.860000000000000000e+03
9.120000000000000000e+02 -8.337000000000000000e+03
1.329000000000000000e+03 -1.115900000000000000e+04
2.669000000000000000e+03 -1.375100000000000000e+04
4.961000000000000000e+03 -1.487600000000000000e+04
6.649000000000000000e+03 -1.897600000000000000e+04
9.155000000000000000e+03 -2.019500000000000000e+04
1.287300000000000000e+04 -2.061300000000000000e+04
1.577900000000000000e+04 -2.427000000000000000e+04
2.069800000000000000e+04 -2.228400000000000000e+04
2.317900000000000000e+04 -2.156700000000000000e+04
2.627300000000000000e+04 -2.155100000000000000e+04
2.912100000000000000e+04 -2.130400000000000000e+04
3.322900000000000000e+04 -1.780000000000000000e+04
3.462800000000000000e+04 -1.667400000000000000e+04
3.660500000000000000e+04 -1.323000000000000000e+04
3.763700000000000000e+04 -1.032300000000000000e+04
3.846400000000000000e+04 -8.951000000000000000e+03
3.736400000000000000e+04 -6.803000000000000000e+03
3.837000000000000000e+04 -4.671000000000000000e+03
3.741500000000000000e+04 -2.089000000000000000e+03
3.646900000000000000e+04 1.850000000000000000e+03
3.486600000000000000e+04 5.029000000000000000e+03
3.228300000000000000e+04 8.405000000000000000e+03
3.107300000000000000e+04 9.437000000000000000e+03
2.681000000000000000e+04 1.044200000000000000e+04
2.404800000000000000e+04 1.155100000000000000e+04
2.099600000000000000e+04 1.213100000000000000e+04
1.569400000000000000e+04 1.232700000000000000e+04
