-4.521478657396142686e-02 -7.302274507425178356e-03
-3.823856331544324416e-02 7.619099951949447058e-03
-4.783173547792729519e-02 3.108763516025286368e-03
-4.808611185472626975e-02 8.441318567498018802e-03
-4.844558681965153296e-02 5.951862846565469239e-03
-4.886449986926807987e-02 1.081542240221056508e-02
-4.835176366260691277e-02 1.236698671890400746e-02
-4.991842366647375462e-02 9.844300834563758651e-03
-5.711042929913261179e-02 8.955674431644069719e-03
-5.829389056713901729e-02 1.305762357588440177e-02
-5.667837495993686969e-02 1.265459600484689084e-02
-6.398918482804816232e-02 1.912141230543002585e-02
-6.802308301434233095e-02 8.694905131099800455e-03
-7.145761836792886845e-02 1.001804095362642151e-02
-7.201441202570668665e-02 6.096269132638155314e-03
-6.308989986944650574e-02 6.696015126295075566e-03
-7.081218970882334485e-02 -6.595894666857924499e-03
-6.801075775320358785e-02 -4.173251969093180920e-03
-6.732846403358372367e-02 -8.089527153081576064e-03
-6.408470785729952768e-02 -5.048730937214577618e-04
-6.523857525366452692e-02 -3.193101200492218586e-03
-6.402733343306997449e-02 -6.615637730466084922e-03
-6.742441724996470209e-02 -7.689167674926366755e-03
-6.452078023275964469e-02 -1.318951394648487825e-02
-6.381208081168351920e-02 -1.589443527948342094e-02
-5.223956806822611237e-02 -1.242308601016714822e-02
-5.674093753988332378e-02 -8.185470672219623961e-03
-5.656211569506886666e-02 -1.213401749618308809e-02
-4.878508217361581661e-02 -1.059206744017006201e-02
-5.215674646597295155e-02 -1.661878363178575374e-02
-4.561626086459711488e-02 -1.162683323349382979e-02
-4.779237517516192468e-02 -1.378432482798646816e-02
-4.589379807103551034e-02 -1.009250987381702866e-02
-3.944443848567631694e-02 -1.144972095812903448e-02
-4.039368418464239774e-02 4.439927152080525886e-03
-4.660458052526766232e-02 7.540508548561068334e-05
-4.309138963574002390e-02 9.482558893948587336e-03
