4.027000000000000000e+04 2.454300000000000000e+04
3.809700000000000000e+04 2.679300000000000000e+04
3.390300000000000000e+04 2.764600000000000000e+04
3.009200000000000000e+04 2.813100000000000000e+04
2.662300000000000000e+04 3.144000000000000000e+04
2.226600000000000000e+04 3.062100000000000000e+04
1.989600000000000000e+04 3.135400000000000000e+04
1.494400000000000000e+04 3.112400000000000000e+04
1.230900000000000000e+04 2.913700000000000000e+04
9.045000000000000000e+03 2.732200000000000000e+04
5.268000000000000000e+03 2.525000000000000000e+04
2.080000000000000000e+03 2.382700000000000000e+04
-5.030000000000000000e+02 2.092800000000000000e+04
-2.123000000000000000e+03 1.514000000000000000e+04
-2.540000000000000000e+03 1.092000000000000000e+04
-2.643000000000000000e+03 7.297000000000000000e+03
-1.876000000000000000e+03 2.643000000000000000e+03
1.620000000000000000e+03 -1.850000000000000000e+03
4.100000000000000000e+03 -5.234000000000000000e+03
8.030000000000000000e+03 -7.476000000000000000e+03
1.295700000000000000e+04 -9.641000000000000000e+03
1.653800000000000000e+04 -1.094600000000000000e+04
1.926600000000000000e+04 -1.017900000000000000e+04
2.439800000000000000e+04 -1.062200000000000000e+04
2.861700000000000000e+04 -9.915000000000000000e+03
3.285400000000000000e+04 -8.602000000000000000e+03
3.455100000000000000e+04 -7.417000000000000000e+03
3.743300000000000000e+04 -5.226000000000000000e+03
4.013400000000000000e+04 -3.358000000000000000e+03
4.462600000000000000e+04 9.290000000000000000e+02
4.474600000000000000e+04 1.816000000000000000e+03
4.529200000000000000e+04 6.880000000000000000e+03
4.613600000000000000e+04 9.419000000000000000e+03
4.489900000000000000e+04 1.260800000000000000e+04
4.434500000000000000e+04 1.712600000000000000e+04
4.181400000000000000e+04 2.042600000000000000e+04
4.004000000000000000e+04 2.249700000000000000e+04
