9.513000000000000000e+03 6.982000000000000000e+03
6.641000000000000000e+03 9.565000000000000000e+03
2.660000000000000000e+03 8.133000000000000000e+03
-7.160000000000000000e+02 7.135000000000000000e+03
-4.254000000000000000e+03 7.758000000000000000e+03
-8.065000000000000000e+03 5.218000000000000000e+03
-1.122800000000000000e+04 3.529000000000000000e+03
-1.456100000000000000e+04 2.609000000000000000e+03
-1.566900000000000000e+04 -2.267000000000000000e+03
-1.821700000000000000e+04 -4.032000000000000000e+03
-2.023000000000000000e+04 -9.829000000000000000e+03
-2.063000000000000000e+04 -1.202800000000000000e+04
-2.173000000000000000e+04 -1.707500000000000000e+04
-1.970100000000000000e+04 -1.957200000000000000e+04
-1.785900000000000000e+04 -2.369900000000000000e+04
-1.434800000000000000e+04 -2.822500000000000000e+04
-1.012800000000000000e+04 -3.098700000000000000e+04
-6.471000000000000000e+03 -3.209500000000000000e+04
-4.066000000000000000e+03 -3.274400000000000000e+04
-3.660000000000000000e+02 -3.250500000000000000e+04
4.100000000000000000e+03 -3.352000000000000000e+04
7.800000000000000000e+03 -3.281100000000000000e+04
1.162800000000000000e+04 -3.159300000000000000e+04
1.410000000000000000e+04 -3.127700000000000000e+04
1.682800000000000000e+04 -2.878000000000000000e+04
1.990500000000000000e+04 -2.537000000000000000e+04
2.117600000000000000e+04 -2.344300000000000000e+04
2.421000000000000000e+04 -2.106500000000000000e+04
2.564200000000000000e+04 -1.872900000000000000e+04
2.705700000000000000e+04 -1.344300000000000000e+04
2.680200000000000000e+04 -9.650000000000000000e+03
2.682700000000000000e+04 -4.450000000000000000e+03
2.340000000000000000e+04 -7.170000000000000000e+02
1.958100000000000000e+04 3.359000000000000000e+03
1.801300000000000000e+04 4.024000000000000000e+03
1.440700000000000000e+04 6.539000000000000000e+03
9.846000000000000000e+03 6.036000000000000000e+03
