2.211300000000000000e+04 -1.327300000000000000e+04
2.345200000000000000e+04 -1.080100000000000000e+04
2.312800000000000000e+04 -8.235000000000000000e+03
2.167800000000000000e+04 -7.868000000000000000e+03
2.225800000000000000e+04 -6.001000000000000000e+03
1.871200000000000000e+04 -4.646000000000000000e+03
1.874600000000000000e+04 -2.592000000000000000e+03
1.664900000000000000e+04 -1.450000000000000000e+02
1.314500000000000000e+04 1.049000000000000000e+03
1.008500000000000000e+04 5.890000000000000000e+02
6.657000000000000000e+03 2.640000000000000000e+02
4.551000000000000000e+03 -1.424000000000000000e+03
5.669000000000000000e+03 -1.842000000000000000e+03
2.847000000000000000e+03 -3.470000000000000000e+03
1.160000000000000000e+03 -4.663000000000000000e+03
-1.432000000000000000e+03 -5.422000000000000000e+03
-1.407000000000000000e+03 -8.192000000000000000e+03
-3.265000000000000000e+03 -1.037500000000000000e+04
-3.180000000000000000e+03 -1.300900000000000000e+04
-1.390000000000000000e+03 -1.475600000000000000e+04
-6.990000000000000000e+02 -1.493500000000000000e+04
-1.534000000000000000e+03 -1.802100000000000000e+04
-1.190000000000000000e+02 -1.991300000000000000e+04
7.760000000000000000e+02 -2.152500000000000000e+04
4.143000000000000000e+03 -2.334100000000000000e+04
5.165000000000000000e+03 -2.633300000000000000e+04
7.023000000000000000e+03 -2.559100000000000000e+04
1.081700000000000000e+04 -2.488400000000000000e+04
1.265900000000000000e+04 -2.433000000000000000e+04
1.532800000000000000e+04 -2.490000000000000000e+04
1.950400000000000000e+04 -2.254800000000000000e+04
2.010100000000000000e+04 -2.305900000000000000e+04
2.119200000000000000e+04 -1.948800000000000000e+04
2.232600000000000000e+04 -1.797900000000000000e+04
2.184800000000000000e+04 -1.572800000000000000e+04
2.160100000000000000e+04 -1.427000000000000000e+04
2.238600000000000000e+04 -1.305100000000000000e+04
