-1.000047767986718267e-01 -3.305695423992586340e-02
-9.089583413020201064e-02 -3.424871161911248463e-02
-9.106177330763751132e-02 -4.105401914049815887e-02
-8.025734134652423579e-02 -3.786510895765095308e-02
-8.051071491944647440e-02 -4.745510818224829563e-02
-6.583197251685406204e-02 -4.864996242499561308e-02
-6.134154929301626619e-02 -4.976189273233741495e-02
-5.043296064025124675e-02 -5.913435298716409466e-02
-4.493918295418018044e-02 -4.936219299357480494e-02
-3.193673451141190722e-02 -4.550001829206188481e-02
-1.871375398491584990e-02 -3.753714066187870124e-02
-9.773031329001783882e-03 -2.967336706753270076e-02
-5.038471210611491016e-03 -1.584633756471409347e-02
-6.113730097215746249e-03 -8.451786316305614707e-03
-4.508976795299140389e-03 6.071443079367875272e-03
-1.109052673383448609e-02 1.397195033113863075e-02
-9.370053617047022568e-03 1.944840270507534538e-02
-7.990035794107683623e-03 3.316152017702082150e-02
-2.157604322217759538e-02 2.940910113731187714e-02
-1.987344731050076987e-02 3.525629146427638333e-02
-2.831104250717012688e-02 3.565745869008032920e-02
-4.500427270100886695e-02 4.050591146664944686e-02
-3.755452411388752326e-02 4.163837879119246937e-02
-5.157689302600620973e-02 4.717049460345785344e-02
-5.492072145880316086e-02 5.555969755067149268e-02
-6.834741360189705572e-02 5.174460248416958702e-02
-8.117195169710317293e-02 4.528510439863972503e-02
-9.343084259531946045e-02 4.231754374441196870e-02
-9.659463062121789734e-02 4.129393995711492377e-02
-1.080276651956680878e-01 2.968003783363160064e-02
-1.122375373099648577e-01 1.422268472857489939e-02
-1.177847363664245028e-01 1.043359141343440854e-03
-1.127083267303598674e-01 -1.189606770411841019e-04
-1.094788017483855208e-01 -1.332349138167947776e-02
-1.066650639043213167e-01 -1.754826279763662539e-02
-1.000572687155650009e-01 -1.995920403937749554e-02
-9.958028275693768527e-02 -2.687669464949234144e-02
