2.427388005457325679e-02 -2.152131607989327122e-02
3.529486339208730977e-02 -1.158202600027045254e-02
4.096341581677123006e-02 2.464496848121462864e-03
4.376648540791051867e-02 1.446100295049601407e-02
4.267538806890754793e-02 2.898213963756208697e-02
4.241626610112573387e-02 3.848077078552600977e-02
4.192636012439050763e-02 6.027174845056415542e-02
3.473208335385433165e-02 6.425607457070715844e-02
2.108174563651382324e-02 7.185757121562773297e-02
2.042219779170218602e-02 8.683348185787141682e-02
2.885112363140056660e-03 9.253574024282175403e-02
-8.104809615691269814e-03 1.006462344476932863e-01
-2.022434130501081506e-02 9.623919851314059748e-02
-3.344428169136941936e-02 1.041864963131252653e-01
-4.841157253064304333e-02 9.153770943620773148e-02
-5.741147323259698093e-02 8.626640437202831579e-02
-7.217800412168820512e-02 8.814209310635433281e-02
-8.648665033261077051e-02 7.495761527589214768e-02
-9.335251349690443234e-02 6.338161283247335798e-02
-1.046433796910346131e-01 5.379032864691733751e-02
-1.101354754611420378e-01 3.937319094600395114e-02
-1.114432264879065965e-01 1.700490197868105915e-02
-1.102971641953561788e-01 1.416977373824624721e-02
-1.128660735244271796e-01 2.244600772780552681e-04
-1.002903860990829454e-01 -6.431203121443720451e-03
-9.573256337589985954e-02 -2.019550264157386754e-02
-8.793454469387287920e-02 -3.276423003968963882e-02
-7.549593012904118328e-02 -3.986358263475639485e-02
-7.424734603462233851e-02 -4.996759332973065709e-02
-6.183772090901148294e-02 -4.751495564313212849e-02
-4.245475635418048677e-02 -5.687382921074311121e-02
-3.806311489084122229e-02 -5.482675027171084875e-02
-2.121312133411763085e-02 -5.131681251300022201e-02
-5.226504782462766327e-03 -4.605698619513063502e-02
8.414794036680653053e-03 -4.095233816586222458e-02
2.331450696913064252e-02 -2.922910915125333242e-02
3.253920815427679969e-02 -2.039907161063864161e-02
