-3.571231163502405770e-02 -2.084589116804364678e-02
-3.389112450036590313e-02 -1.694608652236054974e-02
-3.615824451576034326e-02 -8.967612522186986165e-03
-4.475699736460463096e-02 4.194205967740419054e-04
-4.624176663616490907e-02 1.273003517232788265e-03
-4.771600045254954098e-02 -2.948225659318705165e-03
-4.836523967050386508e-02 1.049288798375360831e-03
-5.154990910737265730e-02 4.443497044972205892e-03
-6.260427338407829889e-02 4.756747148715505594e-03
-6.212726946920791443e-02 1.569539577273771150e-02
-7.355382122973959380e-02 9.006946370001975288e-03
-7.672031883964512688e-02 4.038914777081660523e-03
-8.565822264868455660e-02 4.404377386372409012e-03
-8.647783957022546486e-02 1.649623948571282738e-03
-9.638993415698637879e-02 4.367463883226532090e-03
-9.498876518718231410e-02 -2.085663396988550293e-03
-9.837505904530549627e-02 -1.121719704587839823e-02
-1.002925341146623933e-01 -1.747185900508700998e-02
-1.000376625683103843e-01 -2.432740942391904693e-02
-9.614192298507200085e-02 -3.578182611394814527e-02
-9.823817287306303714e-02 -3.744043097338295434e-02
-8.957977587856308377e-02 -3.373429903154317316e-02
-8.678322643027970573e-02 -3.829864189758216270e-02
-8.625198921339304048e-02 -4.057674548973341094e-02
-8.024274910969558805e-02 -4.639568774804275764e-02
-8.137484297053224069e-02 -4.863220834218285465e-02
-7.408112744584112452e-02 -5.414357554122711802e-02
-7.417748177941448084e-02 -5.092520014409190887e-02
-6.387722017788784179e-02 -5.182539518349466023e-02
-5.833759937513289390e-02 -5.402087081316954420e-02
-6.168686772150645120e-02 -5.473295618460346373e-02
-5.280295238633875982e-02 -4.963200117052460336e-02
-3.471129741169582533e-02 -4.589202493561363866e-02
-3.258520331065489078e-02 -4.479625810174539535e-02
-3.719598405034695021e-02 -3.361984197203427005e-02
-2.711028626087690768e-02 -2.595154886552931625e-02
-3.159724885469056277e-02 -1.796820203347074610e-02
