2.117881241671905890e-01 -2.155102350298064573e-01
2.290181905480682401e-01 -2.094918619755512801e-01
2.468656601855271082e-01 -1.972614736060029350e-01
2.668018097380641107e-01 -1.856582853451736459e-01
2.827580578371787778e-01 -1.611039966760515196e-01
2.890182814158107072e-01 -1.457569096128586983e-01
2.959473959693806333e-01 -1.140511498954830255e-01
3.017715651287954937e-01 -9.353256445091660820e-02
2.985982042897583622e-01 -6.788554222372319980e-02
2.925080457712426751e-01 -3.907991186734811884e-02
2.742214704607351394e-01 -2.698420909322696987e-02
2.545882997140215265e-01 -4.919240645135053089e-03
2.301507516198900705e-01 4.923815390309834589e-03
2.077366859347579420e-01 1.262596932967786564e-02
1.903996384802984221e-01 1.271708564845157839e-02
1.581604741577622986e-01 1.710439089700054385e-02
1.354326106380980277e-01 1.640502079020360673e-02
1.201577253886565583e-01 -4.493576636489306567e-03
9.899749976898603032e-02 -9.594717009553253156e-03
8.283339335965568540e-02 -2.129597884885697096e-02
6.920910452881473551e-02 -3.963898250314056709e-02
5.745573535001834153e-02 -5.512816326698705138e-02
4.841617562663368818e-02 -7.356943413952185540e-02
4.200849450809750890e-02 -9.333075364647394623e-02
3.737482683684782703e-02 -1.109115327596892908e-01
4.391895984368409528e-02 -1.354013583417915667e-01
3.453915230386691432e-02 -1.492366659995472689e-01
4.205835023494804148e-02 -1.733104596373864215e-01
5.466029260775617793e-02 -1.854644427979339205e-01
6.054502024298143159e-02 -2.013576801737294586e-01
7.269396186140850147e-02 -2.155413934262931652e-01
9.412304683183914111e-02 -2.285881952931072270e-01
1.166318665439625007e-01 -2.374471917865543236e-01
1.349026310555573316e-01 -2.355480558597364271e-01
1.700758893215606748e-01 -2.301477361260037546e-01
1.948338093489756784e-01 -2.244801172734195438e-01
2.078640189716377817e-01 -2.137177869711690825e-01
