2.237689449682297646e-03 -6.937530230665887865e-02
9.495875997810822658e-03 -5.991975624874018580e-02
2.887649748083435594e-02 -5.705508944363599927e-02
3.400628974189894710e-02 -4.236875769543631265e-02
5.110656828877578606e-02 -2.174962419749841905e-02
4.918652329750152624e-02 -5.929300914291113500e-03
5.824904330282516113e-02 9.841695130909567171e-03
5.854025983238866915e-02 2.520489864139560665e-02
5.657055146833880888e-02 5.136432235693241116e-02
4.965638040970716399e-02 5.581622209559081865e-02
4.512876427137775537e-02 7.864115364411658482e-02
2.845776680475956694e-02 9.397112696940336518e-02
1.657529443910480543e-02 1.015829280789938421e-01
-9.209709400117241374e-03 1.141834526713025044e-01
-2.645227670387575655e-02 1.223216610298875490e-01
-4.190532266407941825e-02 1.135480767190071849e-01
-6.270314518729097619e-02 1.076954077112858843e-01
-7.575190838141443450e-02 1.018925901810614904e-01
-9.423297658639316621e-02 9.493097569916381095e-02
-1.068943182767124189e-01 8.624145920610666594e-02
-1.164073839560059165e-01 7.536835248193239634e-02
-1.262544870976524403e-01 5.915371406656703968e-02
-1.378627597645950831e-01 4.244616688505798568e-02
-1.357765625834142509e-01 2.802309410101494133e-02
-1.477650685257461960e-01 1.308532378300136280e-02
-1.498899343674601481e-01 -4.462588933269720157e-03
-1.509164496593328186e-01 -1.914491092599674912e-02
-1.382983991200231466e-01 -3.841888328622838217e-02
-1.348343127587881274e-01 -5.639023746844032403e-02
-1.189070139152628852e-01 -7.455735566844333417e-02
-1.081321467558537808e-01 -8.178689719291172555e-02
-8.856062299502157065e-02 -8.798859971916014877e-02
-7.038157095382929773e-02 -9.309932802870347912e-02
-5.510624582001528993e-02 -1.032152614511728655e-01
-3.040425068603160377e-02 -8.445305566047561774e-02
-7.009308094031278108e-03 -8.400230525482636768e-02
2.565504136768227521e-03 -7.371977008262646514e-02
