2.398900000000000000e+04 3.938400000000000000e+04
2.305100000000000000e+04 3.966600000000000000e+04
1.853200000000000000e+04 3.898300000000000000e+04
1.467000000000000000e+04 3.993000000000000000e+04
1.105700000000000000e+04 3.842100000000000000e+04
5.712000000000000000e+03 3.845500000000000000e+04
3.265000000000000000e+03 3.552300000000000000e+04
6.650000000000000000e+02 3.419300000000000000e+04
-1.133000000000000000e+03 3.039000000000000000e+04
-4.902000000000000000e+03 2.644300000000000000e+04
-5.422000000000000000e+03 2.116700000000000000e+04
-5.618000000000000000e+03 1.707500000000000000e+04
-4.774000000000000000e+03 1.118500000000000000e+04
-4.373000000000000000e+03 9.198000000000000000e+03
3.240000000000000000e+02 3.675000000000000000e+03
2.686000000000000000e+03 9.710000000000000000e+02
7.757000000000000000e+03 -2.820000000000000000e+02
1.080900000000000000e+04 -2.199000000000000000e+03
1.603500000000000000e+04 -2.694000000000000000e+03
1.885600000000000000e+04 -3.180000000000000000e+03
2.444000000000000000e+04 -3.368000000000000000e+03
2.694700000000000000e+04 -1.338000000000000000e+03
3.032200000000000000e+04 -9.550000000000000000e+02
3.303300000000000000e+04 1.935000000000000000e+03
3.680200000000000000e+04 3.120000000000000000e+03
3.870200000000000000e+04 5.959000000000000000e+03
3.921300000000000000e+04 8.627000000000000000e+03
4.180500000000000000e+04 1.203700000000000000e+04
4.299000000000000000e+04 1.525900000000000000e+04
4.253000000000000000e+04 1.790200000000000000e+04
4.189000000000000000e+04 2.321300000000000000e+04
4.231700000000000000e+04 2.635000000000000000e+04
3.992100000000000000e+04 2.861700000000000000e+04
3.561600000000000000e+04 3.226600000000000000e+04
3.480700000000000000e+04 3.619600000000000000e+04
2.814800000000000000e+04 3.703200000000000000e+04
2.615400000000000000e+04 3.775700000000000000e+04
