-8.861317019709523402e-02 -1.043823850004147874e-01
-8.072081797796372415e-02 -1.090691960471585203e-01
-7.981224103402027870e-02 -1.131070472872936633e-01
-7.688732565083988835e-02 -1.166326906788622275e-01
-7.181982625561894595e-02 -1.227798293687555747e-01
-6.785894588972503361e-02 -1.223801683753815706e-01
-6.406435879227867503e-02 -1.253202887086029005e-01
-6.201361588620253606e-02 -1.330157136548313079e-01
-5.711523555781053418e-02 -1.248776325153568845e-01
-4.131563323433832396e-02 -1.228179876492287714e-01
-3.632415588716891852e-02 -1.191898694819721050e-01
-2.902106676775450395e-02 -1.188971356062845236e-01
-2.370328238238033139e-02 -1.079350785569506144e-01
-1.728046683128215202e-02 -9.757982293193928625e-02
-1.965878375848710558e-02 -8.407973396968324020e-02
-2.162257357919918771e-02 -9.227503875760331709e-02
-1.707015485710654604e-02 -7.942834812810696532e-02
-2.094626892039601687e-02 -7.856287980909047730e-02
-2.643897053937521377e-02 -7.166494832004992321e-02
-2.729103753016108927e-02 -7.173912800090254116e-02
-2.966223814108973067e-02 -6.776040224557142166e-02
-3.803703421045981359e-02 -6.735849918425733385e-02
-3.631272146488631614e-02 -6.647425460585702772e-02
-4.279844542794286610e-02 -6.536002550715187820e-02
-4.717432453500094991e-02 -5.797257120232540695e-02
-4.557801395786102022e-02 -5.682540930780138194e-02
-5.522517459421681651e-02 -5.586932812035592943e-02
-6.085452858382185692e-02 -5.845384493311144708e-02
-7.176711590015694142e-02 -6.428784694431645408e-02
-7.843705459542424374e-02 -6.767884906448505544e-02
-7.788545050981456053e-02 -6.663102633669981678e-02
-8.791232434425680364e-02 -7.342626177858099790e-02
-8.387221164169569865e-02 -8.215778034308478250e-02
-9.078982395765719526e-02 -9.079804011561422306e-02
-9.432979954740296213e-02 -8.995292345481387120e-02
-9.088356273779253647e-02 -1.006852864217165772e-01
-8.301816395090613754e-02 -1.039306110889094970e-01
