1.087700000000000000e+04 -1.375000000000000000e+04
1.239500000000000000e+04 -1.338400000000000000e+04
1.227600000000000000e+04 -1.257400000000000000e+04
1.270200000000000000e+04 -1.246300000000000000e+04
1.194300000000000000e+04 -9.744000000000000000e+03
9.761000000000000000e+03 -1.079200000000000000e+04
8.883000000000000000e+03 -9.573000000000000000e+03
9.539000000000000000e+03 -7.962000000000000000e+03
8.874000000000000000e+03 -6.530000000000000000e+03
6.726000000000000000e+03 -7.825000000000000000e+03
6.717000000000000000e+03 -7.545000000000000000e+03
5.421000000000000000e+03 -5.422000000000000000e+03
3.315000000000000000e+03 -5.251000000000000000e+03
1.534000000000000000e+03 -5.115000000000000000e+03
1.790000000000000000e+02 -7.595000000000000000e+03
-5.880000000000000000e+02 -8.226000000000000000e+03
-6.990000000000000000e+02 -9.190000000000000000e+03
-1.969000000000000000e+03 -9.743000000000000000e+03
-1.338000000000000000e+03 -1.044200000000000000e+04
-1.841000000000000000e+03 -1.207900000000000000e+04
-1.287000000000000000e+03 -1.270200000000000000e+04
-1.040000000000000000e+03 -1.386100000000000000e+04
-2.515000000000000000e+03 -1.489300000000000000e+04
-2.822000000000000000e+03 -1.561700000000000000e+04
-1.748000000000000000e+03 -1.556700000000000000e+04
-1.466000000000000000e+03 -1.822600000000000000e+04
6.820000000000000000e+02 -1.838800000000000000e+04
2.302000000000000000e+03 -1.949600000000000000e+04
3.393000000000000000e+03 -2.011800000000000000e+04
5.327000000000000000e+03 -2.106400000000000000e+04
7.314000000000000000e+03 -1.994000000000000000e+04
7.527000000000000000e+03 -1.934200000000000000e+04
9.420000000000000000e+03 -1.762100000000000000e+04
1.058700000000000000e+04 -1.766300000000000000e+04
1.056200000000000000e+04 -1.689600000000000000e+04
1.110800000000000000e+04 -1.506300000000000000e+04
1.128700000000000000e+04 -1.414200000000000000e+04
