3.001000000000000000e+03 3.001000000000000000e+03
4.544000000000000000e+03 3.257000000000000000e+03
3.777000000000000000e+03 2.634000000000000000e+03
5.013000000000000000e+03 2.489000000000000000e+03
3.682000000000000000e+03 2.310000000000000000e+03
4.740000000000000000e+03 3.035000000000000000e+03
4.876000000000000000e+03 2.259000000000000000e+03
4.655000000000000000e+03 3.605000000000000000e+03
3.930000000000000000e+03 2.652000000000000000e+03
4.433000000000000000e+03 2.114000000000000000e+03
4.757000000000000000e+03 2.967000000000000000e+03
4.969000000000000000e+03 2.276000000000000000e+03
6.325000000000000000e+03 3.043000000000000000e+03
5.242000000000000000e+03 3.700000000000000000e+03
5.890000000000000000e+03 2.694000000000000000e+03
6.394000000000000000e+03 1.654000000000000000e+03
5.029000000000000000e+03 1.491000000000000000e+03
6.717000000000000000e+03 2.856000000000000000e+03
6.870000000000000000e+03 1.500000000000000000e+03
5.694000000000000000e+03 1.611000000000000000e+03
6.087000000000000000e+03 1.475000000000000000e+03
6.785000000000000000e+03 2.063000000000000000e+03
5.728000000000000000e+03 2.430000000000000000e+03
6.905000000000000000e+03 1.637000000000000000e+03
6.648000000000000000e+03 6.740000000000000000e+02
6.632000000000000000e+03 8.010000000000000000e+02
6.956000000000000000e+03 -1.700000000000000000e+01
7.390000000000000000e+03 4.860000000000000000e+02
6.905000000000000000e+03 8.960000000000000000e+02
6.198000000000000000e+03 6.820000000000000000e+02
5.174000000000000000e+03 -9.210000000000000000e+02
8.132000000000000000e+03 -7.670000000000000000e+02
6.257000000000000000e+03 -4.780000000000000000e+02
7.535000000000000000e+03 5.200000000000000000e+01
6.300000000000000000e+03 3.240000000000000000e+02
7.851000000000000000e+03 -5.880000000000000000e+02
6.027000000000000000e+03 -6.000000000000000000e+01
6.154000000000000000e+03 -7.500000000000000000e+02
5.874000000000000000e+03 -1.893000000000000000e+03
5.388000000000000000e+03 -1.305000000000000000e+03
4.697000000000000000e+03 -1.714000000000000000e+03
5.328000000000000000e+03 -1.287000000000000000e+03
4.850000000000000000e+03 -2.668000000000000000e+03
5.064000000000000000e+03 -3.150000000000000000e+02
4.245000000000000000e+03 -2.149000000000000000e+03
4.560000000000000000e+03 -1.390000000000000000e+03
4.842000000000000000e+03 -1.876000000000000000e+03
2.822000000000000000e+03 -2.719000000000000000e+03
3.725000000000000000e+03 -1.730000000000000000e+03
2.908000000000000000e+03 -3.043000000000000000e+03
4.373000000000000000e+03 -1.978000000000000000e+03
3.376000000000000000e+03 -2.259000000000000000e+03
3.213000000000000000e+03 -3.802000000000000000e+03
2.992000000000000000e+03 -2.907000000000000000e+03
2.395000000000000000e+03 -2.669000000000000000e+03
3.410000000000000000e+03 -2.685000000000000000e+03
2.847000000000000000e+03 -1.961000000000000000e+03
2.165000000000000000e+03 -2.097000000000000000e+03
3.052000000000000000e+03 -2.080000000000000000e+03
3.137000000000000000e+03 -1.901000000000000000e+03
1.577000000000000000e+03 -1.978000000000000000e+03
1.926000000000000000e+03 -1.381000000000000000e+03
1.918000000000000000e+03 -2.984000000000000000e+03
3.640000000000000000e+03 -2.131000000000000000e+03
2.293000000000000000e+03 -6.480000000000000000e+02
1.577000000000000000e+03 -1.305000000000000000e+03
2.166000000000000000e+03 -4.520000000000000000e+02
2.660000000000000000e+03 4.000000000000000000e+02
1.858000000000000000e+03 -5.200000000000000000e+02
2.199000000000000000e+03 -5.100000000000000000e+01
2.464000000000000000e+03 -3.330000000000000000e+02
1.961000000000000000e+03 -6.000000000000000000e+01
1.535000000000000000e+03 -1.227000000000000000e+03
2.498000000000000000e+03 -1.696000000000000000e+03
3.359000000000000000e+03 -4.430000000000000000e+02
3.333000000000000000e+03 -9.210000000000000000e+02
4.458000000000000000e+03 -2.310000000000000000e+02
3.111000000000000000e+03 -1.773000000000000000e+03
3.017000000000000000e+03 -2.097000000000000000e+03
2.796000000000000000e+03 -1.066000000000000000e+03
3.794000000000000000e+03 -8.270000000000000000e+02
3.384000000000000000e+03 -2.470000000000000000e+02
3.981000000000000000e+03 -1.739000000000000000e+03
3.061000000000000000e+03 -7.160000000000000000e+02
3.163000000000000000e+03 -2.050000000000000000e+02
3.188000000000000000e+03 -9.040000000000000000e+02
3.649000000000000000e+03 -2.063000000000000000e+03
4.919000000000000000e+03 -2.506000000000000000e+03
4.450000000000000000e+03 -2.992000000000000000e+03
4.714000000000000000e+03 -1.987000000000000000e+03
3.086000000000000000e+03 -2.515000000000000000e+03
5.584000000000000000e+03 -3.112000000000000000e+03
3.461000000000000000e+03 -2.327000000000000000e+03
4.049000000000000000e+03 -1.075000000000000000e+03
5.575000000000000000e+03 -1.696000000000000000e+03
3.981000000000000000e+03 -2.217000000000000000e+03
3.904000000000000000e+03 -3.291000000000000000e+03
3.222000000000000000e+03 -3.623000000000000000e+03
3.273000000000000000e+03 -1.919000000000000000e+03
3.359000000000000000e+03 -2.242000000000000000e+03
4.101000000000000000e+03 -3.589000000000000000e+03
2.456000000000000000e+03 -2.677000000000000000e+03
5.319000000000000000e+03 -3.044000000000000000e+03
3.341000000000000000e+03 -3.043000000000000000e+03
3.487000000000000000e+03 -3.188000000000000000e+03
3.120000000000000000e+03 -2.148000000000000000e+03
2.703000000000000000e+03 -2.140000000000000000e+03
3.496000000000000000e+03 -4.339000000000000000e+03
2.234000000000000000e+03 -1.773000000000000000e+03
1.970000000000000000e+03 -2.106000000000000000e+03
2.813000000000000000e+03 -3.871000000000000000e+03
2.115000000000000000e+03 -3.572000000000000000e+03
2.156000000000000000e+03 -3.265000000000000000e+03
2.515000000000000000e+03 -4.978000000000000000e+03
1.935000000000000000e+03 -2.182000000000000000e+03
2.489000000000000000e+03 -3.862000000000000000e+03
1.457000000000000000e+03 -3.078000000000000000e+03
2.899000000000000000e+03 -2.813000000000000000e+03
2.719000000000000000e+03 -3.419000000000000000e+03
2.771000000000000000e+03 -2.310000000000000000e+03
3.112000000000000000e+03 -2.856000000000000000e+03
1.995000000000000000e+03 -1.611000000000000000e+03
2.719000000000000000e+03 -2.634000000000000000e+03
1.910000000000000000e+03 -3.751000000000000000e+03
3.273000000000000000e+03 -2.992000000000000000e+03
2.285000000000000000e+03 -3.402000000000000000e+03
8.350000000000000000e+02 -2.872000000000000000e+03
1.501000000000000000e+03 -2.566000000000000000e+03
1.824000000000000000e+03 -1.943000000000000000e+03
2.711000000000000000e+03 -3.785000000000000000e+03
2.234000000000000000e+03 -3.691000000000000000e+03
1.236000000000000000e+03 -3.018000000000000000e+03
2.259000000000000000e+03 -2.600000000000000000e+03
1.995000000000000000e+03 -3.913000000000000000e+03
2.532000000000000000e+03 -3.060000000000000000e+03
2.660000000000000000e+03 -1.423000000000000000e+03
2.412000000000000000e+03 -2.711000000000000000e+03
1.543000000000000000e+03 -1.782000000000000000e+03
1.816000000000000000e+03 -2.702000000000000000e+03
2.446000000000000000e+03 -2.924000000000000000e+03
2.038000000000000000e+03 -2.881000000000000000e+03
2.651000000000000000e+03 -3.811000000000000000e+03
2.916000000000000000e+03 -3.376000000000000000e+03
1.236000000000000000e+03 -4.331000000000000000e+03
1.994000000000000000e+03 -3.811000000000000000e+03
3.060000000000000000e+03 -2.174000000000000000e+03
2.114000000000000000e+03 -2.830000000000000000e+03
1.961000000000000000e+03 -3.973000000000000000e+03
1.398000000000000000e+03 -2.515000000000000000e+03
2.489000000000000000e+03 -3.376000000000000000e+03
2.012000000000000000e+03 -3.206000000000000000e+03
3.316000000000000000e+03 -3.000000000000000000e+03
2.856000000000000000e+03 -3.171000000000000000e+03
2.020000000000000000e+03 -4.561000000000000000e+03
2.362000000000000000e+03 -1.910000000000000000e+03
1.296000000000000000e+03 -3.334000000000000000e+03
2.770000000000000000e+03 -1.645000000000000000e+03
2.856000000000000000e+03 -3.172000000000000000e+03
3.180000000000000000e+03 -4.356000000000000000e+03
2.421000000000000000e+03 -4.058000000000000000e+03
1.833000000000000000e+03 -3.896000000000000000e+03
1.816000000000000000e+03 -3.956000000000000000e+03
2.915000000000000000e+03 -3.435000000000000000e+03
1.994000000000000000e+03 -2.335000000000000000e+03
1.091000000000000000e+03 -3.290000000000000000e+03
2.694000000000000000e+03 -3.666000000000000000e+03
2.353000000000000000e+03 -4.228000000000000000e+03
2.950000000000000000e+03 -4.782000000000000000e+03
3.453000000000000000e+03 -3.129000000000000000e+03
2.566000000000000000e+03 -4.706000000000000000e+03
2.106000000000000000e+03 -3.649000000000000000e+03
2.370000000000000000e+03 -5.558000000000000000e+03
2.131000000000000000e+03 -4.535000000000000000e+03
2.728000000000000000e+03 -4.646000000000000000e+03
3.291000000000000000e+03 -3.060000000000000000e+03
3.538000000000000000e+03 -3.708000000000000000e+03
3.657000000000000000e+03 -3.683000000000000000e+03
1.551000000000000000e+03 -4.228000000000000000e+03
2.097000000000000000e+03 -3.939000000000000000e+03
3.307000000000000000e+03 -3.947000000000000000e+03
2.148000000000000000e+03 -3.760000000000000000e+03
1.449000000000000000e+03 -3.546000000000000000e+03
1.952000000000000000e+03 -5.098000000000000000e+03
2.268000000000000000e+03 -3.547000000000000000e+03
1.960000000000000000e+03 -2.404000000000000000e+03
1.219000000000000000e+03 -3.769000000000000000e+03
1.577000000000000000e+03 -2.949000000000000000e+03
1.705000000000000000e+03 -4.382000000000000000e+03
1.347000000000000000e+03 -3.546000000000000000e+03
1.373000000000000000e+03 -4.322000000000000000e+03
2.387000000000000000e+03 -3.802000000000000000e+03
9.040000000000000000e+02 -4.441000000000000000e+03
6.900000000000000000e+02 -5.064000000000000000e+03
2.560000000000000000e+02 -5.678000000000000000e+03
1.202000000000000000e+03 -4.544000000000000000e+03
1.756000000000000000e+03 -3.888000000000000000e+03
4.090000000000000000e+02 -3.990000000000000000e+03
1.781000000000000000e+03 -3.061000000000000000e+03
9.460000000000000000e+02 -3.120000000000000000e+03
9.970000000000000000e+02 -3.683000000000000000e+03
9.380000000000000000e+02 -3.981000000000000000e+03
1.116000000000000000e+03 -4.527000000000000000e+03
4.940000000000000000e+02 -2.668000000000000000e+03
3.490000000000000000e+02 -2.600000000000000000e+03
-7.700000000000000000e+01 -2.762000000000000000e+03
-6.900000000000000000e+01 -3.692000000000000000e+03
-7.340000000000000000e+02 -2.975000000000000000e+03
7.330000000000000000e+02 -3.615000000000000000e+03
1.134000000000000000e+03 -2.515000000000000000e+03
8.020000000000000000e+02 -2.694000000000000000e+03
1.295000000000000000e+03 -4.263000000000000000e+03
1.441000000000000000e+03 -2.506000000000000000e+03
3.240000000000000000e+02 -3.410000000000000000e+03
1.705000000000000000e+03 -2.353000000000000000e+03
5.120000000000000000e+02 -2.523000000000000000e+03
2.390000000000000000e+02 -2.310000000000000000e+03
1.696000000000000000e+03 -4.467000000000000000e+03
1.688000000000000000e+03 -2.941000000000000000e+03
9.370000000000000000e+02 -3.112000000000000000e+03
2.566000000000000000e+03 -2.362000000000000000e+03
9.550000000000000000e+02 -2.523000000000000000e+03
5.800000000000000000e+02 -3.162000000000000000e+03
3.290000000000000000e+03 -1.176000000000000000e+03
1.739000000000000000e+03 -2.652000000000000000e+03
2.310000000000000000e+03 -3.777000000000000000e+03
2.404000000000000000e+03 -1.995000000000000000e+03
2.037000000000000000e+03 -2.635000000000000000e+03
1.842000000000000000e+03 -2.643000000000000000e+03
2.174000000000000000e+03 -4.016000000000000000e+03
3.325000000000000000e+03 -2.924000000000000000e+03
1.526000000000000000e+03 -3.325000000000000000e+03
3.350000000000000000e+03 -2.703000000000000000e+03
2.975000000000000000e+03 -3.589000000000000000e+03
2.302000000000000000e+03 -2.387000000000000000e+03
3.453000000000000000e+03 -3.128000000000000000e+03
3.675000000000000000e+03 -3.376000000000000000e+03
3.155000000000000000e+03 -3.862000000000000000e+03
2.165000000000000000e+03 -5.200000000000000000e+03
1.270000000000000000e+03 -4.271000000000000000e+03
2.967000000000000000e+03 -4.433000000000000000e+03
2.557000000000000000e+03 -3.333000000000000000e+03
3.035000000000000000e+03 -3.768000000000000000e+03
2.464000000000000000e+03 -3.027000000000000000e+03
1.577000000000000000e+03 -4.050000000000000000e+03
1.117000000000000000e+03 -5.081000000000000000e+03
1.288000000000000000e+03 -3.853000000000000000e+03
6.990000000000000000e+02 -4.765000000000000000e+03
9.120000000000000000e+02 -4.629000000000000000e+03
1.919000000000000000e+03 -3.768000000000000000e+03
5.120000000000000000e+02 -4.263000000000000000e+03
1.347000000000000000e+03 -2.711000000000000000e+03
9.550000000000000000e+02 -3.837000000000000000e+03
1.236000000000000000e+03 -4.339000000000000000e+03
-1.373000000000000000e+03 -2.370000000000000000e+03
3.400000000000000000e+01 -2.634000000000000000e+03
1.322000000000000000e+03 -2.882000000000000000e+03
-1.880000000000000000e+02 -3.359000000000000000e+03
-7.240000000000000000e+02 -3.095000000000000000e+03
-5.460000000000000000e+02 -3.879000000000000000e+03
-8.600000000000000000e+01 -2.328000000000000000e+03
-1.190000000000000000e+02 -4.621000000000000000e+03
1.594000000000000000e+03 -8.530000000000000000e+02
-4.180000000000000000e+02 -8.360000000000000000e+02
1.287000000000000000e+03 -2.020000000000000000e+03
1.193000000000000000e+03 -2.012000000000000000e+03
2.379000000000000000e+03 -1.978000000000000000e+03
1.364000000000000000e+03 -1.399000000000000000e+03
5.710000000000000000e+02 -1.006000000000000000e+03
7.330000000000000000e+02 -2.285000000000000000e+03
-1.700000000000000000e+01 -2.403000000000000000e+03
1.280000000000000000e+02 -1.952000000000000000e+03
1.280000000000000000e+02 -2.380000000000000000e+02
1.799000000000000000e+03 -2.055000000000000000e+03
1.509000000000000000e+03 -1.901000000000000000e+03
1.360000000000000000e+02 -1.185000000000000000e+03
4.246000000000000000e+03 -3.282000000000000000e+03
5.218000000000000000e+03 -3.632000000000000000e+03
5.234000000000000000e+03 -2.276000000000000000e+03
5.064000000000000000e+03 -4.424000000000000000e+03
5.405000000000000000e+03 -4.220000000000000000e+03
4.040000000000000000e+03 -3.631000000000000000e+03
3.904000000000000000e+03 -3.052000000000000000e+03
5.388000000000000000e+03 -3.529000000000000000e+03
6.052000000000000000e+03 -3.495000000000000000e+03
5.115000000000000000e+03 -3.666000000000000000e+03
5.959000000000000000e+03 -2.992000000000000000e+03
6.521000000000000000e+03 -3.112000000000000000e+03
5.652000000000000000e+03 -2.591000000000000000e+03
5.098000000000000000e+03 -2.873000000000000000e+03
6.701000000000000000e+03 -2.984000000000000000e+03
4.689000000000000000e+03 -2.012000000000000000e+03
5.072000000000000000e+03 -2.421000000000000000e+03
4.791000000000000000e+03 -2.566000000000000000e+03
6.504000000000000000e+03 -1.262000000000000000e+03
5.712000000000000000e+03 -1.901000000000000000e+03
4.595000000000000000e+03 -8.610000000000000000e+02
5.746000000000000000e+03 -1.918000000000000000e+03
3.325000000000000000e+03 -2.583000000000000000e+03
4.961000000000000000e+03 -1.500000000000000000e+03
4.851000000000000000e+03 -1.432000000000000000e+03
3.947000000000000000e+03 -1.211000000000000000e+03
4.100000000000000000e+03 -2.617000000000000000e+03
3.665000000000000000e+03 -2.183000000000000000e+03
2.736000000000000000e+03 -3.231000000000000000e+03
4.825000000000000000e+03 -2.643000000000000000e+03
3.734000000000000000e+03 -1.543000000000000000e+03
1.926000000000000000e+03 -3.840000000000000000e+02
3.989000000000000000e+03 -5.120000000000000000e+02
3.401000000000000000e+03 -1.629000000000000000e+03
2.430000000000000000e+03 -2.054000000000000000e+03
1.815000000000000000e+03 -2.693000000000000000e+03
2.166000000000000000e+03 -1.696000000000000000e+03
1.484000000000000000e+03 -1.355000000000000000e+03
2.481000000000000000e+03 -1.082000000000000000e+03
3.840000000000000000e+02 -1.620000000000000000e+03
2.390000000000000000e+02 -1.927000000000000000e+03
1.509000000000000000e+03 -1.015000000000000000e+03
1.116000000000000000e+03 -4.260000000000000000e+02
8.500000000000000000e+01 -1.373000000000000000e+03
1.782000000000000000e+03 -1.006000000000000000e+03
-1.870000000000000000e+02 -1.457000000000000000e+03
1.083000000000000000e+03 -8.270000000000000000e+02
8.000000000000000000e+00 -3.500000000000000000e+02
-5.710000000000000000e+02 -1.372000000000000000e+03
2.730000000000000000e+02 -9.890000000000000000e+02
-1.305000000000000000e+03 -1.543000000000000000e+03
-1.261000000000000000e+03 -8.500000000000000000e+01
-9.040000000000000000e+02 -1.782000000000000000e+03
-1.031000000000000000e+03 4.300000000000000000e+01
-2.618000000000000000e+03 -1.552000000000000000e+03
-1.176000000000000000e+03 -2.285000000000000000e+03
-1.296000000000000000e+03 -1.296000000000000000e+03
-1.824000000000000000e+03 9.000000000000000000e+00
-1.892000000000000000e+03 -1.202000000000000000e+03
-2.319000000000000000e+03 -9.290000000000000000e+02
-2.549000000000000000e+03 -1.245000000000000000e+03
-2.088000000000000000e+03 -6.650000000000000000e+02
-3.657000000000000000e+03 -9.630000000000000000e+02
-2.652000000000000000e+03 -1.492000000000000000e+03
-3.333000000000000000e+03 -1.415000000000000000e+03
-3.478000000000000000e+03 -4.690000000000000000e+02
-1.534000000000000000e+03 -1.722000000000000000e+03
-3.001000000000000000e+03 -4.770000000000000000e+02
-3.861000000000000000e+03 -6.000000000000000000e+01
-3.793000000000000000e+03 -8.860000000000000000e+02
-3.274000000000000000e+03 -3.070000000000000000e+02
-2.950000000000000000e+03 7.840000000000000000e+02
-4.151000000000000000e+03 -1.449000000000000000e+03
-4.475000000000000000e+03 -5.880000000000000000e+02
-3.990000000000000000e+03 -1.918000000000000000e+03
-4.262000000000000000e+03 -6.310000000000000000e+02
-3.427000000000000000e+03 -9.210000000000000000e+02
-3.324000000000000000e+03 -8.440000000000000000e+02
-4.766000000000000000e+03 6.060000000000000000e+02
-3.359000000000000000e+03 -9.200000000000000000e+02
-4.007000000000000000e+03 -1.125000000000000000e+03
-2.993000000000000000e+03 -9.460000000000000000e+02
-4.476000000000000000e+03 -1.619000000000000000e+03
-3.878000000000000000e+03 -1.305000000000000000e+03
-4.118000000000000000e+03 -3.240000000000000000e+02
-3.896000000000000000e+03 -4.260000000000000000e+02
-3.759000000000000000e+03 -1.654000000000000000e+03
-4.229000000000000000e+03 -1.040000000000000000e+03
-3.990000000000000000e+03 -9.000000000000000000e+00
-2.677000000000000000e+03 -5.110000000000000000e+02
-5.959000000000000000e+03 4.000000000000000000e+02
-4.850000000000000000e+03 -1.756000000000000000e+03
-3.914000000000000000e+03 -1.356000000000000000e+03
-5.916000000000000000e+03 -8.100000000000000000e+02
-3.981000000000000000e+03 -8.700000000000000000e+02
-5.021000000000000000e+03 -8.440000000000000000e+02
-5.081000000000000000e+03 -6.390000000000000000e+02
-4.373000000000000000e+03 -7.760000000000000000e+02
-4.859000000000000000e+03 7.330000000000000000e+02
-3.222000000000000000e+03 -1.194000000000000000e+03
-4.485000000000000000e+03 -2.810000000000000000e+02
-5.576000000000000000e+03 1.700000000000000000e+01
-4.911000000000000000e+03 -2.390000000000000000e+02
-4.501000000000000000e+03 -6.000000000000000000e+01
-4.783000000000000000e+03 4.300000000000000000e+01
-4.339000000000000000e+03 -7.600000000000000000e+01
-3.837000000000000000e+03 1.356000000000000000e+03
-3.495000000000000000e+03 2.560000000000000000e+02
-4.638000000000000000e+03 -3.400000000000000000e+01
-1.987000000000000000e+03 -7.700000000000000000e+01
-4.365000000000000000e+03 6.900000000000000000e+02
-4.398000000000000000e+03 -2.300000000000000000e+02
-3.913000000000000000e+03 -6.560000000000000000e+02
-3.777000000000000000e+03 -1.986000000000000000e+03
-3.479000000000000000e+03 3.240000000000000000e+02
-3.282000000000000000e+03 6.310000000000000000e+02
-2.565000000000000000e+03 -4.260000000000000000e+02
-2.992000000000000000e+03 -1.065000000000000000e+03
-4.178000000000000000e+03 1.880000000000000000e+02
-4.041000000000000000e+03 8.010000000000000000e+02
-3.691000000000000000e+03 -4.690000000000000000e+02
-4.050000000000000000e+03 -1.040000000000000000e+03
-2.344000000000000000e+03 -6.990000000000000000e+02
-3.546000000000000000e+03 -1.020000000000000000e+02
-3.879000000000000000e+03 8.440000000000000000e+02
-3.043000000000000000e+03 -9.400000000000000000e+01
-4.015000000000000000e+03 -1.356000000000000000e+03
-4.391000000000000000e+03 -1.280000000000000000e+02
-3.138000000000000000e+03 -5.120000000000000000e+02
-3.939000000000000000e+03 -1.824000000000000000e+03
-2.710000000000000000e+03 9.120000000000000000e+02
-2.574000000000000000e+03 6.800000000000000000e+01
-3.197000000000000000e+03 3.060000000000000000e+02
-2.336000000000000000e+03 8.690000000000000000e+02
-4.023000000000000000e+03 -2.560000000000000000e+02
-3.640000000000000000e+03 8.700000000000000000e+02
-3.547000000000000000e+03 -4.940000000000000000e+02
-4.289000000000000000e+03 2.900000000000000000e+02
-2.557000000000000000e+03 -6.140000000000000000e+02
-4.185000000000000000e+03 7.600000000000000000e+01
-4.135000000000000000e+03 6.130000000000000000e+02
-3.308000000000000000e+03 -1.347000000000000000e+03
-3.146000000000000000e+03 5.030000000000000000e+02
-2.872000000000000000e+03 -4.350000000000000000e+02
-4.262000000000000000e+03 -2.990000000000000000e+02
-5.200000000000000000e+03 -8.440000000000000000e+02
-3.563000000000000000e+03 1.960000000000000000e+02
-3.555000000000000000e+03 9.300000000000000000e+01
-3.129000000000000000e+03 1.176000000000000000e+03
-3.486000000000000000e+03 1.200000000000000000e+02
-3.563000000000000000e+03 -2.810000000000000000e+02
-2.745000000000000000e+03 6.740000000000000000e+02
-3.836000000000000000e+03 2.088000000000000000e+03
-4.502000000000000000e+03 -2.470000000000000000e+02
-4.536000000000000000e+03 -1.450000000000000000e+02
-4.058000000000000000e+03 3.240000000000000000e+02
-4.689000000000000000e+03 9.980000000000000000e+02
-4.536000000000000000e+03 1.134000000000000000e+03
-4.450000000000000000e+03 5.540000000000000000e+02
-4.177000000000000000e+03 -8.600000000000000000e+01
-3.385000000000000000e+03 7.670000000000000000e+02
-3.939000000000000000e+03 5.970000000000000000e+02
-4.211000000000000000e+03 -6.820000000000000000e+02
-4.092000000000000000e+03 9.550000000000000000e+02
-4.373000000000000000e+03 4.780000000000000000e+02
-3.913000000000000000e+03 2.480000000000000000e+02
-4.356000000000000000e+03 -3.660000000000000000e+02
-3.623000000000000000e+03 1.552000000000000000e+03
-3.419000000000000000e+03 1.525000000000000000e+03
-3.708000000000000000e+03 9.970000000000000000e+02
-4.288000000000000000e+03 -1.960000000000000000e+02
-4.936000000000000000e+03 1.671000000000000000e+03
-5.703000000000000000e+03 -2.130000000000000000e+02
-4.970000000000000000e+03 -4.600000000000000000e+02
-4.825000000000000000e+03 8.270000000000000000e+02
-4.527000000000000000e+03 1.006000000000000000e+03
-3.546000000000000000e+03 5.200000000000000000e+02
-4.476000000000000000e+03 -1.280000000000000000e+02
-3.683000000000000000e+03 1.500000000000000000e+03
-3.342000000000000000e+03 1.338000000000000000e+03
-3.333000000000000000e+03 1.049000000000000000e+03
-4.594000000000000000e+03 8.780000000000000000e+02
-5.507000000000000000e+03 5.540000000000000000e+02
-4.365000000000000000e+03 8.010000000000000000e+02
-5.336000000000000000e+03 9.370000000000000000e+02
-4.595000000000000000e+03 1.765000000000000000e+03
-4.118000000000000000e+03 4.860000000000000000e+02
-4.390000000000000000e+03 -2.470000000000000000e+02
-5.141000000000000000e+03 1.859000000000000000e+03
-3.760000000000000000e+03 1.219000000000000000e+03
-4.885000000000000000e+03 1.475000000000000000e+03
-4.424000000000000000e+03 1.006000000000000000e+03
-4.518000000000000000e+03 4.950000000000000000e+02
-5.371000000000000000e+03 8.090000000000000000e+02
-5.703000000000000000e+03 -1.110000000000000000e+02
-3.333000000000000000e+03 1.288000000000000000e+03
-3.972000000000000000e+03 1.654000000000000000e+03
-4.697000000000000000e+03 2.004000000000000000e+03
-4.766000000000000000e+03 9.980000000000000000e+02
-4.194000000000000000e+03 2.156000000000000000e+03
-4.271000000000000000e+03 1.287000000000000000e+03
-3.956000000000000000e+03 1.151000000000000000e+03
-4.467000000000000000e+03 9.370000000000000000e+02
-4.296000000000000000e+03 1.356000000000000000e+03
-5.004000000000000000e+03 2.609000000000000000e+03
-4.765000000000000000e+03 1.628000000000000000e+03
-4.629000000000000000e+03 1.927000000000000000e+03
-4.680000000000000000e+03 4.860000000000000000e+02
-4.706000000000000000e+03 2.327000000000000000e+03
-4.621000000000000000e+03 5.720000000000000000e+02
-5.217000000000000000e+03 1.663000000000000000e+03
-5.695000000000000000e+03 2.344000000000000000e+03
-3.862000000000000000e+03 4.000000000000000000e+02
-5.549000000000000000e+03 2.924000000000000000e+03
-5.464000000000000000e+03 2.148000000000000000e+03
-5.209000000000000000e+03 -1.800000000000000000e+02
-4.680000000000000000e+03 2.498000000000000000e+03
-4.654000000000000000e+03 3.308000000000000000e+03
-4.732000000000000000e+03 4.690000000000000000e+02
-3.640000000000000000e+03 1.560000000000000000e+03
-5.559000000000000000e+03 1.518000000000000000e+03
-4.178000000000000000e+03 3.342000000000000000e+03
-5.738000000000000000e+03 3.444000000000000000e+03
-5.712000000000000000e+03 1.781000000000000000e+03
-4.271000000000000000e+03 2.820000000000000000e+02
-6.223000000000000000e+03 3.214000000000000000e+03
-3.470000000000000000e+03 1.892000000000000000e+03
-5.294000000000000000e+03 2.592000000000000000e+03
-4.817000000000000000e+03 2.455000000000000000e+03
-5.456000000000000000e+03 2.609000000000000000e+03
-5.208000000000000000e+03 3.035000000000000000e+03
-4.629000000000000000e+03 2.387000000000000000e+03
-3.794000000000000000e+03 3.989000000000000000e+03
-5.013000000000000000e+03 1.508000000000000000e+03
-4.246000000000000000e+03 2.617000000000000000e+03
-3.112000000000000000e+03 2.779000000000000000e+03
-5.235000000000000000e+03 3.870000000000000000e+03
-4.271000000000000000e+03 3.376000000000000000e+03
-4.799000000000000000e+03 3.580000000000000000e+03
-4.646000000000000000e+03 3.581000000000000000e+03
-3.938000000000000000e+03 2.984000000000000000e+03
-4.826000000000000000e+03 4.484000000000000000e+03
-3.265000000000000000e+03 3.419000000000000000e+03
-3.155000000000000000e+03 3.307000000000000000e+03
-4.970000000000000000e+03 3.963000000000000000e+03
-3.043000000000000000e+03 4.305000000000000000e+03
-3.546000000000000000e+03 4.450000000000000000e+03
-3.632000000000000000e+03 4.203000000000000000e+03
-2.166000000000000000e+03 5.183000000000000000e+03
-2.532000000000000000e+03 4.697000000000000000e+03
-3.870000000000000000e+03 4.621000000000000000e+03
-2.652000000000000000e+03 5.499000000000000000e+03
-2.362000000000000000e+03 4.117000000000000000e+03
-1.475000000000000000e+03 5.089000000000000000e+03
-3.513000000000000000e+03 5.703000000000000000e+03
-1.748000000000000000e+03 6.086000000000000000e+03
-3.095000000000000000e+03 5.456000000000000000e+03
-1.867000000000000000e+03 4.500000000000000000e+03
-6.050000000000000000e+02 5.302000000000000000e+03
-7.330000000000000000e+02 7.434000000000000000e+03
-1.535000000000000000e+03 7.058000000000000000e+03
-1.253000000000000000e+03 6.990000000000000000e+03
-3.240000000000000000e+02 5.660000000000000000e+03
-3.670000000000000000e+02 6.683000000000000000e+03
5.100000000000000000e+01 6.973000000000000000e+03
-5.280000000000000000e+02 6.206000000000000000e+03
-3.840000000000000000e+02 7.493000000000000000e+03
-4.180000000000000000e+02 6.598000000000000000e+03
-1.032000000000000000e+03 6.556000000000000000e+03
7.700000000000000000e+01 7.681000000000000000e+03
1.280000000000000000e+02 7.160000000000000000e+03
1.134000000000000000e+03 7.314000000000000000e+03
2.980000000000000000e+02 8.977000000000000000e+03
9.120000000000000000e+02 9.241000000000000000e+03
9.630000000000000000e+02 7.859000000000000000e+03
2.046000000000000000e+03 8.601000000000000000e+03
1.355000000000000000e+03 8.934000000000000000e+03
9.030000000000000000e+02 6.478000000000000000e+03
1.203000000000000000e+03 8.730000000000000000e+03
1.722000000000000000e+03 7.408000000000000000e+03
3.597000000000000000e+03 7.792000000000000000e+03
4.049000000000000000e+03 8.277000000000000000e+03
4.407000000000000000e+03 8.721000000000000000e+03
4.015000000000000000e+03 8.337000000000000000e+03
3.964000000000000000e+03 9.582000000000000000e+03
4.544000000000000000e+03 7.714000000000000000e+03
4.842000000000000000e+03 7.817000000000000000e+03
5.644000000000000000e+03 8.047000000000000000e+03
4.995000000000000000e+03 8.448000000000000000e+03
6.078000000000000000e+03 8.661000000000000000e+03
5.831000000000000000e+03 6.751000000000000000e+03
5.840000000000000000e+03 8.951000000000000000e+03
6.377000000000000000e+03 7.876000000000000000e+03
5.362000000000000000e+03 7.851000000000000000e+03
6.888000000000000000e+03 8.192000000000000000e+03
7.817000000000000000e+03 7.357000000000000000e+03
7.971000000000000000e+03 8.039000000000000000e+03
6.087000000000000000e+03 8.132000000000000000e+03
7.323000000000000000e+03 7.416000000000000000e+03
7.724000000000000000e+03 5.856000000000000000e+03
8.183000000000000000e+03 7.066000000000000000e+03
8.968000000000000000e+03 4.407000000000000000e+03
8.815000000000000000e+03 6.257000000000000000e+03
7.894000000000000000e+03 6.197000000000000000e+03
8.934000000000000000e+03 5.515000000000000000e+03
8.243000000000000000e+03 3.452000000000000000e+03
8.874000000000000000e+03 4.143000000000000000e+03
9.897000000000000000e+03 3.009000000000000000e+03
1.028100000000000000e+04 2.711000000000000000e+03
8.849000000000000000e+03 2.703000000000000000e+03
9.676000000000000000e+03 1.875000000000000000e+03
9.617000000000000000e+03 3.589000000000000000e+03
8.422000000000000000e+03 2.659000000000000000e+03
9.045000000000000000e+03 1.858000000000000000e+03
8.090000000000000000e+03 1.943000000000000000e+03
8.167000000000000000e+03 2.470000000000000000e+02
8.729000000000000000e+03 1.816000000000000000e+03
6.845000000000000000e+03 2.293000000000000000e+03
7.434000000000000000e+03 1.117000000000000000e+03
7.988000000000000000e+03 6.060000000000000000e+02
7.544000000000000000e+03 5.790000000000000000e+02
6.070000000000000000e+03 -3.400000000000000000e+01
7.545000000000000000e+03 -9.030000000000000000e+02
6.249000000000000000e+03 -2.980000000000000000e+02
6.940000000000000000e+03 -1.057000000000000000e+03
5.917000000000000000e+03 -1.360000000000000000e+02
6.377000000000000000e+03 -9.120000000000000000e+02
6.180000000000000000e+03 -1.245000000000000000e+03
5.175000000000000000e+03 6.050000000000000000e+02
5.745000000000000000e+03 -1.048000000000000000e+03
4.561000000000000000e+03 -1.236000000000000000e+03
5.388000000000000000e+03 -1.700000000000000000e+01
3.759000000000000000e+03 -2.037000000000000000e+03
4.979000000000000000e+03 -4.520000000000000000e+02
5.004000000000000000e+03 -1.628000000000000000e+03
4.296000000000000000e+03 -1.824000000000000000e+03
4.493000000000000000e+03 -1.185000000000000000e+03
5.183000000000000000e+03 -1.280000000000000000e+02
4.671000000000000000e+03 -1.483000000000000000e+03
3.751000000000000000e+03 -1.611000000000000000e+03
4.084000000000000000e+03 -2.054000000000000000e+03
5.379000000000000000e+03 -1.082000000000000000e+03
3.359000000000000000e+03 -8.520000000000000000e+02
3.973000000000000000e+03 -1.219000000000000000e+03
4.271000000000000000e+03 -1.559000000000000000e+03
3.981000000000000000e+03 -1.552000000000000000e+03
4.194000000000000000e+03 -1.245000000000000000e+03
4.245000000000000000e+03 -5.280000000000000000e+02
4.161000000000000000e+03 -1.210000000000000000e+03
4.987000000000000000e+03 -1.100000000000000000e+03
4.953000000000000000e+03 -1.475000000000000000e+03
5.132000000000000000e+03 -2.182000000000000000e+03
4.944000000000000000e+03 -1.330000000000000000e+03
5.081000000000000000e+03 -2.626000000000000000e+03
4.655000000000000000e+03 -2.234000000000000000e+03
5.856000000000000000e+03 -2.234000000000000000e+03
6.573000000000000000e+03 -1.202000000000000000e+03
6.590000000000000000e+03 -1.211000000000000000e+03
6.079000000000000000e+03 -2.813000000000000000e+03
5.976000000000000000e+03 -1.910000000000000000e+03
5.823000000000000000e+03 -2.021000000000000000e+03
8.133000000000000000e+03 -9.550000000000000000e+02
6.180000000000000000e+03 -3.453000000000000000e+03
7.127000000000000000e+03 -1.748000000000000000e+03
7.477000000000000000e+03 -1.927000000000000000e+03
8.985000000000000000e+03 -2.046000000000000000e+03
8.653000000000000000e+03 -8.440000000000000000e+02
9.769000000000000000e+03 -1.031000000000000000e+03
1.257400000000000000e+04 -7.930000000000000000e+02
1.488400000000000000e+04 5.120000000000000000e+02
1.564300000000000000e+04 4.074000000000000000e+03
1.301700000000000000e+04 -7.016000000000000000e+03
1.327300000000000000e+04 -1.014500000000000000e+04
1.115100000000000000e+04 -1.052800000000000000e+04
9.931000000000000000e+03 -1.118500000000000000e+04
7.366000000000000000e+03 -1.304300000000000000e+04
6.095000000000000000e+03 -1.400600000000000000e+04
5.157000000000000000e+03 -1.413400000000000000e+04
3.767000000000000000e+03 -1.460300000000000000e+04
2.429000000000000000e+03 -1.434700000000000000e+04
7.160000000000000000e+02 -1.502900000000000000e+04
6.050000000000000000e+02 -1.351100000000000000e+04
-1.347000000000000000e+03 -1.285600000000000000e+04
-1.721000000000000000e+03 -1.271000000000000000e+04
-2.813000000000000000e+03 -1.280400000000000000e+04
-3.145000000000000000e+03 -1.144000000000000000e+04
-5.540000000000000000e+03 -1.154300000000000000e+04
-4.918000000000000000e+03 -1.161000000000000000e+04
-7.638000000000000000e+03 -1.060500000000000000e+04
-7.784000000000000000e+03 -9.113000000000000000e+03
-7.247000000000000000e+03 -7.331000000000000000e+03
-7.638000000000000000e+03 -6.675000000000000000e+03
-7.450000000000000000e+03 -4.800000000000000000e+03
-6.914000000000000000e+03 -4.067000000000000000e+03
-8.610000000000000000e+03 2.635000000000000000e+03
-1.133700000000000000e+04 5.710000000000000000e+02
-5.532000000000000000e+03 1.253000000000000000e+03
-4.749000000000000000e+03 -1.688000000000000000e+03
-4.331000000000000000e+03 -1.020000000000000000e+02
-4.714000000000000000e+03 -1.441000000000000000e+03
-3.845000000000000000e+03 -8.860000000000000000e+02
-3.240000000000000000e+03 -3.670000000000000000e+02
-3.751000000000000000e+03 -8.270000000000000000e+02
-3.034000000000000000e+03 -1.296000000000000000e+03
-2.813000000000000000e+03 -2.566000000000000000e+03
-2.183000000000000000e+03 -3.070000000000000000e+02
-1.501000000000000000e+03 -1.005000000000000000e+03
-2.029000000000000000e+03 1.117000000000000000e+03
-1.560000000000000000e+03 -1.100000000000000000e+03
-2.941000000000000000e+03 -8.260000000000000000e+02
-1.356000000000000000e+03 3.400000000000000000e+01
-1.960000000000000000e+03 -7.080000000000000000e+02
-1.893000000000000000e+03 -6.990000000000000000e+02
-1.628000000000000000e+03 -1.219000000000000000e+03
-8.950000000000000000e+02 -1.236000000000000000e+03
-5.460000000000000000e+02 -1.023000000000000000e+03
-1.781000000000000000e+03 -1.134000000000000000e+03
-8.100000000000000000e+02 1.262000000000000000e+03
-3.274000000000000000e+03 -3.444000000000000000e+03
-1.347000000000000000e+03 -1.423000000000000000e+03
-4.350000000000000000e+02 -1.500000000000000000e+03
-2.207000000000000000e+03 -1.594000000000000000e+03
-1.910000000000000000e+03 -7.080000000000000000e+02
-1.671000000000000000e+03 -6.390000000000000000e+02
-2.328000000000000000e+03 -2.361000000000000000e+03
-1.057000000000000000e+03 -1.287000000000000000e+03
-2.040000000000000000e+02 -8.180000000000000000e+02
-1.381000000000000000e+03 -1.475000000000000000e+03
-8.520000000000000000e+02 7.170000000000000000e+02
-9.460000000000000000e+02 -5.970000000000000000e+02
-1.952000000000000000e+03 -1.765000000000000000e+03
-1.697000000000000000e+03 -1.552000000000000000e+03
-1.620000000000000000e+03 -6.820000000000000000e+02
-9.890000000000000000e+02 -7.750000000000000000e+02
-8.700000000000000000e+02 -1.577000000000000000e+03
-1.705000000000000000e+03 -2.004000000000000000e+03
-1.995000000000000000e+03 -1.441000000000000000e+03
-3.086000000000000000e+03 -7.930000000000000000e+02
-1.705000000000000000e+03 -2.276000000000000000e+03
-1.560000000000000000e+03 -1.262000000000000000e+03
-2.523000000000000000e+03 -1.253000000000000000e+03
-1.270000000000000000e+03 -6.560000000000000000e+02
-1.253000000000000000e+03 -2.140000000000000000e+03
-7.590000000000000000e+02 -1.799000000000000000e+03
-1.356000000000000000e+03 -8.000000000000000000e+00
-1.185000000000000000e+03 -1.176000000000000000e+03
-2.106000000000000000e+03 -1.321000000000000000e+03
-1.662000000000000000e+03 -5.280000000000000000e+02
-5.620000000000000000e+02 -1.585000000000000000e+03
-2.251000000000000000e+03 -1.458000000000000000e+03
-2.276000000000000000e+03 -5.370000000000000000e+02
-2.122000000000000000e+03 -3.320000000000000000e+02
-8.180000000000000000e+02 8.500000000000000000e+01
-1.586000000000000000e+03 -9.380000000000000000e+02
-5.200000000000000000e+02 -3.490000000000000000e+02
-5.280000000000000000e+02 -1.151000000000000000e+03
-1.568000000000000000e+03 -1.432000000000000000e+03
-8.870000000000000000e+02 -1.415000000000000000e+03
-2.980000000000000000e+02 -2.820000000000000000e+02
-3.930000000000000000e+02 -3.150000000000000000e+02
-8.180000000000000000e+02 -9.630000000000000000e+02
-2.820000000000000000e+02 -6.130000000000000000e+02
-6.650000000000000000e+02 -5.880000000000000000e+02
-1.040000000000000000e+03 2.650000000000000000e+02
-5.800000000000000000e+02 -5.900000000000000000e+01
-8.870000000000000000e+02 -9.970000000000000000e+02
-6.910000000000000000e+02 -6.000000000000000000e+01
-1.944000000000000000e+03 3.580000000000000000e+02
-1.799000000000000000e+03 -3.240000000000000000e+02
-1.296000000000000000e+03 1.082000000000000000e+03
3.660000000000000000e+02 3.580000000000000000e+02
-7.700000000000000000e+01 5.800000000000000000e+02
-4.260000000000000000e+02 4.350000000000000000e+02
9.550000000000000000e+02 -1.620000000000000000e+02
-6.220000000000000000e+02 -3.400000000000000000e+01
-4.610000000000000000e+02 -6.310000000000000000e+02
-1.040000000000000000e+03 -1.710000000000000000e+02
-4.350000000000000000e+02 5.900000000000000000e+01
-1.603000000000000000e+03 3.410000000000000000e+02
-9.630000000000000000e+02 -1.859000000000000000e+03
-6.910000000000000000e+02 -8.180000000000000000e+02
-4.180000000000000000e+02 -4.200000000000000000e+01
-1.151000000000000000e+03 4.860000000000000000e+02
-1.099000000000000000e+03 -8.500000000000000000e+01
-2.640000000000000000e+02 -3.240000000000000000e+02
-1.390000000000000000e+03 -1.535000000000000000e+03
-6.900000000000000000e+02 -1.066000000000000000e+03
-2.429000000000000000e+03 1.960000000000000000e+02
-8.000000000000000000e+00 -6.050000000000000000e+02
-8.270000000000000000e+02 -6.900000000000000000e+02
-3.500000000000000000e+02 -1.023000000000000000e+03
-1.194000000000000000e+03 3.500000000000000000e+02
3.240000000000000000e+02 -5.890000000000000000e+02
-1.134000000000000000e+03 -2.300000000000000000e+02
-2.037000000000000000e+03 -2.210000000000000000e+02
-1.330000000000000000e+03 -1.134000000000000000e+03
-5.370000000000000000e+02 -9.290000000000000000e+02
-3.570000000000000000e+02 -8.870000000000000000e+02
5.100000000000000000e+01 -1.117000000000000000e+03
-3.840000000000000000e+02 9.400000000000000000e+01
-7.160000000000000000e+02 -5.620000000000000000e+02
-4.260000000000000000e+02 1.040000000000000000e+03
-1.662000000000000000e+03 -2.345000000000000000e+03
-1.261000000000000000e+03 -2.810000000000000000e+02
-3.070000000000000000e+02 -5.120000000000000000e+02
2.640000000000000000e+02 6.800000000000000000e+01
-3.670000000000000000e+02 -4.260000000000000000e+02
-1.177000000000000000e+03 -1.700000000000000000e+01
-1.986000000000000000e+03 -1.509000000000000000e+03
-5.800000000000000000e+02 -1.023000000000000000e+03
8.260000000000000000e+02 -1.296000000000000000e+03
-1.816000000000000000e+03 -6.800000000000000000e+01
-4.610000000000000000e+02 -4.940000000000000000e+02
-1.458000000000000000e+03 -2.233000000000000000e+03
-8.440000000000000000e+02 -1.372000000000000000e+03
4.690000000000000000e+02 3.320000000000000000e+02
-5.540000000000000000e+02 -8.500000000000000000e+01
-1.492000000000000000e+03 -2.810000000000000000e+02
2.730000000000000000e+02 2.220000000000000000e+02
-2.387000000000000000e+03 -1.551000000000000000e+03
-1.355000000000000000e+03 -1.603000000000000000e+03
-1.023000000000000000e+03 -1.799000000000000000e+03
-1.509000000000000000e+03 -1.722000000000000000e+03
-2.820000000000000000e+02 -8.020000000000000000e+02
-1.704000000000000000e+03 -1.219000000000000000e+03
-6.990000000000000000e+02 -3.150000000000000000e+02
1.790000000000000000e+02 -7.580000000000000000e+02
-6.560000000000000000e+02 -8.500000000000000000e+01
-5.630000000000000000e+02 -9.550000000000000000e+02
-2.250000000000000000e+03 -1.569000000000000000e+03
-1.415000000000000000e+03 2.300000000000000000e+02
-1.611000000000000000e+03 -6.390000000000000000e+02
-1.092000000000000000e+03 4.690000000000000000e+02
-1.535000000000000000e+03 -1.944000000000000000e+03
1.700000000000000000e+01 4.170000000000000000e+02
-1.194000000000000000e+03 -1.083000000000000000e+03
-4.610000000000000000e+02 -1.108000000000000000e+03
-9.460000000000000000e+02 -1.099000000000000000e+03
-2.390000000000000000e+02 -5.460000000000000000e+02
-7.080000000000000000e+02 -4.520000000000000000e+02
-1.782000000000000000e+03 -1.193000000000000000e+03
-1.944000000000000000e+03 -6.300000000000000000e+02
-1.637000000000000000e+03 -1.346000000000000000e+03
-1.262000000000000000e+03 3.150000000000000000e+02
-1.228000000000000000e+03 -1.909000000000000000e+03
-1.628000000000000000e+03 -1.870000000000000000e+02
-1.798000000000000000e+03 -9.290000000000000000e+02
-1.722000000000000000e+03 -1.629000000000000000e+03
-4.600000000000000000e+02 -1.338000000000000000e+03
-2.694000000000000000e+03 -9.800000000000000000e+02
-1.552000000000000000e+03 -1.360000000000000000e+02
-2.088000000000000000e+03 -1.424000000000000000e+03
-1.126000000000000000e+03 -1.288000000000000000e+03
-1.705000000000000000e+03 -3.750000000000000000e+02
-1.126000000000000000e+03 -6.000000000000000000e+01
-3.435000000000000000e+03 -6.990000000000000000e+02
-2.302000000000000000e+03 -1.228000000000000000e+03
-1.049000000000000000e+03 -1.202000000000000000e+03
-1.415000000000000000e+03 -8.350000000000000000e+02
-2.003000000000000000e+03 -8.350000000000000000e+02
-2.268000000000000000e+03 -7.420000000000000000e+02
-1.517000000000000000e+03 -1.540000000000000000e+02
-2.106000000000000000e+03 -9.460000000000000000e+02
-2.157000000000000000e+03 -6.740000000000000000e+02
-2.139000000000000000e+03 -3.830000000000000000e+02
-3.000000000000000000e+03 2.130000000000000000e+02
-1.065000000000000000e+03 1.126000000000000000e+03
-1.909000000000000000e+03 8.020000000000000000e+02
-1.833000000000000000e+03 -7.750000000000000000e+02
-2.225000000000000000e+03 1.159000000000000000e+03
-1.110000000000000000e+02 -3.160000000000000000e+02
-1.731000000000000000e+03 6.050000000000000000e+02
-1.296000000000000000e+03 -9.460000000000000000e+02
-2.421000000000000000e+03 1.700000000000000000e+01
-3.001000000000000000e+03 8.500000000000000000e+01
-2.054000000000000000e+03 2.480000000000000000e+02
-2.242000000000000000e+03 8.100000000000000000e+02
-8.440000000000000000e+02 1.057000000000000000e+03
-1.535000000000000000e+03 8.950000000000000000e+02
-1.722000000000000000e+03 -3.840000000000000000e+02
-1.918000000000000000e+03 4.090000000000000000e+02
-2.396000000000000000e+03 -8.440000000000000000e+02
-1.662000000000000000e+03 1.637000000000000000e+03
-2.318000000000000000e+03 -3.840000000000000000e+02
-1.304000000000000000e+03 1.083000000000000000e+03
-1.637000000000000000e+03 8.690000000000000000e+02
-1.799000000000000000e+03 3.590000000000000000e+02
-1.500000000000000000e+03 8.700000000000000000e+02
-1.586000000000000000e+03 4.950000000000000000e+02
-1.501000000000000000e+03 9.040000000000000000e+02
-8.190000000000000000e+02 1.995000000000000000e+03
-3.001000000000000000e+03 1.049000000000000000e+03
-4.690000000000000000e+02 -4.180000000000000000e+02
-6.310000000000000000e+02 7.500000000000000000e+02
-1.952000000000000000e+03 7.330000000000000000e+02
-1.280000000000000000e+02 1.304000000000000000e+03
-1.185000000000000000e+03 1.585000000000000000e+03
8.600000000000000000e+01 1.339000000000000000e+03
-2.685000000000000000e+03 2.481000000000000000e+03
-1.611000000000000000e+03 9.040000000000000000e+02
5.970000000000000000e+02 1.551000000000000000e+03
5.100000000000000000e+01 1.125000000000000000e+03
1.540000000000000000e+02 1.637000000000000000e+03
-5.540000000000000000e+02 3.920000000000000000e+02
3.150000000000000000e+02 5.630000000000000000e+02
8.180000000000000000e+02 9.210000000000000000e+02
-8.860000000000000000e+02 3.750000000000000000e+02
-4.260000000000000000e+02 1.535000000000000000e+03
3.660000000000000000e+02 1.338000000000000000e+03
-5.540000000000000000e+02 5.710000000000000000e+02
-1.700000000000000000e+02 -0.000000000000000000e+00
1.551000000000000000e+03 1.382000000000000000e+03
-2.310000000000000000e+02 9.890000000000000000e+02
4.090000000000000000e+02 1.398000000000000000e+03
2.500000000000000000e+01 -5.100000000000000000e+01
-1.237000000000000000e+03 7.670000000000000000e+02
-1.530000000000000000e+02 1.142000000000000000e+03
-9.630000000000000000e+02 1.637000000000000000e+03
1.710000000000000000e+02 8.780000000000000000e+02
-2.650000000000000000e+02 6.390000000000000000e+02
-1.892000000000000000e+03 6.400000000000000000e+02
-1.870000000000000000e+02 5.970000000000000000e+02
-1.654000000000000000e+03 1.190000000000000000e+02
-1.219000000000000000e+03 -5.970000000000000000e+02
-5.550000000000000000e+02 -3.490000000000000000e+02
-8.100000000000000000e+02 -7.580000000000000000e+02
-7.670000000000000000e+02 2.220000000000000000e+02
3.330000000000000000e+02 6.400000000000000000e+02
7.600000000000000000e+01 5.290000000000000000e+02
-1.671000000000000000e+03 1.066000000000000000e+03
1.960000000000000000e+02 2.130000000000000000e+02
-2.608000000000000000e+03 6.480000000000000000e+02
-1.031000000000000000e+03 -6.570000000000000000e+02
-1.109000000000000000e+03 -2.140000000000000000e+02
-1.790000000000000000e+02 3.670000000000000000e+02
-9.300000000000000000e+01 -6.000000000000000000e+01
-6.820000000000000000e+02 1.108000000000000000e+03
-1.808000000000000000e+03 6.650000000000000000e+02
-5.290000000000000000e+02 8.950000000000000000e+02
-1.355000000000000000e+03 4.350000000000000000e+02
3.400000000000000000e+01 1.484000000000000000e+03
-1.099000000000000000e+03 3.160000000000000000e+02
-8.860000000000000000e+02 -1.360000000000000000e+02
-5.210000000000000000e+02 -4.860000000000000000e+02
-7.420000000000000000e+02 -7.330000000000000000e+02
-1.193000000000000000e+03 9.550000000000000000e+02
-1.653000000000000000e+03 5.450000000000000000e+02
-1.110000000000000000e+02 1.020000000000000000e+02
-6.480000000000000000e+02 -1.960000000000000000e+02
-1.048000000000000000e+03 -3.920000000000000000e+02
-7.500000000000000000e+02 -6.910000000000000000e+02
-5.970000000000000000e+02 -1.700000000000000000e+02
-3.078000000000000000e+03 6.650000000000000000e+02
-4.690000000000000000e+02 -8.860000000000000000e+02
-1.602000000000000000e+03 5.970000000000000000e+02
-9.380000000000000000e+02 -8.100000000000000000e+02
-2.063000000000000000e+03 1.100000000000000000e+03
1.620000000000000000e+02 8.010000000000000000e+02
-1.083000000000000000e+03 7.930000000000000000e+02
-3.920000000000000000e+02 6.480000000000000000e+02
-3.223000000000000000e+03 -2.550000000000000000e+02
-1.569000000000000000e+03 3.920000000000000000e+02
-5.540000000000000000e+02 7.840000000000000000e+02
-1.245000000000000000e+03 -3.580000000000000000e+02
-1.305000000000000000e+03 1.530000000000000000e+02
-1.338000000000000000e+03 2.390000000000000000e+02
-1.892000000000000000e+03 -1.700000000000000000e+01
-9.040000000000000000e+02 -5.800000000000000000e+02
-7.160000000000000000e+02 1.960000000000000000e+02
-1.978000000000000000e+03 -8.690000000000000000e+02
-1.057000000000000000e+03 -4.780000000000000000e+02
-7.160000000000000000e+02 -1.110000000000000000e+02
-9.120000000000000000e+02 -9.000000000000000000e+00
-1.040000000000000000e+03 -1.458000000000000000e+03
-1.560000000000000000e+03 5.710000000000000000e+02
-1.415000000000000000e+03 5.630000000000000000e+02
-1.578000000000000000e+03 -8.870000000000000000e+02
-1.663000000000000000e+03 1.500000000000000000e+03
-5.630000000000000000e+02 1.160000000000000000e+03
-2.293000000000000000e+03 -4.270000000000000000e+02
-1.210000000000000000e+03 1.450000000000000000e+02
-2.225000000000000000e+03 1.330000000000000000e+03
-2.390000000000000000e+02 4.860000000000000000e+02
-1.910000000000000000e+03 -4.090000000000000000e+02
-1.892000000000000000e+03 -1.389000000000000000e+03
-1.680000000000000000e+03 -4.180000000000000000e+02
-8.950000000000000000e+02 3.150000000000000000e+02
-6.650000000000000000e+02 6.220000000000000000e+02
-3.750000000000000000e+02 7.240000000000000000e+02
0.000000000000000000e+00 -0.000000000000000000e+00
-9.000000000000000000e+00 -0.000000000000000000e+00
-1.194000000000000000e+03 -5.120000000000000000e+02
-1.360000000000000000e+02 1.423000000000000000e+03
-8.190000000000000000e+02 -1.219000000000000000e+03
-1.671000000000000000e+03 6.000000000000000000e+01
-1.620000000000000000e+02 3.840000000000000000e+02
-1.065000000000000000e+03 -3.060000000000000000e+02
-8.180000000000000000e+02 2.810000000000000000e+02
-7.670000000000000000e+02 2.810000000000000000e+02
-5.800000000000000000e+02 -2.390000000000000000e+02
-9.210000000000000000e+02 8.870000000000000000e+02
-2.900000000000000000e+02 4.860000000000000000e+02
-1.986000000000000000e+03 -9.290000000000000000e+02
-2.165000000000000000e+03 -6.730000000000000000e+02
-1.253000000000000000e+03 -2.208000000000000000e+03
-8.610000000000000000e+02 1.058000000000000000e+03
-1.577000000000000000e+03 -7.930000000000000000e+02
-6.140000000000000000e+02 -3.410000000000000000e+02
-1.211000000000000000e+03 8.610000000000000000e+02
-1.398000000000000000e+03 1.049000000000000000e+03
-1.015000000000000000e+03 1.030000000000000000e+02
-2.463000000000000000e+03 -6.000000000000000000e+01
-1.773000000000000000e+03 2.900000000000000000e+02
-2.037000000000000000e+03 6.660000000000000000e+02
-1.159000000000000000e+03 8.700000000000000000e+02
-8.020000000000000000e+02 -9.550000000000000000e+02
-2.140000000000000000e+03 5.880000000000000000e+02
-1.714000000000000000e+03 -7.330000000000000000e+02
-1.970000000000000000e+03 1.620000000000000000e+02
-1.262000000000000000e+03 -1.236000000000000000e+03
-2.045000000000000000e+03 1.530000000000000000e+02
-1.841000000000000000e+03 -4.350000000000000000e+02
-1.841000000000000000e+03 8.610000000000000000e+02
-1.091000000000000000e+03 8.270000000000000000e+02
-2.446000000000000000e+03 -5.880000000000000000e+02
-1.338000000000000000e+03 1.190000000000000000e+02
