1.671000000000000000e+03 -2.234000000000000000e+03
2.285000000000000000e+03 -2.165000000000000000e+03
-6.310000000000000000e+02 -1.074000000000000000e+03
2.541000000000000000e+03 -9.380000000000000000e+02
5.280000000000000000e+02 3.400000000000000000e+01
1.636000000000000000e+03 -2.720000000000000000e+02
6.990000000000000000e+02 -1.228000000000000000e+03
9.550000000000000000e+02 -2.012000000000000000e+03
1.193000000000000000e+03 3.070000000000000000e+02
7.160000000000000000e+02 0.000000000000000000e+00
1.603000000000000000e+03 -4.270000000000000000e+02
2.728000000000000000e+03 -6.990000000000000000e+02
2.199000000000000000e+03 2.390000000000000000e+02
3.615000000000000000e+03 1.370000000000000000e+02
2.626000000000000000e+03 1.091000000000000000e+03
3.734000000000000000e+03 0.000000000000000000e+00
2.830000000000000000e+03 2.864000000000000000e+03
9.890000000000000000e+02 1.245000000000000000e+03
6.820000000000000000e+02 -5.100000000000000000e+01
2.199000000000000000e+03 6.310000000000000000e+02
5.630000000000000000e+02 1.143000000000000000e+03
6.650000000000000000e+02 1.040000000000000000e+03
1.040000000000000000e+03 9.890000000000000000e+02
2.592000000000000000e+03 2.950000000000000000e+03
8.520000000000000000e+02 2.200000000000000000e+03
1.415000000000000000e+03 -5.100000000000000000e+01
1.227000000000000000e+03 1.313000000000000000e+03
-3.750000000000000000e+02 2.591000000000000000e+03
2.165000000000000000e+03 -5.970000000000000000e+02
2.165000000000000000e+03 -2.730000000000000000e+02
2.421000000000000000e+03 2.831000000000000000e+03
9.550000000000000000e+02 2.029000000000000000e+03
1.125000000000000000e+03 7.670000000000000000e+02
1.620000000000000000e+03 1.125000000000000000e+03
1.279000000000000000e+03 -5.970000000000000000e+02
1.040000000000000000e+03 9.200000000000000000e+02
3.240000000000000000e+02 6.140000000000000000e+02
3.400000000000000000e+01 7.840000000000000000e+02
9.210000000000000000e+02 1.585000000000000000e+03
-1.057000000000000000e+03 2.302000000000000000e+03
8.010000000000000000e+02 2.694000000000000000e+03
-1.108000000000000000e+03 1.995000000000000000e+03
-2.040000000000000000e+02 9.710000000000000000e+02
7.850000000000000000e+02 1.040000000000000000e+03
-9.550000000000000000e+02 2.080000000000000000e+03
-1.700000000000000000e+01 1.092000000000000000e+03
1.296000000000000000e+03 1.006000000000000000e+03
-1.603000000000000000e+03 1.552000000000000000e+03
-4.090000000000000000e+02 1.160000000000000000e+03
-6.820000000000000000e+02 2.608000000000000000e+03
1.020000000000000000e+02 1.535000000000000000e+03
1.700000000000000000e+01 2.302000000000000000e+03
-2.200000000000000000e+03 1.041000000000000000e+03
-7.160000000000000000e+02 4.260000000000000000e+02
-2.540000000000000000e+03 6.650000000000000000e+02
-1.841000000000000000e+03 6.650000000000000000e+02
-1.790000000000000000e+03 1.176000000000000000e+03
-2.267000000000000000e+03 1.620000000000000000e+03
-1.603000000000000000e+03 3.070000000000000000e+02
-3.068000000000000000e+03 7.330000000000000000e+02
-3.034000000000000000e+03 4.090000000000000000e+02
-1.092000000000000000e+03 4.430000000000000000e+02
-1.910000000000000000e+03 8.520000000000000000e+02
-1.023000000000000000e+03 3.580000000000000000e+02
-2.642000000000000000e+03 1.159000000000000000e+03
-2.166000000000000000e+03 7.850000000000000000e+02
-1.177000000000000000e+03 -8.700000000000000000e+02
-3.103000000000000000e+03 -6.650000000000000000e+02
-1.705000000000000000e+03 -3.410000000000000000e+02
-2.217000000000000000e+03 -9.040000000000000000e+02
-3.308000000000000000e+03 5.970000000000000000e+02
-1.654000000000000000e+03 1.382000000000000000e+03
-1.261000000000000000e+03 -1.227000000000000000e+03
-1.700000000000000000e+01 -1.074000000000000000e+03
-9.210000000000000000e+02 -2.390000000000000000e+02
-1.790000000000000000e+03 -9.720000000000000000e+02
-8.350000000000000000e+02 -7.510000000000000000e+02
-2.574000000000000000e+03 -4.260000000000000000e+02
-8.350000000000000000e+02 -5.120000000000000000e+02
-1.859000000000000000e+03 -6.480000000000000000e+02
-1.926000000000000000e+03 -2.131000000000000000e+03
-1.210000000000000000e+03 -1.551000000000000000e+03
-1.108000000000000000e+03 -3.137000000000000000e+03
5.620000000000000000e+02 -2.438000000000000000e+03
-8.690000000000000000e+02 -3.324000000000000000e+03
4.430000000000000000e+02 -4.314000000000000000e+03
1.381000000000000000e+03 -3.375000000000000000e+03
2.422000000000000000e+03 -5.115000000000000000e+03
3.138000000000000000e+03 -4.961000000000000000e+03
2.404000000000000000e+03 -2.609000000000000000e+03
3.018000000000000000e+03 -4.348000000000000000e+03
3.682000000000000000e+03 -2.814000000000000000e+03
5.251000000000000000e+03 -1.687000000000000000e+03
3.853000000000000000e+03 -2.080000000000000000e+03
3.767000000000000000e+03 -7.330000000000000000e+02
4.261000000000000000e+03 4.430000000000000000e+02
4.193000000000000000e+03 6.900000000000000000e+01
5.285000000000000000e+03 2.915000000000000000e+03
6.377000000000000000e+03 3.308000000000000000e+03
5.252000000000000000e+03 3.121000000000000000e+03
5.336000000000000000e+03 3.853000000000000000e+03
2.915000000000000000e+03 3.615000000000000000e+03
3.188000000000000000e+03 2.012000000000000000e+03
1.091000000000000000e+03 2.285000000000000000e+03
2.336000000000000000e+03 3.000000000000000000e+03
2.063000000000000000e+03 2.779000000000000000e+03
-5.970000000000000000e+02 4.093000000000000000e+03
-1.057000000000000000e+03 3.188000000000000000e+03
1.467000000000000000e+03 3.819000000000000000e+03
-2.210000000000000000e+02 3.444000000000000000e+03
4.600000000000000000e+02 5.558000000000000000e+03
-5.800000000000000000e+02 3.751000000000000000e+03
-8.360000000000000000e+02 2.779000000000000000e+03
-6.310000000000000000e+02 3.325000000000000000e+03
-4.600000000000000000e+02 3.240000000000000000e+03
-2.183000000000000000e+03 2.983000000000000000e+03
8.600000000000000000e+01 2.814000000000000000e+03
-8.690000000000000000e+02 -1.360000000000000000e+02
-2.210000000000000000e+02 2.523000000000000000e+03
-1.484000000000000000e+03 1.126000000000000000e+03
1.125000000000000000e+03 2.301000000000000000e+03
6.800000000000000000e+01 2.319000000000000000e+03
2.220000000000000000e+02 2.251000000000000000e+03
-2.560000000000000000e+02 1.927000000000000000e+03
-4.600000000000000000e+02 3.750000000000000000e+02
1.700000000000000000e+01 2.848000000000000000e+03
-8.010000000000000000e+02 1.483000000000000000e+03
-4.770000000000000000e+02 1.876000000000000000e+03
8.870000000000000000e+02 2.251000000000000000e+03
-1.020000000000000000e+02 3.939000000000000000e+03
-1.364000000000000000e+03 1.620000000000000000e+03
5.120000000000000000e+02 3.222000000000000000e+03
-1.415000000000000000e+03 3.922000000000000000e+03
-8.870000000000000000e+02 4.637000000000000000e+03
-2.183000000000000000e+03 2.404000000000000000e+03
-2.353000000000000000e+03 1.722000000000000000e+03
-2.693000000000000000e+03 3.989000000000000000e+03
-2.506000000000000000e+03 1.190000000000000000e+02
-4.433000000000000000e+03 1.791000000000000000e+03
-4.961000000000000000e+03 1.312000000000000000e+03
-4.978000000000000000e+03 -1.020000000000000000e+02
-4.774000000000000000e+03 8.500000000000000000e+01
-4.739000000000000000e+03 -1.006000000000000000e+03
-6.001000000000000000e+03 -8.530000000000000000e+02
-3.631000000000000000e+03 -1.040000000000000000e+03
-3.888000000000000000e+03 -4.610000000000000000e+02
-4.092000000000000000e+03 -2.847000000000000000e+03
-3.666000000000000000e+03 -1.688000000000000000e+03
-3.495000000000000000e+03 3.920000000000000000e+02
-2.063000000000000000e+03 -1.466000000000000000e+03
-1.568000000000000000e+03 -1.978000000000000000e+03
-2.285000000000000000e+03 2.390000000000000000e+02
-9.370000000000000000e+02 1.700000000000000000e+02
4.770000000000000000e+02 -1.211000000000000000e+03
-1.961000000000000000e+03 -6.480000000000000000e+02
0.000000000000000000e+00 -2.550000000000000000e+02
3.580000000000000000e+02 1.057000000000000000e+03
-1.091000000000000000e+03 -1.700000000000000000e+02
-1.432000000000000000e+03 -4.610000000000000000e+02
-6.650000000000000000e+02 -1.278000000000000000e+03
-1.057000000000000000e+03 5.280000000000000000e+02
-2.489000000000000000e+03 1.193000000000000000e+03
-1.364000000000000000e+03 5.800000000000000000e+02
-3.614000000000000000e+03 -7.840000000000000000e+02
-2.642000000000000000e+03 -6.480000000000000000e+02
-3.632000000000000000e+03 2.220000000000000000e+02
-4.484000000000000000e+03 -2.050000000000000000e+02
-3.836000000000000000e+03 -8.700000000000000000e+02
-4.399000000000000000e+03 -2.166000000000000000e+03
-3.222000000000000000e+03 -2.643000000000000000e+03
-3.888000000000000000e+03 -3.665000000000000000e+03
-1.535000000000000000e+03 -4.313000000000000000e+03
-3.086000000000000000e+03 -3.376000000000000000e+03
-1.347000000000000000e+03 -3.921000000000000000e+03
-6.310000000000000000e+02 -3.989000000000000000e+03
-1.603000000000000000e+03 -4.757000000000000000e+03
5.280000000000000000e+02 -4.894000000000000000e+03
-7.500000000000000000e+02 -3.496000000000000000e+03
5.100000000000000000e+01 -4.587000000000000000e+03
-1.030000000000000000e+02 -3.496000000000000000e+03
-2.404000000000000000e+03 -2.575000000000000000e+03
-2.380000000000000000e+02 -3.001000000000000000e+03
-1.880000000000000000e+02 -1.995000000000000000e+03
4.780000000000000000e+02 -2.233000000000000000e+03
4.260000000000000000e+02 -3.359000000000000000e+03
1.620000000000000000e+03 -3.240000000000000000e+03
1.619000000000000000e+03 -2.046000000000000000e+03
2.390000000000000000e+02 -2.029000000000000000e+03
2.114000000000000000e+03 -2.967000000000000000e+03
-1.700000000000000000e+01 -2.098000000000000000e+03
-1.710000000000000000e+02 -3.359000000000000000e+03
8.500000000000000000e+01 -2.507000000000000000e+03
-4.940000000000000000e+02 -2.285000000000000000e+03
5.280000000000000000e+02 -2.643000000000000000e+03
-8.360000000000000000e+02 -1.688000000000000000e+03
-8.690000000000000000e+02 -7.670000000000000000e+02
5.800000000000000000e+02 -1.347000000000000000e+03
-3.580000000000000000e+02 -2.029000000000000000e+03
-2.390000000000000000e+02 -9.550000000000000000e+02
7.500000000000000000e+02 -1.313000000000000000e+03
6.310000000000000000e+02 -8.870000000000000000e+02
1.551000000000000000e+03 4.770000000000000000e+02
6.900000000000000000e+01 -8.690000000000000000e+02
7.330000000000000000e+02 1.880000000000000000e+02
1.193000000000000000e+03 -1.654000000000000000e+03
1.126000000000000000e+03 -5.450000000000000000e+02
1.960000000000000000e+03 -2.643000000000000000e+03
4.090000000000000000e+02 -1.279000000000000000e+03
1.927000000000000000e+03 -7.500000000000000000e+02
6.820000000000000000e+02 -1.910000000000000000e+03
1.415000000000000000e+03 -4.430000000000000000e+02
5.100000000000000000e+01 -7.670000000000000000e+02
9.040000000000000000e+02 -3.580000000000000000e+02
1.688000000000000000e+03 2.199000000000000000e+03
1.108000000000000000e+03 -9.720000000000000000e+02
1.603000000000000000e+03 4.090000000000000000e+02
1.313000000000000000e+03 -1.091000000000000000e+03
2.216000000000000000e+03 5.100000000000000000e+01
2.130000000000000000e+03 -1.705000000000000000e+03
1.756000000000000000e+03 -1.382000000000000000e+03
3.870000000000000000e+03 -8.180000000000000000e+02
3.427000000000000000e+03 -8.350000000000000000e+02
2.251000000000000000e+03 -1.791000000000000000e+03
3.409000000000000000e+03 2.390000000000000000e+02
3.614000000000000000e+03 -2.115000000000000000e+03
3.119000000000000000e+03 -1.637000000000000000e+03
1.653000000000000000e+03 -1.364000000000000000e+03
2.421000000000000000e+03 -9.890000000000000000e+02
2.012000000000000000e+03 5.290000000000000000e+02
3.018000000000000000e+03 -7.500000000000000000e+02
1.875000000000000000e+03 3.137000000000000000e+03
2.353000000000000000e+03 2.047000000000000000e+03
2.796000000000000000e+03 9.550000000000000000e+02
2.267000000000000000e+03 2.064000000000000000e+03
2.762000000000000000e+03 2.080000000000000000e+03
2.472000000000000000e+03 2.642000000000000000e+03
3.239000000000000000e+03 1.756000000000000000e+03
2.267000000000000000e+03 2.984000000000000000e+03
2.421000000000000000e+03 1.892000000000000000e+03
4.610000000000000000e+02 3.240000000000000000e+03
3.051000000000000000e+03 1.126000000000000000e+03
2.728000000000000000e+03 1.092000000000000000e+03
1.228000000000000000e+03 1.602000000000000000e+03
3.240000000000000000e+02 1.347000000000000000e+03
8.020000000000000000e+02 1.006000000000000000e+03
3.750000000000000000e+02 1.200000000000000000e+02
5.790000000000000000e+02 7.680000000000000000e+02
7.840000000000000000e+02 1.279000000000000000e+03
6.480000000000000000e+02 1.517000000000000000e+03
7.670000000000000000e+02 1.092000000000000000e+03
1.688000000000000000e+03 3.410000000000000000e+02
2.182000000000000000e+03 -1.370000000000000000e+02
7.840000000000000000e+02 1.415000000000000000e+03
2.984000000000000000e+03 2.285000000000000000e+03
1.739000000000000000e+03 1.210000000000000000e+03
1.296000000000000000e+03 8.700000000000000000e+02
1.057000000000000000e+03 3.035000000000000000e+03
1.569000000000000000e+03 1.671000000000000000e+03
2.285000000000000000e+03 2.285000000000000000e+03
2.301000000000000000e+03 3.700000000000000000e+03
1.603000000000000000e+03 1.893000000000000000e+03
1.739000000000000000e+03 1.859000000000000000e+03
9.210000000000000000e+02 3.819000000000000000e+03
8.870000000000000000e+02 2.199000000000000000e+03
-5.800000000000000000e+02 2.711000000000000000e+03
6.650000000000000000e+02 2.626000000000000000e+03
1.057000000000000000e+03 3.086000000000000000e+03
-8.500000000000000000e+01 4.962000000000000000e+03
3.240000000000000000e+02 6.922000000000000000e+03
-2.720000000000000000e+02 5.507000000000000000e+03
4.090000000000000000e+02 5.098000000000000000e+03
2.251000000000000000e+03 6.104000000000000000e+03
3.580000000000000000e+02 6.564000000000000000e+03
9.040000000000000000e+02 7.298000000000000000e+03
1.432000000000000000e+03 7.126000000000000000e+03
5.620000000000000000e+02 5.183000000000000000e+03
1.773000000000000000e+03 5.269000000000000000e+03
6.650000000000000000e+02 6.019000000000000000e+03
-6.900000000000000000e+01 5.950000000000000000e+03
-1.125000000000000000e+03 4.706000000000000000e+03
2.210000000000000000e+02 3.836000000000000000e+03
1.142000000000000000e+03 5.473000000000000000e+03
-3.410000000000000000e+02 6.530000000000000000e+03
6.140000000000000000e+02 5.115000000000000000e+03
1.530000000000000000e+02 5.934000000000000000e+03
1.620000000000000000e+03 6.206000000000000000e+03
-5.450000000000000000e+02 5.797000000000000000e+03
-7.670000000000000000e+02 4.382000000000000000e+03
-3.240000000000000000e+02 4.791000000000000000e+03
-3.500000000000000000e+01 4.433000000000000000e+03
1.296000000000000000e+03 3.359000000000000000e+03
1.841000000000000000e+03 2.898000000000000000e+03
2.390000000000000000e+02 2.899000000000000000e+03
3.085000000000000000e+03 3.461000000000000000e+03
1.654000000000000000e+03 2.301000000000000000e+03
8.600000000000000000e+01 4.058000000000000000e+03
3.240000000000000000e+02 1.432000000000000000e+03
4.260000000000000000e+02 2.183000000000000000e+03
1.654000000000000000e+03 -8.500000000000000000e+01
1.296000000000000000e+03 1.126000000000000000e+03
7.510000000000000000e+02 6.310000000000000000e+02
1.030000000000000000e+02 2.900000000000000000e+02
-2.560000000000000000e+02 6.480000000000000000e+02
1.360000000000000000e+02 3.070000000000000000e+02
5.790000000000000000e+02 1.092000000000000000e+03
1.540000000000000000e+02 -1.880000000000000000e+02
2.730000000000000000e+02 -4.090000000000000000e+02
1.540000000000000000e+02 1.483000000000000000e+03
8.530000000000000000e+02 2.507000000000000000e+03
6.800000000000000000e+01 2.199000000000000000e+03
8.350000000000000000e+02 1.535000000000000000e+03
-6.140000000000000000e+02 3.768000000000000000e+03
1.995000000000000000e+03 7.840000000000000000e+02
1.159000000000000000e+03 1.586000000000000000e+03
2.250000000000000000e+03 2.336000000000000000e+03
1.927000000000000000e+03 5.630000000000000000e+02
3.734000000000000000e+03 9.040000000000000000e+02
2.745000000000000000e+03 -1.381000000000000000e+03
2.983000000000000000e+03 -1.296000000000000000e+03
3.461000000000000000e+03 7.840000000000000000e+02
3.325000000000000000e+03 -2.438000000000000000e+03
1.551000000000000000e+03 -9.890000000000000000e+02
2.507000000000000000e+03 -3.001000000000000000e+03
1.687000000000000000e+03 -1.654000000000000000e+03
1.535000000000000000e+03 -3.785000000000000000e+03
-1.370000000000000000e+02 -1.603000000000000000e+03
-6.990000000000000000e+02 -1.568000000000000000e+03
5.290000000000000000e+02 -3.052000000000000000e+03
-1.501000000000000000e+03 -3.973000000000000000e+03
-9.210000000000000000e+02 -2.983000000000000000e+03
-1.261000000000000000e+03 -3.172000000000000000e+03
-2.899000000000000000e+03 -3.273000000000000000e+03
-1.569000000000000000e+03 -2.524000000000000000e+03
-3.564000000000000000e+03 -1.245000000000000000e+03
-2.745000000000000000e+03 -1.637000000000000000e+03
-3.546000000000000000e+03 -2.933000000000000000e+03
-4.109000000000000000e+03 -1.910000000000000000e+03
-4.246000000000000000e+03 -5.630000000000000000e+02
-3.614000000000000000e+03 -1.700000000000000000e+02
-5.865000000000000000e+03 -1.540000000000000000e+02
-2.898000000000000000e+03 4.090000000000000000e+02
-6.292000000000000000e+03 3.478000000000000000e+03
-4.791000000000000000e+03 1.142000000000000000e+03
-5.252000000000000000e+03 3.956000000000000000e+03
-1.841000000000000000e+03 3.257000000000000000e+03
-2.915000000000000000e+03 4.672000000000000000e+03
-5.100000000000000000e+01 5.660000000000000000e+03
3.580000000000000000e+02 4.484000000000000000e+03
1.859000000000000000e+03 5.337000000000000000e+03
2.455000000000000000e+03 3.359000000000000000e+03
4.178000000000000000e+03 2.302000000000000000e+03
3.956000000000000000e+03 1.347000000000000000e+03
3.887000000000000000e+03 -6.130000000000000000e+02
4.978000000000000000e+03 -2.779000000000000000e+03
1.636000000000000000e+03 -4.126000000000000000e+03
9.210000000000000000e+02 -5.029000000000000000e+03
1.312000000000000000e+03 -6.223000000000000000e+03
-1.091000000000000000e+03 -6.547000000000000000e+03
-4.280000000000000000e+03 -5.507000000000000000e+03
-3.444000000000000000e+03 -4.705000000000000000e+03
-4.739000000000000000e+03 -2.660000000000000000e+03
-4.228000000000000000e+03 -5.290000000000000000e+02
-3.205000000000000000e+03 -8.010000000000000000e+02
-2.472000000000000000e+03 9.370000000000000000e+02
-1.722000000000000000e+03 2.251000000000000000e+03
-1.927000000000000000e+03 1.262000000000000000e+03
9.370000000000000000e+02 4.824000000000000000e+03
1.586000000000000000e+03 4.313000000000000000e+03
1.108000000000000000e+03 3.631000000000000000e+03
1.688000000000000000e+03 3.529000000000000000e+03
2.660000000000000000e+03 2.234000000000000000e+03
3.188000000000000000e+03 1.824000000000000000e+03
9.890000000000000000e+02 6.650000000000000000e+02
3.102000000000000000e+03 -1.190000000000000000e+02
3.170000000000000000e+03 5.460000000000000000e+02
1.790000000000000000e+03 -6.820000000000000000e+02
-6.470000000000000000e+02 -4.894000000000000000e+03
1.125000000000000000e+03 3.035000000000000000e+03
1.126000000000000000e+03 5.970000000000000000e+02
8.500000000000000000e+01 1.074000000000000000e+03
0.000000000000000000e+00 8.870000000000000000e+02
8.520000000000000000e+02 6.480000000000000000e+02
-5.280000000000000000e+02 3.580000000000000000e+02
-1.586000000000000000e+03 8.690000000000000000e+02
-3.400000000000000000e+01 1.159000000000000000e+03
-8.350000000000000000e+02 -2.050000000000000000e+02
-8.700000000000000000e+02 1.381000000000000000e+03
-1.193000000000000000e+03 2.949000000000000000e+03
1.880000000000000000e+02 2.779000000000000000e+03
7.330000000000000000e+02 9.030000000000000000e+02
-6.990000000000000000e+02 2.557000000000000000e+03
-3.410000000000000000e+02 2.301000000000000000e+03
-1.880000000000000000e+02 1.176000000000000000e+03
-6.650000000000000000e+02 2.898000000000000000e+03
7.340000000000000000e+02 2.660000000000000000e+03
-5.450000000000000000e+02 2.251000000000000000e+03
-6.300000000000000000e+02 1.432000000000000000e+03
4.940000000000000000e+02 2.848000000000000000e+03
1.190000000000000000e+02 5.290000000000000000e+02
1.108000000000000000e+03 -3.240000000000000000e+02
1.023000000000000000e+03 8.500000000000000000e+01
-6.820000000000000000e+02 4.600000000000000000e+02
-1.700000000000000000e+02 -2.560000000000000000e+02
3.240000000000000000e+02 3.070000000000000000e+02
-1.210000000000000000e+03 -4.260000000000000000e+02
2.550000000000000000e+02 1.057000000000000000e+03
-1.370000000000000000e+02 -3.580000000000000000e+02
-2.149000000000000000e+03 3.240000000000000000e+02
-1.143000000000000000e+03 8.700000000000000000e+02
-1.978000000000000000e+03 8.500000000000000000e+01
5.630000000000000000e+02 2.900000000000000000e+02
-2.438000000000000000e+03 4.260000000000000000e+02
-1.398000000000000000e+03 2.932000000000000000e+03
-2.268000000000000000e+03 2.507000000000000000e+03
-1.415000000000000000e+03 1.961000000000000000e+03
-3.240000000000000000e+02 2.608000000000000000e+03
-1.074000000000000000e+03 2.489000000000000000e+03
-8.190000000000000000e+02 1.858000000000000000e+03
-2.166000000000000000e+03 1.330000000000000000e+03
-1.433000000000000000e+03 2.983000000000000000e+03
-1.739000000000000000e+03 2.165000000000000000e+03
-1.262000000000000000e+03 1.551000000000000000e+03
6.900000000000000000e+01 1.654000000000000000e+03
-2.250000000000000000e+03 2.915000000000000000e+03
-8.700000000000000000e+02 1.415000000000000000e+03
-1.092000000000000000e+03 1.449000000000000000e+03
-1.159000000000000000e+03 -1.449000000000000000e+03
-2.220000000000000000e+02 -3.500000000000000000e+01
-2.336000000000000000e+03 6.130000000000000000e+02
1.700000000000000000e+01 7.160000000000000000e+02
2.560000000000000000e+02 -9.030000000000000000e+02
-1.449000000000000000e+03 1.791000000000000000e+03
-2.550000000000000000e+02 -6.800000000000000000e+01
-1.020000000000000000e+02 9.210000000000000000e+02
0.000000000000000000e+00 4.430000000000000000e+02
7.840000000000000000e+02 -4.260000000000000000e+02
5.450000000000000000e+02 -1.569000000000000000e+03
-3.580000000000000000e+02 -1.020000000000000000e+02
-5.460000000000000000e+02 -8.500000000000000000e+01
-9.890000000000000000e+02 1.159000000000000000e+03
1.278000000000000000e+03 5.290000000000000000e+02
-6.820000000000000000e+02 -1.347000000000000000e+03
-3.240000000000000000e+02 -1.279000000000000000e+03
-4.430000000000000000e+02 -1.020000000000000000e+02
-1.530000000000000000e+02 -3.410000000000000000e+02
-1.807000000000000000e+03 -1.710000000000000000e+02
-6.480000000000000000e+02 -1.893000000000000000e+03
-1.637000000000000000e+03 -5.110000000000000000e+02
-2.050000000000000000e+02 -5.460000000000000000e+02
3.500000000000000000e+01 1.190000000000000000e+02
-1.194000000000000000e+03 -2.560000000000000000e+02
-3.070000000000000000e+02 1.540000000000000000e+02
-8.180000000000000000e+02 -1.880000000000000000e+02
-2.900000000000000000e+02 -4.270000000000000000e+02
2.040000000000000000e+02 -3.410000000000000000e+02
-3.070000000000000000e+02 -1.279000000000000000e+03
8.860000000000000000e+02 2.900000000000000000e+02
-2.730000000000000000e+02 -2.268000000000000000e+03
1.880000000000000000e+02 -1.040000000000000000e+03
-1.159000000000000000e+03 -9.380000000000000000e+02
-2.900000000000000000e+02 -1.756000000000000000e+03
2.210000000000000000e+02 -1.228000000000000000e+03
-1.347000000000000000e+03 5.120000000000000000e+02
3.230000000000000000e+02 -2.319000000000000000e+03
-3.750000000000000000e+02 -1.006000000000000000e+03
-1.040000000000000000e+03 -1.057000000000000000e+03
1.245000000000000000e+03 -1.142000000000000000e+03
1.227000000000000000e+03 -3.478000000000000000e+03
7.840000000000000000e+02 -1.960000000000000000e+03
-1.700000000000000000e+02 -2.285000000000000000e+03
-1.347000000000000000e+03 -3.410000000000000000e+03
2.560000000000000000e+02 -3.649000000000000000e+03
7.670000000000000000e+02 -1.995000000000000000e+03
1.091000000000000000e+03 -2.932000000000000000e+03
3.154000000000000000e+03 -4.041000000000000000e+03
2.575000000000000000e+03 -2.608000000000000000e+03
2.114000000000000000e+03 -1.978000000000000000e+03
4.430000000000000000e+02 -1.739000000000000000e+03
8.700000000000000000e+02 -8.860000000000000000e+02
3.400000000000000000e+01 -2.694000000000000000e+03
1.700000000000000000e+02 -1.074000000000000000e+03
1.347000000000000000e+03 -2.984000000000000000e+03
-1.530000000000000000e+02 -1.313000000000000000e+03
-1.347000000000000000e+03 -1.398000000000000000e+03
-1.108000000000000000e+03 7.510000000000000000e+02
-3.512000000000000000e+03 1.245000000000000000e+03
-9.550000000000000000e+02 1.705000000000000000e+03
-2.132000000000000000e+03 -2.900000000000000000e+02
4.780000000000000000e+02 -1.870000000000000000e+02
7.160000000000000000e+02 -6.310000000000000000e+02
8.360000000000000000e+02 -1.739000000000000000e+03
-1.020000000000000000e+02 3.750000000000000000e+02
-1.484000000000000000e+03 5.620000000000000000e+02
4.770000000000000000e+02 -8.350000000000000000e+02
3.580000000000000000e+02 -1.210000000000000000e+03
-1.700000000000000000e+01 -1.416000000000000000e+03
-7.330000000000000000e+02 -1.722000000000000000e+03
8.500000000000000000e+01 -2.813000000000000000e+03
-2.390000000000000000e+02 -1.637000000000000000e+03
-1.500000000000000000e+03 -1.688000000000000000e+03
-3.920000000000000000e+02 -6.650000000000000000e+02
4.090000000000000000e+02 -4.950000000000000000e+02
-6.800000000000000000e+01 -8.020000000000000000e+02
4.940000000000000000e+02 -5.110000000000000000e+02
-1.586000000000000000e+03 -8.870000000000000000e+02
-2.040000000000000000e+02 -2.250000000000000000e+03
-1.020000000000000000e+02 -3.034000000000000000e+03
-8.700000000000000000e+02 -1.075000000000000000e+03
-3.410000000000000000e+02 -1.023000000000000000e+03
-1.880000000000000000e+02 -2.148000000000000000e+03
-5.110000000000000000e+02 -1.995000000000000000e+03
-1.057000000000000000e+03 -1.330000000000000000e+03
-2.626000000000000000e+03 1.030000000000000000e+02
-1.739000000000000000e+03 -6.820000000000000000e+02
-1.142000000000000000e+03 -1.108000000000000000e+03
-3.920000000000000000e+02 -2.730000000000000000e+02
-2.182000000000000000e+03 -8.350000000000000000e+02
-2.659000000000000000e+03 -8.500000000000000000e+01
-1.313000000000000000e+03 9.550000000000000000e+02
-1.449000000000000000e+03 1.142000000000000000e+03
-1.500000000000000000e+03 2.507000000000000000e+03
-2.881000000000000000e+03 8.360000000000000000e+02
1.700000000000000000e+02 1.961000000000000000e+03
-2.148000000000000000e+03 8.520000000000000000e+02
-9.380000000000000000e+02 1.978000000000000000e+03
7.320000000000000000e+02 1.534000000000000000e+03
2.040000000000000000e+02 5.960000000000000000e+02
8.860000000000000000e+02 3.240000000000000000e+02
9.380000000000000000e+02 5.970000000000000000e+02
3.400000000000000000e+01 6.480000000000000000e+02
4.610000000000000000e+02 1.700000000000000000e+01
-6.470000000000000000e+02 9.210000000000000000e+02
5.800000000000000000e+02 1.381000000000000000e+03
1.091000000000000000e+03 3.750000000000000000e+02
-8.600000000000000000e+01 4.430000000000000000e+02
6.650000000000000000e+02 -1.227000000000000000e+03
-3.920000000000000000e+02 0.000000000000000000e+00
1.602000000000000000e+03 -4.780000000000000000e+02
2.050000000000000000e+02 -4.950000000000000000e+02
2.353000000000000000e+03 1.700000000000000000e+01
2.028000000000000000e+03 1.700000000000000000e+01
6.800000000000000000e+01 -1.700000000000000000e+01
2.730000000000000000e+02 1.210000000000000000e+03
2.506000000000000000e+03 1.296000000000000000e+03
1.381000000000000000e+03 1.569000000000000000e+03
2.063000000000000000e+03 -2.550000000000000000e+02
1.824000000000000000e+03 -4.090000000000000000e+02
1.190000000000000000e+02 2.694000000000000000e+03
1.910000000000000000e+03 1.586000000000000000e+03
4.279000000000000000e+03 8.350000000000000000e+02
2.080000000000000000e+03 9.890000000000000000e+02
1.671000000000000000e+03 1.449000000000000000e+03
1.244000000000000000e+03 6.800000000000000000e+01
2.063000000000000000e+03 4.600000000000000000e+02
3.239000000000000000e+03 1.381000000000000000e+03
3.018000000000000000e+03 1.347000000000000000e+03
3.716000000000000000e+03 1.364000000000000000e+03
2.830000000000000000e+03 1.329000000000000000e+03
3.393000000000000000e+03 6.310000000000000000e+02
4.211000000000000000e+03 7.840000000000000000e+02
3.563000000000000000e+03 4.610000000000000000e+02
4.518000000000000000e+03 -7.500000000000000000e+02
5.286000000000000000e+03 -1.347000000000000000e+03
3.256000000000000000e+03 -1.620000000000000000e+03
2.506000000000000000e+03 -2.421000000000000000e+03
2.626000000000000000e+03 -3.342000000000000000e+03
2.386000000000000000e+03 -4.229000000000000000e+03
8.530000000000000000e+02 -2.847000000000000000e+03
1.756000000000000000e+03 -5.097000000000000000e+03
3.910000000000000000e+02 -4.774000000000000000e+03
-2.720000000000000000e+02 -3.461000000000000000e+03
-2.659000000000000000e+03 -3.972000000000000000e+03
-2.012000000000000000e+03 -3.239000000000000000e+03
-3.426000000000000000e+03 -1.296000000000000000e+03
-4.176000000000000000e+03 -1.023000000000000000e+03
-2.404000000000000000e+03 1.279000000000000000e+03
-7.500000000000000000e+02 9.380000000000000000e+02
-1.721000000000000000e+03 1.449000000000000000e+03
-1.006000000000000000e+03 2.080000000000000000e+03
-1.875000000000000000e+03 1.602000000000000000e+03
3.060000000000000000e+02 4.260000000000000000e+02
-1.057000000000000000e+03 -2.730000000000000000e+02
6.990000000000000000e+02 9.380000000000000000e+02
5.460000000000000000e+02 1.360000000000000000e+02
6.300000000000000000e+02 1.687000000000000000e+03
1.108000000000000000e+03 3.070000000000000000e+02
1.244000000000000000e+03 -8.600000000000000000e+01
4.940000000000000000e+02 -9.380000000000000000e+02
9.200000000000000000e+02 -1.159000000000000000e+03
-1.360000000000000000e+02 -1.910000000000000000e+03
7.510000000000000000e+02 -1.023000000000000000e+03
4.270000000000000000e+02 -1.074000000000000000e+03
5.970000000000000000e+02 -1.415000000000000000e+03
1.040000000000000000e+03 -1.142000000000000000e+03
4.090000000000000000e+02 -1.977000000000000000e+03
-1.530000000000000000e+02 -3.631000000000000000e+03
6.900000000000000000e+01 -2.984000000000000000e+03
-6.990000000000000000e+02 -2.012000000000000000e+03
-3.240000000000000000e+02 -2.490000000000000000e+03
-4.600000000000000000e+02 -3.461000000000000000e+03
-1.773000000000000000e+03 -1.603000000000000000e+03
-2.029000000000000000e+03 -2.233000000000000000e+03
-2.489000000000000000e+03 -8.870000000000000000e+02
-1.756000000000000000e+03 -8.350000000000000000e+02
-3.035000000000000000e+03 -1.551000000000000000e+03
-3.001000000000000000e+03 -7.840000000000000000e+02
-3.189000000000000000e+03 -3.400000000000000000e+02
-3.103000000000000000e+03 -3.580000000000000000e+02
-2.439000000000000000e+03 -6.300000000000000000e+02
-1.450000000000000000e+03 -1.023000000000000000e+03
-8.700000000000000000e+02 4.260000000000000000e+02
-8.350000000000000000e+02 -2.560000000000000000e+02
-2.063000000000000000e+03 1.700000000000000000e+02
-6.140000000000000000e+02 7.670000000000000000e+02
-1.108000000000000000e+03 1.700000000000000000e+02
-1.244000000000000000e+03 7.160000000000000000e+02
-2.029000000000000000e+03 -1.279000000000000000e+03
-2.900000000000000000e+02 -1.370000000000000000e+02
-1.296000000000000000e+03 -4.600000000000000000e+02
-6.820000000000000000e+02 6.140000000000000000e+02
-6.650000000000000000e+02 2.040000000000000000e+02
-8.180000000000000000e+02 5.100000000000000000e+01
-1.892000000000000000e+03 4.950000000000000000e+02
-9.380000000000000000e+02 4.260000000000000000e+02
-1.313000000000000000e+03 8.500000000000000000e+01
-1.807000000000000000e+03 -1.244000000000000000e+03
1.700000000000000000e+01 -1.142000000000000000e+03
-7.670000000000000000e+02 -3.240000000000000000e+02
-3.580000000000000000e+02 3.580000000000000000e+02
-2.199000000000000000e+03 1.211000000000000000e+03
-1.432000000000000000e+03 1.800000000000000000e+01
-1.126000000000000000e+03 4.090000000000000000e+02
-2.830000000000000000e+03 -1.006000000000000000e+03
-1.364000000000000000e+03 2.148000000000000000e+03
-1.978000000000000000e+03 7.670000000000000000e+02
-2.830000000000000000e+03 1.893000000000000000e+03
-1.841000000000000000e+03 1.360000000000000000e+02
-2.489000000000000000e+03 2.302000000000000000e+03
-3.103000000000000000e+03 2.966000000000000000e+03
-1.870000000000000000e+02 1.177000000000000000e+03
-2.040000000000000000e+02 2.711000000000000000e+03
6.800000000000000000e+01 1.961000000000000000e+03
-4.100000000000000000e+02 2.063000000000000000e+03
9.210000000000000000e+02 2.864000000000000000e+03
1.381000000000000000e+03 2.455000000000000000e+03
2.797000000000000000e+03 1.295000000000000000e+03
2.268000000000000000e+03 5.970000000000000000e+02
3.086000000000000000e+03 5.630000000000000000e+02
3.052000000000000000e+03 8.870000000000000000e+02
3.000000000000000000e+03 1.005000000000000000e+03
1.397000000000000000e+03 -1.705000000000000000e+03
1.944000000000000000e+03 -1.978000000000000000e+03
5.800000000000000000e+02 -2.318000000000000000e+03
2.796000000000000000e+03 -6.480000000000000000e+02
8.860000000000000000e+02 -7.160000000000000000e+02
-2.900000000000000000e+02 -9.720000000000000000e+02
-1.262000000000000000e+03 -2.506000000000000000e+03
-4.950000000000000000e+02 -1.978000000000000000e+03
-1.870000000000000000e+02 -1.518000000000000000e+03
-1.569000000000000000e+03 4.260000000000000000e+02
-1.450000000000000000e+03 -1.710000000000000000e+02
-2.050000000000000000e+02 6.480000000000000000e+02
-3.230000000000000000e+02 -1.876000000000000000e+03
-1.262000000000000000e+03 0.000000000000000000e+00
-3.273000000000000000e+03 8.520000000000000000e+02
-2.182000000000000000e+03 -1.296000000000000000e+03
-2.234000000000000000e+03 -8.870000000000000000e+02
-1.756000000000000000e+03 -4.090000000000000000e+02
-2.933000000000000000e+03 1.176000000000000000e+03
-2.182000000000000000e+03 1.654000000000000000e+03
-2.915000000000000000e+03 1.370000000000000000e+02
-1.636000000000000000e+03 2.148000000000000000e+03
-1.398000000000000000e+03 2.900000000000000000e+02
-1.159000000000000000e+03 1.671000000000000000e+03
-1.517000000000000000e+03 1.040000000000000000e+03
4.440000000000000000e+02 -1.023000000000000000e+03
5.960000000000000000e+02 5.110000000000000000e+02
1.347000000000000000e+03 -4.260000000000000000e+02
-1.227000000000000000e+03 -1.200000000000000000e+02
2.390000000000000000e+02 -7.670000000000000000e+02
5.100000000000000000e+01 -7.330000000000000000e+02
-6.140000000000000000e+02 9.890000000000000000e+02
-2.050000000000000000e+02 -2.900000000000000000e+02
-2.900000000000000000e+02 -1.500000000000000000e+03
2.199000000000000000e+03 -5.620000000000000000e+02
-8.690000000000000000e+02 -7.330000000000000000e+02
3.410000000000000000e+02 -2.730000000000000000e+02
-3.070000000000000000e+02 5.960000000000000000e+02
-8.360000000000000000e+02 -8.690000000000000000e+02
3.750000000000000000e+02 -1.540000000000000000e+02
-2.900000000000000000e+02 3.240000000000000000e+02
-4.260000000000000000e+02 -8.010000000000000000e+02
-1.279000000000000000e+03 2.730000000000000000e+02
-1.159000000000000000e+03 -3.580000000000000000e+02
-5.280000000000000000e+02 -1.517000000000000000e+03
-2.199000000000000000e+03 2.730000000000000000e+02
-2.507000000000000000e+03 9.030000000000000000e+02
-1.773000000000000000e+03 2.380000000000000000e+02
-1.210000000000000000e+03 1.892000000000000000e+03
-2.387000000000000000e+03 2.166000000000000000e+03
-4.950000000000000000e+02 1.551000000000000000e+03
-1.961000000000000000e+03 -8.530000000000000000e+02
-1.449000000000000000e+03 -1.710000000000000000e+02
-1.023000000000000000e+03 -3.400000000000000000e+01
-1.500000000000000000e+03 2.097000000000000000e+03
-9.210000000000000000e+02 9.550000000000000000e+02
-1.700000000000000000e+02 2.210000000000000000e+02
-5.960000000000000000e+02 4.430000000000000000e+02
-1.415000000000000000e+03 1.159000000000000000e+03
-7.160000000000000000e+02 1.569000000000000000e+03
3.240000000000000000e+02 5.630000000000000000e+02
-9.880000000000000000e+02 1.108000000000000000e+03
8.860000000000000000e+02 1.091000000000000000e+03
-1.125000000000000000e+03 1.193000000000000000e+03
-1.700000000000000000e+01 -2.050000000000000000e+02
-2.029000000000000000e+03 4.090000000000000000e+02
9.890000000000000000e+02 1.824000000000000000e+03
1.190000000000000000e+02 9.040000000000000000e+02
-1.700000000000000000e+02 5.110000000000000000e+02
2.560000000000000000e+02 1.790000000000000000e+03
1.530000000000000000e+02 1.740000000000000000e+03
1.700000000000000000e+01 1.927000000000000000e+03
5.280000000000000000e+02 1.347000000000000000e+03
2.148000000000000000e+03 1.279000000000000000e+03
1.944000000000000000e+03 2.762000000000000000e+03
1.177000000000000000e+03 8.350000000000000000e+02
1.569000000000000000e+03 -3.400000000000000000e+02
2.029000000000000000e+03 1.176000000000000000e+03
2.182000000000000000e+03 3.750000000000000000e+02
1.200000000000000000e+02 2.390000000000000000e+02
1.773000000000000000e+03 -9.550000000000000000e+02
-1.398000000000000000e+03 9.380000000000000000e+02
-9.720000000000000000e+02 -1.700000000000000000e+01
-2.550000000000000000e+02 1.880000000000000000e+02
4.260000000000000000e+02 1.227000000000000000e+03
-3.580000000000000000e+02 1.142000000000000000e+03
-5.100000000000000000e+01 3.240000000000000000e+02
-1.381000000000000000e+03 1.540000000000000000e+02
-2.220000000000000000e+02 -4.430000000000000000e+02
1.020000000000000000e+02 2.050000000000000000e+02
1.710000000000000000e+02 -3.580000000000000000e+02
1.807000000000000000e+03 1.194000000000000000e+03
1.637000000000000000e+03 3.400000000000000000e+01
1.700000000000000000e+01 6.140000000000000000e+02
2.220000000000000000e+02 2.050000000000000000e+02
5.970000000000000000e+02 1.228000000000000000e+03
1.200000000000000000e+02 1.279000000000000000e+03
-3.070000000000000000e+02 3.400000000000000000e+01
-1.210000000000000000e+03 2.900000000000000000e+02
-7.330000000000000000e+02 1.381000000000000000e+03
2.210000000000000000e+02 -4.780000000000000000e+02
-1.360000000000000000e+02 1.193000000000000000e+03
5.120000000000000000e+02 8.530000000000000000e+02
5.450000000000000000e+02 9.380000000000000000e+02
-3.760000000000000000e+02 8.350000000000000000e+02
-1.190000000000000000e+02 2.404000000000000000e+03
9.380000000000000000e+02 -2.890000000000000000e+02
-6.900000000000000000e+01 -1.370000000000000000e+02
7.500000000000000000e+02 -1.705000000000000000e+03
6.650000000000000000e+02 2.550000000000000000e+02
-1.279000000000000000e+03 -1.995000000000000000e+03
-6.810000000000000000e+02 -9.720000000000000000e+02
-2.405000000000000000e+03 6.140000000000000000e+02
-3.102000000000000000e+03 -6.800000000000000000e+01
-4.075000000000000000e+03 2.319000000000000000e+03
-3.274000000000000000e+03 1.620000000000000000e+03
-3.717000000000000000e+03 3.734000000000000000e+03
-1.875000000000000000e+03 3.035000000000000000e+03
-2.050000000000000000e+02 2.336000000000000000e+03
1.636000000000000000e+03 2.728000000000000000e+03
2.506000000000000000e+03 2.370000000000000000e+03
1.330000000000000000e+03 2.165000000000000000e+03
3.086000000000000000e+03 1.279000000000000000e+03
3.597000000000000000e+03 2.745000000000000000e+03
3.052000000000000000e+03 1.875000000000000000e+03
2.591000000000000000e+03 1.978000000000000000e+03
1.859000000000000000e+03 1.313000000000000000e+03
3.052000000000000000e+03 1.142000000000000000e+03
3.614000000000000000e+03 7.160000000000000000e+02
3.171000000000000000e+03 1.142000000000000000e+03
3.683000000000000000e+03 1.176000000000000000e+03
2.558000000000000000e+03 -7.160000000000000000e+02
3.512000000000000000e+03 1.313000000000000000e+03
4.654000000000000000e+03 5.110000000000000000e+02
3.120000000000000000e+03 -8.350000000000000000e+02
3.358000000000000000e+03 7.680000000000000000e+02
5.970000000000000000e+02 -4.672000000000000000e+03
3.853000000000000000e+03 -3.018000000000000000e+03
2.984000000000000000e+03 -9.880000000000000000e+02
3.921000000000000000e+03 -4.780000000000000000e+02
3.086000000000000000e+03 4.260000000000000000e+02
3.648000000000000000e+03 4.780000000000000000e+02
2.319000000000000000e+03 -1.194000000000000000e+03
1.500000000000000000e+03 -1.347000000000000000e+03
2.386000000000000000e+03 -5.960000000000000000e+02
7.670000000000000000e+02 -1.704000000000000000e+03
3.341000000000000000e+03 5.290000000000000000e+02
2.642000000000000000e+03 -1.500000000000000000e+03
1.278000000000000000e+03 -1.006000000000000000e+03
7.670000000000000000e+02 -5.100000000000000000e+01
1.023000000000000000e+03 -1.193000000000000000e+03
8.520000000000000000e+02 -1.700000000000000000e+01
-6.800000000000000000e+01 6.140000000000000000e+02
2.711000000000000000e+03 8.500000000000000000e+01
1.927000000000000000e+03 -1.534000000000000000e+03
1.870000000000000000e+02 -4.950000000000000000e+02
8.020000000000000000e+02 -8.860000000000000000e+02
1.704000000000000000e+03 -1.995000000000000000e+03
1.330000000000000000e+03 -1.023000000000000000e+03
1.330000000000000000e+03 -2.390000000000000000e+02
1.501000000000000000e+03 -5.110000000000000000e+02
7.670000000000000000e+02 -1.262000000000000000e+03
3.018000000000000000e+03 -1.739000000000000000e+03
1.517000000000000000e+03 -1.943000000000000000e+03
2.677000000000000000e+03 -2.608000000000000000e+03
4.280000000000000000e+03 -2.302000000000000000e+03
3.001000000000000000e+03 -3.989000000000000000e+03
3.035000000000000000e+03 -5.268000000000000000e+03
3.989000000000000000e+03 -4.570000000000000000e+03
2.898000000000000000e+03 -3.512000000000000000e+03
2.200000000000000000e+03 -4.263000000000000000e+03
3.750000000000000000e+02 -4.843000000000000000e+03
8.690000000000000000e+02 -4.177000000000000000e+03
1.825000000000000000e+03 -3.768000000000000000e+03
6.480000000000000000e+02 -4.723000000000000000e+03
1.600000000000000000e+01 -3.955000000000000000e+03
-1.880000000000000000e+02 -4.381000000000000000e+03
2.210000000000000000e+02 -3.052000000000000000e+03
1.552000000000000000e+03 -3.257000000000000000e+03
-6.650000000000000000e+02 -3.444000000000000000e+03
3.410000000000000000e+02 -3.188000000000000000e+03
-1.449000000000000000e+03 -2.507000000000000000e+03
-1.700000000000000000e+01 -3.155000000000000000e+03
-1.808000000000000000e+03 -3.956000000000000000e+03
-1.398000000000000000e+03 -3.938000000000000000e+03
-2.370000000000000000e+03 -5.336000000000000000e+03
-3.546000000000000000e+03 -5.746000000000000000e+03
-3.478000000000000000e+03 -6.172000000000000000e+03
-3.717000000000000000e+03 -3.495000000000000000e+03
-5.012000000000000000e+03 -3.069000000000000000e+03
-6.853000000000000000e+03 -2.387000000000000000e+03
-8.013000000000000000e+03 -6.820000000000000000e+02
-9.053000000000000000e+03 -1.057000000000000000e+03
-9.155000000000000000e+03 2.390000000000000000e+02
-7.041000000000000000e+03 1.040000000000000000e+03
-5.489000000000000000e+03 1.756000000000000000e+03
-7.433000000000000000e+03 2.916000000000000000e+03
-4.244000000000000000e+03 3.086000000000000000e+03
-3.733000000000000000e+03 3.632000000000000000e+03
-2.540000000000000000e+03 2.659000000000000000e+03
-2.694000000000000000e+03 2.114000000000000000e+03
-2.353000000000000000e+03 1.415000000000000000e+03
-2.915000000000000000e+03 4.090000000000000000e+02
-5.114000000000000000e+03 1.211000000000000000e+03
-3.580000000000000000e+03 2.403000000000000000e+03
-5.013000000000000000e+03 2.626000000000000000e+03
-6.734000000000000000e+03 5.796000000000000000e+03
-5.320000000000000000e+03 5.831000000000000000e+03
-4.075000000000000000e+03 6.956000000000000000e+03
-4.058000000000000000e+03 7.791000000000000000e+03
-2.028000000000000000e+03 8.201000000000000000e+03
-2.131000000000000000e+03 8.218000000000000000e+03
-1.876000000000000000e+03 8.951000000000000000e+03
-1.585000000000000000e+03 8.047000000000000000e+03
-4.610000000000000000e+02 8.491000000000000000e+03
-1.824000000000000000e+03 9.531000000000000000e+03
1.740000000000000000e+03 1.133800000000000000e+04
-5.120000000000000000e+02 1.259900000000000000e+04
1.756000000000000000e+03 1.196900000000000000e+04
4.348000000000000000e+03 1.387900000000000000e+04
6.752000000000000000e+03 1.343500000000000000e+04
9.940000000000000000e+03 1.473100000000000000e+04
1.268500000000000000e+04 1.297500000000000000e+04
1.744200000000000000e+04 1.127000000000000000e+04
2.189200000000000000e+04 9.549000000000000000e+03
2.226600000000000000e+04 5.542000000000000000e+03
2.184100000000000000e+04 1.500000000000000000e+03
2.226600000000000000e+04 -3.325000000000000000e+03
1.940200000000000000e+04 -5.626000000000000000e+03
1.868600000000000000e+04 -6.581000000000000000e+03
1.672500000000000000e+04 -8.985000000000000000e+03
1.566800000000000000e+04 -8.457000000000000000e+03
1.355400000000000000e+04 -1.140700000000000000e+04
1.297400000000000000e+04 -1.340100000000000000e+04
8.099000000000000000e+03 -1.517400000000000000e+04
7.485000000000000000e+03 -1.485000000000000000e+04
4.757000000000000000e+03 -1.427000000000000000e+04
1.074000000000000000e+03 -1.582200000000000000e+04
-7.680000000000000000e+02 -1.415100000000000000e+04
-2.609000000000000000e+03 -1.307700000000000000e+04
-4.740000000000000000e+03 -1.178200000000000000e+04
-6.667000000000000000e+03 -9.241000000000000000e+03
-6.343000000000000000e+03 -8.320000000000000000e+03
-8.270000000000000000e+03 -5.421000000000000000e+03
-6.581000000000000000e+03 -2.251000000000000000e+03
-6.615000000000000000e+03 -6.830000000000000000e+02
-3.376000000000000000e+03 7.680000000000000000e+02
-2.727000000000000000e+03 2.217000000000000000e+03
-1.654000000000000000e+03 8.180000000000000000e+02
-9.540000000000000000e+02 3.580000000000000000e+02
1.637000000000000000e+03 7.500000000000000000e+02
3.308000000000000000e+03 -1.159000000000000000e+03
2.677000000000000000e+03 -7.840000000000000000e+02
2.625000000000000000e+03 -2.405000000000000000e+03
4.519000000000000000e+03 -2.865000000000000000e+03
5.695000000000000000e+03 -3.989000000000000000e+03
6.598000000000000000e+03 -4.330000000000000000e+03
6.223000000000000000e+03 -4.535000000000000000e+03
6.887000000000000000e+03 -1.756000000000000000e+03
6.326000000000000000e+03 -2.574000000000000000e+03
4.211000000000000000e+03 -2.149000000000000000e+03
3.171000000000000000e+03 -4.058000000000000000e+03
2.898000000000000000e+03 -5.916000000000000000e+03
2.762000000000000000e+03 -5.167000000000000000e+03
1.875000000000000000e+03 -7.484000000000000000e+03
2.063000000000000000e+03 -9.360000000000000000e+03
2.148000000000000000e+03 -9.804000000000000000e+03
-4.100000000000000000e+02 -9.923000000000000000e+03
-1.944000000000000000e+03 -1.164500000000000000e+04
-2.558000000000000000e+03 -1.217400000000000000e+04
-5.013000000000000000e+03 -1.145800000000000000e+04
-5.592000000000000000e+03 -1.011100000000000000e+04
-6.444000000000000000e+03 -8.918000000000000000e+03
-8.611000000000000000e+03 -7.655000000000000000e+03
-1.065600000000000000e+04 -7.212000000000000000e+03
-1.265100000000000000e+04 -6.786000000000000000e+03
-1.411600000000000000e+04 -4.246000000000000000e+03
-1.365600000000000000e+04 -3.120000000000000000e+03
-1.369100000000000000e+04 -4.430000000000000000e+02
-1.350400000000000000e+04 -3.920000000000000000e+02
-1.101400000000000000e+04 1.841000000000000000e+03
-8.423000000000000000e+03 3.325000000000000000e+03
-6.377000000000000000e+03 1.910000000000000000e+03
-5.404000000000000000e+03 1.994000000000000000e+03
-5.251000000000000000e+03 7.330000000000000000e+02
-3.581000000000000000e+03 6.900000000000000000e+01
-3.121000000000000000e+03 -2.029000000000000000e+03
-2.711000000000000000e+03 -3.257000000000000000e+03
-6.632000000000000000e+03 -3.529000000000000000e+03
-6.104000000000000000e+03 -4.945000000000000000e+03
-7.332000000000000000e+03 -4.058000000000000000e+03
-8.747000000000000000e+03 -4.041000000000000000e+03
-1.098000000000000000e+04 -3.444000000000000000e+03
-9.804000000000000000e+03 -1.227000000000000000e+03
-9.497000000000000000e+03 -2.080000000000000000e+03
-1.045200000000000000e+04 -1.739000000000000000e+03
-9.769000000000000000e+03 -7.670000000000000000e+02
-1.028100000000000000e+04 8.500000000000000000e+01
-1.118400000000000000e+04 -1.190000000000000000e+02
-1.362300000000000000e+04 3.580000000000000000e+02
-1.450900000000000000e+04 3.068000000000000000e+03
-1.391300000000000000e+04 4.433000000000000000e+03
-1.416800000000000000e+04 5.967000000000000000e+03
-1.289000000000000000e+04 6.632000000000000000e+03
-1.300900000000000000e+04 9.684000000000000000e+03
-1.110000000000000000e+04 1.277000000000000000e+04
-1.014400000000000000e+04 1.459400000000000000e+04
-5.899000000000000000e+03 1.469700000000000000e+04
-3.137000000000000000e+03 1.514000000000000000e+04
-1.074000000000000000e+03 1.602600000000000000e+04
1.670000000000000000e+03 1.362300000000000000e+04
3.802000000000000000e+03 1.198600000000000000e+04
4.791000000000000000e+03 1.152500000000000000e+04
3.632000000000000000e+03 1.000800000000000000e+04
4.945000000000000000e+03 9.020000000000000000e+03
4.654000000000000000e+03 7.928000000000000000e+03
4.928000000000000000e+03 7.281000000000000000e+03
5.012000000000000000e+03 6.224000000000000000e+03
5.046000000000000000e+03 5.013000000000000000e+03
3.358000000000000000e+03 5.439000000000000000e+03
4.246000000000000000e+03 4.194000000000000000e+03
3.052000000000000000e+03 3.649000000000000000e+03
1.620000000000000000e+03 2.080000000000000000e+03
1.995000000000000000e+03 2.779000000000000000e+03
1.432000000000000000e+03 1.876000000000000000e+03
6.140000000000000000e+02 1.620000000000000000e+03
-2.730000000000000000e+02 3.307000000000000000e+03
9.380000000000000000e+02 1.790000000000000000e+03
1.700000000000000000e+01 2.711000000000000000e+03
3.410000000000000000e+02 4.092000000000000000e+03
1.500000000000000000e+03 5.252000000000000000e+03
1.415000000000000000e+03 2.933000000000000000e+03
3.171000000000000000e+03 3.990000000000000000e+03
3.018000000000000000e+03 2.558000000000000000e+03
3.239000000000000000e+03 3.683000000000000000e+03
3.478000000000000000e+03 1.552000000000000000e+03
2.745000000000000000e+03 3.035000000000000000e+03
3.905000000000000000e+03 -1.700000000000000000e+02
2.575000000000000000e+03 1.466000000000000000e+03
2.882000000000000000e+03 2.438000000000000000e+03
4.246000000000000000e+03 2.182000000000000000e+03
2.302000000000000000e+03 1.944000000000000000e+03
2.831000000000000000e+03 9.890000000000000000e+02
3.905000000000000000e+03 1.057000000000000000e+03
2.932000000000000000e+03 2.813000000000000000e+03
3.580000000000000000e+03 2.557000000000000000e+03
1.995000000000000000e+03 9.720000000000000000e+02
2.728000000000000000e+03 3.070000000000000000e+02
5.081000000000000000e+03 2.949000000000000000e+03
4.689000000000000000e+03 -1.200000000000000000e+02
4.604000000000000000e+03 1.841000000000000000e+03
5.627000000000000000e+03 5.630000000000000000e+02
4.519000000000000000e+03 6.480000000000000000e+02
5.831000000000000000e+03 -3.410000000000000000e+02
6.666000000000000000e+03 6.650000000000000000e+02
6.070000000000000000e+03 -9.890000000000000000e+02
5.746000000000000000e+03 -3.750000000000000000e+02
6.240000000000000000e+03 3.240000000000000000e+02
4.382000000000000000e+03 -1.619000000000000000e+03
3.445000000000000000e+03 -1.859000000000000000e+03
3.768000000000000000e+03 -3.103000000000000000e+03
2.507000000000000000e+03 -3.648000000000000000e+03
1.757000000000000000e+03 -2.182000000000000000e+03
1.944000000000000000e+03 -1.381000000000000000e+03
1.739000000000000000e+03 -8.860000000000000000e+02
1.398000000000000000e+03 -3.400000000000000000e+01
1.585000000000000000e+03 -2.524000000000000000e+03
1.500000000000000000e+03 5.100000000000000000e+01
1.653000000000000000e+03 -3.070000000000000000e+02
4.109000000000000000e+03 -8.350000000000000000e+02
3.597000000000000000e+03 -1.091000000000000000e+03
3.307000000000000000e+03 -1.722000000000000000e+03
3.479000000000000000e+03 -2.660000000000000000e+03
2.643000000000000000e+03 -2.882000000000000000e+03
1.654000000000000000e+03 -2.984000000000000000e+03
2.506000000000000000e+03 -4.211000000000000000e+03
2.353000000000000000e+03 -3.529000000000000000e+03
3.291000000000000000e+03 -2.830000000000000000e+03
3.017000000000000000e+03 -2.438000000000000000e+03
2.387000000000000000e+03 -2.524000000000000000e+03
1.909000000000000000e+03 -3.154000000000000000e+03
2.199000000000000000e+03 -2.029000000000000000e+03
2.063000000000000000e+03 -2.404000000000000000e+03
1.227000000000000000e+03 -2.745000000000000000e+03
3.119000000000000000e+03 -2.148000000000000000e+03
2.745000000000000000e+03 -3.887000000000000000e+03
1.637000000000000000e+03 -3.700000000000000000e+03
2.814000000000000000e+03 -3.990000000000000000e+03
1.909000000000000000e+03 -2.523000000000000000e+03
1.313000000000000000e+03 -4.297000000000000000e+03
1.244000000000000000e+03 -3.189000000000000000e+03
1.211000000000000000e+03 -3.512000000000000000e+03
4.416000000000000000e+03 -4.160000000000000000e+03
2.199000000000000000e+03 -3.086000000000000000e+03
1.534000000000000000e+03 -4.825000000000000000e+03
9.880000000000000000e+02 -4.467000000000000000e+03
2.250000000000000000e+03 -4.382000000000000000e+03
6.310000000000000000e+02 -4.484000000000000000e+03
2.353000000000000000e+03 -3.069000000000000000e+03
1.415000000000000000e+03 -2.796000000000000000e+03
1.006000000000000000e+03 -5.132000000000000000e+03
1.190000000000000000e+02 -3.137000000000000000e+03
1.330000000000000000e+03 -3.155000000000000000e+03
9.040000000000000000e+02 -3.256000000000000000e+03
1.449000000000000000e+03 -9.380000000000000000e+02
6.300000000000000000e+02 -2.216000000000000000e+03
1.688000000000000000e+03 -2.745000000000000000e+03
3.444000000000000000e+03 -4.143000000000000000e+03
1.603000000000000000e+03 -3.427000000000000000e+03
1.449000000000000000e+03 -5.183000000000000000e+03
2.506000000000000000e+03 -4.314000000000000000e+03
1.279000000000000000e+03 -3.768000000000000000e+03
9.210000000000000000e+02 -3.478000000000000000e+03
1.700000000000000000e+02 -4.245000000000000000e+03
-4.260000000000000000e+02 -2.625000000000000000e+03
-3.750000000000000000e+02 -1.551000000000000000e+03
-1.807000000000000000e+03 -2.063000000000000000e+03
-1.449000000000000000e+03 -3.308000000000000000e+03
-3.580000000000000000e+02 -2.318000000000000000e+03
3.069000000000000000e+03 -3.785000000000000000e+03
3.700000000000000000e+03 -4.944000000000000000e+03
5.013000000000000000e+03 -4.416000000000000000e+03
3.239000000000000000e+03 -4.996000000000000000e+03
3.649000000000000000e+03 -3.155000000000000000e+03
2.745000000000000000e+03 -3.530000000000000000e+03
3.035000000000000000e+03 -2.063000000000000000e+03
2.455000000000000000e+03 -2.080000000000000000e+03
6.470000000000000000e+02 -3.290000000000000000e+03
-5.460000000000000000e+02 -1.773000000000000000e+03
-5.120000000000000000e+02 6.900000000000000000e+01
-9.040000000000000000e+02 -2.148000000000000000e+03
-2.132000000000000000e+03 -5.280000000000000000e+02
-2.302000000000000000e+03 -0.000000000000000000e+00
-2.318000000000000000e+03 1.360000000000000000e+02
-3.052000000000000000e+03 8.700000000000000000e+02
-4.126000000000000000e+03 6.820000000000000000e+02
-3.426000000000000000e+03 -1.700000000000000000e+01
-3.784000000000000000e+03 -2.550000000000000000e+02
-5.080000000000000000e+03 -3.750000000000000000e+02
-5.200000000000000000e+03 5.280000000000000000e+02
-4.501000000000000000e+03 -3.001000000000000000e+03
-6.274000000000000000e+03 4.600000000000000000e+02
-4.280000000000000000e+03 -6.480000000000000000e+02
-4.245000000000000000e+03 3.240000000000000000e+02
-4.825000000000000000e+03 -1.262000000000000000e+03
-4.110000000000000000e+03 -6.650000000000000000e+02
-4.416000000000000000e+03 -3.920000000000000000e+02
-4.774000000000000000e+03 -1.023000000000000000e+03
-3.631000000000000000e+03 -1.295000000000000000e+03
-2.438000000000000000e+03 -4.780000000000000000e+02
-2.319000000000000000e+03 1.364000000000000000e+03
-2.831000000000000000e+03 3.920000000000000000e+02
-5.098000000000000000e+03 -6.480000000000000000e+02
-2.933000000000000000e+03 -8.180000000000000000e+02
-4.603000000000000000e+03 4.770000000000000000e+02
-3.717000000000000000e+03 1.057000000000000000e+03
-4.023000000000000000e+03 5.200000000000000000e+01
-4.876000000000000000e+03 4.090000000000000000e+02
-4.791000000000000000e+03 -7.160000000000000000e+02
-3.359000000000000000e+03 1.030000000000000000e+02
-4.365000000000000000e+03 8.530000000000000000e+02
-4.945000000000000000e+03 7.840000000000000000e+02
-3.922000000000000000e+03 -1.360000000000000000e+02
-5.626000000000000000e+03 7.670000000000000000e+02
-4.859000000000000000e+03 3.018000000000000000e+03
-4.398000000000000000e+03 1.807000000000000000e+03
-4.143000000000000000e+03 1.602000000000000000e+03
-5.491000000000000000e+03 1.381000000000000000e+03
-4.109000000000000000e+03 1.381000000000000000e+03
-5.337000000000000000e+03 3.682000000000000000e+03
-6.581000000000000000e+03 1.176000000000000000e+03
-6.138000000000000000e+03 2.029000000000000000e+03
-4.809000000000000000e+03 3.291000000000000000e+03
-4.740000000000000000e+03 3.615000000000000000e+03
-5.524000000000000000e+03 2.949000000000000000e+03
-4.365000000000000000e+03 4.229000000000000000e+03
-3.734000000000000000e+03 4.399000000000000000e+03
-4.996000000000000000e+03 3.853000000000000000e+03
-3.512000000000000000e+03 4.023000000000000000e+03
-2.591000000000000000e+03 5.115000000000000000e+03
-1.875000000000000000e+03 6.173000000000000000e+03
-1.278000000000000000e+03 7.553000000000000000e+03
-8.870000000000000000e+02 5.541000000000000000e+03
5.120000000000000000e+02 7.808000000000000000e+03
2.900000000000000000e+02 8.730000000000000000e+03
1.193000000000000000e+03 7.724000000000000000e+03
2.984000000000000000e+03 7.570000000000000000e+03
4.331000000000000000e+03 9.753000000000000000e+03
5.865000000000000000e+03 8.355000000000000000e+03
6.666000000000000000e+03 6.462000000000000000e+03
8.679000000000000000e+03 7.894000000000000000e+03
9.718000000000000000e+03 5.627000000000000000e+03
9.940000000000000000e+03 6.052000000000000000e+03
1.082600000000000000e+04 4.296000000000000000e+03
9.821000000000000000e+03 2.831000000000000000e+03
8.678000000000000000e+03 1.074000000000000000e+03
8.132000000000000000e+03 2.694000000000000000e+03
7.194000000000000000e+03 -6.800000000000000000e+01
5.540000000000000000e+03 8.010000000000000000e+02
6.001000000000000000e+03 5.290000000000000000e+02
4.535000000000000000e+03 -1.143000000000000000e+03
4.689000000000000000e+03 -2.797000000000000000e+03
5.933000000000000000e+03 -1.569000000000000000e+03
6.052000000000000000e+03 -1.671000000000000000e+03
7.161000000000000000e+03 -2.438000000000000000e+03
9.599000000000000000e+03 -2.012000000000000000e+03
1.312800000000000000e+04 -2.251000000000000000e+03
1.851600000000000000e+04 -6.513000000000000000e+03
9.325000000000000000e+03 -1.984500000000000000e+04
1.995000000000000000e+03 -2.028900000000000000e+04
-2.574000000000000000e+03 -1.660600000000000000e+04
-8.644000000000000000e+03 -1.220800000000000000e+04
-9.445000000000000000e+03 -6.462000000000000000e+03
-1.089500000000000000e+04 3.239000000000000000e+03
-4.790000000000000000e+03 -8.500000000000000000e+01
-3.137000000000000000e+03 2.210000000000000000e+02
-2.710000000000000000e+03 2.900000000000000000e+02
-2.199000000000000000e+03 -8.870000000000000000e+02
-9.210000000000000000e+02 3.240000000000000000e+02
5.960000000000000000e+02 -2.455000000000000000e+03
-1.738000000000000000e+03 1.700000000000000000e+01
-2.404000000000000000e+03 3.750000000000000000e+02
-1.370000000000000000e+02 -1.159000000000000000e+03
1.710000000000000000e+02 -1.534000000000000000e+03
-9.370000000000000000e+02 -8.180000000000000000e+02
-1.893000000000000000e+03 -1.858000000000000000e+03
-1.700000000000000000e+01 3.400000000000000000e+01
-2.420000000000000000e+03 -1.245000000000000000e+03
-9.370000000000000000e+02 -2.182000000000000000e+03
-1.313000000000000000e+03 -3.070000000000000000e+02
-1.722000000000000000e+03 -2.050000000000000000e+02
-3.837000000000000000e+03 -1.074000000000000000e+03
-1.262000000000000000e+03 -2.560000000000000000e+02
-1.602000000000000000e+03 -1.006000000000000000e+03
-8.360000000000000000e+02 2.390000000000000000e+02
-9.210000000000000000e+02 5.450000000000000000e+02
-8.870000000000000000e+02 1.364000000000000000e+03
0.000000000000000000e+00 -1.671000000000000000e+03
2.730000000000000000e+02 8.360000000000000000e+02
-1.091000000000000000e+03 -1.159000000000000000e+03
-1.586000000000000000e+03 -1.943000000000000000e+03
2.220000000000000000e+02 -5.450000000000000000e+02
6.140000000000000000e+02 1.040000000000000000e+03
-1.159000000000000000e+03 -3.240000000000000000e+02
3.400000000000000000e+01 -5.100000000000000000e+01
-1.482000000000000000e+03 -7.330000000000000000e+02
2.730000000000000000e+02 -3.580000000000000000e+02
-1.926000000000000000e+03 -7.680000000000000000e+02
-8.180000000000000000e+02 6.310000000000000000e+02
-1.875000000000000000e+03 -6.310000000000000000e+02
-1.500000000000000000e+03 -1.296000000000000000e+03
-1.125000000000000000e+03 -4.260000000000000000e+02
-1.978000000000000000e+03 -1.824000000000000000e+03
-1.313000000000000000e+03 -1.364000000000000000e+03
-1.108000000000000000e+03 -1.381000000000000000e+03
-8.700000000000000000e+02 -9.040000000000000000e+02
-8.010000000000000000e+02 -2.720000000000000000e+02
-1.774000000000000000e+03 -6.820000000000000000e+02
-2.575000000000000000e+03 -1.995000000000000000e+03
-2.949000000000000000e+03 -9.890000000000000000e+02
-1.586000000000000000e+03 -7.000000000000000000e+02
-2.352000000000000000e+03 -6.470000000000000000e+02
-3.240000000000000000e+03 2.730000000000000000e+02
-2.404000000000000000e+03 1.040000000000000000e+03
-2.506000000000000000e+03 7.500000000000000000e+02
-1.620000000000000000e+03 1.671000000000000000e+03
-5.450000000000000000e+02 1.484000000000000000e+03
-5.290000000000000000e+02 6.990000000000000000e+02
5.450000000000000000e+02 7.850000000000000000e+02
8.360000000000000000e+02 9.030000000000000000e+02
3.750000000000000000e+02 2.730000000000000000e+02
6.820000000000000000e+02 3.070000000000000000e+02
5.110000000000000000e+02 -6.650000000000000000e+02
-1.020000000000000000e+02 -4.600000000000000000e+02
-5.800000000000000000e+02 2.900000000000000000e+02
-1.841000000000000000e+03 1.091000000000000000e+03
-1.739000000000000000e+03 -4.770000000000000000e+02
1.092000000000000000e+03 -7.840000000000000000e+02
1.006000000000000000e+03 1.370000000000000000e+02
-2.268000000000000000e+03 -2.730000000000000000e+02
-1.960000000000000000e+03 -3.240000000000000000e+02
-1.006000000000000000e+03 -4.090000000000000000e+02
-1.739000000000000000e+03 8.700000000000000000e+02
-1.807000000000000000e+03 3.410000000000000000e+02
7.160000000000000000e+02 2.720000000000000000e+02
-1.381000000000000000e+03 8.010000000000000000e+02
-2.369000000000000000e+03 -6.480000000000000000e+02
-4.260000000000000000e+02 4.260000000000000000e+02
-2.040000000000000000e+02 1.159000000000000000e+03
-2.390000000000000000e+02 2.040000000000000000e+02
-4.430000000000000000e+02 1.620000000000000000e+03
-1.279000000000000000e+03 -2.900000000000000000e+02
-2.779000000000000000e+03 -1.791000000000000000e+03
-1.108000000000000000e+03 4.090000000000000000e+02
-1.227000000000000000e+03 -1.142000000000000000e+03
-3.400000000000000000e+01 3.750000000000000000e+02
-2.437000000000000000e+03 9.540000000000000000e+02
-2.080000000000000000e+03 2.380000000000000000e+02
-1.960000000000000000e+03 1.700000000000000000e+01
-2.200000000000000000e+03 -1.200000000000000000e+02
-2.506000000000000000e+03 -5.630000000000000000e+02
-2.659000000000000000e+03 1.210000000000000000e+03
-1.381000000000000000e+03 1.143000000000000000e+03
-2.608000000000000000e+03 -1.710000000000000000e+02
-3.307000000000000000e+03 -2.900000000000000000e+02
-1.926000000000000000e+03 9.040000000000000000e+02
-4.211000000000000000e+03 1.329000000000000000e+03
-2.830000000000000000e+03 1.808000000000000000e+03
-3.426000000000000000e+03 3.018000000000000000e+03
-4.552000000000000000e+03 3.000000000000000000e+03
-4.825000000000000000e+03 4.808000000000000000e+03
-5.404000000000000000e+03 5.950000000000000000e+03
-1.841000000000000000e+03 6.223000000000000000e+03
-1.360000000000000000e+02 6.137000000000000000e+03
5.790000000000000000e+02 7.126000000000000000e+03
8.700000000000000000e+02 5.643000000000000000e+03
1.892000000000000000e+03 3.410000000000000000e+03
4.365000000000000000e+03 7.670000000000000000e+02
3.479000000000000000e+03 1.586000000000000000e+03
2.081000000000000000e+03 1.994000000000000000e+03
2.165000000000000000e+03 1.722000000000000000e+03
3.870000000000000000e+03 -5.290000000000000000e+02
4.610000000000000000e+02 2.199000000000000000e+03
1.773000000000000000e+03 -1.006000000000000000e+03
6.990000000000000000e+02 1.360000000000000000e+02
1.773000000000000000e+03 1.020000000000000000e+02
2.267000000000000000e+03 -1.530000000000000000e+02
9.890000000000000000e+02 1.193000000000000000e+03
1.261000000000000000e+03 -5.630000000000000000e+02
4.940000000000000000e+02 -2.390000000000000000e+02
-5.460000000000000000e+02 8.500000000000000000e+01
1.125000000000000000e+03 -3.930000000000000000e+02
1.108000000000000000e+03 -0.000000000000000000e+00
1.227000000000000000e+03 2.560000000000000000e+02
1.227000000000000000e+03 -1.006000000000000000e+03
-2.550000000000000000e+02 1.540000000000000000e+02
6.820000000000000000e+02 9.040000000000000000e+02
-5.630000000000000000e+02 1.500000000000000000e+03
-1.020000000000000000e+02 -3.400000000000000000e+01
-1.530000000000000000e+02 6.310000000000000000e+02
3.060000000000000000e+02 5.280000000000000000e+02
-5.960000000000000000e+02 9.380000000000000000e+02
-5.120000000000000000e+02 2.210000000000000000e+02
1.360000000000000000e+02 2.183000000000000000e+03
8.010000000000000000e+02 1.637000000000000000e+03
-2.720000000000000000e+02 7.670000000000000000e+02
-1.091000000000000000e+03 5.620000000000000000e+02
2.730000000000000000e+02 1.193000000000000000e+03
3.920000000000000000e+02 2.421000000000000000e+03
4.430000000000000000e+02 3.052000000000000000e+03
1.841000000000000000e+03 5.630000000000000000e+02
-2.210000000000000000e+02 2.012000000000000000e+03
1.540000000000000000e+02 1.994000000000000000e+03
-1.190000000000000000e+02 1.671000000000000000e+03
9.370000000000000000e+02 1.329000000000000000e+03
1.790000000000000000e+03 -2.050000000000000000e+02
8.520000000000000000e+02 1.330000000000000000e+03
-1.313000000000000000e+03 3.400000000000000000e+01
9.210000000000000000e+02 1.262000000000000000e+03
6.650000000000000000e+02 -1.466000000000000000e+03
-1.364000000000000000e+03 1.880000000000000000e+02
3.060000000000000000e+02 -1.261000000000000000e+03
-1.449000000000000000e+03 -6.820000000000000000e+02
0.000000000000000000e+00 -1.091000000000000000e+03
3.750000000000000000e+02 -5.110000000000000000e+02
-1.040000000000000000e+03 -3.410000000000000000e+02
5.290000000000000000e+02 2.390000000000000000e+02
-3.240000000000000000e+02 1.880000000000000000e+02
-4.090000000000000000e+02 -4.430000000000000000e+02
-5.100000000000000000e+01 3.410000000000000000e+02
-1.279000000000000000e+03 5.200000000000000000e+01
-1.880000000000000000e+02 5.110000000000000000e+02
-2.560000000000000000e+02 -6.310000000000000000e+02
-6.140000000000000000e+02 -1.700000000000000000e+01
-1.978000000000000000e+03 -6.990000000000000000e+02
-1.040000000000000000e+03 4.610000000000000000e+02
-1.040000000000000000e+03 1.370000000000000000e+02
1.005000000000000000e+03 3.240000000000000000e+02
-2.900000000000000000e+02 7.850000000000000000e+02
0.000000000000000000e+00 -5.290000000000000000e+02
-2.890000000000000000e+02 1.330000000000000000e+03
-9.890000000000000000e+02 1.603000000000000000e+03
-1.710000000000000000e+02 7.340000000000000000e+02
-1.500000000000000000e+03 -1.190000000000000000e+02
-3.230000000000000000e+02 1.671000000000000000e+03
2.720000000000000000e+02 1.030000000000000000e+02
-7.840000000000000000e+02 3.750000000000000000e+02
2.012000000000000000e+03 7.680000000000000000e+02
1.295000000000000000e+03 6.310000000000000000e+02
1.398000000000000000e+03 -4.090000000000000000e+02
2.011000000000000000e+03 -2.390000000000000000e+02
2.966000000000000000e+03 4.610000000000000000e+02
1.449000000000000000e+03 -4.780000000000000000e+02
2.984000000000000000e+03 -1.586000000000000000e+03
1.943000000000000000e+03 -1.875000000000000000e+03
5.960000000000000000e+02 -4.228000000000000000e+03
1.091000000000000000e+03 -2.881000000000000000e+03
1.023000000000000000e+03 -2.626000000000000000e+03
2.420000000000000000e+03 -1.244000000000000000e+03
1.108000000000000000e+03 -2.728000000000000000e+03
1.789000000000000000e+03 -2.592000000000000000e+03
1.313000000000000000e+03 -2.507000000000000000e+03
2.115000000000000000e+03 -2.421000000000000000e+03
3.001000000000000000e+03 -2.506000000000000000e+03
3.154000000000000000e+03 -1.518000000000000000e+03
4.211000000000000000e+03 4.090000000000000000e+02
6.036000000000000000e+03 -1.296000000000000000e+03
6.394000000000000000e+03 1.108000000000000000e+03
6.257000000000000000e+03 1.756000000000000000e+03
5.763000000000000000e+03 1.841000000000000000e+03
5.150000000000000000e+03 3.376000000000000000e+03
5.098000000000000000e+03 4.365000000000000000e+03
3.614000000000000000e+03 5.933000000000000000e+03
1.739000000000000000e+03 5.012000000000000000e+03
-8.500000000000000000e+01 2.916000000000000000e+03
-3.854000000000000000e+03 3.802000000000000000e+03
-2.848000000000000000e+03 3.444000000000000000e+03
-2.848000000000000000e+03 5.132000000000000000e+03
-4.313000000000000000e+03 3.955000000000000000e+03
-5.695000000000000000e+03 2.728000000000000000e+03
-5.610000000000000000e+03 4.041000000000000000e+03
-6.394000000000000000e+03 3.819000000000000000e+03
-3.393000000000000000e+03 3.768000000000000000e+03
-3.938000000000000000e+03 5.234000000000000000e+03
-3.734000000000000000e+03 4.450000000000000000e+03
-1.688000000000000000e+03 3.495000000000000000e+03
-1.910000000000000000e+03 2.098000000000000000e+03
-2.380000000000000000e+02 3.836000000000000000e+03
4.090000000000000000e+02 3.614000000000000000e+03
2.745000000000000000e+03 4.296000000000000000e+03
2.745000000000000000e+03 3.256000000000000000e+03
2.319000000000000000e+03 2.966000000000000000e+03
4.739000000000000000e+03 9.720000000000000000e+02
3.597000000000000000e+03 1.944000000000000000e+03
5.047000000000000000e+03 2.050000000000000000e+02
5.149000000000000000e+03 -6.990000000000000000e+02
3.614000000000000000e+03 -1.211000000000000000e+03
2.523000000000000000e+03 -9.710000000000000000e+02
2.220000000000000000e+02 -2.063000000000000000e+03
-5.790000000000000000e+02 -2.199000000000000000e+03
-1.227000000000000000e+03 -7.510000000000000000e+02
8.180000000000000000e+02 6.990000000000000000e+02
-1.193000000000000000e+03 3.240000000000000000e+02
-2.097000000000000000e+03 -9.380000000000000000e+02
-1.773000000000000000e+03 2.390000000000000000e+02
-6.800000000000000000e+01 -8.020000000000000000e+02
-1.602000000000000000e+03 -6.800000000000000000e+01
-1.176000000000000000e+03 -8.690000000000000000e+02
3.580000000000000000e+02 5.450000000000000000e+02
-1.030000000000000000e+02 -1.039000000000000000e+03
1.295000000000000000e+03 -8.690000000000000000e+02
6.800000000000000000e+01 8.530000000000000000e+02
-2.900000000000000000e+02 -1.262000000000000000e+03
3.920000000000000000e+02 -2.149000000000000000e+03
1.364000000000000000e+03 -1.842000000000000000e+03
-8.350000000000000000e+02 -2.609000000000000000e+03
3.400000000000000000e+01 -3.410000000000000000e+02
1.006000000000000000e+03 -1.807000000000000000e+03
-9.370000000000000000e+02 -1.500000000000000000e+03
1.530000000000000000e+02 -1.722000000000000000e+03
8.180000000000000000e+02 -2.541000000000000000e+03
-2.050000000000000000e+02 -1.296000000000000000e+03
-5.290000000000000000e+02 -1.739000000000000000e+03
-1.500000000000000000e+03 -1.552000000000000000e+03
-1.020000000000000000e+02 -1.995000000000000000e+03
-4.610000000000000000e+02 -1.194000000000000000e+03
-8.190000000000000000e+02 -8.190000000000000000e+02
-1.602000000000000000e+03 -1.824000000000000000e+03
-1.142000000000000000e+03 -1.279000000000000000e+03
-2.234000000000000000e+03 -2.080000000000000000e+03
-1.006000000000000000e+03 -1.125000000000000000e+03
-1.227000000000000000e+03 -2.472000000000000000e+03
-1.977000000000000000e+03 -9.720000000000000000e+02
-1.364000000000000000e+03 -1.279000000000000000e+03
-2.063000000000000000e+03 2.900000000000000000e+02
-2.523000000000000000e+03 -3.060000000000000000e+02
-1.074000000000000000e+03 1.501000000000000000e+03
-1.825000000000000000e+03 2.040000000000000000e+02
-1.020000000000000000e+02 7.840000000000000000e+02
-1.020000000000000000e+02 1.700000000000000000e+02
-1.706000000000000000e+03 -3.750000000000000000e+02
-1.910000000000000000e+03 1.190000000000000000e+02
-1.995000000000000000e+03 -1.977000000000000000e+03
-3.785000000000000000e+03 -9.720000000000000000e+02
-2.711000000000000000e+03 -1.432000000000000000e+03
-3.308000000000000000e+03 -1.176000000000000000e+03
-2.148000000000000000e+03 -2.540000000000000000e+03
-3.137000000000000000e+03 -2.268000000000000000e+03
-2.421000000000000000e+03 -2.472000000000000000e+03
-2.779000000000000000e+03 -3.837000000000000000e+03
-1.671000000000000000e+03 -3.938000000000000000e+03
-3.920000000000000000e+02 -3.189000000000000000e+03
-2.677000000000000000e+03 -2.490000000000000000e+03
-6.480000000000000000e+02 -3.103000000000000000e+03
-1.602000000000000000e+03 -3.580000000000000000e+03
8.500000000000000000e+01 -2.950000000000000000e+03
-6.800000000000000000e+01 -3.256000000000000000e+03
1.091000000000000000e+03 -3.137000000000000000e+03
1.312000000000000000e+03 -3.495000000000000000e+03
1.994000000000000000e+03 -2.507000000000000000e+03
2.933000000000000000e+03 -3.205000000000000000e+03
2.063000000000000000e+03 -3.939000000000000000e+03
2.336000000000000000e+03 -2.523000000000000000e+03
2.438000000000000000e+03 -2.063000000000000000e+03
1.415000000000000000e+03 -2.318000000000000000e+03
3.240000000000000000e+02 -1.552000000000000000e+03
2.439000000000000000e+03 -8.530000000000000000e+02
-3.920000000000000000e+02 5.120000000000000000e+02
1.710000000000000000e+02 -4.090000000000000000e+02
-2.148000000000000000e+03 3.750000000000000000e+02
-2.643000000000000000e+03 1.074000000000000000e+03
-2.028000000000000000e+03 5.800000000000000000e+02
-2.762000000000000000e+03 -5.970000000000000000e+02
-2.268000000000000000e+03 7.160000000000000000e+02
-3.699000000000000000e+03 1.211000000000000000e+03
-8.180000000000000000e+02 9.550000000000000000e+02
-2.591000000000000000e+03 -1.671000000000000000e+03
-2.233000000000000000e+03 -3.400000000000000000e+01
-1.722000000000000000e+03 1.484000000000000000e+03
-1.893000000000000000e+03 -1.700000000000000000e+02
-4.770000000000000000e+02 5.450000000000000000e+02
-1.688000000000000000e+03 -2.848000000000000000e+03
-2.405000000000000000e+03 -7.500000000000000000e+02
-2.830000000000000000e+03 -3.070000000000000000e+02
-2.267000000000000000e+03 -3.410000000000000000e+02
-1.551000000000000000e+03 -4.430000000000000000e+02
-5.620000000000000000e+02 -2.370000000000000000e+03
-2.745000000000000000e+03 -1.688000000000000000e+03
-7.840000000000000000e+02 -9.550000000000000000e+02
-3.598000000000000000e+03 -2.353000000000000000e+03
-1.722000000000000000e+03 -1.190000000000000000e+02
-1.262000000000000000e+03 -1.159000000000000000e+03
-1.108000000000000000e+03 -9.380000000000000000e+02
-1.330000000000000000e+03 -1.880000000000000000e+02
-1.534000000000000000e+03 -6.480000000000000000e+02
-8.700000000000000000e+02 2.380000000000000000e+02
2.220000000000000000e+02 -4.090000000000000000e+02
-7.500000000000000000e+02 -6.480000000000000000e+02
-1.995000000000000000e+03 -4.770000000000000000e+02
-4.260000000000000000e+02 9.540000000000000000e+02
-1.020000000000000000e+02 -5.100000000000000000e+01
-1.637000000000000000e+03 9.040000000000000000e+02
-6.800000000000000000e+01 8.860000000000000000e+02
-1.040000000000000000e+03 -5.290000000000000000e+02
-5.100000000000000000e+01 2.063000000000000000e+03
0.000000000000000000e+00 2.390000000000000000e+02
6.800000000000000000e+01 1.193000000000000000e+03
-2.380000000000000000e+02 -3.400000000000000000e+01
-5.280000000000000000e+02 1.880000000000000000e+02
-2.220000000000000000e+02 4.270000000000000000e+02
